1 0.12864583333333332 0.6231481481481481 0.05572916666666667 0.075
1 0.3104166666666667 0.8546296296296296 0.06145833333333333 0.0962962962962963
1 0.3453125 0.7398148148148148 0.058854166666666666 0.08425925925925926
1 0.4276041666666667 0.7111111111111111 0.044270833333333336 0.0787037037037037
1 0.47552083333333334 0.7685185185185185 0.04791666666666667 0.09444444444444444
1 0.5385416666666667 0.7685185185185185 0.0453125 0.08796296296296297
1 0.6072916666666667 0.7435185185185185 0.040625 0.08425925925925926
1 0.6135416666666667 0.549074074074074 0.028125 0.05092592592592592
1 0.6208333333333333 0.4648148148148148 0.0265625 0.03796296296296296
1 0.54375 0.6833333333333333 0.0359375 0.07685185185185185
1 0.5671875 0.6203703703703703 0.03125 0.05555555555555555
1 0.5645833333333333 0.562037037037037 0.030729166666666665 0.046296296296296294
1 0.49583333333333335 0.6592592592592592 0.03958333333333333 0.0712962962962963
1 0.5125 0.600925925925926 0.035416666666666666 0.05
1 0.4083333333333333 0.6037037037037037 0.03854166666666667 0.06666666666666667
1 0.459375 0.6083333333333333 0.0359375 0.05555555555555555
1 0.4796875 0.549074074074074 0.03177083333333333 0.04537037037037037
1 0.44583333333333336 0.5092592592592593 0.03177083333333333 0.044444444444444446
1 0.4395833333333333 0.45555555555555555 0.025 0.03425925925925926
0 0.5052083333333334 0.3574074074074074 0.009375 0.021296296296296296
1 0.5052083333333334 0.3638888888888889 0.016145833333333335 0.019444444444444445
1 0.3494791666666667 0.9407407407407408 0.07083333333333333 0.1175925925925926
1 0.25833333333333336 0.9537037037037037 0.07291666666666667 0.09259259259259259
1 0.4354166666666667 0.9527777777777777 0.06197916666666667 0.09259259259259259
1 0.5130208333333334 0.95 0.06458333333333334 0.09907407407407408
1 0.020833333333333332 0.8453703703703703 0.041666666666666664 0.10555555555555556
0 0.1328125 0.4324074074074074 0.008854166666666666 0.024074074074074074
0 0.13385416666666666 0.4361111111111111 0.0067708333333333336 0.021296296296296296
1 0.13333333333333333 0.4388888888888889 0.018229166666666668 0.017592592592592594
1 0.0625 0.42685185185185187 0.043229166666666666 0.030555555555555555
1 0.058854166666666666 0.4074074074074074 0.04739583333333333 0.028703703703703703
1 0.0796875 0.4 0.046875 0.03333333333333333
1 0.10364583333333334 0.3907407407407407 0.041666666666666664 0.026851851851851852
1 0.21875 0.3351851851851852 0.030208333333333334 0.022222222222222223
0 0.2947916666666667 0.4842592592592593 0.0109375 0.032407407407407406
0 0.328125 0.4824074074074074 0.0109375 0.03148148148148148
1 0.028125 0.4046296296296296 0.03697916666666667 0.028703703703703703
1 0.04739583333333333 0.3962962962962963 0.0328125 0.027777777777777776
1 0.013020833333333334 0.42777777777777776 0.0265625 0.03425925925925926
1 0.0109375 0.41388888888888886 0.022395833333333334 0.03148148148148148
0 0.64375 0.4925925925925926 0.009375 0.032407407407407406
1 0.6447916666666667 0.49907407407407406 0.0125 0.025
1 0.878125 0.3768518518518518 0.043229166666666666 0.028703703703703703
