0 0.15661764705882353 0.3464052287581699 0.0058823529411764705 0.027450980392156862
0 0.14338235294117646 0.3542483660130719 0.0058823529411764705 0.01437908496732026
0 0.14044117647058824 0.39869281045751637 0.004411764705882353 0.018300653594771243
0 0.058823529411764705 0.41045751633986927 0.0058823529411764705 0.027450980392156862
0 0.030147058823529412 0.44313725490196076 0.011029411764705883 0.032679738562091505
0 0.011764705882352941 0.49673202614379086 0.006617647058823529 0.023529411764705882
1 0.013970588235294118 0.5764705882352941 0.028676470588235293 0.032679738562091505
0 0.24191176470588235 0.4562091503267974 0.005147058823529412 0.022222222222222223
0 0.2875 0.5189542483660131 0.008088235294117648 0.043137254901960784
0 0.4727941176470588 0.2196078431372549 0.003676470588235294 0.018300653594771243
0 0.47058823529411764 0.2222222222222222 0.003676470588235294 0.02091503267973856
0 0.725735294117647 0.9294117647058824 0.01764705882352941 0.040522875816993466
0 0.7838235294117647 0.9490196078431372 0.01838235294117647 0.0718954248366013
1 0.7463235294117647 0.9686274509803922 0.04338235294117647 0.06013071895424837
1 0.7625 0.8627450980392157 0.030882352941176472 0.09542483660130718
1 0.861764705882353 0.7725490196078432 0.04485294117647059 0.1503267973856209
0 0.8316176470588236 0.7294117647058823 0.006617647058823529 0.043137254901960784
0 0.8220588235294117 0.7189542483660131 0.011029411764705883 0.058823529411764705
0 0.8088235294117647 0.7581699346405228 0.016911764705882352 0.048366013071895426
1 0.8088235294117647 0.7803921568627451 0.010294117647058823 0.043137254901960784
0 0.7507352941176471 0.7594771241830065 0.0125 0.05359477124183006
0 0.7639705882352941 0.7176470588235294 0.011029411764705883 0.05620915032679739
0 0.7727941176470589 0.7281045751633987 0.0058823529411764705 0.032679738562091505
0 0.6683823529411764 0.7633986928104575 0.011764705882352941 0.06013071895424837
0 0.7066176470588236 0.6875816993464052 0.007352941176470588 0.05359477124183006
1 0.6823529411764706 0.7045751633986929 0.047058823529411764 0.13986928104575164
0 0.8691176470588236 0.6718954248366014 0.011764705882352941 0.026143790849673203
0 0.8044117647058824 0.6392156862745098 0.006617647058823529 0.043137254901960784
0 0.7955882352941176 0.6405228758169934 0.009558823529411765 0.04967320261437908
0 0.7794117647058824 0.6313725490196078 0.011029411764705883 0.05359477124183006
0 0.7691176470588236 0.6366013071895424 0.008823529411764706 0.04967320261437908
1 0.7948529411764705 0.6457516339869281 0.026470588235294117 0.03790849673202614
1 0.7654411764705882 0.6418300653594772 0.008088235294117648 0.036601307189542485
0 0.7352941176470589 0.6496732026143791 0.009558823529411765 0.050980392156862744
0 0.8544117647058823 0.5725490196078431 0.008088235294117648 0.027450980392156862
0 0.7205882352941176 0.5947712418300654 0.006617647058823529 0.044444444444444446
0 0.7066176470588236 0.6 0.005147058823529412 0.044444444444444446
0 0.7095588235294118 0.6065359477124183 0.013235294117647059 0.05359477124183006
1 0.6830882352941177 0.6026143790849673 0.04338235294117647 0.09281045751633987
0 0.8213235294117647 0.5398692810457516 0.008088235294117648 0.03137254901960784
1 0.8205882352941176 0.5542483660130719 0.011029411764705883 0.0392156862745098
1 0.8522058823529411 0.5477124183006536 0.025735294117647058 0.054901960784313725
0 0.6889705882352941 0.530718954248366 0.009558823529411765 0.04183006535947712
0 0.8448529411764706 0.48104575163398694 0.013235294117647059 0.030065359477124184
0 0.7830882352941176 0.4797385620915033 0.008823529411764706 0.03529411764705882
0 0.7602941176470588 0.47058823529411764 0.006617647058823529 0.040522875816993466
0 0.7669117647058824 0.4745098039215686 0.008088235294117648 0.032679738562091505
1 0.7720588235294118 0.4888888888888889 0.008088235294117648 0.03137254901960784
0 0.7448529411764706 0.526797385620915 0.008088235294117648 0.027450980392156862
1 0.7272058823529411 0.5241830065359477 0.022058823529411766 0.06928104575163399
1 0.7323529411764705 0.48366013071895425 0.019852941176470587 0.04967320261437908
1 0.7213235294117647 0.4522875816993464 0.026470588235294117 0.050980392156862744
0 0.7492647058823529 0.47058823529411764 0.0058823529411764705 0.03790849673202614
0 0.8426470588235294 0.4470588235294118 0.0058823529411764705 0.03529411764705882
1 0.8036764705882353 0.39869281045751637 0.02426470588235294 0.0392156862745098
0 0.775 0.39738562091503266 0.008088235294117648 0.030065359477124184
0 0.7661764705882353 0.396078431372549 0.003676470588235294 0.030065359477124184
0 0.7095588235294118 0.3660130718954248 0.008088235294117648 0.0196078431372549
0 0.7205882352941176 0.36470588235294116 0.004411764705882353 0.022222222222222223
0 0.6860294117647059 0.3215686274509804 0.005147058823529412 0.023529411764705882
0 0.7073529411764706 0.30718954248366015 0.007352941176470588 0.02091503267973856
1 0.7058823529411765 0.3137254901960784 0.014705882352941176 0.01699346405228758
0 0.7477941176470588 0.3215686274509804 0.005147058823529412 0.02483660130718954
0 0.7330882352941176 0.3843137254901961 0.006617647058823529 0.03137254901960784
0 0.7389705882352942 0.3895424836601307 0.006617647058823529 0.032679738562091505
0 0.7617647058823529 0.3934640522875817 0.004411764705882353 0.03398692810457516
1 0.7522058823529412 0.403921568627451 0.01838235294117647 0.040522875816993466
0 0.7860294117647059 0.3633986928104575 0.005147058823529412 0.03137254901960784
1 0.7845588235294118 0.3660130718954248 0.014705882352941176 0.02483660130718954
0 0.8220588235294117 0.38300653594771245 0.004411764705882353 0.02875816993464052
0 0.8198529411764706 0.36993464052287583 0.003676470588235294 0.02483660130718954
0 0.825 0.36993464052287583 0.0058823529411764705 0.03137254901960784
1 0.8389705882352941 0.42483660130718953 0.02426470588235294 0.048366013071895426
1 0.836764705882353 0.3934640522875817 0.020588235294117647 0.044444444444444446
0 0.7602941176470588 0.3581699346405229 0.0058823529411764705 0.02483660130718954
1 0.7529411764705882 0.3686274509803922 0.013970588235294118 0.030065359477124184
0 0.736764705882353 0.3568627450980392 0.003676470588235294 0.026143790849673203
0 0.7404411764705883 0.3581699346405229 0.003676470588235294 0.02483660130718954
1 0.7330882352941176 0.32287581699346407 0.019852941176470587 0.040522875816993466
0 0.9066176470588235 0.3111111111111111 0.0058823529411764705 0.03137254901960784
1 0.9919117647058824 0.13202614379084968 0.015441176470588236 0.02483660130718954
1 0.9551470588235295 0.1607843137254902 0.027205882352941177 0.043137254901960784
1 0.775 0.11633986928104575 0.008823529411764706 0.01437908496732026
1 0.6375 0.19477124183006536 0.025735294117647058 0.02091503267973856
1 0.6889705882352941 0.2326797385620915 0.030147058823529412 0.0196078431372549
1 0.7492647058823529 0.21045751633986928 0.027941176470588237 0.01699346405228758
0 0.7933823529411764 0.20784313725490197 0.004411764705882353 0.01699346405228758
1 0.7595588235294117 0.24183006535947713 0.033823529411764704 0.02091503267973856
1 0.8073529411764706 0.24183006535947713 0.03308823529411765 0.023529411764705882
1 0.7602941176470588 0.30718954248366015 0.015441176470588236 0.026143790849673203
0 0.7816176470588235 0.3111111111111111 0.003676470588235294 0.02483660130718954
0 0.7948529411764705 0.3215686274509804 0.005147058823529412 0.02483660130718954
0 0.7875 0.3202614379084967 0.0058823529411764705 0.023529411764705882
0 0.788235294117647 0.3032679738562091 0.004411764705882353 0.018300653594771243
0 0.8161764705882353 0.3032679738562091 0.0029411764705882353 0.0196078431372549
0 0.8080882352941177 0.30718954248366015 0.004411764705882353 0.023529411764705882
0 0.8125 0.3333333333333333 0.004411764705882353 0.026143790849673203
1 0.8360294117647059 0.34509803921568627 0.01911764705882353 0.036601307189542485
1 0.8272058823529411 0.3176470588235294 0.022058823529411766 0.03137254901960784
