1 0.31029411764705883 0.24705882352941178 0.01911764705882353 0.013071895424836602
1 0.23602941176470588 0.2797385620915033 0.015441176470588236 0.026143790849673203
1 0.2426470588235294 0.2928104575163399 0.013235294117647059 0.0196078431372549
0 0.18088235294117647 0.3633986928104575 0.008088235294117648 0.0196078431372549
1 0.19411764705882353 0.3803921568627451 0.011029411764705883 0.018300653594771243
1 0.19705882352941176 0.3633986928104575 0.006617647058823529 0.01568627450980392
0 0.20220588235294118 0.38562091503267976 0.0058823529411764705 0.02875816993464052
0 0.13455882352941176 0.4875816993464052 0.01764705882352941 0.06013071895424837
0 0.03823529411764706 0.8117647058823529 0.025 0.06535947712418301
0 0.06102941176470588 0.7986928104575164 0.021323529411764706 0.06405228758169934
0 0.10588235294117647 0.6562091503267974 0.020588235294117647 0.07320261437908497
0 0.13455882352941176 0.6980392156862745 0.0125 0.06143790849673202
0 0.15735294117647058 0.7215686274509804 0.021323529411764706 0.0392156862745098
0 0.1514705882352941 0.6797385620915033 0.013235294117647059 0.058823529411764705
0 0.15588235294117647 0.6705882352941176 0.011029411764705883 0.06405228758169934
0 0.17794117647058824 0.6705882352941176 0.013235294117647059 0.06274509803921569
0 0.18970588235294117 0.661437908496732 0.016176470588235296 0.06797385620915032
0 0.19117647058823528 0.6392156862745098 0.0125 0.05359477124183006
0 0.19705882352941176 0.6379084967320261 0.011764705882352941 0.06013071895424837
0 0.16470588235294117 0.6562091503267974 0.011029411764705883 0.06274509803921569
0 0.16323529411764706 0.6379084967320261 0.008823529411764706 0.050980392156862744
0 0.17058823529411765 0.6392156862745098 0.013235294117647059 0.05228758169934641
1 0.2691176470588235 0.6143790849673203 0.09264705882352942 0.1477124183006536
1 0.3411764705882353 0.6183006535947713 0.04632352941176471 0.06405228758169934
1 0.3941176470588235 0.661437908496732 0.04779411764705882 0.09411764705882353
1 0.3683823529411765 0.8300653594771242 0.06323529411764706 0.1450980392156863
1 0.2139705882352941 0.3176470588235294 0.03676470588235294 0.02091503267973856
1 0.35441176470588237 0.3843137254901961 0.03602941176470588 0.08758169934640522
1 0.3779411764705882 0.4326797385620915 0.027205882352941177 0.03529411764705882
1 0.3897058823529412 0.45359477124183006 0.016911764705882352 0.043137254901960784
1 0.26544117647058824 0.3032679738562091 0.014705882352941176 0.023529411764705882
0 0.2566176470588235 0.2954248366013072 0.004411764705882353 0.018300653594771243
0 0.2595588235294118 0.29411764705882354 0.004411764705882353 0.018300653594771243
0 0.35073529411764703 0.4823529411764706 0.01911764705882353 0.06797385620915032
0 0.3977941176470588 0.469281045751634 0.0125 0.0718954248366013
0 0.4051470588235294 0.4954248366013072 0.0125 0.07320261437908497
0 0.4198529411764706 0.48366013071895425 0.015441176470588236 0.06666666666666667
1 0.3977941176470588 0.41045751633986927 0.020588235294117647 0.03529411764705882
1 0.40147058823529413 0.3869281045751634 0.01838235294117647 0.032679738562091505
1 0.3977941176470588 0.3686274509803922 0.01911764705882353 0.03529411764705882
1 0.4007352941176471 0.34901960784313724 0.016911764705882352 0.02875816993464052
1 0.37720588235294117 0.338562091503268 0.016176470588235296 0.02875816993464052
1 0.3860294117647059 0.31895424836601305 0.0125 0.02091503267973856
1 0.38235294117647056 0.3045751633986928 0.013235294117647059 0.022222222222222223
1 0.4022058823529412 0.30718954248366015 0.013235294117647059 0.0196078431372549
1 0.4147058823529412 0.3241830065359477 0.015441176470588236 0.022222222222222223
1 0.4227941176470588 0.3477124183006536 0.016911764705882352 0.026143790849673203
1 0.42867647058823527 0.3738562091503268 0.01911764705882353 0.02875816993464052
1 0.43014705882352944 0.3934640522875817 0.022058823529411766 0.03529411764705882
1 0.5794117647058824 0.7620915032679738 0.060294117647058824 0.1111111111111111
1 0.6610294117647059 0.7751633986928105 0.06838235294117648 0.11764705882352941
0 0.5529411764705883 0.4888888888888889 0.01838235294117647 0.06797385620915032
0 0.5617647058823529 0.47320261437908495 0.01838235294117647 0.08104575163398693
0 0.5992647058823529 0.5019607843137255 0.01838235294117647 0.058823529411764705
0 0.5882352941176471 0.4993464052287582 0.015441176470588236 0.05751633986928104
0 0.6647058823529411 0.48366013071895425 0.016911764705882352 0.0915032679738562
0 0.611764705882353 0.4366013071895425 0.025 0.0392156862745098
1 0.5191176470588236 0.42745098039215684 0.025 0.044444444444444446
1 0.5772058823529411 0.40784313725490196 0.022058823529411766 0.036601307189542485
1 0.5426470588235294 0.40522875816993464 0.025 0.036601307189542485
1 0.5058823529411764 0.4 0.022794117647058822 0.030065359477124184
1 0.4919117647058823 0.3607843137254902 0.01764705882352941 0.030065359477124184
1 0.48308823529411765 0.3437908496732026 0.015441176470588236 0.022222222222222223
1 0.4764705882352941 0.3359477124183007 0.013235294117647059 0.022222222222222223
1 0.46911764705882353 0.3254901960784314 0.013235294117647059 0.018300653594771243
1 0.4632352941176471 0.3176470588235294 0.013235294117647059 0.023529411764705882
1 0.45588235294117646 0.30980392156862746 0.011029411764705883 0.01699346405228758
1 0.4514705882352941 0.3032679738562091 0.0125 0.018300653594771243
1 0.44191176470588234 0.2954248366013072 0.011764705882352941 0.01437908496732026
1 0.43529411764705883 0.2875816993464052 0.010294117647058823 0.013071895424836602
1 0.42867647058823527 0.28104575163398693 0.010294117647058823 0.011764705882352941
1 0.4227941176470588 0.27712418300653596 0.011029411764705883 0.01568627450980392
1 0.4161764705882353 0.2718954248366013 0.010294117647058823 0.01437908496732026
0 0.3779411764705882 0.26405228758169935 0.0022058823529411764 0.01045751633986928
0 0.3764705882352941 0.26143790849673204 0.0029411764705882353 0.01437908496732026
0 0.42058823529411765 0.257516339869281 0.0029411764705882353 0.009150326797385621
1 0.42058823529411765 0.2627450980392157 0.008088235294117648 0.00784313725490196
0 0.44632352941176473 0.25620915032679736 0.0029411764705882353 0.011764705882352941
0 0.45073529411764707 0.25882352941176473 0.004411764705882353 0.011764705882352941
1 0.45 0.26143790849673204 0.008088235294117648 0.009150326797385621
1 0.4338235294117647 0.2718954248366013 0.009558823529411765 0.011764705882352941
1 0.43970588235294117 0.2784313725490196 0.010294117647058823 0.01437908496732026
1 0.44779411764705884 0.2849673202614379 0.011029411764705883 0.011764705882352941
1 0.4536764705882353 0.2901960784313726 0.011029411764705883 0.01437908496732026
1 0.4610294117647059 0.29411764705882354 0.010294117647058823 0.01437908496732026
1 0.46838235294117647 0.30196078431372547 0.011764705882352941 0.018300653594771243
1 0.475 0.30980392156862746 0.011764705882352941 0.01568627450980392
1 0.4823529411764706 0.3176470588235294 0.013235294117647059 0.01699346405228758
1 0.48823529411764705 0.3254901960784314 0.011764705882352941 0.018300653594771243
1 0.4970588235294118 0.3359477124183007 0.013970588235294118 0.0196078431372549
1 0.5080882352941176 0.34509803921568627 0.016911764705882352 0.027450980392156862
1 0.5154411764705882 0.3581699346405229 0.01764705882352941 0.030065359477124184
1 0.5235294117647059 0.3712418300653595 0.015441176470588236 0.026143790849673203
1 0.5698529411764706 0.3673202614379085 0.019852941176470587 0.026143790849673203
1 0.4536764705882353 0.27450980392156865 0.010294117647058823 0.01437908496732026
1 0.4661764705882353 0.28888888888888886 0.011764705882352941 0.013071895424836602
1 0.475 0.29411764705882354 0.011764705882352941 0.01568627450980392
1 0.48161764705882354 0.2980392156862745 0.010294117647058823 0.01568627450980392
1 0.49558823529411766 0.3137254901960784 0.011764705882352941 0.01568627450980392
1 0.5088235294117647 0.3202614379084967 0.016176470588235296 0.023529411764705882
1 0.5345588235294118 0.3359477124183007 0.03602941176470588 0.06535947712418301
1 0.4661764705882353 0.26666666666666666 0.023529411764705882 0.032679738562091505
1 0.4772058823529412 0.28104575163398693 0.013235294117647059 0.01437908496732026
1 0.48676470588235293 0.2901960784313726 0.013235294117647059 0.018300653594771243
1 0.49779411764705883 0.29673202614379085 0.0125 0.0196078431372549
1 0.5419117647058823 0.2849673202614379 0.01911764705882353 0.013071895424836602
1 0.5514705882352942 0.28888888888888886 0.022058823529411766 0.013071895424836602
1 0.5617647058823529 0.2901960784313726 0.022794117647058822 0.01568627450980392
1 0.5713235294117647 0.29934640522875816 0.023529411764705882 0.01699346405228758
0 0.5669117647058823 0.3137254901960784 0.003676470588235294 0.013071895424836602
1 0.5669117647058823 0.32287581699346407 0.0058823529411764705 0.011764705882352941
0 0.5786764705882353 0.3241830065359477 0.0029411764705882353 0.013071895424836602
1 0.5779411764705882 0.33202614379084966 0.005147058823529412 0.011764705882352941
