1 0.7977941176470589 0.6823529411764706 0.051470588235294115 0.06535947712418301
1 0.8272058823529411 0.6222222222222222 0.06544117647058824 0.050980392156862744
1 0.8036764705882353 0.5856209150326798 0.05514705882352941 0.047058823529411764
0 0.725 0.5986928104575163 0.008823529411764706 0.040522875816993466
0 0.6867647058823529 0.9777777777777777 0.009558823529411765 0.044444444444444446
1 0.586764705882353 0.8745098039215686 0.04779411764705882 0.10718954248366012
0 0.6764705882352942 0.46013071895424834 0.004411764705882353 0.027450980392156862
0 0.711764705882353 0.5294117647058824 0.006617647058823529 0.0392156862745098
1 0.7382352941176471 0.5464052287581699 0.039705882352941174 0.040522875816993466
1 0.6272058823529412 0.44836601307189544 0.021323529411764706 0.044444444444444446
0 0.6139705882352942 0.5163398692810458 0.006617647058823529 0.03398692810457516
1 0.5963235294117647 0.5176470588235295 0.02426470588235294 0.0392156862745098
1 0.5617647058823529 0.6169934640522876 0.027205882352941177 0.06274509803921569
1 0.48455882352941176 0.6418300653594772 0.04411764705882353 0.10718954248366012
1 0.5426470588235294 0.5281045751633987 0.025735294117647058 0.0392156862745098
1 0.5455882352941176 0.4666666666666667 0.019852941176470587 0.036601307189542485
1 0.5507352941176471 0.4339869281045752 0.016911764705882352 0.030065359477124184
1 0.5272058823529412 0.4 0.016911764705882352 0.026143790849673203
1 0.4904411764705882 0.3607843137254902 0.015441176470588236 0.023529411764705882
1 0.49558823529411766 0.39477124183006534 0.01838235294117647 0.032679738562091505
1 0.4727941176470588 0.3803921568627451 0.016911764705882352 0.02875816993464052
1 0.44779411764705884 0.39215686274509803 0.01838235294117647 0.03137254901960784
1 0.47941176470588237 0.42483660130718953 0.01764705882352941 0.03398692810457516
1 0.5602941176470588 0.37254901960784315 0.004411764705882353 0.01568627450980392
0 0.5602941176470588 0.3673202614379085 0.005147058823529412 0.01699346405228758
1 0.5036764705882353 0.2196078431372549 0.007352941176470588 0.009150326797385621
1 0.5176470588235295 0.2196078431372549 0.003676470588235294 0.006535947712418301
1 0.5213235294117647 0.24183006535947713 0.007352941176470588 0.011764705882352941
1 0.5110294117647058 0.23137254901960785 0.006617647058823529 0.011764705882352941
1 0.5102941176470588 0.269281045751634 0.008823529411764706 0.013071895424836602
1 0.48823529411764705 0.3045751633986928 0.010294117647058823 0.018300653594771243
1 0.4808823529411765 0.2784313725490196 0.008823529411764706 0.0196078431372549
1 0.5279411764705882 0.3045751633986928 0.009558823529411765 0.022222222222222223
1 0.5301470588235294 0.3254901960784314 0.003676470588235294 0.011764705882352941
0 0.5308823529411765 0.32287581699346407 0.0022058823529411764 0.01568627450980392
0 0.5301470588235294 0.32287581699346407 0.004411764705882353 0.01699346405228758
0 0.5941176470588235 0.45359477124183006 0.006617647058823529 0.032679738562091505
1 0.5838235294117647 0.43137254901960786 0.01764705882352941 0.0392156862745098
1 0.5720588235294117 0.5045751633986928 0.009558823529411765 0.03137254901960784
0 0.5727941176470588 0.4993464052287582 0.008823529411764706 0.030065359477124184
0 0.5213235294117647 0.46143790849673205 0.005147058823529412 0.02875816993464052
1 0.5264705882352941 0.46143790849673205 0.008823529411764706 0.02091503267973856
0 0.5286764705882353 0.4549019607843137 0.003676470588235294 0.032679738562091505
1 0.5095588235294117 0.465359477124183 0.006617647058823529 0.023529411764705882
0 0.5095588235294117 0.46013071895424834 0.008823529411764706 0.027450980392156862
1 0.47058823529411764 0.4980392156862745 0.0058823529411764705 0.027450980392156862
0 0.4698529411764706 0.4928104575163399 0.008088235294117648 0.030065359477124184
1 0.45441176470588235 0.4261437908496732 0.006617647058823529 0.01568627450980392
0 0.4551470588235294 0.4235294117647059 0.004411764705882353 0.02091503267973856
1 0.4522058823529412 0.4496732026143791 0.027205882352941177 0.0392156862745098
1 0.46911764705882353 0.2196078431372549 0.007352941176470588 0.00784313725490196
0 0.46397058823529413 0.23660130718954248 0.0029411764705882353 0.011764705882352941
1 0.46911764705882353 0.25098039215686274 0.0022058823529411764 0.01045751633986928
0 0.46911764705882353 0.2496732026143791 0.0029411764705882353 0.009150326797385621
1 0.4727941176470588 0.32679738562091504 0.011029411764705883 0.022222222222222223
1 0.4713235294117647 0.31633986928104574 0.0125 0.02091503267973856
0 0.44779411764705884 0.33202614379084966 0.005147058823529412 0.0196078431372549
1 0.35441176470588237 0.3281045751633987 0.014705882352941176 0.023529411764705882
1 0.3610294117647059 0.35555555555555557 0.028676470588235293 0.02875816993464052
1 0.39926470588235297 0.403921568627451 0.020588235294117647 0.030065359477124184
0 0.36764705882352944 0.40261437908496733 0.003676470588235294 0.023529411764705882
0 0.35441176470588237 0.4 0.004411764705882353 0.022222222222222223
1 0.40588235294117647 0.4496732026143791 0.030882352941176472 0.02875816993464052
0 0.42205882352941176 0.4339869281045752 0.0058823529411764705 0.01699346405228758
0 0.4213235294117647 0.5464052287581699 0.005147058823529412 0.03790849673202614
0 0.41911764705882354 0.515032679738562 0.006617647058823529 0.036601307189542485
1 0.4161764705882353 0.5176470588235295 0.020588235294117647 0.02875816993464052
1 0.4125 0.5725490196078431 0.008088235294117648 0.03137254901960784
0 0.4117647058823529 0.5660130718954248 0.011029411764705883 0.04183006535947712
1 0.3029411764705882 0.3686274509803922 0.011764705882352941 0.01699346405228758
1 0.3073529411764706 0.3686274509803922 0.013970588235294118 0.01437908496732026
1 0.3323529411764706 0.38562091503267976 0.04191176470588235 0.026143790849673203
1 0.26838235294117646 0.4117647058823529 0.013970588235294118 0.018300653594771243
1 0.2727941176470588 0.41045751633986927 0.011029411764705883 0.0196078431372549
1 0.28088235294117647 0.40784313725490196 0.011029411764705883 0.0196078431372549
1 0.28602941176470587 0.4013071895424837 0.013235294117647059 0.023529411764705882
1 0.32132352941176473 0.4392156862745098 0.045588235294117645 0.03790849673202614
1 0.3095588235294118 0.46797385620915033 0.01911764705882353 0.01699346405228758
0 0.31029411764705883 0.4627450980392157 0.007352941176470588 0.0196078431372549
0 0.2514705882352941 0.4392156862745098 0.006617647058823529 0.032679738562091505
1 0.26838235294117646 0.477124183006536 0.04264705882352941 0.040522875816993466
1 0.2867647058823529 0.4915032679738562 0.041176470588235294 0.05359477124183006
1 0.21764705882352942 0.5437908496732026 0.05514705882352941 0.044444444444444446
1 0.19558823529411765 0.6104575163398693 0.07352941176470588 0.054901960784313725
1 0.1411764705882353 0.4392156862745098 0.04264705882352941 0.03790849673202614
1 0.0838235294117647 0.43790849673202614 0.04264705882352941 0.03137254901960784
1 0.07941176470588235 0.47320261437908495 0.039705882352941174 0.0392156862745098
1 0.10147058823529412 0.5045751633986928 0.019852941176470587 0.02483660130718954
0 0.2639705882352941 0.7581699346405228 0.0125 0.06405228758169934
1 0.18161764705882352 0.8287581699346406 0.09044117647058823 0.2235294117647059
1 0.2036764705882353 0.6535947712418301 0.021323529411764706 0.04183006535947712
1 0.17647058823529413 0.6915032679738562 0.08455882352941177 0.05359477124183006
1 0.14926470588235294 0.6679738562091503 0.028676470588235293 0.02875816993464052
1 0.16911764705882354 0.6405228758169934 0.027205882352941177 0.02483660130718954
1 0.14852941176470588 0.6457516339869281 0.022794117647058822 0.03529411764705882
1 0.09558823529411764 0.6496732026143791 0.008823529411764706 0.043137254901960784
1 0.10661764705882353 0.677124183006536 0.047058823529411764 0.08235294117647059
1 0.08088235294117647 0.7568627450980392 0.0661764705882353 0.08235294117647059
1 0.027941176470588237 0.8405228758169935 0.05661764705882353 0.11764705882352941
0 0.03897058823529412 0.6392156862745098 0.007352941176470588 0.0457516339869281
1 0.03823529411764706 0.6522875816993464 0.023529411764705882 0.026143790849673203
1 0.016176470588235296 0.615686274509804 0.03235294117647059 0.047058823529411764
1 0.016911764705882352 0.6640522875816993 0.030147058823529412 0.043137254901960784
1 0.01911764705882353 0.7202614379084967 0.03897058823529412 0.06928104575163399
1 0.028676470588235293 0.7594771241830065 0.05808823529411765 0.09019607843137255
