1 0.4522058823529412 0.7281045751633987 0.021323529411764706 0.06274509803921569
1 0.38529411764705884 0.6928104575163399 0.025 0.07450980392156863
1 0.4632352941176471 0.5738562091503268 0.01838235294117647 0.047058823529411764
1 0.48823529411764705 0.49673202614379086 0.013970588235294118 0.044444444444444446
1 0.46397058823529413 0.47581699346405226 0.01838235294117647 0.0457516339869281
1 0.43308823529411766 0.46405228758169936 0.019852941176470587 0.050980392156862744
1 0.4308823529411765 0.396078431372549 0.014705882352941176 0.044444444444444446
1 0.46911764705882353 0.35947712418300654 0.014705882352941176 0.03137254901960784
1 0.4426470588235294 0.32941176470588235 0.0125 0.032679738562091505
1 0.4713235294117647 0.2980392156862745 0.013970588235294118 0.026143790849673203
1 0.45 0.20522875816993463 0.009558823529411765 0.026143790849673203
1 0.45588235294117646 0.1503267973856209 0.010294117647058823 0.022222222222222223
1 0.4294117647058823 0.15816993464052287 0.010294117647058823 0.02091503267973856
1 0.4514705882352941 0.08888888888888889 0.006617647058823529 0.01699346405228758
1 0.43676470588235294 0.09281045751633987 0.008823529411764706 0.01568627450980392
1 0.5066176470588235 0.265359477124183 0.020588235294117647 0.02875816993464052
1 0.5264705882352941 0.6797385620915033 0.041176470588235294 0.07058823529411765
1 0.6441176470588236 0.9032679738562092 0.03161764705882353 0.08627450980392157
1 0.6279411764705882 0.792156862745098 0.033823529411764704 0.09542483660130718
1 0.638235294117647 0.722875816993464 0.045588235294117645 0.06797385620915032
1 0.5698529411764706 0.6797385620915033 0.028676470588235293 0.05359477124183006
1 0.6036764705882353 0.6052287581699346 0.02426470588235294 0.05228758169934641
1 0.575735294117647 0.5934640522875817 0.02426470588235294 0.07450980392156863
1 0.5911764705882353 0.5359477124183006 0.016176470588235296 0.044444444444444446
1 0.5882352941176471 0.47320261437908495 0.019852941176470587 0.0392156862745098
1 0.5808823529411765 0.42483660130718953 0.019852941176470587 0.03398692810457516
1 0.5727941176470588 0.38823529411764707 0.01838235294117647 0.036601307189542485
1 0.5610294117647059 0.32679738562091504 0.01911764705882353 0.036601307189542485
1 0.5720588235294117 0.3503267973856209 0.01764705882352941 0.030065359477124184
1 0.5639705882352941 0.29673202614379085 0.014705882352941176 0.027450980392156862
1 0.5963235294117647 0.24313725490196078 0.033823529411764704 0.02875816993464052
1 0.5632352941176471 0.20522875816993463 0.0125 0.026143790849673203
1 0.5514705882352942 0.2 0.009558823529411765 0.022222222222222223
1 0.5455882352941176 0.16470588235294117 0.008823529411764706 0.018300653594771243
1 0.49779411764705883 0.8392156862745098 0.04338235294117647 0.17777777777777778
0 0.5455882352941176 0.9424836601307189 0.007352941176470588 0.032679738562091505
1 0.2735294117647059 0.7372549019607844 0.02426470588235294 0.07581699346405228
1 0.22647058823529412 0.742483660130719 0.04852941176470588 0.05751633986928104
1 0.15220588235294116 0.9529411764705882 0.058823529411764705 0.08235294117647059
1 0.2911764705882353 0.5633986928104575 0.02426470588235294 0.05751633986928104
1 0.30514705882352944 0.5124183006535947 0.022058823529411766 0.04967320261437908
1 0.3154411764705882 0.46797385620915033 0.01911764705882353 0.03790849673202614
1 0.33088235294117646 0.4130718954248366 0.01764705882352941 0.03398692810457516
1 0.3602941176470588 0.27320261437908494 0.015441176470588236 0.032679738562091505
1 0.3654411764705882 0.24444444444444444 0.0125 0.02875816993464052
1 0.38529411764705884 0.16993464052287582 0.010294117647058823 0.023529411764705882
1 0.39558823529411763 0.11633986928104575 0.011029411764705883 0.02483660130718954
1 0.3875 0.13594771241830064 0.013970588235294118 0.02091503267973856
1 0.4676470588235294 0.006535947712418301 0.008088235294117648 0.013071895424836602
1 0.5360294117647059 0.054901960784313725 0.011764705882352941 0.030065359477124184
1 0.5345588235294118 0.07320261437908497 0.008088235294117648 0.01437908496732026
1 0.5522058823529412 0.08235294117647059 0.020588235294117647 0.018300653594771243
1 0.5411764705882353 0.11764705882352941 0.008823529411764706 0.01568627450980392
1 0.5426470588235294 0.13725490196078433 0.010294117647058823 0.01699346405228758
1 0.5485294117647059 0.14901960784313725 0.022794117647058822 0.01568627450980392
1 0.5507352941176471 0.1869281045751634 0.011764705882352941 0.018300653594771243
0 0.5617647058823529 0.265359477124183 0.004411764705882353 0.018300653594771243
0 0.5654411764705882 0.269281045751634 0.003676470588235294 0.022222222222222223
0 0.6154411764705883 0.5803921568627451 0.0058823529411764705 0.027450980392156862
1 0.5926470588235294 0.5071895424836601 0.014705882352941176 0.0196078431372549
1 0.5198529411764706 0.4823529411764706 0.01838235294117647 0.043137254901960784
1 0.5125 0.3150326797385621 0.013970588235294118 0.02483660130718954
1 0.4536764705882353 0.24052287581699347 0.010294117647058823 0.022222222222222223
0 0.4551470588235294 0.24052287581699347 0.006617647058823529 0.01568627450980392
1 0.42058823529411765 0.26143790849673204 0.004411764705882353 0.01437908496732026
0 0.42058823529411765 0.25620915032679736 0.003676470588235294 0.01568627450980392
1 0.4970588235294118 0.3032679738562091 0.003676470588235294 0.01699346405228758
0 0.4970588235294118 0.29673202614379085 0.003676470588235294 0.01437908496732026
1 0.4470588235294118 0.12549019607843137 0.004411764705882353 0.0196078431372549
0 0.4389705882352941 0.134640522875817 0.0022058823529411764 0.01568627450980392
0 0.43529411764705883 0.13594771241830064 0.003676470588235294 0.01568627450980392
1 0.40588235294117647 0.12287581699346405 0.008823529411764706 0.022222222222222223
1 0.3558823529411765 0.29934640522875816 0.013970588235294118 0.01568627450980392
0 0.3382352941176471 0.3738562091503268 0.005147058823529412 0.022222222222222223
0 0.3463235294117647 0.2954248366013072 0.005147058823529412 0.02091503267973856
0 0.3220588235294118 0.27712418300653596 0.004411764705882353 0.022222222222222223
1 0.3044117647058823 0.3006535947712418 0.010294117647058823 0.013071895424836602
0 0.29705882352941176 0.3032679738562091 0.0058823529411764705 0.01437908496732026
0 0.2911764705882353 0.3411764705882353 0.004411764705882353 0.022222222222222223
0 0.28308823529411764 0.35947712418300654 0.003676470588235294 0.0196078431372549
0 0.3 0.3542483660130719 0.004411764705882353 0.013071895424836602
0 0.3323529411764706 0.33464052287581697 0.0029411764705882353 0.02483660130718954
0 0.3 0.37777777777777777 0.006617647058823529 0.023529411764705882
0 0.29411764705882354 0.36470588235294116 0.0058823529411764705 0.02483660130718954
0 0.2897058823529412 0.3633986928104575 0.003676470588235294 0.023529411764705882
1 0.29191176470588237 0.4235294117647059 0.039705882352941174 0.027450980392156862
0 0.3220588235294118 0.5254901960784314 0.006617647058823529 0.022222222222222223
1 0.32279411764705884 0.5333333333333333 0.0058823529411764705 0.022222222222222223
0 0.38529411764705884 0.45359477124183006 0.005147058823529412 0.023529411764705882
0 0.38088235294117645 0.4549019607843137 0.0058823529411764705 0.026143790849673203
1 0.2639705882352941 0.6483660130718955 0.009558823529411765 0.032679738562091505
0 0.2948529411764706 0.7607843137254902 0.0058823529411764705 0.023529411764705882
1 0.2948529411764706 0.7699346405228759 0.008823529411764706 0.027450980392156862
0 0.3448529411764706 0.7699346405228759 0.006617647058823529 0.030065359477124184
1 0.34338235294117647 0.7359477124183007 0.013970588235294118 0.0392156862745098
0 0.17205882352941176 0.6888888888888889 0.007352941176470588 0.02875816993464052
0 0.16544117647058823 0.6797385620915033 0.006617647058823529 0.02875816993464052
0 0.15441176470588236 0.7254901960784313 0.013235294117647059 0.030065359477124184
1 0.16176470588235295 0.7058823529411765 0.015441176470588236 0.026143790849673203
0 0.14411764705882352 0.7503267973856209 0.007352941176470588 0.02875816993464052
1 0.1463235294117647 0.7529411764705882 0.019852941176470587 0.01568627450980392
0 0.10882352941176471 0.7947712418300653 0.011764705882352941 0.03529411764705882
0 0.1125 0.9333333333333333 0.008823529411764706 0.04183006535947712
0 0.2051470588235294 0.6078431372549019 0.0058823529411764705 0.027450980392156862
0 0.1875 0.5947712418300654 0.006617647058823529 0.027450980392156862
0 0.20220588235294118 0.5973856209150327 0.006617647058823529 0.02875816993464052
0 0.43308823529411766 0.19215686274509805 0.0022058823529411764 0.01568627450980392
1 0.43308823529411766 0.19607843137254902 0.005147058823529412 0.01568627450980392
0 0.5044117647058823 0.20392156862745098 0.0029411764705882353 0.01699346405228758
1 0.5044117647058823 0.20784313725490197 0.003676470588235294 0.01045751633986928
0 0.4007352941176471 0.13986928104575164 0.0029411764705882353 0.01437908496732026
1 0.4007352941176471 0.14640522875816994 0.003676470588235294 0.01045751633986928
0 0.3845588235294118 0.1830065359477124 0.004411764705882353 0.013071895424836602
1 0.38529411764705884 0.1895424836601307 0.0058823529411764705 0.013071895424836602
