1 0.7286458333333333 0.6398148148148148 0.078125 0.0787037037037037
1 0.7760416666666666 0.5370370370370371 0.053125 0.053703703703703705
1 0.7083333333333334 0.5175925925925926 0.03854166666666667 0.03981481481481482
1 0.6692708333333334 0.5092592592592593 0.04479166666666667 0.046296296296296294
1 0.6385416666666667 0.49537037037037035 0.0296875 0.030555555555555555
1 0.4973958333333333 0.512962962962963 0.03333333333333333 0.03888888888888889
1 0.4635416666666667 0.5148148148148148 0.035416666666666666 0.03425925925925926
0 0.3255208333333333 0.7768518518518519 0.021875 0.10740740740740741
0 0.3078125 0.7666666666666667 0.022395833333333334 0.10092592592592593
0 0.2942708333333333 0.8074074074074075 0.019791666666666666 0.1
0 0.2786458333333333 0.7907407407407407 0.022395833333333334 0.11018518518518519
1 0.3880208333333333 0.45925925925925926 0.015625 0.018518518518518517
1 0.4734375 0.55 0.034375 0.05
