0 0.026470588235294117 0.2849673202614379 0.015441176470588236 0.040522875816993466
1 0.11838235294117647 0.23660130718954248 0.051470588235294115 0.06797385620915032
1 0.25441176470588234 0.3084967320261438 0.025 0.03790849673202614
1 0.2897058823529412 0.2954248366013072 0.020588235294117647 0.040522875816993466
1 0.47941176470588237 0.3869281045751634 0.02426470588235294 0.04967320261437908
1 0.5404411764705882 0.3032679738562091 0.039705882352941174 0.12549019607843137
1 0.38823529411764707 0.13594771241830064 0.027205882352941177 0.06405228758169934
1 0.39558823529411763 0.08888888888888889 0.022058823529411766 0.04183006535947712
1 0.37426470588235294 0.08627450980392157 0.022058823529411766 0.040522875816993466
1 0.5147058823529411 0.39869281045751637 0.02426470588235294 0.04967320261437908
1 0.4661764705882353 0.2784313725490196 0.020588235294117647 0.03790849673202614
1 0.4772058823529412 0.18169934640522875 0.01764705882352941 0.02483660130718954
1 0.47573529411764703 0.1411764705882353 0.014705882352941176 0.0196078431372549
1 0.5014705882352941 0.14248366013071895 0.011764705882352941 0.0196078431372549
1 0.4801470588235294 0.12287581699346405 0.011764705882352941 0.0196078431372549
1 0.4786764705882353 0.10457516339869281 0.0125 0.0196078431372549
1 0.4786764705882353 0.08104575163398693 0.009558823529411765 0.01568627450980392
1 0.5073529411764706 0.0915032679738562 0.009558823529411765 0.01568627450980392
1 0.5220588235294118 0.09673202614379085 0.009558823529411765 0.01568627450980392
1 0.4970588235294118 0.07581699346405228 0.009558823529411765 0.01568627450980392
1 0.4919117647058823 0.06013071895424837 0.009558823529411765 0.01568627450980392
1 0.4919117647058823 0.04967320261437908 0.009558823529411765 0.01568627450980392
1 0.48970588235294116 0.032679738562091505 0.008088235294117648 0.01437908496732026
1 0.513235294117647 0.12418300653594772 0.015441176470588236 0.0196078431372549
0 0.4213235294117647 0.24836601307189543 0.006617647058823529 0.02483660130718954
1 0.4308823529411765 0.24836601307189543 0.013970588235294118 0.0392156862745098
1 0.4455882352941177 0.1503267973856209 0.014705882352941176 0.026143790849673203
1 0.45441176470588235 0.13594771241830064 0.013235294117647059 0.01699346405228758
1 0.45808823529411763 0.05359477124183006 0.010294117647058823 0.01699346405228758
1 0.46397058823529413 0.048366013071895426 0.010294117647058823 0.01699346405228758
1 0.4360294117647059 0.11241830065359477 0.041176470588235294 0.03529411764705882
1 0.4551470588235294 0.08758169934640522 0.01764705882352941 0.030065359477124184
1 0.5286764705882353 0.0784313725490196 0.008823529411764706 0.01699346405228758
1 0.5470588235294118 0.0718954248366013 0.01911764705882353 0.01568627450980392
1 0.5470588235294118 0.08235294117647059 0.01911764705882353 0.01568627450980392
1 0.5463235294117647 0.09019607843137255 0.019852941176470587 0.01699346405228758
1 0.5360294117647059 0.06143790849673202 0.019852941176470587 0.01568627450980392
1 0.5779411764705882 0.05751633986928104 0.01911764705882353 0.01699346405228758
1 0.5595588235294118 0.058823529411764705 0.009558823529411765 0.01568627450980392
1 0.5102941176470588 0.044444444444444446 0.011764705882352941 0.018300653594771243
0 0.5294117647058824 0.19215686274509805 0.006617647058823529 0.013071895424836602
1 0.5110294117647058 0.05359477124183006 0.008823529411764706 0.01437908496732026
1 0.5301470588235294 0.054901960784313725 0.01911764705882353 0.01568627450980392
1 0.5316176470588235 0.050980392156862744 0.019852941176470587 0.01568627450980392
1 0.5272058823529412 0.040522875816993466 0.016911764705882352 0.01568627450980392
1 0.5720588235294117 0.0457516339869281 0.016176470588235296 0.01045751633986928
1 0.5632352941176471 0.040522875816993466 0.01764705882352941 0.013071895424836602
0 0.5389705882352941 0.18562091503267975 0.004411764705882353 0.022222222222222223
0 0.49779411764705883 0.036601307189542485 0.004411764705882353 0.009150326797385621
0 0.4713235294117647 0.030065359477124184 0.003676470588235294 0.01045751633986928
0 0.5044117647058823 0.06535947712418301 0.003676470588235294 0.01045751633986928
0 0.5102941176470588 0.06797385620915032 0.0058823529411764705 0.01045751633986928
1 0.5102941176470588 0.07450980392156863 0.004411764705882353 0.013071895424836602
1 0.5058823529411764 0.0718954248366013 0.004411764705882353 0.01437908496732026
1 0.5301470588235294 0.20130718954248367 0.005147058823529412 0.01568627450980392
1 0.49779411764705883 0.040522875816993466 0.003676470588235294 0.00784313725490196
1 0.4713235294117647 0.03398692810457516 0.003676470588235294 0.009150326797385621
1 0.5779411764705882 0.1568627450980392 0.03455882352941177 0.026143790849673203
1 0.600735294117647 0.1895424836601307 0.011764705882352941 0.013071895424836602
1 0.6272058823529412 0.18823529411764706 0.03235294117647059 0.02483660130718954
0 0.5933823529411765 0.21176470588235294 0.008088235294117648 0.02483660130718954
0 0.6198529411764706 0.2235294117647059 0.008088235294117648 0.026143790849673203
0 0.6875 0.3673202614379085 0.008088235294117648 0.036601307189542485
0 0.6985294117647058 0.3673202614379085 0.008088235294117648 0.036601307189542485
1 0.6573529411764706 0.38562091503267976 0.05808823529411765 0.04183006535947712
1 0.6316176470588235 0.33202614379084966 0.052941176470588235 0.02875816993464052
1 0.6316176470588235 0.3084967320261438 0.04852941176470588 0.026143790849673203
1 0.6272058823529412 0.28627450980392155 0.047058823529411764 0.027450980392156862
1 0.6242647058823529 0.26405228758169935 0.04485294117647059 0.03137254901960784
1 0.6676470588235294 0.22091503267973855 0.030147058823529412 0.02483660130718954
1 0.6904411764705882 0.22745098039215686 0.033823529411764704 0.02875816993464052
1 0.6941176470588235 0.24705882352941178 0.028676470588235293 0.027450980392156862
1 0.6867647058823529 0.2954248366013072 0.010294117647058823 0.022222222222222223
1 0.6948529411764706 0.29673202614379085 0.010294117647058823 0.023529411764705882
1 0.7029411764705882 0.29411764705882354 0.009558823529411765 0.02483660130718954
1 0.6676470588235294 0.19084967320261437 0.008088235294117648 0.01437908496732026
1 0.5463235294117647 0.19215686274509805 0.014705882352941176 0.026143790849673203
1 0.549264705882353 0.1803921568627451 0.014705882352941176 0.026143790849673203
0 0.5514705882352942 0.16862745098039217 0.008088235294117648 0.02483660130718954
1 0.4772058823529412 0.6980392156862745 0.03823529411764706 0.11503267973856209
1 0.5551470588235294 0.7477124183006536 0.04632352941176471 0.11503267973856209
1 0.5345588235294118 0.5490196078431373 0.03676470588235294 0.07712418300653595
0 0.7485294117647059 0.41568627450980394 0.010294117647058823 0.02875816993464052
1 0.7463235294117647 0.4196078431372549 0.011029411764705883 0.03137254901960784
0 0.7933823529411764 0.5019607843137255 0.011764705882352941 0.0457516339869281
1 0.700735294117647 0.5019607843137255 0.07867647058823529 0.04967320261437908
1 0.7735294117647059 0.665359477124183 0.09338235294117647 0.07712418300653595
1 0.6970588235294117 0.5647058823529412 0.08897058823529412 0.07320261437908497
1 0.8683823529411765 0.5450980392156862 0.060294117647058824 0.05751633986928104
1 0.7889705882352941 0.41830065359477125 0.05955882352941176 0.0457516339869281
1 0.7588235294117647 0.3633986928104575 0.05588235294117647 0.044444444444444446
1 0.8205882352941176 0.44313725490196076 0.023529411764705882 0.02875816993464052
1 0.861764705882353 0.43529411764705883 0.013235294117647059 0.03398692810457516
1 0.7691176470588236 0.33986928104575165 0.019852941176470587 0.0196078431372549
1 0.7205882352941176 0.2928104575163399 0.010294117647058823 0.023529411764705882
1 0.7382352941176471 0.29150326797385623 0.008088235294117648 0.02091503267973856
1 0.7455882352941177 0.2928104575163399 0.008823529411764706 0.023529411764705882
0 0.7970588235294118 0.8549019607843137 0.015441176470588236 0.07712418300653595
0 0.8102941176470588 0.8300653594771242 0.013970588235294118 0.06666666666666667
1 0.8264705882352941 0.9660130718954248 0.13161764705882353 0.06535947712418301
