1 0.4213235294117647 0.592156862745098 0.0375 0.09411764705882353
1 0.5595588235294118 0.3895424836601307 0.023529411764705882 0.048366013071895426
1 0.45808823529411763 0.26405228758169935 0.015441176470588236 0.032679738562091505
1 0.38529411764705884 0.41568627450980394 0.03161764705882353 0.050980392156862744
1 0.5220588235294118 0.10065359477124183 0.008088235294117648 0.01437908496732026
1 0.5301470588235294 0.08496732026143791 0.0058823529411764705 0.009150326797385621
1 0.5558823529411765 0.08758169934640522 0.008088235294117648 0.01045751633986928
1 0.55 0.0718954248366013 0.006617647058823529 0.011764705882352941
1 0.5617647058823529 0.0784313725490196 0.005147058823529412 0.011764705882352941
1 0.55 0.06013071895424837 0.006617647058823529 0.011764705882352941
1 0.5397058823529411 0.044444444444444446 0.0058823529411764705 0.009150326797385621
1 0.5323529411764706 0.0784313725490196 0.006617647058823529 0.009150326797385621
1 0.5330882352941176 0.0718954248366013 0.006617647058823529 0.00784313725490196
1 0.6323529411764706 0.2235294117647059 0.015441176470588236 0.026143790849673203
1 0.5522058823529412 0.03137254901960784 0.005147058823529412 0.011764705882352941
1 0.524264705882353 0.06666666666666667 0.006617647058823529 0.01437908496732026
1 0.5316176470588235 0.04183006535947712 0.004411764705882353 0.009150326797385621
1 0.5345588235294118 0.03529411764705882 0.005147058823529412 0.006535947712418301
1 0.5375 0.026143790849673203 0.004411764705882353 0.009150326797385621
1 0.6044117647058823 0.08496732026143791 0.008088235294117648 0.01045751633986928
1 0.5970588235294118 0.07973856209150326 0.008088235294117648 0.01045751633986928
1 0.5845588235294118 0.07450980392156863 0.008088235294117648 0.01045751633986928
1 0.4889705882352941 0.06666666666666667 0.006617647058823529 0.00784313725490196
1 0.43970588235294117 0.08366013071895424 0.014705882352941176 0.013071895424836602
1 0.3698529411764706 0.11241830065359477 0.016176470588235296 0.013071895424836602
1 0.3492647058823529 0.1111111111111111 0.016911764705882352 0.01699346405228758
1 0.3375 0.16732026143790849 0.014705882352941176 0.01568627450980392
1 0.3154411764705882 0.1738562091503268 0.026470588235294117 0.02091503267973856
1 0.3926470588235294 0.17908496732026144 0.0375 0.023529411764705882
1 0.3698529411764706 0.1934640522875817 0.03823529411764706 0.023529411764705882
1 0.3602941176470588 0.2130718954248366 0.0375 0.023529411764705882
1 0.663235294117647 0.13202614379084968 0.025 0.01699346405228758
1 0.6463235294117647 0.13333333333333333 0.025 0.01699346405228758
1 0.44485294117647056 0.0915032679738562 0.016911764705882352 0.011764705882352941
1 0.42205882352941176 0.07581699346405228 0.014705882352941176 0.009150326797385621
1 0.5602941176470588 0.030065359477124184 0.003676470588235294 0.006535947712418301
0 0.6183823529411765 0.12941176470588237 0.0029411764705882353 0.01699346405228758
0 0.6147058823529412 0.12941176470588237 0.0029411764705882353 0.01699346405228758
0 0.6102941176470589 0.13202614379084968 0.0029411764705882353 0.018300653594771243
0 0.6830882352941177 0.37516339869281046 0.006617647058823529 0.032679738562091505
0 0.6727941176470589 0.37516339869281046 0.008088235294117648 0.03529411764705882
0 0.5198529411764706 0.12026143790849673 0.0029411764705882353 0.01437908496732026
0 0.5102941176470588 0.12287581699346405 0.0022058823529411764 0.01699346405228758
0 0.5727941176470588 0.11503267973856209 0.0029411764705882353 0.018300653594771243
1 0.5661764705882353 0.047058823529411764 0.005147058823529412 0.01045751633986928
1 0.47794117647058826 0.19215686274509805 0.0029411764705882353 0.013071895424836602
0 0.47794117647058826 0.1843137254901961 0.004411764705882353 0.011764705882352941
0 0.4838235294117647 0.09934640522875816 0.003676470588235294 0.00784313725490196
1 0.48455882352941176 0.10326797385620914 0.0029411764705882353 0.00784313725490196
1 0.6580882352941176 0.1111111111111111 0.021323529411764706 0.01045751633986928
1 0.9625 0.9437908496732026 0.07426470588235294 0.09803921568627451
1 0.2875 0.4222222222222222 0.047058823529411764 0.06797385620915032
1 0.08161764705882353 0.3738562091503268 0.05 0.050980392156862744
1 0.09705882352941177 0.35947712418300654 0.05 0.050980392156862744
1 0.12426470588235294 0.3411764705882353 0.05 0.050980392156862744
1 0.13823529411764707 0.3176470588235294 0.05 0.050980392156862744
1 0.3514705882352941 0.2130718954248366 0.03161764705882353 0.02875816993464052
0 0.8352941176470589 0.9764705882352941 0.021323529411764706 0.047058823529411764
