0 0.05955882352941176 0.08366013071895424 0.015441176470588236 0.044444444444444446
0 0.0625 0.07320261437908497 0.011029411764705883 0.02483660130718954
0 0.07205882352941176 0.07320261437908497 0.016176470588235296 0.04183006535947712
1 0.07205882352941176 0.08758169934640522 0.022794117647058822 0.03529411764705882
1 0.12205882352941176 0.10980392156862745 0.06323529411764706 0.08235294117647059
1 0.20073529411764707 0.08104575163398693 0.06323529411764706 0.08627450980392157
1 0.2375 0.12810457516339868 0.0375 0.09934640522875816
0 0.11544117647058824 0.18562091503267975 0.014705882352941176 0.03529411764705882
1 0.11544117647058824 0.19738562091503267 0.02426470588235294 0.036601307189542485
1 0.027205882352941177 0.2954248366013072 0.05514705882352941 0.09411764705882353
1 0.06691176470588235 0.4718954248366013 0.08897058823529412 0.11503267973856209
1 0.15735294117647058 0.4143790849673203 0.0875 0.1111111111111111
1 0.026470588235294117 0.6758169934640523 0.05367647058823529 0.13071895424836602
0 0.25 0.8797385620915033 0.014705882352941176 0.03790849673202614
0 0.41911764705882354 0.08627450980392157 0.009558823529411765 0.0457516339869281
1 0.2963235294117647 0.18169934640522875 0.06102941176470588 0.1111111111111111
1 0.43161764705882355 0.2758169934640523 0.06691176470588235 0.08235294117647059
1 0.4963235294117647 0.5882352941176471 0.09117647058823529 0.11372549019607843
1 0.35294117647058826 0.6104575163398693 0.09411764705882353 0.13594771241830064
0 0.31176470588235294 0.6967320261437908 0.011029411764705883 0.036601307189542485
0 0.3205882352941177 0.7045751633986929 0.014705882352941176 0.050980392156862744
0 0.325 0.7006535947712418 0.008823529411764706 0.027450980392156862
1 0.32426470588235295 0.7098039215686275 0.027941176470588237 0.04183006535947712
1 0.5433823529411764 0.8313725490196079 0.11102941176470588 0.1607843137254902
0 0.5970588235294118 0.28366013071895424 0.0125 0.03398692810457516
0 0.6036764705882353 0.3542483660130719 0.011029411764705883 0.03398692810457516
0 0.5985294117647059 0.3633986928104575 0.014705882352941176 0.0392156862745098
0 0.6125 0.3803921568627451 0.0125 0.044444444444444446
0 0.6198529411764706 0.43137254901960786 0.01911764705882353 0.043137254901960784
0 0.6272058823529412 0.4169934640522876 0.008088235294117648 0.02483660130718954
0 0.6441176470588236 0.1803921568627451 0.014705882352941176 0.0457516339869281
1 0.6419117647058824 0.19084967320261437 0.01838235294117647 0.03529411764705882
1 0.5963235294117647 0.29934640522875816 0.013970588235294118 0.03398692810457516
1 0.5985294117647059 0.3738562091503268 0.01911764705882353 0.04183006535947712
1 0.6102941176470589 0.39215686274509803 0.021323529411764706 0.044444444444444446
1 0.6198529411764706 0.44052287581699345 0.01838235294117647 0.043137254901960784
1 0.65 0.24444444444444444 0.060294117647058824 0.11241830065359477
1 0.7066176470588236 0.12810457516339868 0.05367647058823529 0.09542483660130718
1 0.7088235294117647 0.24313725490196078 0.05220588235294118 0.11241830065359477
1 0.7514705882352941 0.16993464052287582 0.05073529411764706 0.09673202614379085
1 0.7985294117647059 0.048366013071895426 0.04852941176470588 0.09673202614379085
1 0.8477941176470588 0.16339869281045752 0.04779411764705882 0.09542483660130718
0 0.9066176470588235 0.19738562091503267 0.015441176470588236 0.043137254901960784
1 0.9051470588235294 0.20784313725490197 0.015441176470588236 0.03790849673202614
