1 0.34558823529411764 0.677124183006536 0.12867647058823528 0.12679738562091503
1 0.21838235294117647 0.6379084967320261 0.07941176470588235 0.07973856209150326
1 0.37058823529411766 0.7712418300653595 0.06838235294117648 0.08496732026143791
1 0.32573529411764707 0.38300653594771245 0.04632352941176471 0.050980392156862744
1 0.22058823529411764 0.257516339869281 0.023529411764705882 0.06274509803921569
1 0.3816176470588235 0.40784313725490196 0.051470588235294115 0.05359477124183006
1 0.4323529411764706 0.4 0.05 0.054901960784313725
1 0.4727941176470588 0.3895424836601307 0.04779411764705882 0.05359477124183006
1 0.5411764705882353 0.3607843137254902 0.04191176470588235 0.048366013071895426
1 0.21176470588235294 0.7045751633986929 0.06985294117647059 0.06928104575163399
1 0.12794117647058822 0.6052287581699346 0.06102941176470588 0.05620915032679739
1 0.060294117647058824 0.5725490196078431 0.06323529411764706 0.06274509803921569
1 0.2235294117647059 0.1830065359477124 0.047058823529411764 0.03790849673202614
1 0.6845588235294118 0.23137254901960785 0.025 0.054901960784313725
1 0.9227941176470589 0.2784313725490196 0.030882352941176472 0.050980392156862744
1 0.6963235294117647 0.17908496732026144 0.026470588235294117 0.04183006535947712
1 0.6985294117647058 0.12810457516339868 0.019852941176470587 0.0457516339869281
1 0.7080882352941177 0.08496732026143791 0.01911764705882353 0.03790849673202614
1 0.7169117647058824 0.043137254901960784 0.016176470588235296 0.03398692810457516
1 0.9830882352941176 0.1542483660130719 0.020588235294117647 0.040522875816993466
1 0.9794117647058823 0.11372549019607843 0.019852941176470587 0.03529411764705882
1 0.039705882352941174 0.10588235294117647 0.03676470588235294 0.050980392156862744
1 0.058823529411764705 0.11241830065359477 0.03308823529411765 0.04183006535947712
1 0.07867647058823529 0.12156862745098039 0.04264705882352941 0.05228758169934641
1 0.09558823529411764 0.13071895424836602 0.03308823529411765 0.04967320261437908
1 0.021323529411764706 0.2169934640522876 0.04191176470588235 0.048366013071895426
1 0.04264705882352941 0.23660130718954248 0.0375 0.050980392156862744
1 0.0713235294117647 0.23921568627450981 0.041176470588235294 0.06928104575163399
1 0.5823529411764706 0.33202614379084966 0.033823529411764704 0.04967320261437908
1 0.6279411764705882 0.30980392156862746 0.026470588235294117 0.02875816993464052
1 0.6088235294117647 0.3176470588235294 0.028676470588235293 0.044444444444444446
1 0.3860294117647059 0.31633986928104574 0.013235294117647059 0.036601307189542485
1 0.4 0.3111111111111111 0.010294117647058823 0.03790849673202614
1 0.9852941176470589 0.3542483660130719 0.022058823529411766 0.023529411764705882
1 0.8191176470588235 0.338562091503268 0.007352941176470588 0.018300653594771243
1 0.7544117647058823 0.6562091503267974 0.008088235294117648 0.030065359477124184
1 0.7154411764705882 0.7712418300653595 0.008088235294117648 0.023529411764705882
1 0.7235294117647059 0.6235294117647059 0.008823529411764706 0.04967320261437908
1 0.5977941176470588 0.4549019607843137 0.007352941176470588 0.030065359477124184
0 0.7264705882352941 0.6222222222222222 0.008823529411764706 0.03137254901960784
0 0.7147058823529412 0.7620915032679738 0.0058823529411764705 0.032679738562091505
0 0.7573529411764706 0.6444444444444445 0.008088235294117648 0.03398692810457516
0 0.8191176470588235 0.330718954248366 0.007352941176470588 0.02875816993464052
0 0.9808823529411764 0.338562091503268 0.006617647058823529 0.018300653594771243
0 0.986764705882353 0.3503267973856209 0.008823529411764706 0.03398692810457516
0 0.5985294117647059 0.44313725490196076 0.009558823529411765 0.032679738562091505
0 0.5279411764705882 0.40261437908496733 0.009558823529411765 0.027450980392156862
0 0.5397058823529411 0.38562091503267976 0.007352941176470588 0.036601307189542485
0 0.6573529411764706 0.3111111111111111 0.004411764705882353 0.027450980392156862
0 0.6764705882352942 0.3176470588235294 0.006617647058823529 0.02483660130718954
0 0.9522058823529411 0.27712418300653596 0.008088235294117648 0.02875816993464052
0 0.1463235294117647 0.9516339869281045 0.014705882352941176 0.04183006535947712
1 0.2926470588235294 0.47843137254901963 0.030147058823529412 0.0457516339869281
0 0.225 0.32941176470588235 0.011764705882352941 0.026143790849673203
1 0.9926470588235294 0.2457516339869281 0.014705882352941176 0.0457516339869281
0 0.9625 0.23790849673202613 0.007352941176470588 0.02483660130718954
1 0.14852941176470588 0.9620915032679739 0.03823529411764706 0.026143790849673203
0 0.16544117647058823 0.9228758169934641 0.013235294117647059 0.032679738562091505
0 0.1698529411764706 0.9071895424836601 0.0125 0.04183006535947712
0 0.12279411764705882 0.8209150326797385 0.015441176470588236 0.03137254901960784
1 0.12279411764705882 0.8274509803921568 0.030882352941176472 0.023529411764705882
1 0.6558823529411765 0.2627450980392157 0.021323529411764706 0.01699346405228758
0 0.6522058823529412 0.23529411764705882 0.011764705882352941 0.0196078431372549
0 0.6639705882352941 0.2 0.009558823529411765 0.01437908496732026
0 0.6786764705882353 0.16993464052287582 0.007352941176470588 0.023529411764705882
0 0.7477941176470588 0.1830065359477124 0.005147058823529412 0.02091503267973856
0 0.7441176470588236 0.1843137254901961 0.006617647058823529 0.0196078431372549
0 0.6889705882352941 0.43137254901960786 0.004411764705882353 0.026143790849673203
0 0.7080882352941177 0.43137254901960786 0.006617647058823529 0.030065359477124184
0 0.6941176470588235 0.4287581699346405 0.009558823529411765 0.032679738562091505
0 0.6867647058823529 0.41568627450980394 0.008088235294117648 0.030065359477124184
0 0.7705882352941177 0.42091503267973857 0.0125 0.03137254901960784
0 0.975 0.4627450980392157 0.009558823529411765 0.03398692810457516
0 0.7919117647058823 0.2849673202614379 0.006617647058823529 0.027450980392156862
0 0.7823529411764706 0.29673202614379085 0.008088235294117648 0.030065359477124184
0 0.7845588235294118 0.2875816993464052 0.008088235294117648 0.02875816993464052
1 0.6764705882352942 0.33202614379084966 0.014705882352941176 0.02091503267973856
0 0.6897058823529412 0.3464052287581699 0.0058823529411764705 0.023529411764705882
1 0.6897058823529412 0.35555555555555557 0.015441176470588236 0.01568627450980392
1 0.6897058823529412 0.34509803921568627 0.011029411764705883 0.011764705882352941
0 0.6897058823529412 0.338562091503268 0.006617647058823529 0.01437908496732026
1 0.5294117647058824 0.4130718954248366 0.01764705882352941 0.02091503267973856
1 0.4375 0.3464052287581699 0.025735294117647058 0.030065359477124184
1 0.3088235294117647 0.2901960784313726 0.01764705882352941 0.03137254901960784
1 0.5852941176470589 0.24705882352941178 0.013970588235294118 0.02091503267973856
1 0.6183823529411765 0.2522875816993464 0.010294117647058823 0.023529411764705882
1 0.5735294117647058 0.2522875816993464 0.008088235294117648 0.026143790849673203
1 0.5301470588235294 0.25098039215686274 0.009558823529411765 0.026143790849673203
1 0.538235294117647 0.2549019607843137 0.008088235294117648 0.02875816993464052
1 0.5463235294117647 0.26143790849673204 0.007352941176470588 0.02483660130718954
1 0.5529411764705883 0.265359477124183 0.006617647058823529 0.030065359477124184
1 0.5580882352941177 0.2679738562091503 0.008088235294117648 0.030065359477124184
1 0.5676470588235294 0.269281045751634 0.005147058823529412 0.027450980392156862
1 0.5963235294117647 0.28104575163398693 0.013970588235294118 0.02091503267973856
1 0.600735294117647 0.26666666666666666 0.010294117647058823 0.0196078431372549
0 0.5926470588235294 0.2758169934640523 0.006617647058823529 0.02483660130718954
0 0.575735294117647 0.22875816993464052 0.008088235294117648 0.022222222222222223
1 0.5411764705882353 0.22875816993464052 0.0058823529411764705 0.02091503267973856
1 0.5470588235294118 0.2235294117647059 0.008823529411764706 0.026143790849673203
0 0.6566176470588235 0.1450980392156863 0.0058823529411764705 0.02091503267973856
0 0.6470588235294118 0.1437908496732026 0.007352941176470588 0.018300653594771243
0 0.6705882352941176 0.036601307189542485 0.006617647058823529 0.023529411764705882
0 0.6588235294117647 0.011764705882352941 0.006617647058823529 0.023529411764705882
0 0.7338235294117647 0.07450980392156863 0.006617647058823529 0.02483660130718954
0 0.7264705882352941 0.07058823529411765 0.0058823529411764705 0.023529411764705882
0 0.7419117647058824 0.050980392156862744 0.0058823529411764705 0.0196078431372549
1 0.7411764705882353 0.05751633986928104 0.008823529411764706 0.0196078431372549
1 0.17794117647058824 0.16470588235294117 0.04411764705882353 0.04183006535947712
1 0.725735294117647 0.01045751633986928 0.023529411764705882 0.022222222222222223
