1 0.646875 0.17592592592592593 0.009375 0.011111111111111112
1 0.6166666666666667 0.2074074074074074 0.010416666666666666 0.014814814814814815
1 0.5979166666666667 0.21481481481481482 0.011458333333333333 0.014814814814814815
1 0.571875 0.27037037037037037 0.014583333333333334 0.016666666666666666
1 0.603125 0.24074074074074073 0.010416666666666666 0.016666666666666666
0 0.653125 0.22962962962962963 0.003125 0.016666666666666666
0 0.6895833333333333 0.2962962962962963 0.003125 0.024074074074074074
0 0.703125 0.3037037037037037 0.003125 0.018518518518518517
1 0.6979166666666666 0.2796296296296296 0.013541666666666667 0.022222222222222223
1 0.6020833333333333 0.29814814814814816 0.013541666666666667 0.020370370370370372
1 0.59375 0.3388888888888889 0.013541666666666667 0.020370370370370372
1 0.5072916666666667 0.37222222222222223 0.016666666666666666 0.027777777777777776
1 0.615625 0.2537037037037037 0.015625 0.03148148148148148
1 0.6239583333333333 0.3592592592592593 0.004166666666666667 0.020370370370370372
0 0.6229166666666667 0.3574074074074074 0.005208333333333333 0.022222222222222223
1 0.6354166666666666 0.3314814814814815 0.003125 0.018518518518518517
1 0.6739583333333333 0.3648148148148148 0.015625 0.024074074074074074
0 0.6864583333333333 0.39444444444444443 0.005208333333333333 0.020370370370370372
0 0.6822916666666666 0.4 0.003125 0.014814814814814815
1 0.675 0.39814814814814814 0.009375 0.020370370370370372
0 0.675 0.3925925925925926 0.005208333333333333 0.016666666666666666
1 0.634375 0.3962962962962963 0.005208333333333333 0.018518518518518517
0 0.6354166666666666 0.39444444444444443 0.004166666666666667 0.014814814814814815
0 0.6354166666666666 0.3925925925925926 0.004166666666666667 0.020370370370370372
0 0.23020833333333332 0.32222222222222224 0.005208333333333333 0.02962962962962963
0 0.3802083333333333 0.25925925925925924 0.004166666666666667 0.022222222222222223
0 0.384375 0.25925925925925924 0.003125 0.016666666666666666
0 0.3875 0.2574074074074074 0.004166666666666667 0.022222222222222223
0 0.3875 0.3851851851851852 0.00625 0.024074074074074074
0 0.39166666666666666 0.387037037037037 0.005208333333333333 0.024074074074074074
0 0.35104166666666664 0.5074074074074074 0.003125 0.020370370370370372
1 0.553125 0.4 0.03333333333333333 0.10185185185185185
1 0.590625 0.40555555555555556 0.023958333333333335 0.053703703703703705
1 0.49583333333333335 0.5 0.051041666666666666 0.1425925925925926
1 0.425 0.4925925925925926 0.036458333333333336 0.07962962962962963
1 0.47291666666666665 0.912962962962963 0.07604166666666666 0.17222222222222222
1 0.025 0.9314814814814815 0.03125 0.04259259259259259
0 0.20625 0.5833333333333334 0.014583333333333334 0.022222222222222223
1 0.26458333333333334 0.5351851851851852 0.042708333333333334 0.04259259259259259
1 0.26979166666666665 0.5833333333333334 0.034375 0.05185185185185185
1 0.25416666666666665 0.6796296296296296 0.022916666666666665 0.027777777777777776
1 0.37083333333333335 0.6518518518518519 0.036458333333333336 0.07037037037037037
1 0.13333333333333333 0.7203703703703703 0.021875 0.027777777777777776
0 0.13333333333333333 0.7092592592592593 0.009375 0.03888888888888889
0 0.12916666666666668 0.7129629629629629 0.007291666666666667 0.03148148148148148
0 0.125 0.7129629629629629 0.009375 0.03148148148148148
0 0.859375 0.7666666666666667 0.009375 0.022222222222222223
0 0.9270833333333334 0.8037037037037037 0.011458333333333333 0.046296296296296294
1 0.89375 0.7574074074074074 0.065625 0.10740740740740741
1 0.9041666666666667 0.6944444444444444 0.027083333333333334 0.04814814814814815
1 0.609375 0.6129629629629629 0.009375 0.02962962962962963
0 0.6104166666666667 0.6092592592592593 0.00625 0.024074074074074074
0 0.6104166666666667 0.6074074074074074 0.008333333333333333 0.02962962962962963
1 0.7583333333333333 0.4703703703703704 0.016666666666666666 0.020370370370370372
0 0.7572916666666667 0.4666666666666667 0.00625 0.027777777777777776
1 0.7604166666666666 0.5611111111111111 0.020833333333333332 0.027777777777777776
0 0.7604166666666666 0.5592592592592592 0.009375 0.02962962962962963
0 0.759375 0.5592592592592592 0.00625 0.025925925925925925
1 0.7875 0.7037037037037037 0.0375 0.03888888888888889
0 0.7979166666666667 0.6981481481481482 0.009375 0.024074074074074074
1 0.8666666666666667 0.4777777777777778 0.034375 0.037037037037037035
1 0.8854166666666666 0.5462962962962963 0.029166666666666667 0.03888888888888889
0 0.8791666666666667 0.5518518518518518 0.011458333333333333 0.027777777777777776
0 0.890625 0.5518518518518518 0.008333333333333333 0.014814814814814815
0 0.8958333333333334 0.48148148148148145 0.00625 0.025925925925925925
0 0.9052083333333333 0.48518518518518516 0.00625 0.020370370370370372
1 0.9166666666666666 0.5296296296296297 0.021875 0.022222222222222223
0 0.9166666666666666 0.5259259259259259 0.008333333333333333 0.025925925925925925
1 0.9354166666666667 0.5166666666666667 0.016666666666666666 0.018518518518518517
0 0.9354166666666667 0.5074074074074074 0.010416666666666666 0.024074074074074074
1 0.9770833333333333 0.5333333333333333 0.019791666666666666 0.024074074074074074
0 0.9791666666666666 0.5277777777777778 0.011458333333333333 0.027777777777777776
1 0.9916666666666667 0.55 0.016666666666666666 0.022222222222222223
0 0.99375 0.5444444444444444 0.009375 0.024074074074074074
