0 0.5588235294117647 0.7294117647058823 0.02426470588235294 0.09934640522875816
0 0.6279411764705882 0.74640522875817 0.019852941176470587 0.09281045751633987
0 0.6389705882352941 0.730718954248366 0.022058823529411766 0.09411764705882353
0 0.7727941176470589 0.6640522875816993 0.019852941176470587 0.08366013071895424
0 0.8088235294117647 0.6967320261437908 0.02426470588235294 0.07712418300653595
0 0.6911764705882353 0.5869281045751634 0.01838235294117647 0.0784313725490196
0 0.05220588235294118 0.7294117647058823 0.027205882352941177 0.10065359477124183
0 0.09044117647058823 0.673202614379085 0.025 0.09542483660130718
0 0.09632352941176471 0.4993464052287582 0.01838235294117647 0.06928104575163399
0 0.11985294117647059 0.49411764705882355 0.021323529411764706 0.06797385620915032
0 0.13014705882352942 0.39738562091503266 0.015441176470588236 0.06013071895424837
0 0.09264705882352942 0.38562091503267976 0.011029411764705883 0.058823529411764705
0 0.10955882352941176 0.40261437908496733 0.013970588235294118 0.032679738562091505
0 0.33308823529411763 0.39869281045751637 0.016911764705882352 0.05359477124183006
1 0.43823529411764706 0.4143790849673203 0.01911764705882353 0.048366013071895426
0 0.5522058823529412 0.4745098039215686 0.013235294117647059 0.06797385620915032
0 0.6301470588235294 0.44836601307189544 0.01764705882352941 0.06405228758169934
0 0.6588235294117647 0.45359477124183006 0.01838235294117647 0.06013071895424837
0 0.6058823529411764 0.45751633986928103 0.022058823529411766 0.06405228758169934
0 0.6014705882352941 0.4588235294117647 0.014705882352941176 0.043137254901960784
0 0.5558823529411765 0.2954248366013072 0.011764705882352941 0.05359477124183006
0 0.5411764705882353 0.2980392156862745 0.008823529411764706 0.0392156862745098
0 0.5036764705882353 0.40522875816993464 0.015441176470588236 0.04183006535947712
1 0.6463235294117647 0.3176470588235294 0.06102941176470588 0.06535947712418301
0 0.7470588235294118 0.6379084967320261 0.01911764705882353 0.07320261437908497
0 0.9014705882352941 0.4222222222222222 0.0125 0.06405228758169934
0 0.9455882352941176 0.40784313725490196 0.020588235294117647 0.06274509803921569
0 0.9441176470588235 0.4013071895424837 0.01764705882352941 0.06274509803921569
1 0.6985294117647058 0.2954248366013072 0.06691176470588235 0.09281045751633987
1 0.7588235294117647 0.3176470588235294 0.05955882352941176 0.06274509803921569
1 0.8080882352941177 0.3137254901960784 0.07279411764705883 0.06535947712418301
1 0.8654411764705883 0.31241830065359477 0.07352941176470588 0.07320261437908497
1 0.9544117647058824 0.31633986928104574 0.08529411764705883 0.06274509803921569
1 0.12794117647058822 0.28366013071895424 0.033823529411764704 0.06405228758169934
1 0.022794117647058822 0.2758169934640523 0.04191176470588235 0.07973856209150326
1 0.08014705882352942 0.22483660130718955 0.06544117647058824 0.044444444444444446
1 0.12573529411764706 0.2261437908496732 0.05220588235294118 0.04183006535947712
1 0.028676470588235293 0.2196078431372549 0.05808823529411765 0.04967320261437908
1 0.18529411764705883 0.21176470588235294 0.04191176470588235 0.043137254901960784
1 0.22205882352941175 0.21830065359477124 0.04779411764705882 0.0392156862745098
1 0.28308823529411764 0.2169934640522876 0.03897058823529412 0.040522875816993466
1 0.31985294117647056 0.2196078431372549 0.04632352941176471 0.0457516339869281
1 0.3669117647058823 0.22745098039215686 0.04779411764705882 0.04967320261437908
1 0.40588235294117647 0.22875816993464052 0.052941176470588235 0.043137254901960784
1 0.46838235294117647 0.22875816993464052 0.05073529411764706 0.044444444444444446
1 0.5220588235294118 0.23790849673202613 0.052941176470588235 0.04967320261437908
1 0.5816176470588236 0.2326797385620915 0.027941176470588237 0.043137254901960784
1 0.6191176470588236 0.23006535947712417 0.03676470588235294 0.054901960784313725
1 0.6639705882352941 0.22745098039215686 0.03235294117647059 0.048366013071895426
1 0.7088235294117647 0.2326797385620915 0.039705882352941174 0.050980392156862744
1 0.8580882352941176 0.24052287581699347 0.03308823529411765 0.044444444444444446
1 0.9286764705882353 0.24052287581699347 0.041176470588235294 0.050980392156862744
1 0.9742647058823529 0.23790849673202613 0.0375 0.04967320261437908
1 0.05955882352941176 0.10326797385620914 0.05367647058823529 0.032679738562091505
0 0.052941176470588235 0.10326797385620914 0.007352941176470588 0.03398692810457516
1 0.1676470588235294 0.10718954248366012 0.052941176470588235 0.032679738562091505
1 0.5139705882352941 0.0718954248366013 0.016176470588235296 0.03137254901960784
1 0.7544117647058823 0.12156862745098039 0.045588235294117645 0.03137254901960784
0 0.7595588235294117 0.12026143790849673 0.005147058823529412 0.03398692810457516
1 0.8477941176470588 0.12549019607843137 0.05220588235294118 0.030065359477124184
1 0.763235294117647 0.050980392156862744 0.029411764705882353 0.02091503267973856
1 0.8455882352941176 0.03790849673202614 0.020588235294117647 0.018300653594771243
1 0.8654411764705883 0.040522875816993466 0.020588235294117647 0.01699346405228758
1 0.8816176470588235 0.0392156862745098 0.01911764705882353 0.0196078431372549
