0 0.023958333333333335 0.5435185185185185 0.010416666666666666 0.03425925925925926
0 0.026041666666666668 0.575925925925926 0.010416666666666666 0.041666666666666664
0 0.06354166666666666 0.5055555555555555 0.008333333333333333 0.028703703703703703
0 0.0734375 0.5064814814814815 0.0078125 0.02962962962962963
0 0.065625 0.5231481481481481 0.007291666666666667 0.03148148148148148
0 0.058854166666666666 0.5333333333333333 0.009895833333333333 0.03148148148148148
0 0.06145833333333333 0.5638888888888889 0.007291666666666667 0.03518518518518519
0 0.06614583333333333 0.5740740740740741 0.005729166666666666 0.03888888888888889
0 0.0734375 0.5740740740740741 0.008854166666666666 0.037037037037037035
0 0.07135416666666666 0.5648148148148148 0.008854166666666666 0.03888888888888889
0 0.07291666666666667 0.5546296296296296 0.0078125 0.037037037037037035
0 0.009895833333333333 0.625 0.013020833333333334 0.04814814814814815
0 0.0046875 0.6537037037037037 0.009895833333333333 0.03611111111111111
0 0.005208333333333333 0.6842592592592592 0.0109375 0.040740740740740744
0 0.00625 0.7212962962962963 0.013020833333333334 0.05555555555555555
0 0.022916666666666665 0.7111111111111111 0.014583333333333334 0.06296296296296296
0 0.03333333333333333 0.6925925925925925 0.013541666666666667 0.06111111111111111
0 0.028645833333333332 0.7953703703703704 0.029166666666666667 0.07037037037037037
1 0.03333333333333333 0.8148148148148148 0.0515625 0.05740740740740741
0 0.0234375 0.8305555555555556 0.0234375 0.06388888888888888
0 0.07239583333333334 0.8009259259259259 0.0203125 0.08518518518518518
1 0.07291666666666667 0.8277777777777777 0.0171875 0.06111111111111111
0 0.11875 0.9287037037037037 0.0265625 0.08611111111111111
1 0.11979166666666667 0.9574074074074074 0.030729166666666665 0.08148148148148149
0 0.12447916666666667 0.9731481481481481 0.025 0.053703703703703705
0 0.0859375 0.5277777777777778 0.00625 0.03425925925925926
0 0.0921875 0.5277777777777778 0.0067708333333333336 0.032407407407407406
0 0.10677083333333333 0.5111111111111111 0.0067708333333333336 0.025925925925925925
0 0.140625 0.5064814814814815 0.00625 0.024074074074074074
0 0.175 0.5472222222222223 0.010416666666666666 0.030555555555555555
0 0.18072916666666666 0.4842592592592593 0.0078125 0.025925925925925925
0 0.18697916666666667 0.48518518518518516 0.005729166666666666 0.025925925925925925
0 0.184375 0.4962962962962963 0.0046875 0.027777777777777776
0 0.1921875 0.49537037037037035 0.0046875 0.028703703703703703
0 0.19375 0.4935185185185185 0.005208333333333333 0.028703703703703703
0 0.20104166666666667 0.4675925925925926 0.005729166666666666 0.022222222222222223
0 0.20520833333333333 0.5 0.0046875 0.027777777777777776
0 0.22447916666666667 0.5083333333333333 0.005208333333333333 0.025
0 0.24375 0.5027777777777778 0.00625 0.02962962962962963
0 0.2453125 0.4638888888888889 0.0036458333333333334 0.022222222222222223
0 0.25416666666666665 0.47314814814814815 0.0046875 0.025925925925925925
0 0.27395833333333336 0.4638888888888889 0.004166666666666667 0.020370370370370372
0 0.28489583333333335 0.48333333333333334 0.005208333333333333 0.027777777777777776
0 0.2890625 0.4666666666666667 0.003125 0.021296296296296296
0 0.27291666666666664 0.41574074074074074 0.0026041666666666665 0.012962962962962963
0 0.275 0.41388888888888886 0.0020833333333333333 0.012037037037037037
0 0.27395833333333336 0.425 0.0036458333333333334 0.012962962962962963
0 0.25364583333333335 0.4537037037037037 0.004166666666666667 0.01574074074074074
0 0.2791666666666667 0.42777777777777776 0.003125 0.012037037037037037
0 0.2796875 0.43333333333333335 0.0026041666666666665 0.014814814814814815
0 0.284375 0.4166666666666667 0.003125 0.014814814814814815
0 0.2890625 0.412962962962963 0.0026041666666666665 0.011111111111111112
0 0.2890625 0.4287037037037037 0.0026041666666666665 0.014814814814814815
0 0.2921875 0.42314814814814816 0.003125 0.018518518518518517
0 0.3067708333333333 0.4444444444444444 0.0036458333333333334 0.01574074074074074
0 0.31979166666666664 0.4583333333333333 0.004166666666666667 0.019444444444444445
0 0.3234375 0.4601851851851852 0.0036458333333333334 0.019444444444444445
0 0.328125 0.4648148148148148 0.0046875 0.018518518518518517
0 0.3338541666666667 0.4777777777777778 0.005729166666666666 0.025
1 0.3171875 0.49074074074074076 0.0375 0.023148148148148147
1 0.30416666666666664 0.44074074074074077 0.022916666666666665 0.01574074074074074
1 0.3140625 0.42314814814814816 0.007291666666666667 0.011111111111111112
1 0.33125 0.44166666666666665 0.009375 0.014814814814814815
1 0.3338541666666667 0.4305555555555556 0.009375 0.013888888888888888
1 0.3453125 0.44166666666666665 0.010416666666666666 0.017592592592592594
1 0.36875 0.44166666666666665 0.022395833333333334 0.03333333333333333
1 0.31145833333333334 0.4842592592592593 0.036458333333333336 0.021296296296296296
1 0.3104166666666667 0.4787037037037037 0.03333333333333333 0.018518518518518517
1 0.30885416666666665 0.47314814814814815 0.0328125 0.016666666666666666
1 0.3015625 0.4648148148148148 0.025520833333333333 0.016666666666666666
1 0.2984375 0.45740740740740743 0.027604166666666666 0.014814814814814815
1 0.325 0.5120370370370371 0.04010416666666667 0.02962962962962963
1 0.23333333333333334 0.45925925925925926 0.025 0.021296296296296296
1 0.23125 0.4675925925925926 0.0265625 0.018518518518518517
1 0.22552083333333334 0.4722222222222222 0.0328125 0.021296296296296296
1 0.21770833333333334 0.48703703703703705 0.040625 0.022222222222222223
1 0.21614583333333334 0.49166666666666664 0.03958333333333333 0.023148148148148147
1 0.10989583333333333 0.5342592592592592 0.0265625 0.03981481481481482
1 0.13958333333333334 0.5324074074074074 0.026041666666666668 0.03981481481481482
1 0.16666666666666666 0.5333333333333333 0.023958333333333335 0.03611111111111111
1 0.19583333333333333 0.5296296296296297 0.021875 0.037037037037037035
1 0.2203125 0.5287037037037037 0.022395833333333334 0.03148148148148148
1 0.22083333333333333 0.5407407407407407 0.050520833333333334 0.03518518518518519
1 0.17395833333333333 0.5537037037037037 0.0203125 0.023148148148148147
0 0.22447916666666667 0.5537037037037037 0.007291666666666667 0.030555555555555555
1 0.22447916666666667 0.562037037037037 0.019791666666666666 0.024074074074074074
0 0.375 0.4842592592592593 0.004166666666666667 0.01574074074074074
0 0.38177083333333334 0.4898148148148148 0.0046875 0.016666666666666666
0 0.384375 0.4962962962962963 0.005729166666666666 0.019444444444444445
1 0.38125 0.49907407407407406 0.005729166666666666 0.014814814814814815
1 0.384375 0.5037037037037037 0.0046875 0.014814814814814815
0 0.3765625 0.5018518518518519 0.0046875 0.025925925925925925
0 0.3723958333333333 0.5185185185185185 0.00625 0.022222222222222223
0 0.3609375 0.5222222222222223 0.005729166666666666 0.018518518518518517
0 0.3609375 0.5314814814814814 0.00625 0.025
0 0.3421875 0.549074074074074 0.008854166666666666 0.03148148148148148
0 0.32395833333333335 0.5527777777777778 0.008854166666666666 0.02962962962962963
0 0.3145833333333333 0.575925925925926 0.008854166666666666 0.032407407407407406
0 0.30520833333333336 0.6037037037037037 0.009375 0.03611111111111111
0 0.3234375 0.6324074074074074 0.0109375 0.04351851851851852
0 0.290625 0.6407407407407407 0.011979166666666667 0.04722222222222222
0 0.2828125 0.6851851851851852 0.0109375 0.05462962962962963
0 0.19635416666666666 0.7287037037037037 0.017708333333333333 0.06018518518518518
0 0.2515625 0.7157407407407408 0.016145833333333335 0.06296296296296296
0 0.24791666666666667 0.7648148148148148 0.0171875 0.06666666666666667
0 0.2890625 0.7574074074074074 0.015104166666666667 0.06851851851851852
0 0.3421875 0.7185185185185186 0.015625 0.049074074074074076
1 0.371875 0.5277777777777778 0.005208333333333333 0.020370370370370372
1 0.3609375 0.5416666666666666 0.005208333333333333 0.019444444444444445
1 0.3416666666666667 0.5592592592592592 0.0067708333333333336 0.023148148148148147
1 0.32395833333333335 0.562962962962963 0.008333333333333333 0.024074074074074074
1 0.3140625 0.5861111111111111 0.0067708333333333336 0.026851851851851852
1 0.30416666666666664 0.6175925925925926 0.008333333333333333 0.030555555555555555
1 0.3421875 0.7388888888888889 0.016666666666666666 0.04722222222222222
1 0.25625 0.5259259259259259 0.03125 0.032407407407407406
1 0.28020833333333334 0.5222222222222223 0.028125 0.030555555555555555
1 0.38697916666666665 0.44814814814814813 0.011979166666666667 0.017592592592592594
1 0.37864583333333335 0.45555555555555555 0.011979166666666667 0.016666666666666666
1 0.39947916666666666 0.4583333333333333 0.013541666666666667 0.016666666666666666
1 0.4 0.4685185185185185 0.014583333333333334 0.018518518518518517
0 0.4171875 0.45925925925925926 0.005208333333333333 0.018518518518518517
1 0.4328125 0.47962962962962963 0.0171875 0.020370370370370372
1 0.41875 0.4898148148148148 0.017708333333333333 0.025
1 0.45 0.49537037037037035 0.018229166666666668 0.028703703703703703
1 0.42552083333333335 0.5101851851851852 0.017708333333333333 0.028703703703703703
1 0.4203125 0.5398148148148149 0.022916666666666665 0.03888888888888889
1 0.45416666666666666 0.5185185185185185 0.019270833333333334 0.030555555555555555
1 0.4088541666666667 0.5796296296296296 0.026041666666666668 0.04537037037037037
1 0.45677083333333335 0.5712962962962963 0.0265625 0.04259259259259259
1 0.40625 0.6342592592592593 0.0375 0.07407407407407407
1 0.45989583333333334 0.6175925925925926 0.030208333333333334 0.053703703703703705
1 0.36041666666666666 0.8194444444444444 0.05677083333333333 0.12129629629629629
1 0.453125 0.8305555555555556 0.05625 0.11666666666666667
0 0.47708333333333336 0.49537037037037035 0.004166666666666667 0.026851851851851852
0 0.4739583333333333 0.49444444444444446 0.004166666666666667 0.020370370370370372
0 0.471875 0.4935185185185185 0.0036458333333333334 0.018518518518518517
1 0.4890625 0.44537037037037036 0.010416666666666666 0.01574074074074074
1 0.4890625 0.4685185185185185 0.013541666666666667 0.019444444444444445
1 0.496875 0.4305555555555556 0.014583333333333334 0.028703703703703703
0 0.5125 0.43425925925925923 0.0026041666666666665 0.012962962962962963
1 0.5161458333333333 0.43148148148148147 0.008333333333333333 0.012037037037037037
1 0.5161458333333333 0.425 0.009375 0.010185185185185186
1 0.5145833333333333 0.4203703703703704 0.008333333333333333 0.012962962962962963
0 0.5052083333333334 0.4222222222222222 0.0026041666666666665 0.009259259259259259
1 0.5057291666666667 0.42685185185185187 0.003125 0.007407407407407408
0 0.48072916666666665 0.4305555555555556 0.003125 0.011111111111111112
1 0.48072916666666665 0.43333333333333335 0.0036458333333333334 0.008333333333333333
1 0.4890625 0.412962962962963 0.00625 0.012037037037037037
0 0.5177083333333333 0.44537037037037036 0.0036458333333333334 0.013888888888888888
0 0.5088541666666667 0.46111111111111114 0.0046875 0.012962962962962963
0 0.5125 0.46574074074074073 0.003125 0.013888888888888888
0 0.5177083333333333 0.4685185185185185 0.003125 0.013888888888888888
0 0.515625 0.4740740740740741 0.004166666666666667 0.016666666666666666
0 0.5177083333333333 0.48333333333333334 0.0046875 0.020370370370370372
0 0.5302083333333333 0.4685185185185185 0.0036458333333333334 0.019444444444444445
0 0.5338541666666666 0.47314814814814815 0.004166666666666667 0.012962962962962963
0 0.5270833333333333 0.47685185185185186 0.0036458333333333334 0.013888888888888888
0 0.5260416666666666 0.4787037037037037 0.004166666666666667 0.013888888888888888
0 0.5244791666666667 0.48333333333333334 0.0046875 0.013888888888888888
0 0.5234375 0.4898148148148148 0.0046875 0.01574074074074074
0 0.5208333333333334 0.49537037037037035 0.00625 0.016666666666666666
0 0.5328125 0.49166666666666664 0.005729166666666666 0.020370370370370372
0 0.53125 0.512962962962963 0.005729166666666666 0.022222222222222223
0 0.5640625 0.47685185185185186 0.004166666666666667 0.019444444444444445
0 0.5645833333333333 0.4935185185185185 0.004166666666666667 0.024074074074074074
0 0.5458333333333333 0.49074074074074076 0.0046875 0.018518518518518517
0 0.5442708333333334 0.49907407407407406 0.005729166666666666 0.020370370370370372
0 0.5473958333333333 0.5009259259259259 0.0046875 0.016666666666666666
0 0.5479166666666667 0.5138888888888888 0.00625 0.025
0 0.55625 0.4935185185185185 0.0046875 0.025925925925925925
0 0.5671875 0.4925925925925926 0.0036458333333333334 0.022222222222222223
0 0.5786458333333333 0.4888888888888889 0.005729166666666666 0.020370370370370372
0 0.5723958333333333 0.4981481481481482 0.005208333333333333 0.020370370370370372
0 0.5713541666666667 0.5277777777777778 0.00625 0.025925925925925925
0 0.5807291666666666 0.5 0.005729166666666666 0.027777777777777776
0 0.584375 0.5101851851851852 0.0046875 0.024074074074074074
0 0.5760416666666667 0.5185185185185185 0.005208333333333333 0.022222222222222223
0 0.5807291666666666 0.5212962962962963 0.005729166666666666 0.026851851851851852
0 0.6020833333333333 0.49537037037037035 0.005208333333333333 0.022222222222222223
0 0.6010416666666667 0.5287037037037037 0.005729166666666666 0.024074074074074074
0 0.6046875 0.5416666666666666 0.0067708333333333336 0.03148148148148148
0 0.5958333333333333 0.5064814814814815 0.00625 0.026851851851851852
0 0.6078125 0.4898148148148148 0.005208333333333333 0.025
0 0.6098958333333333 0.5157407407407407 0.00625 0.024074074074074074
0 0.6145833333333334 0.5166666666666667 0.005729166666666666 0.027777777777777776
0 0.5942708333333333 0.46574074074074073 0.00625 0.013888888888888888
0 0.6197916666666666 0.49444444444444446 0.00625 0.018518518518518517
0 0.6265625 0.4962962962962963 0.005729166666666666 0.01574074074074074
0 0.625 0.5120370370370371 0.0046875 0.025925925925925925
0 0.6291666666666667 0.5175925925925926 0.00625 0.030555555555555555
0 0.6348958333333333 0.5175925925925926 0.005208333333333333 0.030555555555555555
1 0.5005208333333333 0.48518518518518516 0.010416666666666666 0.024074074074074074
1 0.5088541666666667 0.4638888888888889 0.0036458333333333334 0.013888888888888888
1 0.5114583333333333 0.47129629629629627 0.0026041666666666665 0.013888888888888888
1 0.5145833333333333 0.4787037037037037 0.0026041666666666665 0.013888888888888888
1 0.5171875 0.48703703703703705 0.004166666666666667 0.013888888888888888
1 0.5208333333333334 0.5027777777777778 0.005729166666666666 0.016666666666666666
1 0.5328125 0.49722222222222223 0.0046875 0.012037037037037037
1 0.53125 0.5166666666666667 0.005208333333333333 0.01574074074074074
1 0.5442708333333334 0.5055555555555555 0.0046875 0.012962962962962963
1 0.5479166666666667 0.5231481481481481 0.005729166666666666 0.019444444444444445
0 0.5567708333333333 0.5101851851851852 0.005729166666666666 0.021296296296296296
0 0.5619791666666667 0.5157407407407407 0.005208333333333333 0.018518518518518517
0 0.559375 0.5268518518518519 0.00625 0.025
1 0.5567708333333333 0.5194444444444445 0.005208333333333333 0.01574074074074074
1 0.5588541666666667 0.5361111111111111 0.005729166666666666 0.016666666666666666
1 0.5619791666666667 0.5259259259259259 0.005208333333333333 0.018518518518518517
1 0.5708333333333333 0.5342592592592592 0.007291666666666667 0.022222222222222223
1 0.5802083333333333 0.5342592592592592 0.0067708333333333336 0.018518518518518517
1 0.5755208333333334 0.5231481481481481 0.008854166666666666 0.019444444444444445
1 0.6005208333333333 0.5370370370370371 0.0067708333333333336 0.020370370370370372
1 0.6036458333333333 0.55 0.008333333333333333 0.022222222222222223
1 0.6260416666666667 0.5055555555555555 0.011979166666666667 0.017592592592592594
1 0.6197916666666666 0.5009259259259259 0.0109375 0.014814814814814815
0 0.653125 0.4935185185185185 0.005729166666666666 0.019444444444444445
0 0.6661458333333333 0.49444444444444446 0.005729166666666666 0.016666666666666666
1 0.6536458333333334 0.5 0.008854166666666666 0.012037037037037037
1 0.6671875 0.4981481481481482 0.010416666666666666 0.013888888888888888
0 0.659375 0.5398148148148149 0.007291666666666667 0.03518518518518519
0 0.671875 0.5175925925925926 0.0078125 0.024074074074074074
1 0.6723958333333333 0.525 0.009375 0.019444444444444445
0 0.7072916666666667 0.5351851851851852 0.00625 0.03333333333333333
0 0.6854166666666667 0.5814814814814815 0.0078125 0.040740740740740744
1 0.5046875 0.5138888888888888 0.018229166666666668 0.02962962962962963
1 0.496875 0.5564814814814815 0.04791666666666667 0.09722222222222222
1 0.5322916666666667 0.5425925925925926 0.024479166666666666 0.037037037037037035
1 0.5572916666666666 0.6222222222222222 0.03125 0.05
0 0.6083333333333333 0.5851851851851851 0.009895833333333333 0.03981481481481482
0 0.6234375 0.5907407407407408 0.008333333333333333 0.03425925925925926
0 0.6380208333333334 0.5935185185185186 0.010416666666666666 0.02962962962962963
0 0.6651041666666667 0.6055555555555555 0.010416666666666666 0.03796296296296296
0 0.5942708333333333 0.6537037037037037 0.0125 0.05
0 0.6036458333333333 0.6388888888888888 0.010416666666666666 0.041666666666666664
0 0.6401041666666667 0.6611111111111111 0.016145833333333335 0.049074074074074076
0 0.6604166666666667 0.6472222222222223 0.0109375 0.041666666666666664
0 0.54375 0.8175925925925925 0.019270833333333334 0.0962962962962963
0 0.5765625 0.7888888888888889 0.015104166666666667 0.0787037037037037
0 0.5786458333333333 0.7944444444444444 0.0171875 0.0824074074074074
0 0.5984375 0.7361111111111112 0.0140625 0.06388888888888888
0 0.603125 0.7379629629629629 0.017708333333333333 0.06851851851851852
0 0.6234375 0.762962962962963 0.0125 0.07037037037037037
0 0.621875 0.7675925925925926 0.010416666666666666 0.07407407407407407
1 0.6473958333333333 0.7351851851851852 0.05572916666666667 0.07592592592592592
1 0.6760416666666667 0.5055555555555555 0.0328125 0.026851851851851852
1 0.6994791666666667 0.5111111111111111 0.025 0.028703703703703703
1 0.7197916666666667 0.5157407407407407 0.0375 0.028703703703703703
1 0.7411458333333333 0.5212962962962963 0.03802083333333333 0.026851851851851852
1 0.6078125 0.5935185185185186 0.007291666666666667 0.025
1 0.6234375 0.5972222222222222 0.0078125 0.025
1 0.603125 0.6509259259259259 0.010416666666666666 0.037037037037037035
1 0.59375 0.6611111111111111 0.014583333333333334 0.03981481481481482
1 0.6401041666666667 0.6712962962962963 0.018229166666666668 0.04351851851851852
1 0.6598958333333333 0.6564814814814814 0.011979166666666667 0.03796296296296296
1 0.7078125 0.6638888888888889 0.011979166666666667 0.041666666666666664
1 0.6380208333333334 0.6018518518518519 0.008333333333333333 0.030555555555555555
1 0.6645833333333333 0.6157407407407407 0.010416666666666666 0.03518518518518519
0 0.709375 0.6518518518518519 0.013020833333333334 0.04537037037037037
1 0.7260416666666667 0.8888888888888888 0.08697916666666666 0.11388888888888889
1 0.6015625 0.5018518518518519 0.004166666666666667 0.01574074074074074
1 0.7265625 0.48703703703703705 0.078125 0.04351851851851852
1 0.7401041666666667 0.5037037037037037 0.030729166666666665 0.022222222222222223
1 0.7630208333333334 0.5092592592592593 0.034375 0.021296296296296296
1 0.7229166666666667 0.6018518518518519 0.0515625 0.04259259259259259
1 0.7880208333333333 0.487962962962963 0.027083333333333334 0.021296296296296296
1 0.7729166666666667 0.49722222222222223 0.0359375 0.030555555555555555
1 0.7994791666666666 0.5037037037037037 0.03229166666666667 0.025925925925925925
1 0.7692708333333333 0.5259259259259259 0.03958333333333333 0.028703703703703703
1 0.8125 0.5203703703703704 0.033854166666666664 0.026851851851851852
1 0.8177083333333334 0.487962962962963 0.027604166666666666 0.021296296296296296
1 0.8380208333333333 0.5 0.03125 0.024074074074074074
1 0.8354166666666667 0.4842592592592593 0.0265625 0.014814814814814815
1 0.8427083333333333 0.4925925925925926 0.0296875 0.022222222222222223
1 0.8385416666666666 0.5 0.03229166666666667 0.023148148148148147
1 0.8703125 0.49537037037037035 0.027604166666666666 0.025
1 0.8697916666666666 0.48518518518518516 0.025520833333333333 0.019444444444444445
1 0.89375 0.48148148148148145 0.028125 0.021296296296296296
1 0.878125 0.46944444444444444 0.06197916666666667 0.041666666666666664
1 0.8979166666666667 0.49074074074074076 0.029166666666666667 0.024074074074074074
1 0.9161458333333333 0.48148148148148145 0.0234375 0.021296296296296296
1 0.9213541666666667 0.4740740740740741 0.025 0.019444444444444445
1 0.9296875 0.48703703703703705 0.027604166666666666 0.022222222222222223
1 0.9427083333333334 0.47314814814814815 0.022916666666666665 0.018518518518518517
1 0.9411458333333333 0.4787037037037037 0.020833333333333332 0.017592592592592594
1 0.953125 0.4824074074074074 0.022916666666666665 0.020370370370370372
1 0.9614583333333333 0.4722222222222222 0.021875 0.020370370370370372
1 0.9734375 0.47962962962962963 0.025 0.022222222222222223
1 0.9833333333333333 0.46574074074074073 0.028125 0.025
1 0.9921875 0.4759259259259259 0.015104166666666667 0.019444444444444445
0 0.9395833333333333 0.45740740740740743 0.0036458333333333334 0.01574074074074074
0 0.9453125 0.4564814814814815 0.0036458333333333334 0.013888888888888888
0 0.8458333333333333 0.4648148148148148 0.005729166666666666 0.021296296296296296
0 0.9244791666666666 0.45555555555555555 0.004166666666666667 0.01574074074074074
0 0.7859375 0.4675925925925926 0.004166666666666667 0.019444444444444445
1 0.5817708333333333 0.47962962962962963 0.0078125 0.010185185185185186
1 0.6208333333333333 0.6314814814814815 0.034895833333333334 0.05
0 0.7588541666666667 0.5611111111111111 0.009375 0.03888888888888889
0 0.7692708333333333 0.575925925925926 0.010416666666666666 0.03981481481481482
0 0.8015625 0.5796296296296296 0.0078125 0.044444444444444446
0 0.8208333333333333 0.5851851851851851 0.008333333333333333 0.041666666666666664
0 0.7296875 0.6685185185185185 0.015625 0.041666666666666664
0 0.7161458333333334 0.712037037037037 0.011979166666666667 0.049074074074074076
0 0.7484375 0.7833333333333333 0.017708333333333333 0.07685185185185185
0 0.8213541666666667 0.7814814814814814 0.019791666666666666 0.08055555555555556
1 0.7130208333333333 0.7296296296296296 0.0359375 0.03888888888888889
0 0.7083333333333334 0.7314814814814815 0.010416666666666666 0.06666666666666667
0 0.7130208333333333 0.7620370370370371 0.011979166666666667 0.044444444444444446
0 0.7328125 0.7657407407407407 0.013541666666666667 0.0712962962962963
0 0.7203125 0.7564814814814815 0.011458333333333333 0.06944444444444445
1 0.7463541666666667 0.7925925925925926 0.043229166666666666 0.05555555555555555
0 0.7453125 0.7296296296296296 0.010416666666666666 0.058333333333333334
0 0.7442708333333333 0.7185185185185186 0.011458333333333333 0.05740740740740741
0 0.7578125 0.6898148148148148 0.011979166666666667 0.05925925925925926
0 0.7640625 0.6546296296296297 0.0109375 0.05462962962962963
0 0.7817708333333333 0.6574074074074074 0.010416666666666666 0.053703703703703705
0 0.9114583333333334 0.5592592592592592 0.008333333333333333 0.03611111111111111
0 0.9140625 0.5537037037037037 0.009375 0.03425925925925926
0 0.9244791666666666 0.5601851851851852 0.009895833333333333 0.03425925925925926
0 0.9328125 0.5509259259259259 0.0078125 0.03888888888888889
0 0.9838541666666667 0.6342592592592593 0.011458333333333333 0.05
0 0.9505208333333334 0.637962962962963 0.008854166666666666 0.04537037037037037
0 0.9302083333333333 0.65 0.015104166666666667 0.05092592592592592
0 0.8984375 0.6398148148148148 0.0109375 0.05277777777777778
0 0.9192708333333334 0.5981481481481481 0.011979166666666667 0.028703703703703703
0 0.9171875 0.6296296296296297 0.008333333333333333 0.04351851851851852
0 0.9234375 0.6388888888888888 0.011458333333333333 0.05648148148148148
0 0.9364583333333333 0.637962962962963 0.010416666666666666 0.05092592592592592
1 0.9354166666666667 0.6305555555555555 0.020833333333333332 0.037037037037037035
1 0.9614583333333333 0.6305555555555555 0.021354166666666667 0.03333333333333333
1 0.9 0.6425925925925926 0.0203125 0.05462962962962963
0 0.8057291666666667 0.6805555555555556 0.015104166666666667 0.05925925925925926
0 0.7984375 0.7018518518518518 0.010416666666666666 0.04814814814814815
0 0.7963541666666667 0.7203703703703703 0.009895833333333333 0.06018518518518518
0 0.8010416666666667 0.7296296296296296 0.0109375 0.06574074074074074
0 0.8067708333333333 0.7388888888888889 0.010416666666666666 0.06574074074074074
0 0.8109375 0.7425925925925926 0.010416666666666666 0.06481481481481481
0 0.8171875 0.7435185185185185 0.011979166666666667 0.07407407407407407
0 0.8171875 0.7157407407407408 0.0078125 0.06111111111111111
0 0.8239583333333333 0.725 0.011979166666666667 0.06388888888888888
0 0.83125 0.7638888888888888 0.0109375 0.0787037037037037
1 0.8182291666666667 0.7907407407407407 0.043229166666666666 0.06111111111111111
1 0.85625 0.7518518518518519 0.028645833333333332 0.05
0 0.8760416666666667 0.7694444444444445 0.015625 0.05
1 0.9182291666666667 0.8212962962962963 0.043229166666666666 0.05462962962962963
1 0.9145833333333333 0.8166666666666667 0.044270833333333336 0.05185185185185185
1 0.9026041666666667 0.8037037037037037 0.04114583333333333 0.05092592592592592
0 0.8859375 0.9296296296296296 0.029166666666666667 0.07407407407407407
1 0.8864583333333333 0.9546296296296296 0.03229166666666667 0.08888888888888889
0 0.8359375 0.700925925925926 0.008333333333333333 0.03611111111111111
