1 0.5463235294117647 0.8627450980392157 0.030882352941176472 0.050980392156862744
1 0.5676470588235294 0.5294117647058824 0.015441176470588236 0.0392156862745098
1 0.48161764705882354 0.5137254901960784 0.007352941176470588 0.01699346405228758
1 0.4808823529411765 0.4745098039215686 0.01764705882352941 0.01437908496732026
1 0.4713235294117647 0.3908496732026144 0.006617647058823529 0.011764705882352941
1 0.4823529411764706 0.41568627450980394 0.007352941176470588 0.013071895424836602
1 0.5632352941176471 0.39738562091503266 0.006617647058823529 0.011764705882352941
0 0.23676470588235293 0.9163398692810457 0.004411764705882353 0.0196078431372549
0 0.23308823529411765 0.9124183006535947 0.005147058823529412 0.018300653594771243
1 0.09117647058823529 0.44575163398692813 0.014705882352941176 0.01045751633986928
1 0.5764705882352941 0.33725490196078434 0.019852941176470587 0.030065359477124184
1 0.5125 0.2496732026143791 0.011029411764705883 0.02091503267973856
1 0.575735294117647 0.23137254901960785 0.006617647058823529 0.022222222222222223
1 0.5772058823529411 0.26666666666666666 0.010294117647058823 0.0196078431372549
1 0.5455882352941176 0.3111111111111111 0.005147058823529412 0.00784313725490196
1 0.5375 0.30980392156862746 0.004411764705882353 0.00784313725490196
1 0.55 0.23660130718954248 0.003676470588235294 0.009150326797385621
1 0.5661764705882353 0.2222222222222222 0.005147058823529412 0.006535947712418301
1 0.5588235294117647 0.2457516339869281 0.004411764705882353 0.006535947712418301
1 0.5507352941176471 0.269281045751634 0.004411764705882353 0.006535947712418301
1 0.5433823529411764 0.25098039215686274 0.004411764705882353 0.00784313725490196
1 0.5632352941176471 0.25098039215686274 0.0029411764705882353 0.00784313725490196
1 0.5544117647058824 0.2196078431372549 0.003676470588235294 0.006535947712418301
