0 0.34705882352941175 0.9045751633986928 0.030147058823529412 0.11764705882352941
0 0.3713235294117647 0.9006535947712418 0.022058823529411766 0.11895424836601307
0 0.3941176470588235 0.8915032679738563 0.022794117647058822 0.1111111111111111
0 0.1411764705882353 0.8261437908496732 0.026470588235294117 0.09542483660130718
0 0.047058823529411764 0.7189542483660131 0.025735294117647058 0.09934640522875816
0 0.21985294117647058 0.6039215686274509 0.020588235294117647 0.05751633986928104
0 0.16911764705882354 0.47843137254901963 0.01911764705882353 0.0784313725490196
1 0.1514705882352941 0.4235294117647059 0.022058823529411766 0.06405228758169934
0 0.06911764705882353 0.4875816993464052 0.020588235294117647 0.08496732026143791
0 0.04485294117647059 0.48366013071895425 0.022794117647058822 0.07973856209150326
0 0.29558823529411765 0.31895424836601305 0.011764705882352941 0.06274509803921569
0 0.3044117647058823 0.3215686274509804 0.010294117647058823 0.06274509803921569
0 0.3610294117647059 0.2901960784313726 0.013970588235294118 0.047058823529411764
0 0.36764705882352944 0.2875816993464052 0.013970588235294118 0.04967320261437908
0 0.37941176470588234 0.2823529411764706 0.01911764705882353 0.05228758169934641
0 0.4139705882352941 0.2718954248366013 0.014705882352941176 0.044444444444444446
0 0.42205882352941176 0.2679738562091503 0.0125 0.0457516339869281
0 0.43676470588235294 0.26143790849673204 0.011029411764705883 0.050980392156862744
0 0.40294117647058825 0.4235294117647059 0.013235294117647059 0.07581699346405228
0 0.6470588235294118 0.45751633986928103 0.013970588235294118 0.050980392156862744
0 0.5985294117647059 0.35294117647058826 0.013235294117647059 0.0718954248366013
0 0.5919117647058824 0.34509803921568627 0.011764705882352941 0.0718954248366013
0 0.586764705882353 0.3045751633986928 0.011029411764705883 0.04967320261437908
0 0.5764705882352941 0.2901960784313726 0.0125 0.06405228758169934
0 0.5573529411764706 0.2928104575163399 0.013235294117647059 0.06143790849673202
0 0.03161764705882353 0.10718954248366012 0.010294117647058823 0.043137254901960784
0 0.01911764705882353 0.10588235294117647 0.010294117647058823 0.044444444444444446
0 0.041176470588235294 0.10718954248366012 0.009558823529411765 0.043137254901960784
0 0.06323529411764706 0.13725490196078433 0.011029411764705883 0.0457516339869281
0 0.10514705882352941 0.12549019607843137 0.015441176470588236 0.047058823529411764
0 0.011029411764705883 0.1934640522875817 0.014705882352941176 0.054901960784313725
0 0.005147058823529412 0.19607843137254902 0.009558823529411765 0.030065359477124184
0 0.051470588235294115 0.10326797385620914 0.011764705882352941 0.043137254901960784
0 0.06470588235294118 0.10457516339869281 0.011029411764705883 0.047058823529411764
1 0.08970588235294118 0.09411764705882353 0.03161764705882353 0.03398692810457516
1 0.1676470588235294 0.12156862745098039 0.025 0.03137254901960784
0 0.008088235294117648 0.12679738562091503 0.013235294117647059 0.047058823529411764
0 0.014705882352941176 0.13071895424836602 0.008823529411764706 0.04183006535947712
0 0.020588235294117647 0.14901960784313725 0.011764705882352941 0.048366013071895426
0 0.0058823529411764705 0.08235294117647059 0.007352941176470588 0.03398692810457516
0 0.03455882352941177 0.07320261437908497 0.008823529411764706 0.03790849673202614
0 0.12279411764705882 0.08758169934640522 0.008823529411764706 0.03398692810457516
0 0.10588235294117647 0.08888888888888889 0.010294117647058823 0.03529411764705882
0 0.4808823529411765 0.2496732026143791 0.011764705882352941 0.050980392156862744
0 0.5375 0.23660130718954248 0.011029411764705883 0.048366013071895426
0 0.2985294117647059 0.1607843137254902 0.009558823529411765 0.040522875816993466
0 0.3426470588235294 0.1437908496732026 0.0058823529411764705 0.018300653594771243
0 0.3477941176470588 0.1477124183006536 0.006617647058823529 0.04183006535947712
0 0.3897058823529412 0.12941176470588237 0.009558823529411765 0.04183006535947712
1 0.375 0.17647058823529413 0.04264705882352941 0.030065359477124184
0 0.3779411764705882 0.1607843137254902 0.006617647058823529 0.02875816993464052
0 0.4970588235294118 0.15816993464052287 0.008823529411764706 0.048366013071895426
0 0.48308823529411765 0.1503267973856209 0.009558823529411765 0.044444444444444446
1 0.5507352941176471 0.1477124183006536 0.06691176470588235 0.05228758169934641
0 0.6911764705882353 0.2261437908496732 0.016176470588235296 0.050980392156862744
0 0.7529411764705882 0.27320261437908494 0.010294117647058823 0.058823529411764705
1 0.5669117647058823 0.23398692810457516 0.021323529411764706 0.03529411764705882
1 0.5691176470588235 0.2235294117647059 0.021323529411764706 0.030065359477124184
1 0.5904411764705882 0.21830065359477124 0.021323529411764706 0.0392156862745098
0 0.6036764705882353 0.1869281045751634 0.008823529411764706 0.05228758169934641
0 0.6477941176470589 0.1607843137254902 0.009558823529411765 0.047058823529411764
0 0.6367647058823529 0.15947712418300652 0.0125 0.02875816993464052
0 0.6242647058823529 0.2601307189542484 0.010294117647058823 0.03398692810457516
0 0.6183823529411765 0.24444444444444444 0.010294117647058823 0.05359477124183006
0 0.6727941176470589 0.17254901960784313 0.008088235294117648 0.0392156862745098
0 0.6875 0.16862745098039217 0.010294117647058823 0.047058823529411764
0 0.7 0.15947712418300652 0.009558823529411765 0.03529411764705882
0 0.7176470588235294 0.1411764705882353 0.009558823529411765 0.030065359477124184
0 0.725 0.11895424836601307 0.007352941176470588 0.04183006535947712
0 0.7411764705882353 0.15294117647058825 0.008088235294117648 0.043137254901960784
0 0.7661764705882353 0.14640522875816994 0.009558823529411765 0.027450980392156862
0 0.7816176470588235 0.12679738562091503 0.010294117647058823 0.047058823529411764
0 0.7411764705882353 0.11764705882352941 0.011029411764705883 0.048366013071895426
0 0.7823529411764706 0.09542483660130718 0.009558823529411765 0.040522875816993466
0 0.8235294117647058 0.13725490196078433 0.006617647058823529 0.02091503267973856
0 0.8286764705882353 0.1450980392156863 0.003676470588235294 0.022222222222222223
0 0.7963235294117647 0.21568627450980393 0.013970588235294118 0.05359477124183006
0 0.8080882352941177 0.19477124183006536 0.009558823529411765 0.0392156862745098
0 0.8147058823529412 0.19477124183006536 0.013235294117647059 0.047058823529411764
0 0.8198529411764706 0.22483660130718955 0.011764705882352941 0.050980392156862744
0 0.8330882352941177 0.23137254901960785 0.013970588235294118 0.05228758169934641
0 0.8301470588235295 0.22483660130718955 0.011764705882352941 0.05228758169934641
0 0.8411764705882353 0.6928104575163399 0.025 0.04967320261437908
0 0.8691176470588236 0.7124183006535948 0.022058823529411766 0.054901960784313725
0 0.8786764705882353 0.6901960784313725 0.020588235294117647 0.05228758169934641
0 0.8727941176470588 0.39215686274509803 0.023529411764705882 0.07320261437908497
0 0.9860294117647059 0.28888888888888886 0.014705882352941176 0.054901960784313725
0 0.9897058823529412 0.2797385620915033 0.014705882352941176 0.06013071895424837
0 0.9345588235294118 0.16601307189542483 0.013235294117647059 0.050980392156862744
0 0.9882352941176471 0.17516339869281045 0.013970588235294118 0.0457516339869281
0 0.9558823529411765 0.17908496732026144 0.0125 0.03137254901960784
0 0.9470588235294117 0.1738562091503268 0.0125 0.030065359477124184
0 0.8566176470588235 0.1803921568627451 0.011764705882352941 0.044444444444444446
0 0.8801470588235294 0.17254901960784313 0.014705882352941176 0.048366013071895426
0 0.8610294117647059 0.09019607843137255 0.007352941176470588 0.026143790849673203
0 0.8441176470588235 0.12679738562091503 0.013970588235294118 0.0457516339869281
0 0.8977941176470589 0.1607843137254902 0.016911764705882352 0.048366013071895426
0 0.8948529411764706 0.09934640522875816 0.008823529411764706 0.03137254901960784
0 0.8875 0.10196078431372549 0.007352941176470588 0.02875816993464052
0 0.8610294117647059 0.16993464052287582 0.0125 0.048366013071895426
0 0.8514705882352941 0.13594771241830064 0.010294117647058823 0.043137254901960784
0 0.8551470588235294 0.1411764705882353 0.006617647058823529 0.044444444444444446
0 0.861764705882353 0.14640522875816994 0.011764705882352941 0.044444444444444446
