1 0.29191176470588237 0.7856209150326797 0.09779411764705882 0.18823529411764706
1 0.18823529411764706 0.7712418300653595 0.11102941176470588 0.1934640522875817
1 0.28823529411764703 0.6026143790849673 0.10955882352941176 0.13725490196078433
1 0.31838235294117645 0.4797385620915033 0.06470588235294118 0.0915032679738562
1 0.3573529411764706 0.3686274509803922 0.04044117647058824 0.058823529411764705
1 0.37279411764705883 0.3281045751633987 0.041176470588235294 0.058823529411764705
1 0.39558823529411763 0.2849673202614379 0.03235294117647059 0.04967320261437908
1 0.40661764705882353 0.257516339869281 0.023529411764705882 0.04183006535947712
1 0.41323529411764703 0.2326797385620915 0.02426470588235294 0.0392156862745098
1 0.4610294117647059 0.25098039215686274 0.02426470588235294 0.0457516339869281
1 0.5095588235294117 0.2849673202614379 0.026470588235294117 0.04967320261437908
1 0.6470588235294118 0.5124183006535947 0.05 0.08496732026143791
1 0.6367647058823529 0.44313725490196076 0.04926470588235294 0.08104575163398693
1 0.600735294117647 0.3215686274509804 0.030882352941176472 0.058823529411764705
1 0.5911764705882353 0.29411764705882354 0.027205882352941177 0.043137254901960784
1 0.5882352941176471 0.26666666666666666 0.025 0.032679738562091505
1 0.575735294117647 0.2522875816993464 0.04044117647058824 0.03790849673202614
1 0.5779411764705882 0.22745098039215686 0.023529411764705882 0.040522875816993466
1 0.5698529411764706 0.2222222222222222 0.04779411764705882 0.032679738562091505
1 0.5919117647058824 0.21176470588235294 0.04411764705882353 0.03137254901960784
1 0.5808823529411765 0.2 0.03897058823529412 0.02483660130718954
1 0.6970588235294117 0.48627450980392156 0.0375 0.044444444444444446
1 0.6919117647058823 0.44575163398692813 0.03308823529411765 0.04183006535947712
1 0.6838235294117647 0.42483660130718953 0.029411764705882353 0.03790849673202614
1 0.6779411764705883 0.4169934640522876 0.03235294117647059 0.032679738562091505
0 0.7073529411764706 0.41830065359477125 0.011029411764705883 0.04967320261437908
1 0.6676470588235294 0.3908496732026144 0.027941176470588237 0.03398692810457516
1 0.6713235294117647 0.39869281045751637 0.027205882352941177 0.03137254901960784
0 0.7382352941176471 0.37777777777777777 0.009558823529411765 0.02875816993464052
0 0.6367647058823529 0.30196078431372547 0.010294117647058823 0.043137254901960784
1 0.5904411764705882 0.19215686274509805 0.03308823529411765 0.02875816993464052
1 0.5801470588235295 0.18562091503267975 0.03235294117647059 0.023529411764705882
1 0.5977941176470588 0.17647058823529413 0.03235294117647059 0.023529411764705882
1 0.5779411764705882 0.17908496732026144 0.03161764705882353 0.022222222222222223
1 0.5617647058823529 0.17254901960784313 0.0375 0.026143790849673203
1 0.5573529411764706 0.16470588235294117 0.033823529411764704 0.022222222222222223
1 0.5566176470588236 0.15294117647058825 0.030147058823529412 0.023529411764705882
1 0.5294117647058824 0.14640522875816994 0.013235294117647059 0.027450980392156862
1 0.5485294117647059 0.1437908496732026 0.025 0.023529411764705882
1 0.5558823529411765 0.14640522875816994 0.025 0.022222222222222223
1 0.6654411764705882 0.3058823529411765 0.01911764705882353 0.026143790849673203
1 0.6617647058823529 0.28366013071895424 0.011764705882352941 0.03137254901960784
1 0.6735294117647059 0.2901960784313726 0.0125 0.03529411764705882
0 0.37426470588235294 0.2679738562091503 0.008088235294117648 0.0392156862745098
1 0.3720588235294118 0.22091503267973855 0.04632352941176471 0.02875816993464052
1 0.40661764705882353 0.2 0.04632352941176471 0.030065359477124184
1 0.4051470588235294 0.19215686274509805 0.04338235294117647 0.026143790849673203
1 0.43823529411764706 0.1830065359477124 0.01838235294117647 0.030065359477124184
1 0.4455882352941177 0.17516339869281045 0.03823529411764706 0.026143790849673203
1 0.44191176470588234 0.16601307189542483 0.025735294117647058 0.023529411764705882
1 0.4485294117647059 0.15947712418300652 0.027205882352941177 0.026143790849673203
1 0.4536764705882353 0.14901960784313725 0.021323529411764706 0.02483660130718954
1 0.45294117647058824 0.14248366013071895 0.028676470588235293 0.02483660130718954
0 0.46838235294117647 0.1568627450980392 0.003676470588235294 0.02483660130718954
0 0.4727941176470588 0.15816993464052287 0.004411764705882353 0.023529411764705882
0 0.47794117647058826 0.15947712418300652 0.005147058823529412 0.026143790849673203
0 0.5183823529411765 0.14248366013071895 0.0029411764705882353 0.01699346405228758
1 0.5183823529411765 0.14640522875816994 0.0029411764705882353 0.01699346405228758
