1 0.5926470588235294 0.857516339869281 0.10661764705882353 0.2849673202614379
1 0.47941176470588237 0.6169934640522876 0.04338235294117647 0.11633986928104575
1 0.5404411764705882 0.5633986928104575 0.04411764705882353 0.10065359477124183
1 0.4647058823529412 0.48627450980392156 0.041176470588235294 0.09019607843137255
1 0.4786764705882353 0.4065359477124183 0.03455882352941177 0.07320261437908497
1 0.5433823529411764 0.3032679738562091 0.029411764705882353 0.05751633986928104
1 0.4801470588235294 0.3045751633986928 0.03235294117647059 0.06274509803921569
1 0.5308823529411765 0.2196078431372549 0.023529411764705882 0.047058823529411764
1 0.525 0.1738562091503268 0.022794117647058822 0.03529411764705882
1 0.5352941176470588 0.10457516339869281 0.030882352941176472 0.1084967320261438
1 0.48676470588235293 0.18823529411764706 0.03455882352941177 0.11372549019607843
1 0.49558823529411766 0.07973856209150326 0.025735294117647058 0.07581699346405228
1 0.32132352941176473 0.06274509803921569 0.03897058823529412 0.09019607843137255
1 0.3639705882352941 0.023529411764705882 0.021323529411764706 0.048366013071895426
1 0.2889705882352941 0.048366013071895426 0.01838235294117647 0.027450980392156862
1 0.13970588235294118 0.3045751633986928 0.04338235294117647 0.06274509803921569
1 0.08235294117647059 0.2980392156862745 0.04264705882352941 0.06274509803921569
1 0.09191176470588236 0.6431372549019608 0.18455882352941178 0.48627450980392156
1 0.4860294117647059 0.9581699346405229 0.06764705882352941 0.08366013071895424
1 0.07647058823529412 0.11372549019607843 0.025 0.036601307189542485
1 0.016911764705882352 0.20261437908496732 0.03455882352941177 0.048366013071895426
1 0.013235294117647059 0.15294117647058825 0.027205882352941177 0.0392156862745098
1 0.9566176470588236 0.21437908496732025 0.06397058823529411 0.04967320261437908
1 0.8830882352941176 0.1450980392156863 0.05588235294117647 0.036601307189542485
1 0.8794117647058823 0.13333333333333333 0.05514705882352941 0.03137254901960784
1 0.875 0.12549019607843137 0.05514705882352941 0.032679738562091505
1 0.8455882352941176 0.1084967320261438 0.04485294117647059 0.027450980392156862
1 0.8375 0.09673202614379085 0.039705882352941174 0.02875816993464052
1 0.825 0.08627450980392157 0.03897058823529412 0.027450980392156862
1 0.8176470588235294 0.0784313725490196 0.041176470588235294 0.02483660130718954
1 0.8022058823529412 0.07058823529411765 0.0375 0.022222222222222223
1 0.8014705882352942 0.06274509803921569 0.03602941176470588 0.022222222222222223
1 0.799264705882353 0.054901960784313725 0.03602941176470588 0.0196078431372549
1 0.7941176470588235 0.048366013071895426 0.045588235294117645 0.02091503267973856
1 0.774264705882353 0.040522875816993466 0.03235294117647059 0.01568627450980392
1 0.7720588235294118 0.03529411764705882 0.030882352941176472 0.0196078431372549
1 0.7647058823529411 0.02875816993464052 0.030147058823529412 0.0196078431372549
1 0.7602941176470588 0.02091503267973856 0.027941176470588237 0.01699346405228758
1 0.7544117647058823 0.01568627450980392 0.027941176470588237 0.022222222222222223
1 0.9852941176470589 0.12941176470588237 0.029411764705882353 0.036601307189542485
1 0.9742647058823529 0.1084967320261438 0.051470588235294115 0.030065359477124184
1 0.9588235294117647 0.09803921568627451 0.03823529411764706 0.030065359477124184
1 0.9485294117647058 0.09281045751633987 0.04191176470588235 0.026143790849673203
1 0.9382352941176471 0.08104575163398693 0.04926470588235294 0.03137254901960784
1 0.9227941176470589 0.07320261437908497 0.04264705882352941 0.030065359477124184
1 0.8889705882352941 0.05359477124183006 0.041176470588235294 0.022222222222222223
1 0.9705882352941176 0.07450980392156863 0.04264705882352941 0.02875816993464052
1 0.9602941176470589 0.06143790849673202 0.04264705882352941 0.02483660130718954
1 0.9183823529411764 0.03790849673202614 0.041176470588235294 0.030065359477124184
1 0.8838235294117647 0.048366013071895426 0.03823529411764706 0.023529411764705882
1 0.8720588235294118 0.043137254901960784 0.03823529411764706 0.023529411764705882
1 0.8654411764705883 0.032679738562091505 0.03602941176470588 0.0196078431372549
1 0.8580882352941176 0.02875816993464052 0.03823529411764706 0.02483660130718954
1 0.825735294117647 0.013071895424836602 0.039705882352941174 0.0196078431372549
1 0.8404411764705882 0.02091503267973856 0.0375 0.026143790849673203
1 0.8933823529411765 0.030065359477124184 0.030147058823529412 0.0196078431372549
1 0.8816176470588235 0.02483660130718954 0.027941176470588237 0.018300653594771243
1 0.8764705882352941 0.01568627450980392 0.03529411764705882 0.022222222222222223
1 0.8485294117647059 0.00784313725490196 0.030882352941176472 0.01568627450980392
1 0.8102941176470588 0.00784313725490196 0.03161764705882353 0.01568627450980392
1 0.9904411764705883 0.036601307189542485 0.01838235294117647 0.02483660130718954
1 0.9882352941176471 0.02875816993464052 0.022794117647058822 0.02091503267973856
1 0.9683823529411765 0.0196078431372549 0.03823529411764706 0.022222222222222223
1 0.9551470588235295 0.013071895424836602 0.03455882352941177 0.02091503267973856
1 0.9419117647058823 0.01045751633986928 0.030882352941176472 0.02091503267973856
1 0.9227941176470589 0.00784313725490196 0.03161764705882353 0.01568627450980392
0 0.888235294117647 0.10065359477124183 0.006617647058823529 0.02875816993464052
0 0.8764705882352941 0.09934640522875816 0.007352941176470588 0.026143790849673203
0 0.8647058823529412 0.08888888888888889 0.007352941176470588 0.02483660130718954
0 0.8522058823529411 0.07973856209150326 0.005147058823529412 0.02091503267973856
0 0.8441176470588235 0.050980392156862744 0.004411764705882353 0.023529411764705882
0 0.836764705882353 0.04183006535947712 0.004411764705882353 0.023529411764705882
0 0.8227941176470588 0.032679738562091505 0.0029411764705882353 0.022222222222222223
0 0.8213235294117647 0.032679738562091505 0.006617647058823529 0.023529411764705882
0 0.8161764705882353 0.03137254901960784 0.004411764705882353 0.023529411764705882
0 0.7779411764705882 0.00784313725490196 0.004411764705882353 0.01699346405228758
0 0.8448529411764706 0.07581699346405228 0.0058823529411764705 0.023529411764705882
