1 0.165625 0.20925925925925926 0.014583333333333334 0.009259259259259259
1 0.1859375 0.20833333333333334 0.014583333333333334 0.011111111111111112
1 0.21927083333333333 0.2074074074074074 0.016145833333333335 0.011111111111111112
1 0.24427083333333333 0.2064814814814815 0.011979166666666667 0.010185185185185186
1 0.2625 0.20555555555555555 0.013541666666666667 0.011111111111111112
1 0.2791666666666667 0.20555555555555555 0.016145833333333335 0.009259259259259259
1 0.29739583333333336 0.2037037037037037 0.016145833333333335 0.009259259259259259
1 0.3328125 0.20185185185185187 0.015625 0.010185185185185186
1 0.3515625 0.20092592592592592 0.016666666666666666 0.010185185185185186
1 0.37083333333333335 0.2 0.015625 0.010185185185185186
1 0.3890625 0.19814814814814816 0.0171875 0.010185185185185186
1 0.40729166666666666 0.19814814814814816 0.0125 0.009259259259259259
1 0.41041666666666665 0.18888888888888888 0.014583333333333334 0.010185185185185186
1 0.42552083333333335 0.19722222222222222 0.016145833333333335 0.008333333333333333
1 0.44479166666666664 0.19444444444444445 0.015104166666666667 0.010185185185185186
1 0.44479166666666664 0.18703703703703703 0.015104166666666667 0.009259259259259259
1 0.465625 0.1925925925925926 0.016666666666666666 0.010185185185185186
1 0.471875 0.1925925925925926 0.014583333333333334 0.009259259259259259
1 0.48489583333333336 0.19166666666666668 0.015625 0.010185185185185186
1 0.509375 0.19074074074074074 0.016145833333333335 0.009259259259259259
1 0.5072916666666667 0.1814814814814815 0.016666666666666666 0.012962962962962963
1 0.5307291666666667 0.18796296296296297 0.015625 0.010185185185185186
1 0.56875 0.18333333333333332 0.016145833333333335 0.010185185185185186
1 0.5942708333333333 0.1814814814814815 0.014583333333333334 0.010185185185185186
1 0.671875 0.175 0.015625 0.011111111111111112
1 0.7177083333333333 0.16944444444444445 0.015104166666666667 0.011111111111111112
0 0.5572916666666666 0.18888888888888888 0.0020833333333333333 0.011111111111111112
0 0.5598958333333334 0.18611111111111112 0.003125 0.011111111111111112
1 0.0140625 0.787962962962963 0.028125 0.06759259259259259
1 0.0359375 0.7351851851851852 0.07239583333333334 0.06944444444444445
1 0.10520833333333333 0.7842592592592592 0.071875 0.08148148148148149
1 0.12447916666666667 0.5990740740740741 0.06510416666666667 0.05
1 0.19479166666666667 0.649074074074074 0.07395833333333333 0.07314814814814814
1 0.27291666666666664 0.65 0.06510416666666667 0.06944444444444445
1 0.4166666666666667 0.5527777777777778 0.0484375 0.04537037037037037
1 0.46041666666666664 0.5907407407407408 0.0578125 0.053703703703703705
1 0.51875 0.6027777777777777 0.050520833333333334 0.05185185185185185
1 0.5880208333333333 0.7194444444444444 0.0625 0.06574074074074074
1 0.6572916666666667 0.7546296296296297 0.07395833333333333 0.08055555555555556
1 0.6421875 0.9287037037037037 0.07864583333333333 0.11296296296296296
1 0.3609375 0.5333333333333333 0.0265625 0.023148148148148147
0 0.35625 0.525 0.009375 0.024074074074074074
1 0.5057291666666667 0.5305555555555556 0.04895833333333333 0.058333333333333334
1 0.5765625 0.44722222222222224 0.034895833333333334 0.04537037037037037
1 0.7119791666666667 0.48148148148148145 0.03802083333333333 0.05
1 0.7432291666666667 0.4101851851851852 0.03229166666666667 0.041666666666666664
1 0.7848958333333333 0.39444444444444443 0.03177083333333333 0.040740740740740744
1 0.546875 0.4888888888888889 0.04114583333333333 0.041666666666666664
1 0.6026041666666667 0.5101851851851852 0.05 0.053703703703703705
1 0.6244791666666667 0.4777777777777778 0.04375 0.03981481481481482
1 0.78125 0.7638888888888888 0.06145833333333333 0.0712962962962963
1 0.6447916666666667 0.5259259259259259 0.04895833333333333 0.053703703703703705
1 0.6958333333333333 0.4685185185185185 0.040625 0.04259259259259259
1 0.9067708333333333 0.7222222222222222 0.05416666666666667 0.06851851851851852
1 0.8875 0.49074074074074076 0.0375 0.041666666666666664
1 0.9645833333333333 0.4444444444444444 0.03802083333333333 0.03518518518518519
1 0.753125 0.4685185185185185 0.03958333333333333 0.03888888888888889
1 0.7432291666666667 0.39351851851851855 0.034375 0.02962962962962963
1 0.6640625 0.4324074074074074 0.041666666666666664 0.037037037037037035
1 0.7958333333333333 0.44074074074074077 0.03854166666666667 0.03888888888888889
1 0.8052083333333333 0.4101851851851852 0.034895833333333334 0.03333333333333333
1 0.8302083333333333 0.4185185185185185 0.0375 0.041666666666666664
1 0.9666666666666667 0.725 0.0125 0.03981481481481482
0 0.9666666666666667 0.7111111111111111 0.0125 0.03796296296296296
1 0.9802083333333333 0.48055555555555557 0.0390625 0.041666666666666664
1 0.9348958333333334 0.5898148148148148 0.07708333333333334 0.09259259259259259
1 0.9848958333333333 0.7416666666666667 0.0296875 0.06944444444444445
1 0.8255208333333334 0.37037037037037035 0.033854166666666664 0.03518518518518519
1 0.8052083333333333 0.362962962962963 0.030208333333333334 0.03148148148148148
1 0.8697916666666666 0.35185185185185186 0.0265625 0.028703703703703703
1 0.9046875 0.3194444444444444 0.0234375 0.025925925925925925
1 0.9807291666666667 0.26481481481481484 0.0203125 0.019444444444444445
1 0.8572916666666667 0.337037037037037 0.028125 0.025925925925925925
1 0.8473958333333333 0.32037037037037036 0.026041666666666668 0.025
1 0.8796875 0.3212962962962963 0.027083333333333334 0.023148148148148147
1 0.9213541666666667 0.34814814814814815 0.029166666666666667 0.02962962962962963
1 0.9317708333333333 0.3194444444444444 0.028125 0.030555555555555555
1 0.9234375 0.2935185185185185 0.022916666666666665 0.023148148148148147
1 0.9729166666666667 0.30092592592592593 0.022395833333333334 0.023148148148148147
1 0.9739583333333334 0.28888888888888886 0.022395833333333334 0.024074074074074074
1 0.9869791666666666 0.30833333333333335 0.025 0.02962962962962963
1 0.9348958333333334 0.30092592592592593 0.026041666666666668 0.032407407407407406
