1 0.20208333333333334 0.5685185185185185 0.065625 0.10740740740740741
1 0.3854166666666667 0.5814814814814815 0.09166666666666666 0.12407407407407407
1 0.2916666666666667 0.7111111111111111 0.078125 0.1425925925925926
1 0.5260416666666666 0.19814814814814816 0.040625 0.07037037037037037
1 0.565625 0.3074074074074074 0.051041666666666666 0.07407407407407407
1 0.403125 0.45 0.025 0.046296296296296294
0 0.103125 0.39444444444444443 0.016666666666666666 0.027777777777777776
1 0.10520833333333333 0.40185185185185185 0.019791666666666666 0.03148148148148148
1 0.06145833333333333 0.29814814814814816 0.046875 0.08148148148148149
1 0.22916666666666666 0.011111111111111112 0.027083333333333334 0.024074074074074074
0 0.8364583333333333 0.5833333333333334 0.016666666666666666 0.037037037037037035
1 0.9322916666666666 0.31296296296296294 0.042708333333333334 0.08703703703703704
1 0.8166666666666667 0.1037037037037037 0.04583333333333333 0.07592592592592592
1 0.8927083333333333 0.07037037037037037 0.029166666666666667 0.05
1 0.70625 0.09814814814814815 0.04479166666666667 0.05740740740740741
1 0.75 0.04259259259259259 0.05416666666666667 0.05
1 0.76875 0.11666666666666667 0.041666666666666664 0.06111111111111111
1 0.19895833333333332 0.9407407407407408 0.11354166666666667 0.11851851851851852
1 0.434375 0.9722222222222222 0.059375 0.053703703703703705
1 0.925 0.9592592592592593 0.06666666666666667 0.07962962962962963
