0 0.875 0.6324074074074074 0.015625 0.05185185185185185
0 0.8796875 0.7314814814814815 0.014583333333333334 0.07592592592592592
1 0.8140625 0.6037037037037037 0.0375 0.06111111111111111
0 0.8333333333333334 0.6990740740740741 0.015625 0.02962962962962963
0 0.8630208333333333 0.6935185185185185 0.010416666666666666 0.02962962962962963
0 0.8833333333333333 0.6907407407407408 0.013541666666666667 0.046296296296296294
1 0.9328125 0.775 0.0875 0.1259259259259259
1 0.8526041666666667 0.7361111111111112 0.03958333333333333 0.07407407407407407
1 0.8463541666666666 0.6175925925925926 0.027083333333333334 0.05925925925925926
1 0.8453125 0.6583333333333333 0.03958333333333333 0.040740740740740744
1 0.8005208333333333 0.9601851851851851 0.17083333333333334 0.07777777777777778
1 0.7776041666666667 0.6851851851851852 0.010416666666666666 0.05
