0 0.225 0.7518518518518519 0.011458333333333333 0.027777777777777776
0 0.2916666666666667 0.6611111111111111 0.0125 0.025925925925925925
0 0.29583333333333334 0.6574074074074074 0.011458333333333333 0.027777777777777776
0 0.271875 0.7759259259259259 0.0125 0.03148148148148148
0 0.43020833333333336 0.5481481481481482 0.007291666666666667 0.022222222222222223
0 0.43333333333333335 0.5444444444444444 0.007291666666666667 0.022222222222222223
0 0.7552083333333334 0.387037037037037 0.005208333333333333 0.016666666666666666
0 0.7864583333333334 0.37037037037037035 0.00625 0.018518518518518517
0 0.8104166666666667 0.26481481481481484 0.004166666666666667 0.011111111111111112
0 0.121875 0.924074074074074 0.014583333333333334 0.05
0 0.14895833333333333 0.8055555555555556 0.011458333333333333 0.040740740740740744
0 0.590625 0.3314814814814815 0.00625 0.016666666666666666
0 0.6510416666666666 0.32037037037037036 0.005208333333333333 0.016666666666666666
0 0.5947916666666667 0.24074074074074073 0.004166666666666667 0.016666666666666666
0 0.321875 0.3111111111111111 0.003125 0.022222222222222223
0 0.32395833333333335 0.31296296296296294 0.004166666666666667 0.020370370370370372
0 0.309375 0.3148148148148148 0.005208333333333333 0.024074074074074074
0 0.3072916666666667 0.31296296296296294 0.005208333333333333 0.024074074074074074
1 0.128125 0.5685185185185185 0.058333333333333334 0.05
1 0.396875 0.45925925925925926 0.14375 0.10740740740740741
1 0.6625 0.3611111111111111 0.09166666666666666 0.08333333333333333
1 0.7572916666666667 0.35 0.0375 0.044444444444444446
1 0.8552083333333333 0.3074074074074074 0.022916666666666665 0.020370370370370372
1 0.9114583333333334 0.28703703703703703 0.021875 0.018518518518518517
1 0.925 0.26481481481481484 0.022916666666666665 0.014814814814814815
0 0.940625 0.28888888888888886 0.005208333333333333 0.014814814814814815
0 0.9864583333333333 0.2111111111111111 0.017708333333333333 0.012962962962962963
1 0.33229166666666665 0.687037037037037 0.0625 0.053703703703703705
1 0.384375 0.7018518518518518 0.06041666666666667 0.07222222222222222
1 0.296875 0.6648148148148149 0.017708333333333333 0.027777777777777776
1 0.2677083333333333 0.7851851851851852 0.021875 0.03148148148148148
1 0.125 0.9351851851851852 0.035416666666666666 0.044444444444444446
1 0.20520833333333333 0.7648148148148148 0.029166666666666667 0.04814814814814815
1 0.590625 0.337037037037037 0.008333333333333333 0.011111111111111112
1 0.65 0.32592592592592595 0.009375 0.014814814814814815
1 0.7552083333333334 0.3925925925925926 0.008333333333333333 0.014814814814814815
1 0.7854166666666667 0.37592592592592594 0.007291666666666667 0.014814814814814815
1 0.809375 0.26666666666666666 0.007291666666666667 0.011111111111111112
1 0.9395833333333333 0.29259259259259257 0.007291666666666667 0.011111111111111112
