1 0.5110294117647058 0.5673202614379085 0.06397058823529411 0.06666666666666667
1 0.4161764705882353 0.45751633986928103 0.058823529411764705 0.050980392156862744
1 0.5852941176470589 0.5633986928104575 0.04411764705882353 0.05359477124183006
0 0.575 0.5464052287581699 0.013970588235294118 0.03529411764705882
1 0.7794117647058824 0.6235294117647059 0.022794117647058822 0.06143790849673202
0 0.7808823529411765 0.6052287581699346 0.013235294117647059 0.032679738562091505
0 0.8375 0.5529411764705883 0.013970588235294118 0.04967320261437908
0 0.9183823529411764 0.4588235294117647 0.011029411764705883 0.02091503267973856
1 0.6242647058823529 0.39215686274509803 0.057352941176470586 0.044444444444444446
1 0.7625 0.3895424836601307 0.05808823529411765 0.0392156862745098
1 0.9455882352941176 0.4261437908496732 0.023529411764705882 0.026143790849673203
0 0.9933823529411765 0.4496732026143791 0.009558823529411765 0.02483660130718954
1 0.8904411764705882 0.3176470588235294 0.039705882352941174 0.03137254901960784
1 0.9463235294117647 0.32679738562091504 0.03676470588235294 0.0392156862745098
1 0.9014705882352941 0.28627450980392155 0.033823529411764704 0.03137254901960784
0 0.8786764705882353 0.2875816993464052 0.008088235294117648 0.02483660130718954
0 0.8705882352941177 0.28888888888888886 0.005147058823529412 0.023529411764705882
0 0.8441176470588235 0.28366013071895424 0.006617647058823529 0.02483660130718954
1 0.8470588235294118 0.27712418300653596 0.029411764705882353 0.02483660130718954
1 0.7794117647058824 0.2849673202614379 0.007352941176470588 0.01699346405228758
1 0.7455882352941177 0.32941176470588235 0.12058823529411765 0.06928104575163399
1 0.6338235294117647 0.338562091503268 0.08308823529411764 0.06143790849673202
1 0.6926470588235294 0.3202614379084967 0.07279411764705883 0.06535947712418301
1 0.675 0.2823529411764706 0.025735294117647058 0.026143790849673203
1 0.6536764705882353 0.28366013071895424 0.026470588235294117 0.02875816993464052
1 0.5610294117647059 0.32941176470588235 0.047058823529411764 0.03529411764705882
1 0.5110294117647058 0.3215686274509804 0.022058823529411766 0.03790849673202614
1 0.5088235294117647 0.37777777777777777 0.020588235294117647 0.022222222222222223
0 0.5073529411764706 0.3712418300653595 0.008088235294117648 0.032679738562091505
1 0.34852941176470587 0.3542483660130719 0.04926470588235294 0.036601307189542485
0 0.3161764705882353 0.3254901960784314 0.0058823529411764705 0.03398692810457516
1 0.2948529411764706 0.37254901960784315 0.023529411764705882 0.03790849673202614
0 0.3029411764705882 0.34901960784313724 0.008823529411764706 0.036601307189542485
0 0.2926470588235294 0.3411764705882353 0.008823529411764706 0.03398692810457516
1 0.2926470588235294 0.33202614379084966 0.025735294117647058 0.032679738562091505
1 0.2323529411764706 0.33464052287581697 0.04779411764705882 0.032679738562091505
0 0.28823529411764703 0.2797385620915033 0.0058823529411764705 0.027450980392156862
1 0.26691176470588235 0.27450980392156865 0.01911764705882353 0.027450980392156862
1 0.21985294117647058 0.26666666666666666 0.016911764705882352 0.026143790849673203
0 0.27647058823529413 0.25882352941176473 0.004411764705882353 0.023529411764705882
1 0.008823529411764706 0.36470588235294116 0.01838235294117647 0.02483660130718954
0 0.15955882352941175 0.2496732026143791 0.0058823529411764705 0.027450980392156862
0 0.1625 0.25098039215686274 0.007352941176470588 0.01437908496732026
0 0.36911764705882355 0.24836601307189543 0.0058823529411764705 0.02483660130718954
1 0.34852941176470587 0.22745098039215686 0.13823529411764707 0.06797385620915032
1 0.3411764705882353 0.22875816993464052 0.125 0.05359477124183006
1 0.3801470588235294 0.19215686274509805 0.039705882352941174 0.03529411764705882
1 0.27941176470588236 0.18562091503267975 0.010294117647058823 0.018300653594771243
1 0.14926470588235294 0.16993464052287582 0.016176470588235296 0.02091503267973856
1 0.11691176470588235 0.16993464052287582 0.01911764705882353 0.01437908496732026
1 0.09411764705882353 0.16470588235294117 0.02426470588235294 0.01437908496732026
1 0.11029411764705882 0.1542483660130719 0.011029411764705883 0.013071895424836602
1 0.07279411764705883 0.1542483660130719 0.011029411764705883 0.01568627450980392
1 0.08455882352941177 0.1542483660130719 0.013235294117647059 0.01437908496732026
0 0.027205882352941177 0.1843137254901961 0.005147058823529412 0.018300653594771243
1 0.11397058823529412 0.1450980392156863 0.020588235294117647 0.013071895424836602
1 0.20220588235294118 0.13071895424836602 0.016911764705882352 0.011764705882352941
1 0.24558823529411763 0.12810457516339868 0.008088235294117648 0.01045751633986928
1 0.26323529411764707 0.11764705882352941 0.008088235294117648 0.013071895424836602
1 0.23676470588235293 0.10980392156862745 0.010294117647058823 0.02091503267973856
1 0.2514705882352941 0.10196078431372549 0.005147058823529412 0.00784313725490196
1 0.25588235294117645 0.1084967320261438 0.0058823529411764705 0.009150326797385621
1 0.24705882352941178 0.09411764705882353 0.006617647058823529 0.01699346405228758
1 0.27794117647058825 0.10457516339869281 0.008088235294117648 0.018300653594771243
1 0.2698529411764706 0.10065359477124183 0.011029411764705883 0.013071895424836602
1 0.26029411764705884 0.0915032679738562 0.005147058823529412 0.006535947712418301
1 0.3191176470588235 0.10718954248366012 0.06691176470588235 0.02483660130718954
1 0.29926470588235293 0.11503267973856209 0.0125 0.009150326797385621
1 0.3095588235294118 0.11503267973856209 0.008823529411764706 0.01045751633986928
