0 0.8919117647058824 0.17124183006535948 0.0125 0.040522875816993466
1 0.8860294117647058 0.1843137254901961 0.019852941176470587 0.04967320261437908
1 0.7580882352941176 0.12156862745098039 0.05 0.06535947712418301
1 0.5948529411764706 0.023529411764705882 0.04191176470588235 0.047058823529411764
1 0.36176470588235293 0.044444444444444446 0.03602941176470588 0.07712418300653595
0 0.3977941176470588 0.036601307189542485 0.007352941176470588 0.047058823529411764
0 0.4661764705882353 0.01437908496732026 0.0058823529411764705 0.030065359477124184
1 0.4727941176470588 0.01699346405228758 0.0058823529411764705 0.030065359477124184
0 0.48676470588235293 0.027450980392156862 0.007352941176470588 0.03398692810457516
0 0.4904411764705882 0.0457516339869281 0.007352941176470588 0.043137254901960784
0 0.4963235294117647 0.03398692810457516 0.011029411764705883 0.032679738562091505
1 0.5147058823529411 0.036601307189542485 0.030882352941176472 0.047058823529411764
0 0.5227941176470589 0.036601307189542485 0.011764705882352941 0.027450980392156862
1 0.524264705882353 0.07320261437908497 0.025 0.05620915032679739
0 0.5397058823529411 0.11764705882352941 0.008088235294117648 0.03790849673202614
0 0.5147058823529411 0.11372549019607843 0.0058823529411764705 0.04183006535947712
0 0.5125 0.12026143790849673 0.006617647058823529 0.040522875816993466
0 0.5139705882352941 0.1450980392156863 0.010294117647058823 0.027450980392156862
1 0.5404411764705882 0.17777777777777778 0.03602941176470588 0.1084967320261438
1 0.5514705882352942 0.2758169934640523 0.04485294117647059 0.09542483660130718
0 0.6757352941176471 0.9620915032679739 0.01911764705882353 0.07450980392156863
0 0.6264705882352941 0.7176470588235294 0.015441176470588236 0.07058823529411765
1 0.6294117647058823 0.6901960784313725 0.058823529411764705 0.1450980392156863
0 0.524264705882353 0.9816993464052287 0.016176470588235296 0.036601307189542485
0 0.5007352941176471 0.9830065359477124 0.021323529411764706 0.03398692810457516
0 0.5191176470588236 0.873202614379085 0.01911764705882353 0.08104575163398693
0 0.5375 0.6522875816993464 0.021323529411764706 0.06013071895424837
1 0.5375 0.6862745098039216 0.020588235294117647 0.054901960784313725
1 0.3816176470588235 0.7843137254901961 0.04338235294117647 0.2065359477124183
0 0.43529411764705883 0.8117647058823529 0.020588235294117647 0.05359477124183006
1 0.3897058823529412 0.5725490196078431 0.04044117647058824 0.17908496732026144
1 0.3602941176470588 0.46143790849673205 0.045588235294117645 0.13856209150326798
0 0.4823529411764706 0.5019607843137255 0.013235294117647059 0.07058823529411765
0 0.44926470588235295 0.515032679738562 0.007352941176470588 0.03790849673202614
0 0.4536764705882353 0.5294117647058824 0.011029411764705883 0.0392156862745098
1 0.46397058823529413 0.5333333333333333 0.01911764705882353 0.08104575163398693
0 0.4573529411764706 0.40522875816993464 0.0125 0.054901960784313725
0 0.5139705882352941 0.24705882352941178 0.006617647058823529 0.040522875816993466
0 0.5051470588235294 0.24313725490196078 0.009558823529411765 0.05751633986928104
0 0.4661764705882353 0.26405228758169935 0.006617647058823529 0.03398692810457516
0 0.4573529411764706 0.2496732026143791 0.009558823529411765 0.050980392156862744
0 0.4551470588235294 0.3006535947712418 0.008823529411764706 0.05620915032679739
0 0.4345588235294118 0.2627450980392157 0.009558823529411765 0.058823529411764705
0 0.4389705882352941 0.2954248366013072 0.008823529411764706 0.06013071895424837
0 0.35 0.23006535947712417 0.011029411764705883 0.06405228758169934
0 0.36323529411764705 0.24183006535947713 0.011029411764705883 0.06143790849673202
0 0.38676470588235295 0.2549019607843137 0.010294117647058823 0.05228758169934641
0 0.37279411764705883 0.2235294117647059 0.010294117647058823 0.058823529411764705
0 0.3830882352941177 0.2222222222222222 0.008823529411764706 0.04967320261437908
0 0.40441176470588236 0.21568627450980393 0.008823529411764706 0.032679738562091505
0 0.4198529411764706 0.2235294117647059 0.008823529411764706 0.05359477124183006
0 0.4227941176470588 0.20392156862745098 0.010294117647058823 0.054901960784313725
0 0.3316176470588235 0.16339869281045752 0.013970588235294118 0.02875816993464052
0 0.4360294117647059 0.1830065359477124 0.014705882352941176 0.054901960784313725
0 0.45 0.1568627450980392 0.008823529411764706 0.04967320261437908
0 0.45441176470588235 0.1477124183006536 0.006617647058823529 0.050980392156862744
0 0.4588235294117647 0.1542483660130719 0.005147058823529412 0.030065359477124184
0 0.4102941176470588 0.10065359477124183 0.013235294117647059 0.030065359477124184
0 0.5411764705882353 0.5084967320261438 0.013970588235294118 0.06797385620915032
1 0.3897058823529412 0.08888888888888889 0.016176470588235296 0.03790849673202614
1 0.42426470588235293 0.0196078431372549 0.01838235294117647 0.0392156862745098
0 0.41102941176470587 0.013071895424836602 0.005147058823529412 0.026143790849673203
