1 0.05588235294117647 0.7647058823529411 0.11029411764705882 0.21045751633986928
0 0.17941176470588235 0.7568627450980392 0.01838235294117647 0.07320261437908497
0 0.2213235294117647 0.934640522875817 0.023529411764705882 0.07450980392156863
0 0.22058823529411764 0.9333333333333333 0.023529411764705882 0.07450980392156863
1 0.22205882352941175 0.9607843137254902 0.03455882352941177 0.0784313725490196
0 0.3125 0.7333333333333333 0.016911764705882352 0.06405228758169934
1 0.3125 0.7568627450980392 0.013970588235294118 0.06013071895424837
0 0.513235294117647 0.5424836601307189 0.014705882352941176 0.047058823529411764
1 0.513235294117647 0.5555555555555556 0.023529411764705882 0.036601307189542485
1 0.7647058823529411 0.9124183006535947 0.1 0.17254901960784313
1 0.9397058823529412 0.7620915032679738 0.05955882352941176 0.07973856209150326
1 0.9669117647058824 0.6535947712418301 0.0661764705882353 0.08235294117647059
1 0.9147058823529411 0.6444444444444445 0.03308823529411765 0.0392156862745098
1 0.9213235294117647 0.469281045751634 0.03308823529411765 0.044444444444444446
1 0.8139705882352941 0.5620915032679739 0.11102941176470588 0.17516339869281045
0 0.8176470588235294 0.4300653594771242 0.008823529411764706 0.0392156862745098
0 0.763235294117647 0.44313725490196076 0.008088235294117648 0.03790849673202614
0 0.7698529411764706 0.4522875816993464 0.008088235294117648 0.03137254901960784
0 0.7779411764705882 0.4562091503267974 0.007352941176470588 0.023529411764705882
0 0.7875 0.44575163398692813 0.008088235294117648 0.032679738562091505
0 0.7698529411764706 0.4366013071895425 0.006617647058823529 0.030065359477124184
0 0.7933823529411764 0.4418300653594771 0.007352941176470588 0.032679738562091505
0 0.8051470588235294 0.4444444444444444 0.009558823529411765 0.0392156862745098
0 0.7985294117647059 0.44313725490196076 0.007352941176470588 0.036601307189542485
0 0.7889705882352941 0.43790849673202614 0.006617647058823529 0.030065359477124184
0 0.7860294117647059 0.41830065359477125 0.006617647058823529 0.02091503267973856
1 0.8220588235294117 0.4366013071895425 0.011764705882352941 0.027450980392156862
0 0.7720588235294118 0.39738562091503266 0.009558823529411765 0.02875816993464052
1 0.8345588235294118 0.4143790849673203 0.013970588235294118 0.02091503267973856
0 0.8360294117647059 0.40261437908496733 0.008823529411764706 0.026143790849673203
1 0.7470588235294118 0.3895424836601307 0.013970588235294118 0.018300653594771243
1 0.01911764705882353 0.5790849673202615 0.03897058823529412 0.06274509803921569
1 0.07941176470588235 0.5359477124183006 0.09411764705882353 0.05751633986928104
1 0.11029411764705882 0.5124183006535947 0.09117647058823529 0.054901960784313725
1 0.11764705882352941 0.477124183006536 0.07720588235294118 0.04967320261437908
1 0.11985294117647059 0.4444444444444444 0.04044117647058824 0.03529411764705882
0 0.08088235294117647 0.4366013071895425 0.008088235294117648 0.03398692810457516
0 0.06985294117647059 0.36993464052287583 0.007352941176470588 0.036601307189542485
1 0.008823529411764706 0.44313725490196076 0.014705882352941176 0.030065359477124184
1 0.007352941176470588 0.465359477124183 0.014705882352941176 0.03398692810457516
1 0.21029411764705883 0.47058823529411764 0.06544117647058824 0.11241830065359477
1 0.1625 0.4091503267973856 0.03897058823529412 0.043137254901960784
1 0.18088235294117647 0.3764705882352941 0.03676470588235294 0.030065359477124184
1 0.12941176470588237 0.34248366013071896 0.045588235294117645 0.02875816993464052
1 0.14191176470588235 0.33725490196078434 0.03529411764705882 0.02091503267973856
1 0.06470588235294118 0.4 0.01764705882352941 0.030065359477124184
0 0.23602941176470588 0.48366013071895425 0.007352941176470588 0.036601307189542485
0 0.25882352941176473 0.4261437908496732 0.006617647058823529 0.03790849673202614
0 0.2536764705882353 0.4222222222222222 0.007352941176470588 0.040522875816993466
0 0.2676470588235294 0.41830065359477125 0.007352941176470588 0.03529411764705882
0 0.275 0.3673202614379085 0.008823529411764706 0.03529411764705882
0 0.28088235294117647 0.3673202614379085 0.0058823529411764705 0.03137254901960784
0 0.29044117647058826 0.36993464052287583 0.0058823529411764705 0.03137254901960784
0 0.2897058823529412 0.3686274509803922 0.0058823529411764705 0.03137254901960784
0 0.3161764705882353 0.3032679738562091 0.005147058823529412 0.02483660130718954
1 0.21176470588235294 0.3568627450980392 0.01911764705882353 0.036601307189542485
0 0.17426470588235293 0.33464052287581697 0.005147058823529412 0.023529411764705882
0 0.17794117647058824 0.3359477124183007 0.005147058823529412 0.02091503267973856
0 0.1875 0.32679738562091504 0.004411764705882353 0.022222222222222223
0 0.18235294117647058 0.32679738562091504 0.005147058823529412 0.022222222222222223
0 0.21764705882352942 0.33986928104575165 0.005147058823529412 0.026143790849673203
0 0.21691176470588236 0.3333333333333333 0.005147058823529412 0.02483660130718954
0 0.2235294117647059 0.338562091503268 0.005147058823529412 0.026143790849673203
0 0.22720588235294117 0.3359477124183007 0.005147058823529412 0.026143790849673203
0 0.2426470588235294 0.3359477124183007 0.005147058823529412 0.026143790849673203
0 0.28161764705882353 0.3464052287581699 0.003676470588235294 0.023529411764705882
0 0.2897058823529412 0.34509803921568627 0.0058823529411764705 0.027450980392156862
0 0.2948529411764706 0.34509803921568627 0.0058823529411764705 0.027450980392156862
0 0.28308823529411764 0.3176470588235294 0.0058823529411764705 0.02091503267973856
0 0.2897058823529412 0.31895424836601305 0.0058823529411764705 0.023529411764705882
0 0.2948529411764706 0.3241830065359477 0.004411764705882353 0.013071895424836602
0 0.28161764705882353 0.3281045751633987 0.0058823529411764705 0.011764705882352941
0 0.2213235294117647 0.3006535947712418 0.005147058823529412 0.023529411764705882
0 0.21470588235294116 0.3006535947712418 0.004411764705882353 0.023529411764705882
0 0.21764705882352942 0.30196078431372547 0.004411764705882353 0.023529411764705882
1 0.16911764705882354 0.30980392156862746 0.041176470588235294 0.026143790849673203
1 0.2757352941176471 0.30718954248366015 0.041176470588235294 0.030065359477124184
1 0.2051470588235294 0.2928104575163399 0.03676470588235294 0.01699346405228758
1 0.28823529411764703 0.29934640522875816 0.039705882352941174 0.02483660130718954
1 0.29191176470588237 0.28888888888888886 0.033823529411764704 0.026143790849673203
1 0.23602941176470588 0.2601307189542484 0.015441176470588236 0.018300653594771243
1 0.2610294117647059 0.28104575163398693 0.016911764705882352 0.0196078431372549
0 0.38088235294117645 0.4065359477124183 0.008088235294117648 0.03529411764705882
0 0.3779411764705882 0.4143790849673203 0.007352941176470588 0.026143790849673203
1 0.3669117647058823 0.4 0.03602941176470588 0.05359477124183006
1 0.4183823529411765 0.39477124183006534 0.029411764705882353 0.048366013071895426
1 0.3816176470588235 0.3437908496732026 0.022058823529411766 0.03790849673202614
1 0.38235294117647056 0.32679738562091504 0.015441176470588236 0.022222222222222223
1 0.4808823529411765 0.477124183006536 0.03235294117647059 0.050980392156862744
1 0.5308823529411765 0.3712418300653595 0.020588235294117647 0.03137254901960784
1 0.5058823529411764 0.31241830065359477 0.019852941176470587 0.030065359477124184
1 0.48823529411764705 0.2797385620915033 0.013235294117647059 0.01699346405228758
1 0.42205882352941176 0.28888888888888886 0.013970588235294118 0.022222222222222223
1 0.42205882352941176 0.26666666666666666 0.013235294117647059 0.02091503267973856
1 0.4213235294117647 0.22875816993464052 0.010294117647058823 0.013071895424836602
0 0.5433823529411764 0.5006535947712418 0.008088235294117648 0.05228758169934641
0 0.5558823529411765 0.515032679738562 0.006617647058823529 0.047058823529411764
0 0.5705882352941176 0.49411764705882355 0.007352941176470588 0.05228758169934641
0 0.5551470588235294 0.4418300653594771 0.009558823529411765 0.040522875816993466
0 0.5235294117647059 0.4130718954248366 0.006617647058823529 0.04183006535947712
0 0.575 0.44313725490196076 0.0058823529411764705 0.03398692810457516
0 0.5705882352941176 0.43529411764705883 0.005147058823529412 0.03398692810457516
0 0.55 0.5058823529411764 0.007352941176470588 0.023529411764705882
1 0.549264705882353 0.5176470588235295 0.006617647058823529 0.018300653594771243
0 0.5257352941176471 0.45098039215686275 0.010294117647058823 0.036601307189542485
1 0.524264705882353 0.4588235294117647 0.009558823529411765 0.02875816993464052
0 0.5080882352941176 0.40784313725490196 0.006617647058823529 0.022222222222222223
0 0.5073529411764706 0.40261437908496733 0.006617647058823529 0.023529411764705882
1 0.5073529411764706 0.4169934640522876 0.0058823529411764705 0.02875816993464052
1 0.5941176470588235 0.534640522875817 0.045588235294117645 0.05620915032679739
1 0.5823529411764706 0.4888888888888889 0.039705882352941174 0.048366013071895426
0 0.47941176470588237 0.41568627450980394 0.007352941176470588 0.01568627450980392
0 0.4772058823529412 0.4091503267973856 0.008088235294117648 0.01699346405228758
1 0.4786764705882353 0.42091503267973857 0.01911764705882353 0.040522875816993466
0 0.44485294117647056 0.3503267973856209 0.007352941176470588 0.022222222222222223
1 0.4441176470588235 0.3581699346405229 0.0058823529411764705 0.01568627450980392
1 0.4727941176470588 0.3843137254901961 0.022794117647058822 0.036601307189542485
0 0.47941176470588237 0.34248366013071896 0.004411764705882353 0.01045751633986928
1 0.4801470588235294 0.3516339869281046 0.011764705882352941 0.02483660130718954
1 0.5022058823529412 0.3581699346405229 0.025735294117647058 0.03398692810457516
1 0.5176470588235295 0.3464052287581699 0.014705882352941176 0.023529411764705882
1 0.48455882352941176 0.3176470588235294 0.0125 0.027450980392156862
1 0.45588235294117646 0.338562091503268 0.015441176470588236 0.03137254901960784
1 0.4536764705882353 0.31633986928104574 0.01838235294117647 0.02483660130718954
1 0.4551470588235294 0.2928104575163399 0.013235294117647059 0.022222222222222223
1 0.4588235294117647 0.2758169934640523 0.013235294117647059 0.022222222222222223
1 0.48676470588235293 0.269281045751634 0.0125 0.01699346405228758
1 0.4823529411764706 0.2601307189542484 0.0125 0.01568627450980392
1 0.4772058823529412 0.2496732026143791 0.011029411764705883 0.01568627450980392
1 0.48161764705882354 0.25882352941176473 0.011029411764705883 0.01568627450980392
1 0.475 0.24183006535947713 0.009558823529411765 0.011764705882352941
1 0.46911764705882353 0.22745098039215686 0.008823529411764706 0.011764705882352941
1 0.47205882352941175 0.2326797385620915 0.008823529411764706 0.009150326797385621
0 0.4625 0.24705882352941178 0.004411764705882353 0.01045751633986928
1 0.4625 0.2522875816993464 0.006617647058823529 0.013071895424836602
