1 0.3029411764705882 0.865359477124183 0.06764705882352941 0.13594771241830064
1 0.36764705882352944 0.8091503267973856 0.054411764705882354 0.14248366013071895
1 0.36470588235294116 0.6692810457516339 0.06691176470588235 0.11241830065359477
1 0.18823529411764706 0.8679738562091504 0.10661764705882353 0.09281045751633987
1 0.17426470588235293 0.8 0.10808823529411765 0.08627450980392157
1 0.29191176470588237 0.6300653594771242 0.09411764705882353 0.06797385620915032
1 0.3088235294117647 0.5764705882352941 0.07279411764705883 0.05228758169934641
1 0.35294117647058826 0.5477124183006536 0.03602941176470588 0.07581699346405228
1 0.31838235294117645 0.5058823529411764 0.07205882352941176 0.08366013071895424
1 0.3492647058823529 0.4470588235294118 0.029411764705882353 0.07320261437908497
1 0.14338235294117646 0.7006535947712418 0.09044117647058823 0.11764705882352941
1 0.1610294117647059 0.6431372549019608 0.08455882352941177 0.0784313725490196
1 0.09044117647058823 0.6026143790849673 0.08161764705882353 0.08104575163398693
1 0.06102941176470588 0.5594771241830065 0.06323529411764706 0.06797385620915032
1 0.1323529411764706 0.43137254901960786 0.03676470588235294 0.05620915032679739
1 0.08676470588235294 0.4470588235294118 0.03823529411764706 0.06405228758169934
1 0.1698529411764706 0.4300653594771242 0.03529411764705882 0.0784313725490196
1 0.6544117647058824 0.9411764705882353 0.11029411764705882 0.08235294117647059
1 0.6433823529411765 0.8601307189542484 0.1036764705882353 0.08627450980392157
0 0.6044117647058823 0.8 0.01764705882352941 0.05228758169934641
1 0.5970588235294118 0.7411764705882353 0.04191176470588235 0.10588235294117647
1 0.5970588235294118 0.6496732026143791 0.03602941176470588 0.08235294117647059
1 0.5566176470588236 0.6065359477124183 0.030882352941176472 0.07973856209150326
1 0.6161764705882353 0.5699346405228758 0.06911764705882353 0.054901960784313725
1 0.5845588235294118 0.5228758169934641 0.030882352941176472 0.06013071895424837
1 0.5860294117647059 0.46013071895424834 0.03455882352941177 0.06013071895424837
1 0.6485294117647059 0.4666666666666667 0.04485294117647059 0.08235294117647059
1 0.6838235294117647 0.4522875816993464 0.04338235294117647 0.07712418300653595
1 0.7198529411764706 0.4522875816993464 0.04926470588235294 0.07058823529411765
1 0.7698529411764706 0.45098039215686275 0.03161764705882353 0.05359477124183006
1 0.7955882352941176 0.42483660130718953 0.0375 0.044444444444444446
1 0.5161764705882353 0.33725490196078434 0.05808823529411765 0.05228758169934641
1 0.5794117647058824 0.3411764705882353 0.04926470588235294 0.0392156862745098
1 0.6426470588235295 0.3437908496732026 0.05220588235294118 0.0392156862745098
1 0.40955882352941175 0.3150326797385621 0.021323529411764706 0.040522875816993466
1 0.3875 0.3281045751633987 0.022794117647058822 0.0457516339869281
1 0.3411764705882353 0.3084967320261438 0.02426470588235294 0.050980392156862744
0 0.4308823529411765 0.722875816993464 0.010294117647058823 0.03398692810457516
1 0.43161764705882355 0.734640522875817 0.011029411764705883 0.040522875816993466
0 0.5125 0.6352941176470588 0.010294117647058823 0.032679738562091505
1 0.5125 0.6483660130718955 0.008088235294117648 0.036601307189542485
0 0.5345588235294118 0.48627450980392156 0.008088235294117648 0.03529411764705882
1 0.04926470588235294 0.4470588235294118 0.011764705882352941 0.036601307189542485
1 0.0375 0.4444444444444444 0.009558823529411765 0.03398692810457516
1 0.029411764705882353 0.4418300653594771 0.007352941176470588 0.030065359477124184
0 0.030882352941176472 0.32679738562091504 0.007352941176470588 0.036601307189542485
1 0.11544117647058824 0.30196078431372547 0.025735294117647058 0.036601307189542485
0 0.17426470588235293 0.27320261437908494 0.008823529411764706 0.03529411764705882
1 0.15220588235294116 0.2222222222222222 0.021323529411764706 0.0392156862745098
1 0.4338235294117647 0.29150326797385623 0.020588235294117647 0.022222222222222223
1 0.5845588235294118 0.3032679738562091 0.003676470588235294 0.023529411764705882
1 0.5580882352941177 0.29411764705882354 0.019852941176470587 0.0196078431372549
1 0.5220588235294118 0.29934640522875816 0.01911764705882353 0.018300653594771243
1 0.7544117647058823 0.3607843137254902 0.057352941176470586 0.05359477124183006
1 0.6058823529411764 0.4235294117647059 0.041176470588235294 0.030065359477124184
1 0.8044117647058824 0.3111111111111111 0.005147058823529412 0.022222222222222223
1 0.7970588235294118 0.3150326797385621 0.0058823529411764705 0.027450980392156862
1 0.8286764705882353 0.34248366013071896 0.04191176470588235 0.03529411764705882
0 0.6735294117647059 0.2980392156862745 0.0058823529411764705 0.022222222222222223
0 0.6919117647058823 0.3006535947712418 0.0058823529411764705 0.0196078431372549
