0 0.43970588235294117 0.02483660130718954 0.0125 0.050980392156862744
0 0.45073529411764707 0.013071895424836602 0.008088235294117648 0.027450980392156862
0 0.4514705882352941 0.027450980392156862 0.011764705882352941 0.054901960784313725
0 0.4610294117647059 0.02875816993464052 0.011029411764705883 0.05751633986928104
0 0.48161764705882354 0.02091503267973856 0.011764705882352941 0.04183006535947712
0 0.42058823529411765 0.027450980392156862 0.014705882352941176 0.03137254901960784
1 0.4088235294117647 0.0196078431372549 0.03676470588235294 0.0392156862745098
0 0.48676470588235293 0.1477124183006536 0.013970588235294118 0.06928104575163399
0 0.4904411764705882 0.12549019607843137 0.007352941176470588 0.027450980392156862
0 0.5029411764705882 0.06143790849673202 0.009558823529411765 0.05228758169934641
0 0.5073529411764706 0.048366013071895426 0.008088235294117648 0.027450980392156862
0 0.5073529411764706 0.09673202614379085 0.020588235294117647 0.06405228758169934
0 0.5360294117647059 0.09281045751633987 0.014705882352941176 0.06405228758169934
0 0.5404411764705882 0.07320261437908497 0.010294117647058823 0.050980392156862744
0 0.5367647058823529 0.06013071895424837 0.0125 0.0457516339869281
0 0.5088235294117647 0.2065359477124183 0.01764705882352941 0.07581699346405228
1 0.3786764705882353 0.2235294117647059 0.058823529411764705 0.13333333333333333
0 0.4625 0.338562091503268 0.016176470588235296 0.07973856209150326
0 0.4742647058823529 0.41045751633986927 0.01764705882352941 0.07450980392156863
0 0.3264705882352941 0.5111111111111111 0.01838235294117647 0.07973856209150326
0 0.325 0.4928104575163399 0.0125 0.0392156862745098
0 0.38235294117647056 0.6013071895424836 0.01764705882352941 0.07450980392156863
0 0.40588235294117647 0.5254901960784314 0.029411764705882353 0.0718954248366013
1 0.4036764705882353 0.538562091503268 0.01911764705882353 0.10980392156862745
0 0.3779411764705882 0.661437908496732 0.021323529411764706 0.07712418300653595
0 0.30514705882352944 0.677124183006536 0.02426470588235294 0.08496732026143791
0 0.2985294117647059 0.7398692810457517 0.020588235294117647 0.07581699346405228
0 0.5661764705882353 0.873202614379085 0.021323529411764706 0.09019607843137255
0 0.4875 0.7908496732026143 0.02426470588235294 0.09281045751633987
0 0.45808823529411763 0.726797385620915 0.025 0.09542483660130718
0 0.4713235294117647 0.742483660130719 0.016911764705882352 0.05620915032679739
0 0.4933823529411765 0.7254901960784313 0.025 0.08627450980392157
0 0.5014705882352941 0.6705882352941176 0.022058823529411766 0.06928104575163399
0 0.5588235294117647 0.4980392156862745 0.022794117647058822 0.07973856209150326
0 0.5051470588235294 0.43137254901960786 0.01911764705882353 0.08496732026143791
1 0.5801470588235295 0.12026143790849673 0.033823529411764704 0.06797385620915032
0 0.549264705882353 0.018300653594771243 0.016911764705882352 0.03790849673202614
1 0.586764705882353 0.05228758169934641 0.051470588235294115 0.10457516339869281
0 0.5845588235294118 0.19215686274509805 0.020588235294117647 0.044444444444444446
1 0.6022058823529411 0.3633986928104575 0.1463235294117647 0.13202614379084968
0 0.8441176470588235 0.6026143790849673 0.02426470588235294 0.08235294117647059
0 0.8455882352941176 0.6405228758169934 0.03161764705882353 0.07973856209150326
0 0.8544117647058823 0.6535947712418301 0.015441176470588236 0.04183006535947712
0 0.8742647058823529 0.6392156862745098 0.028676470588235293 0.08758169934640522
1 0.16838235294117648 0.6169934640522876 0.11176470588235295 0.24705882352941178
1 0.6154411764705883 0.19869281045751633 0.060294117647058824 0.12549019607843137
