0 0.6421875 0.7481481481481481 0.016145833333333335 0.08703703703703704
0 0.65 0.7425925925925926 0.0125 0.041666666666666664
1 0.48333333333333334 0.6064814814814815 0.040625 0.09537037037037037
1 0.4895833333333333 0.3972222222222222 0.035416666666666666 0.06759259259259259
1 0.2171875 0.837037037037037 0.08385416666666666 0.16296296296296298
1 0.13697916666666668 0.5425925925925926 0.06770833333333333 0.1175925925925926
1 0.2557291666666667 0.6814814814814815 0.057291666666666664 0.10277777777777777
1 0.28802083333333334 0.5703703703703704 0.0546875 0.09444444444444444
1 0.3145833333333333 0.48055555555555557 0.04635416666666667 0.07777777777777778
1 0.33541666666666664 0.4027777777777778 0.034895833333333334 0.05740740740740741
1 0.3546875 0.33796296296296297 0.0375 0.06574074074074074
1 0.36614583333333334 0.287962962962963 0.03229166666666667 0.049074074074074076
1 0.3697916666666667 0.2537037037037037 0.030208333333333334 0.03425925925925926
1 0.30520833333333336 0.2074074074074074 0.028645833333333332 0.04722222222222222
0 0.00625 0.5518518518518518 0.011458333333333333 0.05185185185185185
1 0.41822916666666665 0.2222222222222222 0.022395833333333334 0.041666666666666664
1 0.4552083333333333 0.22777777777777777 0.023958333333333335 0.03981481481481482
1 0.49166666666666664 0.15462962962962962 0.018229166666666668 0.03148148148148148
1 0.4552083333333333 0.15185185185185185 0.019270833333333334 0.032407407407407406
1 0.4239583333333333 0.16574074074074074 0.021354166666666667 0.03518518518518519
1 0.43020833333333336 0.13425925925925927 0.01875 0.028703703703703703
1 0.4661458333333333 0.12129629629629629 0.021354166666666667 0.032407407407407406
1 0.4890625 0.0824074074074074 0.015625 0.025
1 0.46510416666666665 0.08518518518518518 0.0171875 0.025925925925925925
1 0.44114583333333335 0.08611111111111111 0.0171875 0.025925925925925925
1 0.43072916666666666 0.10925925925925926 0.020833333333333332 0.03333333333333333
0 0.5546875 0.1935185185185185 0.008333333333333333 0.03518518518518519
0 0.55 0.13703703703703704 0.008333333333333333 0.025925925925925925
1 0.5484375 0.14166666666666666 0.018229166666666668 0.022222222222222223
1 0.6614583333333334 0.1527777777777778 0.09322916666666667 0.062037037037037036
1 0.740625 0.17037037037037037 0.030208333333333334 0.032407407407407406
1 0.7932291666666667 0.1675925925925926 0.06302083333333333 0.053703703703703705
1 0.8 0.18611111111111112 0.041666666666666664 0.040740740740740744
1 0.871875 0.1935185185185185 0.04010416666666667 0.03148148148148148
1 0.865625 0.1824074074074074 0.04635416666666667 0.03425925925925926
1 0.9369791666666667 0.19722222222222222 0.053125 0.03981481481481482
1 0.9541666666666667 0.1814814814814815 0.06822916666666666 0.046296296296296294
0 0.9890625 0.17314814814814813 0.008854166666666666 0.028703703703703703
0 0.9869791666666666 0.17037037037037037 0.005208333333333333 0.025925925925925925
0 0.5177083333333333 0.03796296296296296 0.0046875 0.016666666666666666
1 0.51875 0.041666666666666664 0.0046875 0.013888888888888888
1 0.47239583333333335 0.03333333333333333 0.013541666666666667 0.022222222222222223
1 0.4859375 0.013888888888888888 0.011979166666666667 0.019444444444444445
1 0.4947916666666667 0.007407407407407408 0.010416666666666666 0.01574074074074074
1 0.475 0.007407407407407408 0.009895833333333333 0.01574074074074074
1 0.453125 0.005555555555555556 0.0125 0.012037037037037037
1 0.45416666666666666 0.014814814814814815 0.011979166666666667 0.019444444444444445
1 0.45260416666666664 0.024074074074074074 0.0125 0.018518518518518517
1 0.4505208333333333 0.03518518518518519 0.013020833333333334 0.020370370370370372
1 0.4484375 0.04814814814814815 0.013541666666666667 0.020370370370370372
1 0.44479166666666664 0.06111111111111111 0.0140625 0.022222222222222223
1 0.42083333333333334 0.06481481481481481 0.0171875 0.025925925925925925
1 0.42291666666666666 0.04814814814814815 0.013020833333333334 0.027777777777777776
1 0.4046875 0.03888888888888889 0.014583333333333334 0.025925925925925925
1 0.3640625 0.041666666666666664 0.016666666666666666 0.026851851851851852
1 0.34479166666666666 0.075 0.0203125 0.026851851851851852
0 0.3182291666666667 0.046296296296296294 0.004166666666666667 0.020370370370370372
0 0.34270833333333334 0.037037037037037035 0.0078125 0.012962962962962963
1 0.34375 0.03888888888888889 0.008333333333333333 0.013888888888888888
0 0.31927083333333334 0.06388888888888888 0.005729166666666666 0.016666666666666666
1 0.31979166666666664 0.06759259259259259 0.0078125 0.016666666666666666
0 0.265625 0.07407407407407407 0.005208333333333333 0.022222222222222223
0 0.2598958333333333 0.07777777777777778 0.00625 0.024074074074074074
0 0.23958333333333334 0.08055555555555556 0.0046875 0.024074074074074074
0 0.23854166666666668 0.08055555555555556 0.008854166666666666 0.025
1 0.209375 0.09444444444444444 0.03229166666666667 0.025925925925925925
1 0.19114583333333332 0.11574074074074074 0.03125 0.028703703703703703
1 0.1703125 0.12314814814814815 0.040625 0.03333333333333333
1 0.14791666666666667 0.10740740740740741 0.0390625 0.025925925925925925
1 0.14010416666666667 0.11388888888888889 0.035416666666666666 0.03981481481481482
1 0.11927083333333334 0.11944444444444445 0.034375 0.041666666666666664
1 0.08072916666666667 0.10648148148148148 0.0375 0.041666666666666664
1 0.08802083333333334 0.08518518518518518 0.043229166666666666 0.05092592592592592
1 0.0328125 0.1 0.0375 0.040740740740740744
1 0.040625 0.09351851851851851 0.04010416666666667 0.03796296296296296
