1 0.9191176470588235 0.27058823529411763 0.13529411764705881 0.07581699346405228
1 0.9154411764705882 0.40784313725490196 0.05588235294117647 0.0457516339869281
1 0.8397058823529412 0.38300653594771245 0.04485294117647059 0.03790849673202614
1 0.8536764705882353 0.3660130718954248 0.027941176470588237 0.03529411764705882
1 0.8345588235294118 0.30196078431372547 0.01911764705882353 0.02875816993464052
1 0.7419117647058824 0.28366013071895424 0.021323529411764706 0.02875816993464052
1 0.6360294117647058 0.3464052287581699 0.04411764705882353 0.040522875816993466
1 0.5845588235294118 0.38169934640522873 0.07941176470588235 0.06666666666666667
1 0.40661764705882353 0.35947712418300654 0.04779411764705882 0.03529411764705882
1 0.3698529411764706 0.3686274509803922 0.051470588235294115 0.043137254901960784
1 0.29926470588235293 0.32941176470588235 0.047058823529411764 0.043137254901960784
1 0.8088235294117647 0.23790849673202613 0.020588235294117647 0.03790849673202614
1 0.8029411764705883 0.18169934640522875 0.01911764705882353 0.04183006535947712
1 0.9772058823529411 0.23137254901960785 0.04485294117647059 0.040522875816993466
1 0.9220588235294118 0.13725490196078433 0.07720588235294118 0.027450980392156862
1 0.8610294117647059 0.21437908496732025 0.011029411764705883 0.0196078431372549
1 0.9705882352941176 0.17124183006535948 0.058823529411764705 0.032679738562091505
1 0.9514705882352941 0.16470588235294117 0.06838235294117648 0.03398692810457516
1 0.49779411764705883 0.23398692810457516 0.029411764705882353 0.04183006535947712
1 0.4772058823529412 0.24705882352941178 0.015441176470588236 0.030065359477124184
0 0.6911764705882353 0.3790849673202614 0.011029411764705883 0.03398692810457516
1 0.6919117647058823 0.3869281045751634 0.020588235294117647 0.027450980392156862
0 0.7698529411764706 0.2901960784313726 0.0058823529411764705 0.02875816993464052
0 0.7764705882352941 0.29150326797385623 0.0058823529411764705 0.027450980392156862
0 0.7661764705882353 0.3111111111111111 0.005147058823529412 0.026143790849673203
1 0.7669117647058824 0.3176470588235294 0.013970588235294118 0.022222222222222223
1 0.7720588235294118 0.13594771241830064 0.05073529411764706 0.02483660130718954
1 0.7360294117647059 0.14901960784313725 0.08455882352941177 0.02875816993464052
1 0.7889705882352941 0.15294117647058825 0.016911764705882352 0.013071895424836602
1 0.7308823529411764 0.1843137254901961 0.010294117647058823 0.02091503267973856
1 0.6867647058823529 0.17516339869281045 0.021323529411764706 0.01568627450980392
1 0.6698529411764705 0.16470588235294117 0.009558823529411765 0.01568627450980392
1 0.6808823529411765 0.16601307189542483 0.016176470588235296 0.013071895424836602
1 0.7044117647058824 0.15947712418300652 0.01838235294117647 0.01437908496732026
1 0.700735294117647 0.16732026143790849 0.010294117647058823 0.013071895424836602
1 0.5595588235294118 0.2601307189542484 0.03308823529411765 0.023529411764705882
1 0.5698529411764706 0.24836601307189543 0.03235294117647059 0.02483660130718954
1 0.5808823529411765 0.23790849673202613 0.03161764705882353 0.02483660130718954
0 0.3316176470588235 0.30196078431372547 0.007352941176470588 0.02875816993464052
0 0.3669117647058823 0.25620915032679736 0.004411764705882353 0.022222222222222223
0 0.3698529411764706 0.257516339869281 0.003676470588235294 0.0196078431372549
1 0.2875 0.2718954248366013 0.03161764705882353 0.032679738562091505
1 0.3176470588235294 0.25882352941176473 0.05514705882352941 0.03790849673202614
1 0.20661764705882352 0.257516339869281 0.03308823529411765 0.030065359477124184
1 0.25882352941176473 0.27058823529411763 0.027941176470588237 0.023529411764705882
1 0.2411764705882353 0.265359477124183 0.028676470588235293 0.02875816993464052
1 0.22941176470588234 0.2601307189542484 0.030147058823529412 0.02875816993464052
1 0.18676470588235294 0.2522875816993464 0.028676470588235293 0.02875816993464052
1 0.17205882352941176 0.24705882352941178 0.028676470588235293 0.032679738562091505
1 0.20661764705882352 0.2169934640522876 0.03235294117647059 0.02483660130718954
1 0.09705882352941177 0.20130718954248367 0.025735294117647058 0.02091503267973856
1 0.04191176470588235 0.2130718954248366 0.03161764705882353 0.0196078431372549
1 0.016911764705882352 0.21437908496732025 0.030882352941176472 0.02091503267973856
1 0.05955882352941176 0.2169934640522876 0.027205882352941177 0.022222222222222223
0 0.8463235294117647 0.2875816993464052 0.005147058823529412 0.02483660130718954
1 0.5625 0.2130718954248366 0.023529411764705882 0.02091503267973856
1 0.5875 0.20261437908496732 0.016176470588235296 0.022222222222222223
1 0.7051470588235295 0.1830065359477124 0.016176470588235296 0.013071895424836602
1 0.8727941176470588 0.12941176470588237 0.011029411764705883 0.0196078431372549
1 0.8272058823529411 0.13202614379084968 0.011764705882352941 0.0196078431372549
