1 0.5051470588235294 0.742483660130719 0.12573529411764706 0.21045751633986928
0 0.3926470588235294 0.6143790849673203 0.016176470588235296 0.07973856209150326
1 0.45294117647058824 0.6222222222222222 0.04191176470588235 0.05620915032679739
0 0.4536764705882353 0.6 0.020588235294117647 0.06013071895424837
1 0.5058823529411764 0.534640522875817 0.04044117647058824 0.05751633986928104
0 0.5073529411764706 0.5320261437908497 0.01764705882352941 0.06797385620915032
0 0.45 0.515032679738562 0.0125 0.07581699346405228
0 0.47352941176470587 0.4797385620915033 0.016176470588235296 0.0457516339869281
0 0.5058823529411764 0.5006535947712418 0.010294117647058823 0.06405228758169934
1 0.5426470588235294 0.47320261437908495 0.04779411764705882 0.06143790849673202
0 0.6058823529411764 0.4287581699346405 0.015441176470588236 0.07058823529411765
0 0.6169117647058824 0.9751633986928104 0.023529411764705882 0.04967320261437908
0 0.6338235294117647 0.9738562091503268 0.014705882352941176 0.05228758169934641
1 0.6904411764705882 0.7856209150326797 0.03529411764705882 0.08627450980392157
0 0.6867647058823529 0.7660130718954249 0.03529411764705882 0.07973856209150326
0 0.6823529411764706 0.788235294117647 0.014705882352941176 0.040522875816993466
1 0.7963235294117647 0.796078431372549 0.028676470588235293 0.07581699346405228
0 0.8632352941176471 0.6640522875816993 0.023529411764705882 0.06797385620915032
1 0.8095588235294118 0.5594771241830065 0.10588235294117647 0.11372549019607843
1 0.8139705882352941 0.4261437908496732 0.09632352941176471 0.10326797385620914
1 0.6147058823529412 0.29150326797385623 0.12279411764705882 0.13725490196078433
1 0.6955882352941176 0.30718954248366015 0.08529411764705883 0.08496732026143791
1 0.7227941176470588 0.38169934640522873 0.03308823529411765 0.0392156862745098
0 0.725735294117647 0.35947712418300654 0.013970588235294118 0.048366013071895426
0 0.7316176470588235 0.3542483660130719 0.009558823529411765 0.04183006535947712
1 0.9176470588235294 0.3254901960784314 0.06544117647058824 0.11764705882352941
1 0.5948529411764706 0.3581699346405229 0.04044117647058824 0.06274509803921569
1 0.8397058823529412 0.330718954248366 0.033823529411764704 0.040522875816993466
0 0.8463235294117647 0.3241830065359477 0.013235294117647059 0.05620915032679739
0 0.8463235294117647 0.3111111111111111 0.015441176470588236 0.05620915032679739
0 0.8323529411764706 0.2522875816993464 0.010294117647058823 0.044444444444444446
0 0.8470588235294118 0.2130718954248366 0.010294117647058823 0.0457516339869281
0 0.8088235294117647 0.22091503267973855 0.013235294117647059 0.050980392156862744
0 0.8191176470588235 0.20522875816993463 0.011764705882352941 0.06143790849673202
0 0.7073529411764706 0.22745098039215686 0.009558823529411765 0.054901960784313725
1 0.6911764705882353 0.24705882352941178 0.027205882352941177 0.04183006535947712
1 0.8720588235294118 0.18169934640522875 0.06911764705882353 0.06405228758169934
1 0.9 0.1607843137254902 0.07058823529411765 0.07581699346405228
1 0.9264705882352942 0.13986928104575164 0.06838235294117648 0.06274509803921569
1 0.9705882352941176 0.11372549019607843 0.058823529411764705 0.06405228758169934
1 0.5117647058823529 0.21830065359477124 0.015441176470588236 0.0457516339869281
1 0.5338235294117647 0.21437908496732025 0.011764705882352941 0.043137254901960784
0 0.3205882352941177 0.4326797385620915 0.016911764705882352 0.0718954248366013
0 0.3301470588235294 0.28366013071895424 0.016176470588235296 0.032679738562091505
1 0.3816176470588235 0.1869281045751634 0.041176470588235294 0.04183006535947712
0 0.38382352941176473 0.16732026143790849 0.009558823529411765 0.040522875816993466
1 0.3375 0.16339869281045752 0.02426470588235294 0.03790849673202614
1 0.3088235294117647 0.15294117647058825 0.023529411764705882 0.03529411764705882
1 0.2852941176470588 0.1437908496732026 0.023529411764705882 0.0392156862745098
0 0.19411764705882353 0.33725490196078434 0.013970588235294118 0.06405228758169934
0 0.20588235294117646 0.3254901960784314 0.013970588235294118 0.06143790849673202
1 0.26176470588235295 0.2457516339869281 0.08088235294117647 0.0784313725490196
1 0.23823529411764705 0.21437908496732025 0.07720588235294118 0.09803921568627451
1 0.21323529411764705 0.19869281045751633 0.07941176470588235 0.07581699346405228
1 0.16176470588235295 0.2758169934640523 0.061764705882352944 0.08758169934640522
1 0.09411764705882353 0.19738562091503267 0.052941176470588235 0.0784313725490196
1 0.16176470588235295 0.15294117647058825 0.09191176470588236 0.06928104575163399
1 0.06691176470588235 0.022222222222222223 0.0713235294117647 0.044444444444444446
1 0.026470588235294117 0.04967320261437908 0.01764705882352941 0.032679738562091505
0 0.07794117647058824 0.1437908496732026 0.011764705882352941 0.048366013071895426
0 0.08529411764705883 0.14640522875816994 0.013235294117647059 0.05359477124183006
0 0.15073529411764705 0.09411764705882353 0.011764705882352941 0.04183006535947712
0 0.16029411764705884 0.11503267973856209 0.008823529411764706 0.043137254901960784
0 0.17352941176470588 0.12026143790849673 0.0125 0.0457516339869281
1 0.19926470588235295 0.0915032679738562 0.027941176470588237 0.043137254901960784
1 0.1801470588235294 0.06274509803921569 0.011764705882352941 0.030065359477124184
1 0.16176470588235295 0.050980392156862744 0.01764705882352941 0.0196078431372549
