1 0.5078125 0.7537037037037037 0.044270833333333336 0.075
1 0.4401041666666667 0.7453703703703703 0.03333333333333333 0.07592592592592592
1 0.44895833333333335 0.6481481481481481 0.020833333333333332 0.03425925925925926
1 0.325 0.7407407407407407 0.04010416666666667 0.06759259259259259
1 0.29635416666666664 0.6851851851851852 0.036458333333333336 0.03888888888888889
1 0.5114583333333333 0.6657407407407407 0.03177083333333333 0.032407407407407406
1 0.5989583333333334 0.6944444444444444 0.03854166666666667 0.04351851851851852
1 0.7776041666666667 0.9157407407407407 0.11197916666666667 0.13148148148148148
1 0.7088541666666667 0.8268518518518518 0.06302083333333333 0.08055555555555556
1 0.22604166666666667 0.8731481481481481 0.04583333333333333 0.125
1 0.03333333333333333 0.7407407407407407 0.06666666666666667 0.07037037037037037
1 0.11354166666666667 0.7092592592592593 0.08229166666666667 0.044444444444444446
1 0.23333333333333334 0.6972222222222222 0.043229166666666666 0.04537037037037037
1 0.225 0.6425925925925926 0.022916666666666665 0.032407407407407406
1 0.11770833333333333 0.9601851851851851 0.028645833333333332 0.07962962962962963
1 0.0328125 0.8722222222222222 0.065625 0.10277777777777777
0 0.11927083333333334 0.9314814814814815 0.030729166666666665 0.08703703703703704
1 0.22604166666666667 0.7657407407407407 0.013541666666666667 0.03888888888888889
0 0.22604166666666667 0.7481481481481481 0.011979166666666667 0.05
0 0.3734375 0.625 0.0046875 0.017592592592592594
1 0.3734375 0.6305555555555555 0.004166666666666667 0.01574074074074074
0 0.20677083333333332 0.7185185185185186 0.0125 0.04351851851851852
1 0.14479166666666668 0.7 0.057291666666666664 0.041666666666666664
1 0.25625 0.625 0.0328125 0.023148148148148147
0 0.26510416666666664 0.6314814814814815 0.0046875 0.021296296296296296
1 0.2828125 0.6212962962962963 0.025 0.023148148148148147
1 0.3692708333333333 0.6129629629629629 0.0171875 0.022222222222222223
0 0.32395833333333335 0.6583333333333333 0.005208333333333333 0.026851851851851852
1 0.32447916666666665 0.6703703703703704 0.00625 0.025
1 0.35625 0.6712962962962963 0.015104166666666667 0.02962962962962963
1 0.4515625 0.6055555555555555 0.013541666666666667 0.021296296296296296
1 0.4875 0.5925925925925926 0.0109375 0.013888888888888888
1 0.4734375 0.6194444444444445 0.014583333333333334 0.020370370370370372
1 0.5208333333333334 0.6407407407407407 0.020833333333333332 0.026851851851851852
1 0.5104166666666666 0.6333333333333333 0.016666666666666666 0.023148148148148147
1 0.49947916666666664 0.6092592592592593 0.0125 0.016666666666666666
1 0.5057291666666667 0.6231481481481481 0.015104166666666667 0.025925925925925925
1 0.4817708333333333 0.6472222222222223 0.0067708333333333336 0.019444444444444445
1 0.45625 0.5740740740740741 0.007291666666666667 0.014814814814814815
1 0.578125 0.6777777777777778 0.028125 0.03333333333333333
1 0.5369791666666667 0.6259259259259259 0.0140625 0.019444444444444445
1 0.9552083333333333 0.8703703703703703 0.0890625 0.0824074074074074
1 0.91875 0.8407407407407408 0.13645833333333332 0.07407407407407407
1 0.8651041666666667 0.7935185185185185 0.11041666666666666 0.09722222222222222
1 0.7796875 0.7324074074074074 0.09114583333333333 0.05462962962962963
1 0.5984375 0.6370370370370371 0.033854166666666664 0.025
1 0.590625 0.6231481481481481 0.033854166666666664 0.025
0 0.6526041666666667 0.6981481481481482 0.007291666666666667 0.04351851851851852
0 0.6458333333333334 0.6981481481481482 0.007291666666666667 0.04351851851851852
0 0.696875 0.7648148148148148 0.010416666666666666 0.040740740740740744
1 0.6984375 0.7824074074074074 0.0171875 0.03796296296296296
0 0.6677083333333333 0.875 0.0203125 0.06481481481481481
1 0.6666666666666666 0.8972222222222223 0.026041666666666668 0.06944444444444445
0 0.6958333333333333 0.9796296296296296 0.03177083333333333 0.040740740740740744
1 0.5520833333333334 0.5990740740740741 0.033854166666666664 0.025
1 0.5375 0.5916666666666667 0.033854166666666664 0.025
1 0.49635416666666665 0.6805555555555556 0.007291666666666667 0.025
1 0.4921875 0.6370370370370371 0.00625 0.017592592592592594
1 0.42291666666666666 0.6018518518518519 0.008854166666666666 0.009259259259259259
1 0.38645833333333335 0.6240740740740741 0.0036458333333333334 0.012962962962962963
1 0.390625 0.625 0.003125 0.012037037037037037
1 0.3890625 0.6018518518518519 0.003125 0.012037037037037037
1 0.415625 0.5935185185185186 0.003125 0.011111111111111112
1 0.41041666666666665 0.5842592592592593 0.0026041666666666665 0.011111111111111112
1 0.42083333333333334 0.5796296296296296 0.0026041666666666665 0.007407407407407408
1 0.4166666666666667 0.5824074074074074 0.007291666666666667 0.013888888888888888
0 0.4973958333333333 0.6694444444444444 0.007291666666666667 0.025
0 0.49166666666666664 0.6296296296296297 0.0067708333333333336 0.01574074074074074
0 0.4822916666666667 0.637962962962963 0.008333333333333333 0.019444444444444445
0 0.39114583333333336 0.6203703703703703 0.0046875 0.014814814814814815
0 0.38697916666666665 0.6175925925925926 0.005208333333333333 0.014814814814814815
0 0.3734375 0.6231481481481481 0.005208333333333333 0.014814814814814815
0 0.421875 0.5953703703703703 0.003125 0.011111111111111112
0 0.4375 0.5916666666666667 0.003125 0.013888888888888888
0 0.4744791666666667 0.6074074074074074 0.004166666666666667 0.014814814814814815
1 0.44635416666666666 0.5824074074074074 0.0026041666666666665 0.010185185185185186
1 0.43802083333333336 0.5787037037037037 0.0026041666666666665 0.007407407407407408
1 0.4661458333333333 0.5842592592592593 0.003125 0.007407407407407408
0 0.43802083333333336 0.5740740740740741 0.0015625 0.007407407407407408
0 0.44635416666666666 0.5777777777777777 0.0020833333333333333 0.007407407407407408
0 0.465625 0.5796296296296296 0.0020833333333333333 0.008333333333333333
1 0.3848958333333333 0.5888888888888889 0.009895833333333333 0.025
1 0.4890625 0.5861111111111111 0.0078125 0.016666666666666666
1 0.3885416666666667 0.65 0.0067708333333333336 0.021296296296296296
0 0.3885416666666667 0.6416666666666667 0.00625 0.021296296296296296
