1 0.5183823529411765 0.8065359477124183 0.052941176470588235 0.19607843137254902
1 0.45 0.7830065359477124 0.058823529411764705 0.20915032679738563
1 0.4183823529411765 0.6248366013071895 0.06911764705882353 0.15555555555555556
1 0.5463235294117647 0.39738562091503266 0.04191176470588235 0.08366013071895424
1 0.6191176470588236 0.3150326797385621 0.04338235294117647 0.08366013071895424
1 0.5955882352941176 0.2222222222222222 0.03235294117647059 0.054901960784313725
1 0.5345588235294118 0.13594771241830064 0.029411764705882353 0.05228758169934641
1 0.44779411764705884 0.16209150326797386 0.027941176470588237 0.06405228758169934
1 0.4176470588235294 0.06013071895424837 0.030882352941176472 0.07973856209150326
0 0.6639705882352941 0.5111111111111111 0.013970588235294118 0.050980392156862744
1 0.6639705882352941 0.5241830065359477 0.016911764705882352 0.04967320261437908
1 0.7014705882352941 0.40261437908496733 0.07426470588235294 0.10980392156862745
1 0.8272058823529411 0.1568627450980392 0.054411764705882354 0.05620915032679739
1 0.8551470588235294 0.20392156862745098 0.060294117647058824 0.04967320261437908
1 0.7639705882352941 0.058823529411764705 0.045588235294117645 0.040522875816993466
1 0.7602941176470588 0.03137254901960784 0.04779411764705882 0.0392156862745098
1 0.7191176470588235 0.01437908496732026 0.030882352941176472 0.030065359477124184
1 0.9529411764705882 0.9202614379084967 0.09411764705882353 0.13333333333333333
1 0.6691176470588235 0.10980392156862745 0.04411764705882353 0.043137254901960784
1 0.6683823529411764 0.09019607843137255 0.04264705882352941 0.032679738562091505
1 0.6610294117647059 0.06274509803921569 0.04632352941176471 0.047058823529411764
1 0.5845588235294118 0.022222222222222223 0.022794117647058822 0.040522875816993466
1 0.8132352941176471 0.6666666666666666 0.030147058823529412 0.09411764705882353
1 0.9823529411764705 0.28888888888888886 0.03161764705882353 0.03529411764705882
1 0.9492647058823529 0.2980392156862745 0.04485294117647059 0.05228758169934641
0 0.8911764705882353 0.9803921568627451 0.01764705882352941 0.03790849673202614
