0 0.7338541666666667 0.8185185185185185 0.0109375 0.06111111111111111
1 0.9760416666666667 0.43148148148148147 0.043229166666666666 0.030555555555555555
1 0.9322916666666666 0.33796296296296297 0.0375 0.022222222222222223
0 0.6505208333333333 0.38981481481481484 0.005729166666666666 0.024074074074074074
1 0.6390625 0.38796296296296295 0.034895833333333334 0.027777777777777776
0 0.6 0.3731481481481482 0.003125 0.021296296296296296
0 0.6088541666666667 0.37777777777777777 0.004166666666666667 0.025925925925925925
1 0.5442708333333334 0.3675925925925926 0.00625 0.016666666666666666
1 0.5963541666666666 0.3824074074074074 0.030208333333333334 0.03425925925925926
0 0.55 0.44722222222222224 0.0067708333333333336 0.022222222222222223
1 0.55 0.4527777777777778 0.00625 0.024074074074074074
0 0.5479166666666667 0.3851851851851852 0.005729166666666666 0.016666666666666666
1 0.5484375 0.38981481481481484 0.008333333333333333 0.012962962962962963
1 0.5635416666666667 0.39444444444444443 0.036458333333333336 0.022222222222222223
1 0.475 0.950925925925926 0.0578125 0.09814814814814815
1 0.3885416666666667 0.7833333333333333 0.06145833333333333 0.13703703703703704
1 0.32083333333333336 0.7787037037037037 0.0515625 0.10555555555555556
1 0.47760416666666666 0.6694444444444444 0.03333333333333333 0.06018518518518518
0 0.22239583333333332 0.6611111111111111 0.015104166666666667 0.03611111111111111
0 0.27760416666666665 0.5527777777777778 0.0078125 0.03796296296296296
1 0.34270833333333334 0.6083333333333333 0.035416666666666666 0.0712962962962963
1 0.5145833333333333 0.5814814814814815 0.027604166666666666 0.04722222222222222
1 0.50625 0.5111111111111111 0.023958333333333335 0.037037037037037035
1 0.5104166666666666 0.4305555555555556 0.018229166666666668 0.028703703703703703
0 0.5838541666666667 0.48055555555555557 0.00625 0.03148148148148148
0 0.5786458333333333 0.4703703703703704 0.004166666666666667 0.03148148148148148
0 0.5770833333333333 0.4675925925925926 0.005208333333333333 0.03148148148148148
0 0.575 0.462037037037037 0.005729166666666666 0.03148148148148148
1 0.4947916666666667 0.3925925925925926 0.015104166666666667 0.022222222222222223
1 0.39791666666666664 0.42592592592592593 0.018229166666666668 0.03148148148148148
1 0.38333333333333336 0.35185185185185186 0.028125 0.017592592592592594
1 0.4895833333333333 0.35462962962962963 0.011979166666666667 0.019444444444444445
1 0.09270833333333334 0.3388888888888889 0.024479166666666666 0.018518518518518517
1 0.0625 0.3712962962962963 0.0359375 0.021296296296296296
1 0.0125 0.33611111111111114 0.024479166666666666 0.016666666666666666
1 0.018229166666666668 0.3333333333333333 0.021354166666666667 0.016666666666666666
1 0.0234375 0.3287037037037037 0.0265625 0.019444444444444445
1 0.044270833333333336 0.29814814814814816 0.0109375 0.01574074074074074
1 0.03125 0.31203703703703706 0.0203125 0.021296296296296296
0 0.03229166666666667 0.31666666666666665 0.005208333333333333 0.019444444444444445
1 0.033854166666666664 0.3277777777777778 0.028645833333333332 0.017592592592592594
1 0.0390625 0.32592592592592595 0.025 0.01574074074074074
1 0.042708333333333334 0.32314814814814813 0.0234375 0.01574074074074074
1 0.05 0.3194444444444444 0.025 0.018518518518518517
1 0.0515625 0.30185185185185187 0.013020833333333334 0.013888888888888888
1 0.0640625 0.3 0.009895833333333333 0.014814814814814815
1 0.0671875 0.3101851851851852 0.020833333333333332 0.018518518518518517
1 0.08020833333333334 0.30092592592592593 0.0140625 0.013888888888888888
1 0.09791666666666667 0.2972222222222222 0.019270833333333334 0.020370370370370372
1 0.11927083333333334 0.29444444444444445 0.022916666666666665 0.018518518518518517
1 0.13072916666666667 0.2898148148148148 0.030729166666666665 0.023148148148148147
1 0.13125 0.3138888888888889 0.027604166666666666 0.021296296296296296
1 0.446875 0.36944444444444446 0.014583333333333334 0.021296296296296296
1 0.415625 0.38981481481481484 0.0171875 0.02962962962962963
1 0.41510416666666666 0.35648148148148145 0.022395833333333334 0.04537037037037037
1 0.42135416666666664 0.34074074074074073 0.011458333333333333 0.018518518518518517
1 0.4375 0.3490740740740741 0.0125 0.020370370370370372
1 0.4666666666666667 0.3472222222222222 0.011458333333333333 0.017592592592592594
1 0.4473958333333333 0.33055555555555555 0.0109375 0.017592592592592594
1 0.46458333333333335 0.31296296296296294 0.009895833333333333 0.014814814814814815
1 0.403125 0.31851851851851853 0.0109375 0.014814814814814815
0 0.41302083333333334 0.3194444444444444 0.004166666666666667 0.014814814814814815
1 0.41302083333333334 0.3212962962962963 0.004166666666666667 0.011111111111111112
1 0.43020833333333336 0.3175925925925926 0.009895833333333333 0.01574074074074074
1 0.48072916666666665 0.30648148148148147 0.009375 0.014814814814814815
1 0.48802083333333335 0.31851851851851853 0.016666666666666666 0.037037037037037035
1 0.4671875 0.29259259259259257 0.008333333333333333 0.012037037037037037
1 0.4671875 0.2657407407407407 0.007291666666666667 0.010185185185185186
1 0.47708333333333336 0.27314814814814814 0.00625 0.010185185185185186
1 0.4786458333333333 0.2833333333333333 0.009375 0.021296296296296296
1 0.43020833333333336 0.3 0.009895833333333333 0.016666666666666666
1 0.43125 0.2898148148148148 0.008333333333333333 0.012962962962962963
1 0.43333333333333335 0.2759259259259259 0.00625 0.013888888888888888
1 0.4510416666666667 0.29907407407407405 0.008333333333333333 0.017592592592592594
1 0.4505208333333333 0.28888888888888886 0.008333333333333333 0.011111111111111112
1 0.43385416666666665 0.2537037037037037 0.005729166666666666 0.010185185185185186
1 0.43802083333333336 0.26666666666666666 0.0067708333333333336 0.01574074074074074
1 0.4421875 0.2638888888888889 0.0067708333333333336 0.011111111111111112
1 0.453125 0.2712962962962963 0.007291666666666667 0.014814814814814815
1 0.453125 0.2638888888888889 0.005729166666666666 0.010185185185185186
1 0.4427083333333333 0.2537037037037037 0.005729166666666666 0.010185185185185186
1 0.44583333333333336 0.2490740740740741 0.005208333333333333 0.010185185185185186
1 0.45364583333333336 0.2537037037037037 0.007291666666666667 0.017592592592592594
1 0.4546875 0.2537037037037037 0.005208333333333333 0.009259259259259259
1 0.4432291666666667 0.23148148148148148 0.005729166666666666 0.009259259259259259
1 0.446875 0.23425925925925925 0.0046875 0.007407407407407408
1 0.44895833333333335 0.22962962962962963 0.0046875 0.006481481481481481
1 0.44583333333333336 0.24074074074074073 0.00625 0.012962962962962963
1 0.4552083333333333 0.24166666666666667 0.005208333333333333 0.009259259259259259
1 0.453125 0.2388888888888889 0.004166666666666667 0.010185185185185186
1 0.4557291666666667 0.2351851851851852 0.0046875 0.006481481481481481
1 0.45625 0.22962962962962963 0.004166666666666667 0.009259259259259259
1 0.47291666666666665 0.23981481481481481 0.0046875 0.006481481481481481
1 0.47291666666666665 0.23148148148148148 0.004166666666666667 0.006481481481481481
1 0.46458333333333335 0.23425925925925925 0.004166666666666667 0.007407407407407408
1 0.4635416666666667 0.23055555555555557 0.005208333333333333 0.008333333333333333
1 0.32447916666666665 0.33425925925925926 0.028645833333333332 0.018518518518518517
