1 0.5308823529411765 0.9359477124183007 0.05661764705882353 0.04967320261437908
0 0.5308823529411765 0.9254901960784314 0.022794117647058822 0.09019607843137255
1 0.9816176470588235 0.6836601307189543 0.030882352941176472 0.0718954248366013
0 0.9808823529411764 0.6797385620915033 0.011029411764705883 0.04183006535947712
1 0.13014705882352942 0.3712418300653595 0.06323529411764706 0.048366013071895426
1 0.17205882352941176 0.3215686274509804 0.045588235294117645 0.04183006535947712
1 0.33455882352941174 0.27450980392156865 0.022794117647058822 0.018300653594771243
1 0.35808823529411765 0.25882352941176473 0.01838235294117647 0.0196078431372549
1 0.2963235294117647 0.2549019607843137 0.01911764705882353 0.01699346405228758
1 0.2625 0.21176470588235294 0.06470588235294118 0.04183006535947712
1 0.25588235294117645 0.1934640522875817 0.07205882352941176 0.0392156862745098
1 0.35808823529411765 0.17647058823529413 0.04191176470588235 0.030065359477124184
1 0.30220588235294116 0.18562091503267975 0.011029411764705883 0.013071895424836602
0 0.1875 0.21176470588235294 0.005147058823529412 0.01568627450980392
0 0.18455882352941178 0.20915032679738563 0.003676470588235294 0.018300653594771243
0 0.18161764705882352 0.21045751633986928 0.0022058823529411764 0.01568627450980392
0 0.17941176470588235 0.20915032679738563 0.003676470588235294 0.01699346405228758
1 0.35661764705882354 0.22875816993464052 0.013235294117647059 0.0196078431372549
0 0.06691176470588235 0.38823529411764707 0.007352941176470588 0.03790849673202614
