1 0.2595588235294118 0.8261437908496732 0.18455882352941178 0.17908496732026144
1 0.13823529411764707 0.6522875816993464 0.04852941176470588 0.07450980392156863
0 0.13823529411764707 0.6339869281045751 0.025735294117647058 0.07712418300653595
1 0.3654411764705882 0.530718954248366 0.03455882352941177 0.08888888888888889
0 0.3654411764705882 0.5124183006535947 0.023529411764705882 0.0718954248366013
1 0.2727941176470588 0.38562091503267976 0.10073529411764706 0.12549019607843137
1 0.3573529411764706 0.3215686274509804 0.08970588235294118 0.08758169934640522
0 0.09044117647058823 0.4 0.022794117647058822 0.08366013071895424
1 0.4904411764705882 0.477124183006536 0.09338235294117647 0.13071895424836602
1 0.5669117647058823 0.3673202614379085 0.07352941176470588 0.11241830065359477
1 0.6286764705882353 0.29934640522875816 0.061764705882352944 0.08627450980392157
1 0.6720588235294118 0.23790849673202613 0.057352941176470586 0.08104575163398693
1 0.5801470588235295 0.21045751633986928 0.07720588235294118 0.07058823529411765
1 0.48823529411764705 0.2326797385620915 0.06985294117647059 0.08366013071895424
0 0.36617647058823527 0.17908496732026144 0.013970588235294118 0.054901960784313725
0 0.5360294117647059 0.15294117647058825 0.009558823529411765 0.050980392156862744
0 0.5448529411764705 0.15555555555555556 0.008823529411764706 0.0457516339869281
1 0.5161764705882353 0.1803921568627451 0.02426470588235294 0.03398692810457516
1 0.5933823529411765 0.1437908496732026 0.06911764705882353 0.04967320261437908
1 0.6338235294117647 0.1895424836601307 0.011764705882352941 0.0392156862745098
1 0.6485294117647059 0.19738562091503267 0.011764705882352941 0.030065359477124184
0 0.6352941176470588 0.17516339869281045 0.010294117647058823 0.03398692810457516
0 0.649264705882353 0.18562091503267975 0.010294117647058823 0.032679738562091505
1 0.6235294117647059 0.12156862745098039 0.05588235294117647 0.05620915032679739
1 0.7066176470588236 0.134640522875817 0.047058823529411764 0.054901960784313725
1 0.6852941176470588 0.12418300653594772 0.026470588235294117 0.040522875816993466
1 0.7455882352941177 0.1542483660130719 0.027941176470588237 0.05359477124183006
1 0.7551470588235294 0.12418300653594772 0.01764705882352941 0.030065359477124184
0 0.7558823529411764 0.11241830065359477 0.0125 0.036601307189542485
1 0.6661764705882353 0.09019607843137255 0.014705882352941176 0.03137254901960784
0 0.7404411764705883 0.0784313725490196 0.009558823529411765 0.036601307189542485
0 0.7360294117647059 0.0784313725490196 0.008088235294117648 0.043137254901960784
0 0.7308823529411764 0.07581699346405228 0.008823529411764706 0.040522875816993466
1 0.6852941176470588 0.06535947712418301 0.05073529411764706 0.043137254901960784
