1 0.3770833333333333 0.7925925925925926 0.017708333333333333 0.06296296296296296
1 0.5239583333333333 0.6722222222222223 0.0125 0.04814814814814815
1 0.41458333333333336 0.5259259259259259 0.016666666666666666 0.022222222222222223
1 0.36770833333333336 0.7185185185185186 0.017708333333333333 0.04814814814814815
1 0.49583333333333335 0.7666666666666667 0.010416666666666666 0.027777777777777776
1 0.50625 0.5796296296296296 0.010416666666666666 0.025925925925925925
1 0.40729166666666666 0.5574074074074075 0.027083333333333334 0.046296296296296294
1 0.3729166666666667 0.6722222222222223 0.03229166666666667 0.06296296296296296
1 0.5 0.44814814814814813 0.0125 0.022222222222222223
1 0.4552083333333333 0.44074074074074077 0.014583333333333334 0.027777777777777776
1 0.43125 0.4759259259259259 0.01875 0.04814814814814815
0 0.5239583333333333 0.45740740740740743 0.007291666666666667 0.024074074074074074
0 0.5052083333333334 0.5648148148148148 0.013541666666666667 0.016666666666666666
0 0.49375 0.75 0.011458333333333333 0.03518518518518519
0 0.5114583333333333 0.4 0.00625 0.014814814814814815
0 0.459375 0.4074074074074074 0.008333333333333333 0.016666666666666666
1 0.5520833333333334 0.5592592592592592 0.014583333333333334 0.02962962962962963
0 0.378125 0.7907407407407407 0.013541666666666667 0.03333333333333333
