0 0.18161764705882352 0.4522875816993464 0.027205882352941177 0.047058823529411764
0 0.4338235294117647 0.38562091503267976 0.01911764705882353 0.0392156862745098
0 0.3088235294117647 0.257516339869281 0.022058823529411766 0.0457516339869281
0 0.37573529411764706 0.36470588235294116 0.01911764705882353 0.036601307189542485
0 0.3029411764705882 0.4300653594771242 0.028676470588235293 0.044444444444444446
0 0.2838235294117647 0.4993464052287582 0.023529411764705882 0.047058823529411764
0 0.2514705882352941 0.5647058823529412 0.026470588235294117 0.05359477124183006
0 0.24191176470588235 0.6300653594771242 0.027205882352941177 0.0457516339869281
0 0.25882352941176473 0.3581699346405229 0.01911764705882353 0.043137254901960784
0 0.17647058823529413 0.39738562091503266 0.020588235294117647 0.032679738562091505
0 0.8875 0.058823529411764705 0.022794117647058822 0.047058823529411764
0 0.8029411764705883 0.39477124183006534 0.02426470588235294 0.05359477124183006
0 0.8147058823529412 0.45098039215686275 0.022058823529411766 0.0392156862745098
0 0.8294117647058824 0.5058823529411764 0.029411764705882353 0.04183006535947712
0 0.8661764705882353 0.5189542483660131 0.027941176470588237 0.04183006535947712
0 0.8433823529411765 0.5215686274509804 0.03161764705882353 0.036601307189542485
0 0.8455882352941176 0.3712418300653595 0.027205882352941177 0.050980392156862744
0 0.8595588235294118 0.403921568627451 0.027205882352941177 0.04967320261437908
0 0.8794117647058823 0.4261437908496732 0.03308823529411765 0.03790849673202614
0 0.9176470588235294 0.4980392156862745 0.030882352941176472 0.047058823529411764
0 0.9625 0.4392156862745098 0.028676470588235293 0.040522875816993466
1 0.9264705882352942 0.1111111111111111 0.04338235294117647 0.04183006535947712
1 0.13014705882352942 0.8627450980392157 0.045588235294117645 0.03529411764705882
1 0.5977941176470588 0.032679738562091505 0.030147058823529412 0.06143790849673202
0 0.3154411764705882 0.048366013071895426 0.019852941176470587 0.05620915032679739
0 0.2823529411764706 0.030065359477124184 0.025 0.048366013071895426
0 0.20147058823529412 0.01699346405228758 0.01911764705882353 0.03398692810457516
0 0.3323529411764706 0.018300653594771243 0.023529411764705882 0.036601307189542485
0 0.4522058823529412 0.8993464052287582 0.023529411764705882 0.043137254901960784
