0 0.0203125 0.6435185185185185 0.018229166666666668 0.06481481481481481
1 0.019791666666666666 0.662962962962963 0.018229166666666668 0.049074074074074076
1 0.1234375 0.9712962962962963 0.0734375 0.05740740740740741
1 0.12083333333333333 0.9583333333333334 0.06822916666666666 0.06759259259259259
1 0.0296875 0.9740740740740741 0.059375 0.049074074074074076
1 0.08854166666666667 0.9629629629629629 0.057291666666666664 0.07407407407407407
1 0.0375 0.9574074074074074 0.05677083333333333 0.08425925925925926
1 0.027083333333333334 0.9083333333333333 0.05416666666666667 0.09166666666666666
1 0.030208333333333334 0.8935185185185185 0.06041666666666667 0.06111111111111111
1 0.019791666666666666 0.8277777777777777 0.04010416666666667 0.058333333333333334
1 0.04010416666666667 0.8416666666666667 0.0640625 0.06851851851851852
1 0.0671875 0.8435185185185186 0.05364583333333333 0.07962962962962963
1 0.053125 0.8555555555555555 0.053125 0.06574074074074074
1 0.10989583333333333 0.8629629629629629 0.052083333333333336 0.0824074074074074
1 0.115625 0.8935185185185185 0.043229166666666666 0.0712962962962963
1 0.12395833333333334 0.9222222222222223 0.0515625 0.07314814814814814
1 0.3140625 0.8425925925925926 0.11197916666666667 0.19166666666666668
1 0.2578125 0.9675925925925926 0.13541666666666666 0.06481481481481481
1 0.12291666666666666 0.6203703703703703 0.09166666666666666 0.07037037037037037
0 0.0036458333333333334 0.4638888888888889 0.007291666666666667 0.03148148148148148
1 0.004166666666666667 0.4722222222222222 0.008333333333333333 0.026851851851851852
1 0.015625 0.4583333333333333 0.03125 0.037037037037037035
1 0.03177083333333333 0.4740740740740741 0.0328125 0.03611111111111111
0 0.042708333333333334 0.49537037037037035 0.010416666666666666 0.041666666666666664
0 0.0625 0.4787037037037037 0.010416666666666666 0.027777777777777776
0 0.06197916666666667 0.5138888888888888 0.011458333333333333 0.04259259259259259
1 0.11354166666666667 0.5018518518518519 0.020833333333333332 0.030555555555555555
0 0.12604166666666666 0.5370370370370371 0.009895833333333333 0.04814814814814815
0 0.13541666666666666 0.5342592592592592 0.0125 0.041666666666666664
1 0.13229166666666667 0.5425925925925926 0.015625 0.037037037037037035
1 0.18958333333333333 0.5472222222222223 0.027083333333333334 0.037037037037037035
0 0.2 0.5703703703703704 0.015625 0.046296296296296294
1 0.2 0.5833333333333334 0.030208333333333334 0.03518518518518519
0 0.21614583333333334 0.5787037037037037 0.014583333333333334 0.04722222222222222
1 0.21458333333333332 0.5916666666666667 0.0328125 0.03796296296296296
0 0.21875 0.6268518518518519 0.011458333333333333 0.0712962962962963
0 0.25416666666666665 0.6166666666666667 0.014583333333333334 0.04814814814814815
0 0.259375 0.6222222222222222 0.016145833333333335 0.04537037037037037
1 0.25625 0.6314814814814815 0.024479166666666666 0.04259259259259259
0 0.30520833333333336 0.575925925925926 0.01875 0.046296296296296294
1 0.3046875 0.587037037037037 0.024479166666666666 0.03611111111111111
1 0.365625 0.5555555555555556 0.08697916666666666 0.0712962962962963
1 0.4078125 0.4722222222222222 0.050520833333333334 0.041666666666666664
1 0.41770833333333335 0.45925925925925926 0.0453125 0.03981481481481482
1 0.4479166666666667 0.6583333333333333 0.09166666666666666 0.07222222222222222
1 0.515625 0.8361111111111111 0.146875 0.15462962962962962
1 0.5088541666666667 0.7398148148148148 0.13385416666666666 0.12129629629629629
0 0.503125 0.6703703703703704 0.019270833333333334 0.05092592592592592
1 0.5026041666666666 0.687962962962963 0.028125 0.03518518518518519
0 0.5005208333333333 0.6166666666666667 0.011458333333333333 0.06018518518518518
1 0.5651041666666666 0.6111111111111112 0.0328125 0.0787037037037037
0 0.5515625 0.5564814814814815 0.0125 0.041666666666666664
1 0.5515625 0.5694444444444444 0.014583333333333334 0.03518518518518519
0 0.5682291666666667 0.5388888888888889 0.0109375 0.044444444444444446
1 0.5677083333333334 0.55 0.009895833333333333 0.03148148148148148
0 0.590625 0.5120370370370371 0.0067708333333333336 0.03888888888888889
0 0.6197916666666666 0.5574074074074075 0.0125 0.04351851851851852
1 0.61875 0.5694444444444444 0.011979166666666667 0.03611111111111111
1 0.4546875 0.48148148148148145 0.04635416666666667 0.040740740740740744
1 0.5213541666666667 0.4740740740740741 0.050520833333333334 0.03611111111111111
1 0.5213541666666667 0.4685185185185185 0.05364583333333333 0.03333333333333333
1 0.5265625 0.4601851851851852 0.05416666666666667 0.030555555555555555
1 0.5270833333333333 0.45555555555555555 0.042708333333333334 0.030555555555555555
1 0.6578125 0.649074074074074 0.084375 0.075
0 0.6291666666666667 0.5351851851851852 0.011458333333333333 0.04259259259259259
1 0.6286458333333333 0.5388888888888889 0.0140625 0.030555555555555555
0 0.65 0.4740740740740741 0.007291666666666667 0.03148148148148148
1 0.6494791666666667 0.4824074074074074 0.007291666666666667 0.022222222222222223
0 0.6583333333333333 0.4324074074074074 0.0046875 0.025
0 0.6536458333333334 0.43333333333333335 0.004166666666666667 0.023148148148148147
1 0.609375 0.5074074074074074 0.007291666666666667 0.024074074074074074
0 0.8151041666666666 0.9 0.028645833333333332 0.09907407407407408
1 0.8145833333333333 0.9277777777777778 0.06927083333333334 0.10185185185185185
0 0.8927083333333333 0.7861111111111111 0.020833333333333332 0.08703703703703704
1 0.9677083333333333 0.587037037037037 0.0625 0.05648148148148148
0 0.934375 0.562037037037037 0.011979166666666667 0.049074074074074076
0 0.9203125 0.5444444444444444 0.008854166666666666 0.04537037037037037
0 0.9609375 0.5212962962962963 0.008854166666666666 0.04537037037037037
0 0.9072916666666667 0.4842592592592593 0.00625 0.03518518518518519
1 0.8578125 0.47129629629629627 0.0296875 0.03611111111111111
0 0.8364583333333333 0.5120370370370371 0.011979166666666667 0.026851851851851852
1 0.8359375 0.5203703703703704 0.011458333333333333 0.028703703703703703
0 0.8322916666666667 0.4824074074074074 0.009895833333333333 0.025
1 0.8322916666666667 0.49074074074074076 0.009895833333333333 0.027777777777777776
0 0.7875 0.4685185185185185 0.008854166666666666 0.021296296296296296
1 0.7880208333333333 0.475 0.008333333333333333 0.027777777777777776
0 0.8072916666666666 0.4675925925925926 0.008854166666666666 0.023148148148148147
1 0.8078125 0.4740740740740741 0.009375 0.027777777777777776
0 0.7994791666666666 0.4444444444444444 0.0067708333333333336 0.021296296296296296
1 0.7989583333333333 0.45 0.0067708333333333336 0.020370370370370372
0 0.8526041666666667 0.44166666666666665 0.005208333333333333 0.027777777777777776
0 0.8598958333333333 0.44351851851851853 0.00625 0.030555555555555555
0 0.8364583333333333 0.42685185185185187 0.004166666666666667 0.025925925925925925
0 0.8270833333333333 0.42685185185185187 0.005208333333333333 0.025925925925925925
0 0.8166666666666667 0.42777777777777776 0.0046875 0.024074074074074074
0 0.8145833333333333 0.41388888888888886 0.005208333333333333 0.022222222222222223
0 0.809375 0.412962962962963 0.0046875 0.022222222222222223
0 0.7958333333333333 0.40555555555555556 0.00625 0.021296296296296296
1 0.7239583333333334 0.5027777777777778 0.027604166666666666 0.044444444444444446
1 0.7307291666666667 0.48333333333333334 0.024479166666666666 0.03981481481481482
1 0.7234375 0.46944444444444444 0.022916666666666665 0.03333333333333333
1 0.7244791666666667 0.45555555555555555 0.020833333333333332 0.03148148148148148
1 0.6854166666666667 0.4759259259259259 0.0234375 0.03425925925925926
0 0.7015625 0.4462962962962963 0.0067708333333333336 0.021296296296296296
1 0.7015625 0.4527777777777778 0.0078125 0.019444444444444445
1 0.6885416666666667 0.43425925925925923 0.044270833333333336 0.025
0 0.7197916666666667 0.42962962962962964 0.005729166666666666 0.022222222222222223
1 0.7197916666666667 0.4351851851851852 0.005729166666666666 0.014814814814814815
0 0.7067708333333333 0.4222222222222222 0.005208333333333333 0.014814814814814815
0 0.7052083333333333 0.4212962962962963 0.0046875 0.014814814814814815
0 0.6895833333333333 0.41388888888888886 0.0046875 0.017592592592592594
0 0.6942708333333333 0.38425925925925924 0.0036458333333333334 0.013888888888888888
0 0.7 0.37037037037037035 0.003125 0.010185185185185186
0 0.6916666666666667 0.3648148148148148 0.0020833333333333333 0.010185185185185186
1 0.7057291666666666 0.42777777777777776 0.0046875 0.012037037037037037
1 0.6895833333333333 0.4185185185185185 0.005208333333333333 0.013888888888888888
1 0.69375 0.38796296296296295 0.003125 0.011111111111111112
1 0.6994791666666667 0.3731481481481482 0.0036458333333333334 0.008333333333333333
1 0.6911458333333333 0.3685185185185185 0.0026041666666666665 0.007407407407407408
0 0.6734375 0.3925925925925926 0.0036458333333333334 0.021296296296296296
1 0.7338541666666667 0.37777777777777777 0.0109375 0.01574074074074074
1 0.715625 0.3861111111111111 0.0203125 0.041666666666666664
1 0.7255208333333333 0.3592592592592593 0.008333333333333333 0.009259259259259259
1 0.7104166666666667 0.36018518518518516 0.015625 0.026851851851851852
0 0.7354166666666667 0.3592592592592593 0.0020833333333333333 0.008333333333333333
0 0.7317708333333334 0.35833333333333334 0.003125 0.010185185185185186
1 0.7354166666666667 0.36203703703703705 0.0020833333333333333 0.007407407407407408
1 0.73125 0.36018518518518516 0.0026041666666666665 0.009259259259259259
1 0.71875 0.35462962962962963 0.005208333333333333 0.009259259259259259
1 0.7234375 0.3398148148148148 0.0046875 0.007407407407407408
0 0.7479166666666667 0.37407407407407406 0.0046875 0.012037037037037037
1 0.7473958333333334 0.37592592592592594 0.004166666666666667 0.010185185185185186
1 0.6416666666666667 0.35 0.0125 0.009259259259259259
1 0.6328125 0.37037037037037035 0.016145833333333335 0.012962962962962963
