1 0.4588235294117647 0.07450980392156863 0.013235294117647059 0.02483660130718954
0 0.48676470588235293 0.0196078431372549 0.0029411764705882353 0.01437908496732026
1 0.5301470588235294 0.06797385620915032 0.013235294117647059 0.01699346405228758
1 0.5345588235294118 0.08888888888888889 0.013970588235294118 0.022222222222222223
1 0.5375 0.09934640522875816 0.013235294117647059 0.022222222222222223
0 0.4661764705882353 0.10065359477124183 0.005147058823529412 0.022222222222222223
0 0.44779411764705884 0.09934640522875816 0.005147058823529412 0.01699346405228758
1 0.42426470588235293 0.10980392156862745 0.03235294117647059 0.02483660130718954
1 0.4176470588235294 0.13986928104575164 0.033823529411764704 0.027450980392156862
0 0.4426470588235294 0.14640522875816994 0.006617647058823529 0.0196078431372549
1 0.44191176470588234 0.15294117647058825 0.016176470588235296 0.01568627450980392
0 0.42205882352941176 0.16470588235294117 0.006617647058823529 0.02483660130718954
0 0.4183823529411765 0.19084967320261437 0.005147058823529412 0.03137254901960784
0 0.42426470588235293 0.1843137254901961 0.0058823529411764705 0.018300653594771243
0 0.4125 0.19084967320261437 0.005147058823529412 0.027450980392156862
0 0.3977941176470588 0.28366013071895424 0.008823529411764706 0.03529411764705882
0 0.46397058823529413 0.2 0.006617647058823529 0.01699346405228758
0 0.46397058823529413 0.2196078431372549 0.005147058823529412 0.02875816993464052
0 0.475 0.20392156862745098 0.006617647058823529 0.023529411764705882
1 0.46397058823529413 0.20392156862745098 0.006617647058823529 0.01437908496732026
1 0.4647058823529412 0.2261437908496732 0.0058823529411764705 0.023529411764705882
1 0.47573529411764703 0.21176470588235294 0.0058823529411764705 0.023529411764705882
1 0.43676470588235294 0.18823529411764706 0.019852941176470587 0.044444444444444446
1 0.43529411764705883 0.24444444444444444 0.025735294117647058 0.043137254901960784
1 0.5073529411764706 0.16601307189542483 0.01764705882352941 0.032679738562091505
1 0.5367647058823529 0.16732026143790849 0.011764705882352941 0.02875816993464052
0 0.5227941176470589 0.18169934640522875 0.006617647058823529 0.023529411764705882
1 0.5220588235294118 0.18823529411764706 0.007352941176470588 0.022222222222222223
1 0.5088235294117647 0.32679738562091504 0.026470588235294117 0.06143790849673202
0 0.3602941176470588 0.38562091503267976 0.007352941176470588 0.040522875816993466
0 0.36764705882352944 0.3908496732026144 0.007352941176470588 0.043137254901960784
0 0.3713235294117647 0.4745098039215686 0.01838235294117647 0.0392156862745098
0 0.3911764705882353 0.4627450980392157 0.011764705882352941 0.050980392156862744
0 0.5595588235294118 0.39215686274509803 0.010294117647058823 0.048366013071895426
0 0.45294117647058824 0.46013071895424834 0.011764705882352941 0.03529411764705882
1 0.4536764705882353 0.46797385620915033 0.01838235294117647 0.06143790849673202
1 0.3735294117647059 0.5320261437908497 0.04338235294117647 0.07712418300653595
1 0.37058823529411766 0.6248366013071895 0.05367647058823529 0.09934640522875816
1 0.5264705882352941 0.677124183006536 0.045588235294117645 0.1084967320261438
1 0.30073529411764705 0.9228758169934641 0.07058823529411765 0.15294117647058825
0 0.3382352941176471 0.9660130718954248 0.019852941176470587 0.06274509803921569
1 0.06102941176470588 0.13856209150326798 0.039705882352941174 0.02875816993464052
1 0.09264705882352942 0.19607843137254902 0.03455882352941177 0.0457516339869281
1 0.05 0.3058823529411765 0.025 0.030065359477124184
1 0.075 0.3032679738562091 0.022794117647058822 0.027450980392156862
1 0.01838235294117647 0.3477124183006536 0.0375 0.05228758169934641
1 0.033823529411764704 0.7450980392156863 0.06764705882352941 0.09281045751633987
