1 0.9257352941176471 0.33202614379084966 0.06985294117647059 0.2169934640522876
1 0.9426470588235294 0.1437908496732026 0.0838235294117647 0.15294117647058825
1 0.625 0.1803921568627451 0.1161764705882353 0.13986928104575164
1 0.4213235294117647 0.3150326797385621 0.17794117647058824 0.2130718954248366
1 0.48676470588235293 0.4261437908496732 0.17573529411764705 0.2222222222222222
1 0.5610294117647059 0.49411764705882355 0.19117647058823528 0.23790849673202613
1 0.6404411764705882 0.5477124183006536 0.1676470588235294 0.22091503267973855
0 0.6838235294117647 0.6745098039215687 0.03161764705882353 0.09803921568627451
1 0.8404411764705882 0.9098039215686274 0.15955882352941175 0.17124183006535948
1 0.08308823529411764 0.6915032679738562 0.1661764705882353 0.39738562091503266
1 0.047058823529411764 0.11633986928104575 0.07794117647058824 0.0784313725490196
1 0.07647058823529412 0.1503267973856209 0.07058823529411765 0.07450980392156863
0 0.23088235294117648 0.23398692810457516 0.020588235294117647 0.06013071895424837
0 0.23455882352941176 0.4888888888888889 0.029411764705882353 0.0915032679738562
0 0.2529411764705882 0.6836601307189543 0.03235294117647059 0.10065359477124183
0 0.16544117647058823 0.9464052287581699 0.03161764705882353 0.10326797385620914
0 0.2580882352941177 0.9477124183006536 0.030882352941176472 0.10326797385620914
0 0.3323529411764706 0.4954248366013072 0.02426470588235294 0.08758169934640522
0 0.38235294117647056 0.5398692810457516 0.01911764705882353 0.09673202614379085
0 0.3977941176470588 0.5843137254901961 0.021323529411764706 0.10718954248366012
0 0.4264705882352941 0.6104575163398693 0.02426470588235294 0.09673202614379085
0 0.43161764705882355 0.5477124183006536 0.021323529411764706 0.10196078431372549
0 0.44926470588235295 0.5647058823529412 0.023529411764705882 0.10196078431372549
0 0.41102941176470587 0.5751633986928104 0.020588235294117647 0.09934640522875816
0 0.6213235294117647 0.022222222222222223 0.016911764705882352 0.044444444444444446
0 0.17205882352941176 0.17647058823529413 0.01838235294117647 0.06143790849673202
0 0.16691176470588234 0.0392156862745098 0.01764705882352941 0.06535947712418301
0 0.8419117647058824 0.9228758169934641 0.04779411764705882 0.08758169934640522
0 0.8735294117647059 0.9464052287581699 0.04191176470588235 0.10718954248366012
