0 0.9411764705882353 0.22745098039215686 0.013970588235294118 0.047058823529411764
0 0.9110294117647059 0.22483660130718955 0.011029411764705883 0.0457516339869281
0 0.8823529411764706 0.20915032679738563 0.010294117647058823 0.048366013071895426
0 0.8 0.33725490196078434 0.009558823529411765 0.05228758169934641
0 0.7919117647058823 0.338562091503268 0.008088235294117648 0.05228758169934641
0 0.7948529411764705 0.3241830065359477 0.008088235294117648 0.048366013071895426
0 0.7507352941176471 0.32287581699346407 0.009558823529411765 0.05359477124183006
0 0.7411764705882353 0.3241830065359477 0.008088235294117648 0.05751633986928104
0 0.7558823529411764 0.36209150326797385 0.008088235294117648 0.05228758169934641
0 0.6735294117647059 0.30980392156862746 0.009558823529411765 0.043137254901960784
0 0.6529411764705882 0.2875816993464052 0.008088235294117648 0.044444444444444446
0 0.7661764705882353 0.21437908496732025 0.008823529411764706 0.0457516339869281
0 0.7588235294117647 0.21045751633986928 0.009558823529411765 0.04183006535947712
0 0.6316176470588235 0.269281045751634 0.009558823529411765 0.043137254901960784
0 0.6286764705882353 0.2 0.008823529411764706 0.048366013071895426
0 0.7705882352941177 0.37254901960784315 0.0125 0.06143790849673202
0 0.7698529411764706 0.34901960784313724 0.007352941176470588 0.032679738562091505
0 0.6669117647058823 0.023529411764705882 0.008088235294117648 0.011764705882352941
1 0.6669117647058823 0.03529411764705882 0.006617647058823529 0.01568627450980392
0 0.5816176470588236 0.1437908496732026 0.009558823529411765 0.03529411764705882
0 0.5830882352941177 0.07973856209150326 0.005147058823529412 0.03137254901960784
0 0.5411764705882353 0.05751633986928104 0.007352941176470588 0.02483660130718954
0 0.5485294117647059 0.044444444444444446 0.0058823529411764705 0.022222222222222223
0 0.5235294117647059 0.19477124183006536 0.008823529411764706 0.040522875816993466
0 0.5029411764705882 0.1869281045751634 0.010294117647058823 0.044444444444444446
0 0.48161764705882354 0.1803921568627451 0.008088235294117648 0.040522875816993466
0 0.4727941176470588 0.17777777777777778 0.007352941176470588 0.040522875816993466
0 0.4610294117647059 0.1830065359477124 0.011029411764705883 0.03790849673202614
0 0.525 0.1895424836601307 0.008088235294117648 0.0457516339869281
0 0.5102941176470588 0.15294117647058825 0.0058823529411764705 0.043137254901960784
0 0.5147058823529411 0.15163398692810456 0.008088235294117648 0.043137254901960784
0 0.5022058823529412 0.14901960784313725 0.011029411764705883 0.043137254901960784
0 0.48823529411764705 0.1437908496732026 0.010294117647058823 0.032679738562091505
0 0.43308823529411766 0.1607843137254902 0.008823529411764706 0.03790849673202614
0 0.44779411764705884 0.12679738562091503 0.007352941176470588 0.04183006535947712
0 0.43970588235294117 0.12549019607843137 0.010294117647058823 0.044444444444444446
0 0.4147058823529412 0.19738562091503267 0.008088235294117648 0.03790849673202614
0 0.40955882352941175 0.20392156862745098 0.011764705882352941 0.036601307189542485
0 0.39705882352941174 0.16862745098039217 0.013235294117647059 0.043137254901960784
0 0.4007352941176471 0.17647058823529413 0.0058823529411764705 0.02875816993464052
0 0.42573529411764705 0.10326797385620914 0.008088235294117648 0.030065359477124184
0 0.4073529411764706 0.08888888888888889 0.008823529411764706 0.022222222222222223
0 0.3941176470588235 0.12810457516339868 0.007352941176470588 0.040522875816993466
0 0.38088235294117645 0.1450980392156863 0.006617647058823529 0.032679738562091505
0 0.38235294117647056 0.12287581699346405 0.006617647058823529 0.03790849673202614
0 0.3639705882352941 0.054901960784313725 0.007352941176470588 0.030065359477124184
0 0.3536764705882353 0.06013071895424837 0.008823529411764706 0.03137254901960784
0 0.32426470588235295 0.05228758169934641 0.008088235294117648 0.027450980392156862
0 0.31323529411764706 0.06797385620915032 0.007352941176470588 0.032679738562091505
0 0.30808823529411766 0.06535947712418301 0.007352941176470588 0.03529411764705882
0 0.2823529411764706 0.06405228758169934 0.0058823529411764705 0.03137254901960784
0 0.07867647058823529 0.12941176470588237 0.011029411764705883 0.03790849673202614
0 0.09264705882352942 0.12418300653594772 0.008823529411764706 0.03790849673202614
0 0.08308823529411764 0.12679738562091503 0.008088235294117648 0.03529411764705882
0 0.10220588235294117 0.12287581699346405 0.013970588235294118 0.03790849673202614
0 0.1213235294117647 0.06535947712418301 0.007352941176470588 0.03398692810457516
0 0.14852941176470588 0.06143790849673202 0.004411764705882353 0.030065359477124184
0 0.1536764705882353 0.06405228758169934 0.005147058823529412 0.030065359477124184
0 0.15514705882352942 0.06013071895424837 0.0058823529411764705 0.03137254901960784
0 0.16176470588235295 0.06013071895424837 0.010294117647058823 0.032679738562091505
0 0.16029411764705884 0.06143790849673202 0.006617647058823529 0.030065359477124184
0 0.14411764705882352 0.12418300653594772 0.010294117647058823 0.03790849673202614
0 0.1411764705882353 0.16339869281045752 0.009558823529411765 0.03790849673202614
0 0.15441176470588236 0.16339869281045752 0.008823529411764706 0.03529411764705882
0 0.17058823529411765 0.15816993464052287 0.011029411764705883 0.036601307189542485
0 0.014705882352941176 0.07058823529411765 0.006617647058823529 0.01699346405228758
0 0.01911764705882353 0.0718954248366013 0.008088235294117648 0.01568627450980392
0 0.23088235294117648 0.10588235294117647 0.010294117647058823 0.040522875816993466
0 0.2338235294117647 0.12156862745098039 0.007352941176470588 0.03137254901960784
0 0.23897058823529413 0.12156862745098039 0.009558823529411765 0.03398692810457516
0 0.24779411764705883 0.12156862745098039 0.007352941176470588 0.036601307189542485
0 0.2727941176470588 0.11764705882352941 0.006617647058823529 0.03398692810457516
0 0.2757352941176471 0.11764705882352941 0.007352941176470588 0.03529411764705882
0 0.28088235294117647 0.12026143790849673 0.008088235294117648 0.03137254901960784
0 0.2867647058823529 0.11895424836601307 0.004411764705882353 0.030065359477124184
0 0.2889705882352941 0.12287581699346405 0.006617647058823529 0.03790849673202614
0 0.29411764705882354 0.12026143790849673 0.0058823529411764705 0.03398692810457516
0 0.2985294117647059 0.11633986928104575 0.006617647058823529 0.03398692810457516
0 0.2926470588235294 0.11503267973856209 0.004411764705882353 0.03529411764705882
0 0.28161764705882353 0.10196078431372549 0.004411764705882353 0.03790849673202614
0 0.2889705882352941 0.10065359477124183 0.006617647058823529 0.032679738562091505
0 0.29558823529411765 0.10196078431372549 0.005147058823529412 0.027450980392156862
0 0.3044117647058823 0.11895424836601307 0.0058823529411764705 0.03137254901960784
0 0.3088235294117647 0.12287581699346405 0.006617647058823529 0.03398692810457516
0 0.3176470588235294 0.12418300653594772 0.008823529411764706 0.03529411764705882
0 0.32426470588235295 0.12549019607843137 0.005147058823529412 0.03529411764705882
0 0.33897058823529413 0.12026143790849673 0.007352941176470588 0.03529411764705882
0 0.35441176470588237 0.11764705882352941 0.0058823529411764705 0.032679738562091505
0 0.3551470588235294 0.11503267973856209 0.007352941176470588 0.03137254901960784
0 0.33897058823529413 0.11633986928104575 0.008088235294117648 0.032679738562091505
0 0.32279411764705884 0.11633986928104575 0.005147058823529412 0.03398692810457516
0 0.32941176470588235 0.11633986928104575 0.008088235294117648 0.0392156862745098
0 0.3397058823529412 0.10588235294117647 0.010294117647058823 0.0392156862745098
0 0.5338235294117647 0.06274509803921569 0.0058823529411764705 0.02875816993464052
