0 0.05367647058823529 0.45359477124183006 0.025735294117647058 0.058823529411764705
0 0.09705882352941177 0.37516339869281046 0.01764705882352941 0.058823529411764705
0 0.1264705882352941 0.4470588235294118 0.022058823529411766 0.05620915032679739
0 0.125 0.5045751633986928 0.01764705882352941 0.06405228758169934
0 0.17352941176470588 0.46013071895424834 0.013970588235294118 0.05620915032679739
1 0.1448529411764706 0.5516339869281046 0.023529411764705882 0.06535947712418301
1 0.125 0.592156862745098 0.03823529411764706 0.04967320261437908
1 0.09411764705882353 0.6013071895424836 0.025735294117647058 0.07581699346405228
0 0.7036764705882353 0.21437908496732025 0.008823529411764706 0.047058823529411764
0 0.5882352941176471 0.4235294117647059 0.010294117647058823 0.04183006535947712
0 0.6441176470588236 0.44836601307189544 0.008823529411764706 0.01699346405228758
0 0.5566176470588236 0.42483660130718953 0.0125 0.03137254901960784
0 0.5720588235294117 0.4339869281045752 0.005147058823529412 0.02091503267973856
0 0.5786764705882353 0.44052287581699345 0.0058823529411764705 0.0196078431372549
0 0.5507352941176471 0.6928104575163399 0.016911764705882352 0.0718954248366013
0 0.5823529411764706 0.6954248366013072 0.02426470588235294 0.05751633986928104
0 0.5926470588235294 0.677124183006536 0.025735294117647058 0.07058823529411765
0 0.6044117647058823 0.6601307189542484 0.02426470588235294 0.06143790849673202
0 0.6183823529411765 0.6509803921568628 0.01911764705882353 0.058823529411764705
0 0.6375 0.6261437908496732 0.01911764705882353 0.07581699346405228
0 0.8132352941176471 0.9254901960784314 0.022794117647058822 0.06535947712418301
0 0.8705882352941177 0.9607843137254902 0.026470588235294117 0.05359477124183006
0 0.836764705882353 0.8901960784313725 0.025 0.06928104575163399
0 0.8360294117647059 0.8352941176470589 0.016176470588235296 0.036601307189542485
0 0.6426470588235295 0.9869281045751634 0.01838235294117647 0.026143790849673203
0 0.4904411764705882 0.6209150326797386 0.016911764705882352 0.06535947712418301
