1 0.9036764705882353 0.7215686274509804 0.029411764705882353 0.08235294117647059
0 0.8801470588235294 0.7934640522875817 0.023529411764705882 0.050980392156862744
1 0.8389705882352941 0.8130718954248366 0.023529411764705882 0.08496732026143791
1 0.8595588235294118 0.9555555555555556 0.04926470588235294 0.050980392156862744
1 0.7911764705882353 0.796078431372549 0.041176470588235294 0.05620915032679739
1 0.7838235294117647 0.7673202614379085 0.03676470588235294 0.0392156862745098
1 0.8279411764705882 0.9163398692810457 0.033823529411764704 0.036601307189542485
1 0.7073529411764706 0.5647058823529412 0.03676470588235294 0.040522875816993466
0 0.7735294117647059 0.5398692810457516 0.013970588235294118 0.03137254901960784
0 0.7705882352941177 0.526797385620915 0.016176470588235296 0.03137254901960784
1 0.7176470588235294 0.7947712418300653 0.08529411764705883 0.17908496732026144
1 0.6558823529411765 0.6026143790849673 0.07205882352941176 0.12026143790849673
1 0.5808823529411765 0.4549019607843137 0.08602941176470588 0.08104575163398693
1 0.5875 0.35555555555555557 0.04852941176470588 0.08235294117647059
1 0.5455882352941176 0.28366013071895424 0.05073529411764706 0.06797385620915032
1 0.6507352941176471 0.39215686274509803 0.027941176470588237 0.03529411764705882
1 0.6441176470588236 0.3633986928104575 0.025 0.03398692810457516
1 0.6014705882352941 0.2928104575163399 0.022794117647058822 0.02875816993464052
1 0.5426470588235294 0.2222222222222222 0.03529411764705882 0.06535947712418301
1 0.5176470588235295 0.12418300653594772 0.03308823529411765 0.05228758169934641
1 0.5036764705882353 0.0784313725490196 0.030882352941176472 0.047058823529411764
1 0.5007352941176471 0.20261437908496732 0.009558823529411765 0.040522875816993466
0 0.5014705882352941 0.2 0.008823529411764706 0.023529411764705882
0 0.5 0.19477124183006536 0.010294117647058823 0.036601307189542485
1 0.5301470588235294 0.01568627450980392 0.05367647058823529 0.03137254901960784
1 0.40808823529411764 0.023529411764705882 0.02426470588235294 0.040522875816993466
1 0.4102941176470588 0.06274509803921569 0.022794117647058822 0.044444444444444446
1 0.4198529411764706 0.10718954248366012 0.027941176470588237 0.050980392156862744
1 0.42426470588235293 0.18562091503267975 0.027941176470588237 0.05751633986928104
1 0.43529411764705883 0.2496732026143791 0.033823529411764704 0.06928104575163399
1 0.4573529411764706 0.3477124183006536 0.04044117647058824 0.08627450980392157
0 0.46911764705882353 0.403921568627451 0.013235294117647059 0.05751633986928104
0 0.4632352941176471 0.41830065359477125 0.014705882352941176 0.05751633986928104
1 0.45073529411764707 0.6169934640522876 0.1036764705882353 0.11764705882352941
1 0.5727941176470588 0.6261437908496732 0.016911764705882352 0.058823529411764705
0 0.5764705882352941 0.6196078431372549 0.016176470588235296 0.04967320261437908
1 0.24779411764705883 0.022222222222222223 0.05073529411764706 0.044444444444444446
0 0.22279411764705884 0.0457516339869281 0.007352941176470588 0.04183006535947712
0 0.22720588235294117 0.06013071895424837 0.005147058823529412 0.023529411764705882
0 0.21911764705882353 0.05359477124183006 0.010294117647058823 0.036601307189542485
0 0.21544117647058825 0.040522875816993466 0.008823529411764706 0.036601307189542485
1 0.2838235294117647 0.06274509803921569 0.02426470588235294 0.047058823529411764
1 0.2801470588235294 0.10326797385620914 0.028676470588235293 0.06274509803921569
1 0.275 0.1542483660130719 0.028676470588235293 0.06535947712418301
1 0.27205882352941174 0.23529411764705882 0.03529411764705882 0.08104575163398693
1 0.2647058823529412 0.31895424836601305 0.03602941176470588 0.08758169934640522
1 0.25882352941176473 0.4013071895424837 0.04264705882352941 0.11503267973856209
1 0.24632352941176472 0.5477124183006536 0.04926470588235294 0.12941176470588237
1 0.23602941176470588 0.6967320261437908 0.061764705882352944 0.19084967320261437
1 0.21838235294117647 0.9241830065359478 0.0713235294117647 0.1503267973856209
1 0.15441176470588236 0.6849673202614379 0.01838235294117647 0.06274509803921569
0 0.20147058823529412 0.5751633986928104 0.016176470588235296 0.06405228758169934
1 0.19705882352941176 0.4745098039215686 0.03235294117647059 0.03790849673202614
1 0.14191176470588235 0.4549019607843137 0.015441176470588236 0.04967320261437908
1 0.22573529411764706 0.17777777777777778 0.02426470588235294 0.023529411764705882
1 0.19705882352941176 0.16993464052287582 0.015441176470588236 0.032679738562091505
0 0.1963235294117647 0.22875816993464052 0.011764705882352941 0.04183006535947712
0 0.17647058823529413 0.2797385620915033 0.009558823529411765 0.044444444444444446
1 0.17941176470588235 0.25620915032679736 0.011764705882352941 0.03398692810457516
