1 0.8583333333333333 0.9648148148148148 0.0203125 0.06851851851851852
0 0.8916666666666667 0.8583333333333333 0.015625 0.053703703703703705
0 0.8802083333333334 0.8648148148148148 0.0203125 0.05277777777777778
1 0.8817708333333333 0.8675925925925926 0.0171875 0.06481481481481481
0 0.8614583333333333 0.8611111111111112 0.016145833333333335 0.05648148148148148
1 0.9125 0.8777777777777778 0.027604166666666666 0.049074074074074076
0 0.9453125 0.8490740740740741 0.015625 0.058333333333333334
1 0.8171875 0.8277777777777777 0.03125 0.03981481481481482
1 0.8177083333333334 0.8157407407407408 0.040625 0.044444444444444446
1 0.8895833333333333 0.7157407407407408 0.029166666666666667 0.044444444444444446
1 0.7447916666666666 0.8324074074074074 0.06145833333333333 0.11944444444444445
1 0.659375 0.8092592592592592 0.05520833333333333 0.11666666666666667
1 0.7083333333333334 0.9453703703703704 0.07864583333333333 0.10925925925925926
1 0.6473958333333333 0.9685185185185186 0.07604166666666666 0.06296296296296296
1 0.6307291666666667 0.674074074074074 0.04479166666666667 0.08703703703703704
1 0.6130208333333333 0.5685185185185185 0.03697916666666667 0.0712962962962963
0 0.2875 0.7953703703703704 0.017708333333333333 0.049074074074074076
1 0.2875 0.8148148148148148 0.021875 0.05277777777777778
1 0.28541666666666665 0.712037037037037 0.015104166666666667 0.04722222222222222
1 0.3020833333333333 0.7240740740740741 0.0234375 0.06018518518518518
1 0.3260416666666667 0.6259259259259259 0.0359375 0.10185185185185185
1 0.34322916666666664 0.5388888888888889 0.0328125 0.06666666666666667
1 0.35104166666666664 0.4666666666666667 0.019791666666666666 0.046296296296296294
0 0.3802083333333333 0.48148148148148145 0.013541666666666667 0.041666666666666664
1 0.3802083333333333 0.48703703703703705 0.011979166666666667 0.04259259259259259
1 0.35885416666666664 0.42777777777777776 0.019791666666666666 0.03888888888888889
1 0.36875 0.4666666666666667 0.0109375 0.03425925925925926
0 0.36770833333333336 0.45925925925925926 0.008854166666666666 0.02962962962962963
1 0.37447916666666664 0.3907407407407407 0.028645833333333332 0.05555555555555555
1 0.4276041666666667 0.3861111111111111 0.028125 0.04814814814814815
0 0.3953125 0.3648148148148148 0.007291666666666667 0.03148148148148148
1 0.3963541666666667 0.37222222222222223 0.0171875 0.03611111111111111
0 0.4125 0.3509259259259259 0.007291666666666667 0.022222222222222223
1 0.4125 0.3537037037037037 0.007291666666666667 0.026851851851851852
1 0.378125 0.33611111111111114 0.0078125 0.02962962962962963
1 0.4015625 0.31851851851851853 0.021875 0.03888888888888889
0 0.4140625 0.3111111111111111 0.00625 0.03148148148148148
1 0.4640625 0.3907407407407407 0.022916666666666665 0.046296296296296294
1 0.45 0.3388888888888889 0.0265625 0.04259259259259259
0 0.38645833333333335 0.29907407407407405 0.005208333333333333 0.028703703703703703
0 0.384375 0.2953703703703704 0.0046875 0.026851851851851852
0 0.4515625 0.2518518518518518 0.005729166666666666 0.023148148148148147
1 0.45260416666666664 0.25462962962962965 0.0109375 0.017592592592592594
0 0.4088541666666667 0.2490740740740741 0.007291666666666667 0.021296296296296296
1 0.4109375 0.2537037037037037 0.013020833333333334 0.024074074074074074
0 0.43645833333333334 0.23148148148148148 0.005729166666666666 0.019444444444444445
1 0.43697916666666664 0.23796296296296296 0.005208333333333333 0.019444444444444445
0 0.44635416666666666 0.21203703703703702 0.00625 0.020370370370370372
1 0.44635416666666666 0.21851851851851853 0.005729166666666666 0.016666666666666666
1 0.4078125 0.22314814814814815 0.016666666666666666 0.025925925925925925
1 0.42552083333333335 0.18425925925925926 0.013020833333333334 0.024074074074074074
0 0.43645833333333334 0.17592592592592593 0.0046875 0.020370370370370372
1 0.4296875 0.17037037037037037 0.008333333333333333 0.023148148148148147
0 0.4510416666666667 0.14537037037037037 0.004166666666666667 0.012962962962962963
1 0.4510416666666667 0.14629629629629629 0.009375 0.017592592592592594
1 0.4546875 0.13055555555555556 0.009895833333333333 0.021296296296296296
1 0.4265625 0.13055555555555556 0.015104166666666667 0.020370370370370372
0 0.4322916666666667 0.12407407407407407 0.003125 0.017592592592592594
0 0.43125 0.12314814814814815 0.0036458333333333334 0.018518518518518517
1 0.4625 0.03518518518518519 0.014583333333333334 0.009259259259259259
1 0.44895833333333335 0.05277777777777778 0.0046875 0.012037037037037037
0 0.4505208333333333 0.06666666666666667 0.004166666666666667 0.013888888888888888
1 0.4609375 0.06759259259259259 0.016145833333333335 0.025925925925925925
1 0.45729166666666665 0.07592592592592592 0.011979166666666667 0.019444444444444445
1 0.4630208333333333 0.08703703703703704 0.009895833333333333 0.012962962962962963
1 0.4666666666666667 0.09722222222222222 0.0109375 0.01574074074074074
1 0.4703125 0.1037037037037037 0.007291666666666667 0.018518518518518517
1 0.46927083333333336 0.0787037037037037 0.008854166666666666 0.014814814814814815
1 0.4734375 0.08703703703703704 0.009375 0.013888888888888888
1 0.48541666666666666 0.10277777777777777 0.011458333333333333 0.024074074074074074
0 0.5151041666666667 0.14722222222222223 0.0026041666666666665 0.012037037037037037
0 0.5161458333333333 0.14907407407407408 0.003125 0.012037037037037037
1 0.5151041666666667 0.15092592592592594 0.004166666666666667 0.013888888888888888
0 0.5177083333333333 0.1574074074074074 0.004166666666666667 0.013888888888888888
1 0.5171875 0.16111111111111112 0.004166666666666667 0.01574074074074074
0 0.5208333333333334 0.1685185185185185 0.0046875 0.017592592592592594
1 0.5213541666666667 0.17222222222222222 0.005729166666666666 0.01574074074074074
0 0.5328125 0.18055555555555555 0.0046875 0.01574074074074074
1 0.5328125 0.18518518518518517 0.004166666666666667 0.01574074074074074
0 0.5359375 0.19074074074074074 0.0046875 0.018518518518518517
1 0.5354166666666667 0.1935185185185185 0.0046875 0.01574074074074074
1 0.54375 0.22592592592592592 0.017708333333333333 0.024074074074074074
0 0.5489583333333333 0.22407407407407406 0.0067708333333333336 0.020370370370370372
1 0.5317708333333333 0.23148148148148148 0.0067708333333333336 0.018518518518518517
0 0.5317708333333333 0.22685185185185186 0.0046875 0.017592592592592594
1 0.4973958333333333 0.2611111111111111 0.016666666666666666 0.027777777777777776
0 0.49114583333333334 0.2740740740740741 0.007291666666666667 0.025
1 0.490625 0.27870370370370373 0.0109375 0.020370370370370372
1 0.528125 0.3 0.019270833333333334 0.040740740740740744
0 0.5239583333333333 0.35833333333333334 0.007291666666666667 0.024074074074074074
1 0.5234375 0.36203703703703705 0.0078125 0.030555555555555555
0 0.5510416666666667 0.3472222222222222 0.0067708333333333336 0.026851851851851852
1 0.5515625 0.3527777777777778 0.008333333333333333 0.02962962962962963
0 0.5395833333333333 0.375 0.0067708333333333336 0.024074074074074074
1 0.5395833333333333 0.3787037037037037 0.008854166666666666 0.027777777777777776
0 0.54375 0.41388888888888886 0.007291666666666667 0.02962962962962963
1 0.54375 0.4203703703703704 0.008854166666666666 0.028703703703703703
0 0.521875 0.45092592592592595 0.00625 0.018518518518518517
0 0.5223958333333333 0.44537037037037036 0.0078125 0.025
1 0.5223958333333333 0.4537037037037037 0.008854166666666666 0.02962962962962963
0 0.5515625 0.46111111111111114 0.009895833333333333 0.025925925925925925
1 0.5515625 0.4666666666666667 0.009375 0.03518518518518519
0 0.5755208333333334 0.3907407407407407 0.0067708333333333336 0.026851851851851852
1 0.5755208333333334 0.39814814814814814 0.007291666666666667 0.027777777777777776
1 0.8822916666666667 0.4074074074074074 0.05 0.03796296296296296
1 0.859375 0.3888888888888889 0.04375 0.03518518518518519
1 0.8041666666666667 0.35648148148148145 0.05677083333333333 0.041666666666666664
1 0.7828125 0.34074074074074073 0.03958333333333333 0.03518518518518519
1 0.71875 0.27037037037037037 0.0328125 0.03425925925925926
1 0.70625 0.2638888888888889 0.0375 0.028703703703703703
1 0.7052083333333333 0.2537037037037037 0.03229166666666667 0.027777777777777776
1 0.7005208333333334 0.24537037037037038 0.03333333333333333 0.026851851851851852
1 0.6927083333333334 0.24166666666666667 0.035416666666666666 0.024074074074074074
1 0.6890625 0.2361111111111111 0.036458333333333336 0.021296296296296296
1 0.690625 0.22777777777777777 0.035416666666666666 0.020370370370370372
1 0.6828125 0.2222222222222222 0.030729166666666665 0.021296296296296296
1 0.6796875 0.2101851851851852 0.029166666666666667 0.024074074074074074
1 0.6734375 0.2074074074074074 0.028125 0.019444444444444445
1 0.6557291666666667 0.1962962962962963 0.021354166666666667 0.025
1 0.6401041666666667 0.1824074074074074 0.022916666666666665 0.027777777777777776
1 0.6276041666666666 0.1648148148148148 0.024479166666666666 0.022222222222222223
1 0.6276041666666666 0.1425925925925926 0.011979166666666667 0.025
