1 0.18308823529411763 0.7411764705882353 0.14044117647058824 0.11372549019607843
1 0.14558823529411766 0.8562091503267973 0.16029411764705884 0.134640522875817
1 0.05073529411764706 0.6222222222222222 0.04485294117647059 0.054901960784313725
1 0.13897058823529412 0.4797385620915033 0.03161764705882353 0.047058823529411764
1 0.3029411764705882 0.3895424836601307 0.08529411764705883 0.06535947712418301
1 0.24485294117647058 0.21437908496732025 0.057352941176470586 0.07712418300653595
1 0.19044117647058822 0.20522875816993463 0.058823529411764705 0.06666666666666667
1 0.21764705882352942 0.050980392156862744 0.016176470588235296 0.02483660130718954
1 0.3397058823529412 0.0457516339869281 0.051470588235294115 0.03529411764705882
1 0.34558823529411764 0.030065359477124184 0.03676470588235294 0.030065359477124184
1 0.3492647058823529 0.02091503267973856 0.04779411764705882 0.036601307189542485
0 0.40661764705882353 0.0457516339869281 0.008823529411764706 0.02091503267973856
0 0.47794117647058826 0.1437908496732026 0.0058823529411764705 0.043137254901960784
0 0.4698529411764706 0.13725490196078433 0.008088235294117648 0.022222222222222223
1 0.45441176470588235 0.10718954248366012 0.027205882352941177 0.050980392156862744
1 0.4661764705882353 0.13986928104575164 0.051470588235294115 0.05359477124183006
1 0.5169117647058824 0.0718954248366013 0.023529411764705882 0.047058823529411764
1 0.5727941176470588 0.12026143790849673 0.025735294117647058 0.04967320261437908
0 0.5544117647058824 0.047058823529411764 0.007352941176470588 0.027450980392156862
0 0.5705882352941176 0.05620915032679739 0.008088235294117648 0.027450980392156862
1 0.5536764705882353 0.054901960784313725 0.008088235294117648 0.027450980392156862
1 0.5705882352941176 0.06535947712418301 0.009558823529411765 0.02875816993464052
1 0.7514705882352941 0.018300653594771243 0.011764705882352941 0.023529411764705882
1 0.8205882352941176 0.054901960784313725 0.09558823529411764 0.07320261437908497
1 0.6573529411764706 0.07581699346405228 0.045588235294117645 0.03398692810457516
1 0.5007352941176471 0.22483660130718955 0.033823529411764704 0.0718954248366013
1 0.5536764705882353 0.27450980392156865 0.03161764705882353 0.06274509803921569
0 0.6066176470588235 0.15294117647058825 0.006617647058823529 0.0392156862745098
0 0.6139705882352942 0.1542483660130719 0.006617647058823529 0.040522875816993466
0 0.5830882352941177 0.21045751633986928 0.0058823529411764705 0.02091503267973856
0 0.5838235294117647 0.2 0.008823529411764706 0.030065359477124184
1 0.5830882352941177 0.21045751633986928 0.009558823529411765 0.03790849673202614
1 0.6654411764705882 0.15816993464052287 0.07941176470588235 0.05228758169934641
1 0.6705882352941176 0.1934640522875817 0.07794117647058824 0.06535947712418301
1 0.6919117647058823 0.257516339869281 0.08235294117647059 0.07450980392156863
1 0.6764705882352942 0.23137254901960785 0.013235294117647059 0.027450980392156862
1 0.5529411764705883 0.39738562091503266 0.0375 0.08366013071895424
0 0.6272058823529412 0.4366013071895425 0.011029411764705883 0.05751633986928104
1 0.5463235294117647 0.5869281045751634 0.04632352941176471 0.12026143790849673
1 0.7205882352941176 0.5137254901960784 0.05808823529411765 0.14248366013071895
1 0.7757352941176471 0.7594771241830065 0.08308823529411764 0.17254901960784313
1 0.8602941176470589 0.7738562091503268 0.08676470588235294 0.16601307189542483
1 0.9389705882352941 0.7633986928104575 0.09485294117647058 0.13594771241830064
1 0.9786764705882353 0.7516339869281046 0.04191176470588235 0.15163398692810456
1 0.9698529411764706 0.5751633986928104 0.05955882352941176 0.15163398692810456
1 0.9264705882352942 0.5843137254901961 0.0875 0.14640522875816994
1 0.8661764705882353 0.5934640522875817 0.07426470588235294 0.13594771241830064
1 0.8007352941176471 0.5882352941176471 0.07352941176470588 0.12156862745098039
1 0.9698529411764706 0.16209150326797386 0.051470588235294115 0.05359477124183006
1 0.9102941176470588 0.16209150326797386 0.06764705882352941 0.05620915032679739
1 0.9433823529411764 0.07320261437908497 0.05514705882352941 0.043137254901960784
0 0.9919117647058824 0.09411764705882353 0.011764705882352941 0.03137254901960784
1 0.9838235294117647 0.05620915032679739 0.03235294117647059 0.03790849673202614
