0 0.4354166666666667 0.5462962962962963 0.030208333333333334 0.09074074074074075
0 0.4979166666666667 0.5314814814814814 0.028125 0.11296296296296296
0 0.40520833333333334 0.562962962962963 0.051041666666666666 0.15555555555555556
