0 0.49895833333333334 0.8425925925925926 0.022916666666666665 0.06481481481481481
0 0.5 0.8222222222222222 0.022916666666666665 0.06481481481481481
1 0.49583333333333335 0.8518518518518519 0.020833333333333332 0.07407407407407407
1 0.2375 0.8851851851851852 0.109375 0.17037037037037037
1 0.42604166666666665 0.6685185185185185 0.052083333333333336 0.10740740740740741
1 0.5072916666666667 0.5944444444444444 0.034375 0.07777777777777778
0 0.3645833333333333 0.8888888888888888 0.021875 0.08518518518518518
0 0.40729166666666666 0.8462962962962963 0.023958333333333335 0.06851851851851852
0 0.409375 0.8314814814814815 0.019791666666666666 0.06481481481481481
0 0.30104166666666665 0.85 0.019791666666666666 0.07222222222222222
0 0.2947916666666667 0.8388888888888889 0.019791666666666666 0.08148148148148149
0 0.3458333333333333 0.8166666666666667 0.015625 0.05
1 0.346875 0.8481481481481481 0.020833333333333332 0.05925925925925926
1 0.365625 0.9185185185185185 0.030208333333333334 0.07222222222222222
0 0.34375 0.7796296296296297 0.020833333333333332 0.046296296296296294
1 0.3416666666666667 0.8037037037037037 0.01875 0.03888888888888889
0 0.334375 0.7407407407407407 0.015625 0.06296296296296296
0 0.346875 0.6796296296296296 0.013541666666666667 0.05185185185185185
0 0.3260416666666667 0.6925925925925925 0.007291666666666667 0.044444444444444446
0 0.5729166666666666 0.9351851851851852 0.015625 0.06481481481481481
0 0.534375 0.7796296296296297 0.017708333333333333 0.05555555555555555
1 0.5385416666666667 0.7907407407407407 0.020833333333333332 0.05740740740740741
0 0.46770833333333334 0.5888888888888889 0.016666666666666666 0.03333333333333333
1 0.4666666666666667 0.5962962962962963 0.017708333333333333 0.05
0 0.46875 0.5777777777777777 0.014583333333333334 0.040740740740740744
0 0.38333333333333336 0.4925925925925926 0.013541666666666667 0.03333333333333333
1 0.38229166666666664 0.5092592592592593 0.010416666666666666 0.027777777777777776
0 0.4083333333333333 0.4703703703703704 0.008333333333333333 0.03333333333333333
0 0.4479166666666667 0.43703703703703706 0.011458333333333333 0.027777777777777776
1 0.4479166666666667 0.4537037037037037 0.013541666666666667 0.025925925925925925
1 0.6291666666666667 0.7314814814814815 0.028125 0.05185185185185185
0 0.7354166666666667 0.7148148148148148 0.021875 0.07962962962962963
0 0.7739583333333333 0.6907407407407408 0.03125 0.05925925925925926
0 0.575 0.43703703703703706 0.010416666666666666 0.03888888888888889
0 0.5697916666666667 0.4351851851851852 0.010416666666666666 0.03888888888888889
0 0.4010416666666667 0.4722222222222222 0.010416666666666666 0.02962962962962963
0 0.434375 0.43148148148148147 0.009375 0.040740740740740744
0 0.42604166666666665 0.43148148148148147 0.009375 0.03333333333333333
0 0.41770833333333335 0.43703703703703706 0.009375 0.03518518518518519
0 0.41041666666666665 0.4351851851851852 0.009375 0.03518518518518519
0 0.47291666666666665 0.40555555555555556 0.010416666666666666 0.022222222222222223
1 0.47291666666666665 0.4148148148148148 0.010416666666666666 0.025925925925925925
1 0.4427083333333333 0.37222222222222223 0.014583333333333334 0.024074074074074074
0 0.440625 0.3574074074074074 0.011458333333333333 0.03518518518518519
0 0.5927083333333333 0.44074074074074077 0.0125 0.03333333333333333
1 0.590625 0.46111111111111114 0.010416666666666666 0.027777777777777776
0 0.578125 0.3648148148148148 0.007291666666666667 0.025925925925925925
0 0.5833333333333334 0.3574074074074074 0.007291666666666667 0.037037037037037035
0 0.5895833333333333 0.3611111111111111 0.007291666666666667 0.03148148148148148
0 0.5375 0.34074074074074073 0.010416666666666666 0.025925925925925925
1 0.5364583333333334 0.34814814814814815 0.007291666666666667 0.014814814814814815
