1 0.3875 0.722875816993464 0.02426470588235294 0.047058823529411764
1 0.4823529411764706 0.6679738562091503 0.01838235294117647 0.03398692810457516
1 0.5316176470588235 0.6196078431372549 0.030147058823529412 0.027450980392156862
1 0.5889705882352941 0.7189542483660131 0.025735294117647058 0.040522875816993466
1 0.7397058823529412 0.74640522875817 0.028676470588235293 0.040522875816993466
1 0.549264705882353 0.5790849673202615 0.014705882352941176 0.02483660130718954
1 0.4772058823529412 0.5398692810457516 0.0125 0.0196078431372549
1 0.43823529411764706 0.45359477124183006 0.009558823529411765 0.01568627450980392
1 0.3602941176470588 0.611764705882353 0.014705882352941176 0.027450980392156862
1 0.3338235294117647 0.6104575163398693 0.020588235294117647 0.036601307189542485
1 0.7463235294117647 0.6888888888888889 0.03529411764705882 0.047058823529411764
1 0.6058823529411764 0.6718954248366014 0.029411764705882353 0.04183006535947712
1 0.575735294117647 0.5137254901960784 0.0125 0.022222222222222223
1 0.3477941176470588 0.6888888888888889 0.028676470588235293 0.0392156862745098
1 0.2801470588235294 0.6993464052287581 0.027941176470588237 0.050980392156862744
1 0.7588235294117647 0.526797385620915 0.019852941176470587 0.023529411764705882
1 0.7220588235294118 0.5673202614379085 0.03161764705882353 0.026143790849673203
1 0.8345588235294118 0.6522875816993464 0.04485294117647059 0.02875816993464052
1 0.6705882352941176 0.5581699346405229 0.03161764705882353 0.018300653594771243
1 0.6919117647058823 0.515032679738562 0.016911764705882352 0.0196078431372549
1 0.6639705882352941 0.5490196078431373 0.025735294117647058 0.018300653594771243
1 0.7529411764705882 0.550326797385621 0.01911764705882353 0.02483660130718954
1 0.2985294117647059 0.677124183006536 0.03897058823529412 0.02483660130718954
0 0.3477941176470588 0.7398692810457517 0.008088235294117648 0.03790849673202614
0 0.2647058823529412 0.7725490196078432 0.007352941176470588 0.036601307189542485
0 0.6272058823529412 0.5856209150326798 0.005147058823529412 0.018300653594771243
0 0.5977941176470588 0.5856209150326798 0.006617647058823529 0.026143790849673203
0 0.4088235294117647 0.6287581699346405 0.003676470588235294 0.027450980392156862
0 0.40147058823529413 0.6326797385620915 0.005147058823529412 0.026143790849673203
0 0.41323529411764703 0.5607843137254902 0.005147058823529412 0.026143790849673203
0 0.4176470588235294 0.5607843137254902 0.005147058823529412 0.02091503267973856
0 0.7176470588235294 0.6666666666666666 0.005147058823529412 0.032679738562091505
1 0.7536764705882353 0.5751633986928104 0.028676470588235293 0.0196078431372549
1 0.7345588235294118 0.5529411764705883 0.016176470588235296 0.022222222222222223
1 0.7169117647058824 0.5450980392156862 0.01764705882352941 0.022222222222222223
1 0.7845588235294118 0.5660130718954248 0.03455882352941177 0.022222222222222223
1 0.8338235294117647 0.5633986928104575 0.03235294117647059 0.02483660130718954
1 0.9147058823529411 0.5620915032679739 0.03455882352941177 0.022222222222222223
1 0.9522058823529411 0.5620915032679739 0.03161764705882353 0.026143790849673203
1 0.8529411764705882 0.5529411764705883 0.022058823529411766 0.026143790849673203
1 0.8360294117647059 0.5555555555555556 0.022058823529411766 0.023529411764705882
1 0.8125 0.5529411764705883 0.023529411764705882 0.022222222222222223
1 0.8705882352941177 0.550326797385621 0.016911764705882352 0.01699346405228758
1 0.8911764705882353 0.5529411764705883 0.020588235294117647 0.026143790849673203
1 0.9058823529411765 0.5490196078431373 0.022058823529411766 0.022222222222222223
1 0.9213235294117647 0.5477124183006536 0.020588235294117647 0.026143790849673203
1 0.8816176470588235 0.5333333333333333 0.02426470588235294 0.02091503267973856
1 0.899264705882353 0.5320261437908497 0.019852941176470587 0.023529411764705882
1 0.6595588235294118 0.5398692810457516 0.03529411764705882 0.01699346405228758
1 0.6558823529411765 0.5333333333333333 0.028676470588235293 0.0196078431372549
1 0.6485294117647059 0.526797385620915 0.027205882352941177 0.0196078431372549
1 0.6367647058823529 0.5254901960784314 0.023529411764705882 0.018300653594771243
1 0.6308823529411764 0.5124183006535947 0.03308823529411765 0.0196078431372549
1 0.625 0.5032679738562091 0.030882352941176472 0.023529411764705882
1 0.6205882352941177 0.49411764705882355 0.025735294117647058 0.02483660130718954
1 0.6169117647058824 0.47843137254901963 0.023529411764705882 0.01568627450980392
1 0.6088235294117647 0.47581699346405226 0.027205882352941177 0.018300653594771243
1 0.6014705882352941 0.469281045751634 0.019852941176470587 0.01437908496732026
1 0.6433823529411765 0.47058823529411764 0.013235294117647059 0.01437908496732026
1 0.7948529411764705 0.534640522875817 0.030882352941176472 0.023529411764705882
1 0.8308823529411765 0.534640522875817 0.022794117647058822 0.023529411764705882
1 0.861764705882353 0.534640522875817 0.01911764705882353 0.02091503267973856
0 0.9191176470588235 0.6209150326797386 0.007352941176470588 0.022222222222222223
0 0.9742647058823529 0.5516339869281046 0.006617647058823529 0.023529411764705882
0 0.23529411764705882 0.7908496732026143 0.008088235294117648 0.03398692810457516
0 0.2411764705882353 0.7830065359477124 0.010294117647058823 0.02875816993464052
0 0.25073529411764706 0.792156862745098 0.009558823529411765 0.027450980392156862
0 0.2580882352941177 0.8392156862745098 0.008088235294117648 0.030065359477124184
0 0.6147058823529412 0.5450980392156862 0.005147058823529412 0.022222222222222223
0 0.6191176470588236 0.5490196078431373 0.005147058823529412 0.02091503267973856
0 0.6242647058823529 0.5477124183006536 0.005147058823529412 0.022222222222222223
0 0.5941176470588235 0.5856209150326798 0.004411764705882353 0.022222222222222223
0 0.5875 0.538562091503268 0.0058823529411764705 0.013071895424836602
1 0.586764705882353 0.5450980392156862 0.008088235294117648 0.013071895424836602
0 0.575735294117647 0.48366013071895425 0.004411764705882353 0.013071895424836602
0 0.5477941176470589 0.4496732026143791 0.0029411764705882353 0.00784313725490196
0 0.5426470588235294 0.43529411764705883 0.003676470588235294 0.009150326797385621
0 0.49926470588235294 0.47058823529411764 0.003676470588235294 0.00784313725490196
0 0.6882352941176471 0.6470588235294118 0.007352941176470588 0.018300653594771243
1 0.6867647058823529 0.6549019607843137 0.010294117647058823 0.02091503267973856
0 0.7044117647058824 0.6496732026143791 0.005147058823529412 0.030065359477124184
1 0.7110294117647059 0.5176470588235295 0.01838235294117647 0.0196078431372549
1 0.725735294117647 0.5215686274509804 0.022058823529411766 0.0196078431372549
1 0.7426470588235294 0.5254901960784314 0.01838235294117647 0.022222222222222223
1 0.7161764705882353 0.5464052287581699 0.01838235294117647 0.02091503267973856
1 0.7735294117647059 0.5542483660130719 0.023529411764705882 0.023529411764705882
1 0.586764705882353 0.4562091503267974 0.020588235294117647 0.013071895424836602
1 0.6044117647058823 0.4444444444444444 0.0125 0.01045751633986928
1 0.5875 0.43790849673202614 0.016176470588235296 0.01437908496732026
1 0.5985294117647059 0.44313725490196076 0.016176470588235296 0.013071895424836602
1 0.5610294117647059 0.44313725490196076 0.01838235294117647 0.01568627450980392
1 0.5514705882352942 0.4366013071895425 0.010294117647058823 0.013071895424836602
1 0.549264705882353 0.4326797385620915 0.009558823529411765 0.013071895424836602
1 0.5764705882352941 0.4143790849673203 0.014705882352941176 0.013071895424836602
1 0.5632352941176471 0.41045751633986927 0.011764705882352941 0.01045751633986928
1 0.5426470588235294 0.42091503267973857 0.007352941176470588 0.01045751633986928
1 0.5007352941176471 0.4143790849673203 0.007352941176470588 0.01437908496732026
1 0.4808823529411765 0.4013071895424837 0.005147058823529412 0.011764705882352941
1 0.47205882352941175 0.40522875816993464 0.007352941176470588 0.01045751633986928
1 0.4647058823529412 0.4013071895424837 0.005147058823529412 0.01045751633986928
1 0.4808823529411765 0.38562091503267976 0.005147058823529412 0.01045751633986928
1 0.47352941176470587 0.3895424836601307 0.006617647058823529 0.01045751633986928
1 0.5044117647058823 0.3908496732026144 0.006617647058823529 0.009150326797385621
1 0.5 0.3803921568627451 0.005147058823529412 0.009150326797385621
1 0.5007352941176471 0.3673202614379085 0.003676470588235294 0.00522875816993464
1 0.49264705882352944 0.3660130718954248 0.005147058823529412 0.00784313725490196
1 0.5294117647058824 0.39869281045751637 0.006617647058823529 0.009150326797385621
1 0.5213235294117647 0.4013071895424837 0.007352941176470588 0.009150326797385621
1 0.5463235294117647 0.40522875816993464 0.014705882352941176 0.009150326797385621
1 0.3948529411764706 0.5424836601307189 0.027941176470588237 0.0196078431372549
1 0.3941176470588235 0.5294117647058824 0.025 0.01699346405228758
1 0.3411764705882353 0.5699346405228758 0.023529411764705882 0.023529411764705882
1 0.34558823529411764 0.5607843137254902 0.022058823529411766 0.023529411764705882
1 0.34558823529411764 0.5581699346405229 0.025 0.02091503267973856
1 0.3625 0.5633986928104575 0.013970588235294118 0.027450980392156862
1 0.36764705882352944 0.550326797385621 0.011029411764705883 0.023529411764705882
1 0.4176470588235294 0.49019607843137253 0.023529411764705882 0.01699346405228758
1 0.4102941176470588 0.46797385620915033 0.025 0.01699346405228758
1 0.4404411764705882 0.44313725490196076 0.006617647058823529 0.011764705882352941
1 0.4360294117647059 0.4366013071895425 0.019852941176470587 0.011764705882352941
1 0.4411764705882353 0.4287581699346405 0.013970588235294118 0.013071895424836602
1 0.44926470588235295 0.39477124183006534 0.006617647058823529 0.01045751633986928
1 0.4485294117647059 0.4130718954248366 0.010294117647058823 0.01699346405228758
1 0.5 0.47581699346405226 0.007352941176470588 0.009150326797385621
1 0.5477941176470589 0.4522875816993464 0.0058823529411764705 0.006535947712418301
1 0.575 0.48627450980392156 0.0058823529411764705 0.013071895424836602
1 0.5911764705882353 0.5124183006535947 0.0058823529411764705 0.01437908496732026
1 0.3948529411764706 0.6915032679738562 0.0125 0.023529411764705882
0 0.3845588235294118 0.6862745098039216 0.008088235294117648 0.023529411764705882
0 0.3889705882352941 0.681045751633987 0.0058823529411764705 0.026143790849673203
