1 0.7 0.7281045751633987 0.027205882352941177 0.10457516339869281
1 0.7470588235294118 0.726797385620915 0.04338235294117647 0.07581699346405228
1 0.7029411764705882 0.6496732026143791 0.05661764705882353 0.0457516339869281
1 0.6213235294117647 0.44052287581699345 0.026470588235294117 0.06274509803921569
1 0.5786764705882353 0.4235294117647059 0.022058823529411766 0.058823529411764705
1 0.5014705882352941 0.47320261437908495 0.03455882352941177 0.15163398692810456
1 0.6088235294117647 0.3568627450980392 0.028676470588235293 0.0784313725490196
1 0.6205882352941177 0.3032679738562091 0.039705882352941174 0.05228758169934641
1 0.5830882352941177 0.32287581699346407 0.01911764705882353 0.04967320261437908
1 0.5919117647058824 0.20915032679738563 0.020588235294117647 0.044444444444444446
1 0.5654411764705882 0.20522875816993463 0.022794117647058822 0.054901960784313725
1 0.5808823529411765 0.1503267973856209 0.016911764705882352 0.043137254901960784
1 0.5786764705882353 0.09542483660130718 0.019852941176470587 0.03790849673202614
1 0.5713235294117647 0.054901960784313725 0.01911764705882353 0.03137254901960784
1 0.5654411764705882 0.022222222222222223 0.01838235294117647 0.036601307189542485
1 0.5161764705882353 0.1084967320261438 0.022058823529411766 0.044444444444444446
1 0.5220588235294118 0.2718954248366013 0.03676470588235294 0.06535947712418301
1 0.3963235294117647 0.3084967320261438 0.023529411764705882 0.06535947712418301
1 0.16176470588235295 0.9673202614379085 0.03602941176470588 0.06405228758169934
1 0.1713235294117647 0.7803921568627451 0.04779411764705882 0.05228758169934641
1 0.20808823529411766 0.6980392156862745 0.03455882352941177 0.09803921568627451
1 0.20147058823529412 0.6248366013071895 0.05588235294117647 0.08104575163398693
1 0.23897058823529413 0.5320261437908497 0.0375 0.0784313725490196
1 0.20588235294117646 0.47581699346405226 0.054411764705882354 0.07712418300653595
1 0.25735294117647056 0.31895424836601305 0.047058823529411764 0.05228758169934641
1 0.3058823529411765 0.1803921568627451 0.01911764705882353 0.048366013071895426
1 0.31323529411764706 0.12941176470588237 0.01838235294117647 0.044444444444444446
1 0.31985294117647056 0.09411764705882353 0.01838235294117647 0.03790849673202614
1 0.3338235294117647 0.044444444444444446 0.016176470588235296 0.032679738562091505
1 0.28455882352941175 0.24705882352941178 0.008088235294117648 0.027450980392156862
0 0.22794117647058823 0.25882352941176473 0.007352941176470588 0.030065359477124184
0 0.21838235294117647 0.27058823529411763 0.007352941176470588 0.03137254901960784
0 0.20588235294117646 0.27450980392156865 0.008088235294117648 0.02875816993464052
0 0.19926470588235295 0.27058823529411763 0.007352941176470588 0.030065359477124184
1 0.19779411764705881 0.2901960784313726 0.014705882352941176 0.022222222222222223
0 0.19338235294117648 0.3084967320261438 0.013235294117647059 0.022222222222222223
1 0.18676470588235294 0.3241830065359477 0.01764705882352941 0.022222222222222223
0 0.21764705882352942 0.3464052287581699 0.008088235294117648 0.030065359477124184
0 0.31029411764705883 0.3568627450980392 0.005147058823529412 0.02875816993464052
0 0.31470588235294117 0.35294117647058826 0.005147058823529412 0.02091503267973856
0 0.4772058823529412 0.3503267973856209 0.0058823529411764705 0.027450980392156862
0 0.4536764705882353 0.3660130718954248 0.007352941176470588 0.026143790849673203
1 0.4536764705882353 0.3738562091503268 0.010294117647058823 0.027450980392156862
1 0.4764705882352941 0.3581699346405229 0.008823529411764706 0.02875816993464052
0 0.525 0.3607843137254902 0.006617647058823529 0.027450980392156862
0 0.49926470588235294 0.26666666666666666 0.0058823529411764705 0.02875816993464052
0 0.4625 0.19869281045751633 0.008823529411764706 0.02091503267973856
1 0.46176470588235297 0.2065359477124183 0.009558823529411765 0.02091503267973856
0 0.5830882352941177 0.3738562091503268 0.006617647058823529 0.027450980392156862
0 0.5882352941176471 0.3790849673202614 0.003676470588235294 0.01568627450980392
1 0.6323529411764706 0.4875816993464052 0.011029411764705883 0.02483660130718954
0 0.6169117647058824 0.2 0.0058823529411764705 0.026143790849673203
0 0.5852941176470589 0.06666666666666667 0.005147058823529412 0.023529411764705882
1 0.6882352941176471 0.32679738562091504 0.01911764705882353 0.0196078431372549
1 0.7022058823529411 0.3895424836601307 0.015441176470588236 0.01437908496732026
1 0.6992647058823529 0.3673202614379085 0.015441176470588236 0.018300653594771243
1 0.6772058823529412 0.4130718954248366 0.010294117647058823 0.02875816993464052
1 0.7161764705882353 0.5973856209150327 0.01911764705882353 0.022222222222222223
1 0.6992647058823529 0.9294117647058824 0.05514705882352941 0.05228758169934641
