1 0.41770833333333335 0.5185185185185185 0.07083333333333333 0.07777777777777778
1 0.53125 0.6018518518518519 0.0640625 0.0962962962962963
1 0.5760416666666667 0.4666666666666667 0.034895833333333334 0.08148148148148149
1 0.8411458333333334 0.5157407407407407 0.013020833333333334 0.03888888888888889
0 0.8427083333333333 0.5148148148148148 0.011458333333333333 0.032407407407407406
0 0.840625 0.5064814814814815 0.011979166666666667 0.03888888888888889
1 0.7484375 0.3925925925925926 0.0296875 0.05740740740740741
1 0.7369791666666666 0.29814814814814816 0.022916666666666665 0.03518518518518519
1 0.7255208333333333 0.2462962962962963 0.020833333333333332 0.032407407407407406
1 0.6791666666666667 0.462037037037037 0.041666666666666664 0.06018518518518518
1 0.925 0.912962962962963 0.1421875 0.1638888888888889
