1 0.7066176470588236 0.6784313725490196 0.29044117647058826 0.14248366013071895
1 0.6544117647058824 0.6352941176470588 0.2698529411764706 0.12418300653594772
1 0.8926470588235295 0.6379084967320261 0.21176470588235294 0.12679738562091503
1 0.9080882352941176 0.9071895424836601 0.18308823529411763 0.16601307189542483
1 0.2713235294117647 0.26143790849673204 0.01764705882352941 0.02091503267973856
1 0.3205882352941177 0.35294117647058826 0.01764705882352941 0.032679738562091505
1 0.36911764705882355 0.2954248366013072 0.027205882352941177 0.026143790849673203
1 0.3698529411764706 0.2797385620915033 0.0125 0.01568627450980392
1 0.38676470588235295 0.26143790849673204 0.0375 0.03529411764705882
1 0.4801470588235294 0.5281045751633987 0.05588235294117647 0.040522875816993466
1 0.5860294117647059 0.5254901960784314 0.057352941176470586 0.048366013071895426
1 0.5588235294117647 0.4549019607843137 0.04632352941176471 0.036601307189542485
1 0.45294117647058824 0.5032679738562091 0.045588235294117645 0.048366013071895426
1 0.47794117647058826 0.4888888888888889 0.05220588235294118 0.050980392156862744
0 0.6345588235294117 0.5372549019607843 0.008088235294117648 0.040522875816993466
0 0.6220588235294118 0.4588235294117647 0.0058823529411764705 0.032679738562091505
1 0.4985294117647059 0.4013071895424837 0.16470588235294117 0.0784313725490196
1 0.5147058823529411 0.3790849673202614 0.15 0.07058823529411765
1 0.5448529411764705 0.35294117647058826 0.03529411764705882 0.02483660130718954
1 0.513235294117647 0.34509803921568627 0.03235294117647059 0.02483660130718954
1 0.513235294117647 0.3111111111111111 0.11838235294117647 0.06405228758169934
1 0.5058823529411764 0.27450980392156865 0.07573529411764705 0.04967320261437908
1 0.5213235294117647 0.25098039215686274 0.022794117647058822 0.01699346405228758
1 0.5507352941176471 0.2522875816993464 0.022058823529411766 0.01699346405228758
1 0.549264705882353 0.24705882352941178 0.022058823529411766 0.01437908496732026
0 0.5845588235294118 0.3411764705882353 0.003676470588235294 0.023529411764705882
