1 0.01911764705882353 0.9294117647058824 0.0375 0.07450980392156863
1 0.3264705882352941 0.8915032679738563 0.07720588235294118 0.19477124183006536
1 0.5051470588235294 0.7163398692810458 0.07426470588235294 0.11895424836601307
0 0.27794117647058825 0.6862745098039216 0.020588235294117647 0.06666666666666667
1 0.27647058823529413 0.7150326797385621 0.022058823529411766 0.06013071895424837
0 0.1 0.7071895424836602 0.016176470588235296 0.05751633986928104
1 0.09852941176470588 0.738562091503268 0.041176470588235294 0.07450980392156863
0 0.8757352941176471 0.8392156862745098 0.016176470588235296 0.06013071895424837
0 0.7845588235294118 0.7856209150326797 0.01911764705882353 0.07058823529411765
1 0.7816176470588235 0.8052287581699347 0.01838235294117647 0.07058823529411765
0 0.9764705882352941 0.734640522875817 0.009558823529411765 0.06274509803921569
0 0.9625 0.7058823529411765 0.01838235294117647 0.06143790849673202
0 0.9845588235294118 0.7241830065359477 0.01838235294117647 0.07712418300653595
0 0.8375 0.6666666666666666 0.016911764705882352 0.044444444444444446
1 0.8235294117647058 0.6379084967320261 0.03455882352941177 0.0457516339869281
1 0.7845588235294118 0.6143790849673203 0.07426470588235294 0.08235294117647059
0 0.674264705882353 0.6052287581699346 0.010294117647058823 0.030065359477124184
0 0.6573529411764706 0.5058823529411764 0.015441176470588236 0.03398692810457516
1 0.6573529411764706 0.5137254901960784 0.016911764705882352 0.032679738562091505
1 0.15808823529411764 0.4718954248366013 0.08602941176470588 0.134640522875817
1 0.1948529411764706 0.39215686274509803 0.05073529411764706 0.04183006535947712
1 0.10441176470588236 0.33202614379084966 0.04264705882352941 0.03529411764705882
1 0.2375 0.338562091503268 0.05 0.03790849673202614
1 0.2911764705882353 0.32287581699346407 0.025 0.03137254901960784
1 0.5397058823529411 0.3738562091503268 0.023529411764705882 0.0392156862745098
0 0.5095588235294117 0.34901960784313724 0.0058823529411764705 0.0196078431372549
1 0.5095588235294117 0.36209150326797385 0.0058823529411764705 0.026143790849673203
0 0.6257352941176471 0.45098039215686275 0.008088235294117648 0.036601307189542485
1 0.625 0.46143790849673205 0.006617647058823529 0.027450980392156862
0 0.6397058823529411 0.45098039215686275 0.007352941176470588 0.04183006535947712
0 0.6485294117647059 0.45098039215686275 0.006617647058823529 0.0392156862745098
1 0.7183823529411765 0.534640522875817 0.060294117647058824 0.06928104575163399
1 0.7316176470588235 0.4875816993464052 0.04191176470588235 0.04183006535947712
1 0.6919117647058823 0.48627450980392156 0.03529411764705882 0.0457516339869281
1 0.7080882352941177 0.44052287581699345 0.021323529411764706 0.02483660130718954
1 0.6720588235294118 0.45359477124183006 0.03529411764705882 0.0457516339869281
1 0.6485294117647059 0.4117647058823529 0.029411764705882353 0.040522875816993466
1 0.6316176470588235 0.38169934640522873 0.03161764705882353 0.044444444444444446
1 0.663235294117647 0.3686274509803922 0.021323529411764706 0.023529411764705882
1 0.6220588235294118 0.3437908496732026 0.022058823529411766 0.04183006535947712
0 0.649264705882353 0.29411764705882354 0.0058823529411764705 0.032679738562091505
0 0.6580882352941176 0.29673202614379085 0.006617647058823529 0.01568627450980392
1 0.6242647058823529 0.3150326797385621 0.01838235294117647 0.01437908496732026
1 0.6014705882352941 0.3150326797385621 0.01911764705882353 0.03529411764705882
1 0.5941176470588235 0.29150326797385623 0.013235294117647059 0.02483660130718954
1 0.43970588235294117 0.3032679738562091 0.01911764705882353 0.03137254901960784
1 0.43161764705882355 0.26405228758169935 0.016911764705882352 0.02483660130718954
1 0.5161764705882353 0.2901960784313726 0.01838235294117647 0.026143790849673203
1 0.5117647058823529 0.2627450980392157 0.016176470588235296 0.027450980392156862
1 0.47352941176470587 0.23790849673202613 0.013235294117647059 0.02091503267973856
1 0.41911764705882354 0.20784313725490197 0.011764705882352941 0.01568627450980392
0 0.4198529411764706 0.19607843137254902 0.003676470588235294 0.01568627450980392
1 0.42426470588235293 0.1869281045751634 0.008823529411764706 0.01699346405228758
1 0.4338235294117647 0.16862745098039217 0.013235294117647059 0.01437908496732026
1 0.43823529411764706 0.1568627450980392 0.008823529411764706 0.013071895424836602
1 0.4860294117647059 0.22483660130718955 0.003676470588235294 0.01045751633986928
0 0.49779411764705883 0.22745098039215686 0.003676470588235294 0.01699346405228758
1 0.49779411764705883 0.23398692810457516 0.006617647058823529 0.01045751633986928
1 0.5102941176470588 0.23529411764705882 0.011764705882352941 0.022222222222222223
0 0.5176470588235295 0.23006535947712417 0.0029411764705882353 0.018300653594771243
0 0.49117647058823527 0.21176470588235294 0.004411764705882353 0.01437908496732026
1 0.4904411764705882 0.21830065359477124 0.003676470588235294 0.011764705882352941
0 0.4860294117647059 0.21830065359477124 0.0029411764705882353 0.013071895424836602
1 0.5036764705882353 0.20392156862745098 0.010294117647058823 0.01568627450980392
0 0.45 0.1607843137254902 0.0029411764705882353 0.013071895424836602
1 0.44926470588235295 0.16732026143790849 0.0058823529411764705 0.01437908496732026
0 0.4919117647058823 0.17647058823529413 0.0029411764705882353 0.01437908496732026
1 0.4970588235294118 0.17254901960784313 0.007352941176470588 0.011764705882352941
1 0.46544117647058825 0.15947712418300652 0.013235294117647059 0.013071895424836602
1 0.4852941176470588 0.15816993464052287 0.007352941176470588 0.013071895424836602
1 0.48970588235294116 0.14640522875816994 0.0058823529411764705 0.01045751633986928
1 0.4742647058823529 0.14901960784313725 0.006617647058823529 0.009150326797385621
1 0.47573529411764703 0.1450980392156863 0.006617647058823529 0.01045751633986928
1 0.475 0.13856209150326798 0.0058823529411764705 0.009150326797385621
1 0.45955882352941174 0.12549019607843137 0.011029411764705883 0.009150326797385621
1 0.475 0.13333333333333333 0.0058823529411764705 0.009150326797385621
1 0.4742647058823529 0.12941176470588237 0.005147058823529412 0.00784313725490196
1 0.48455882352941176 0.12418300653594772 0.0058823529411764705 0.009150326797385621
1 0.4772058823529412 0.11895424836601307 0.004411764705882353 0.00784313725490196
1 0.36911764705882355 0.1895424836601307 0.016911764705882352 0.01699346405228758
1 0.38529411764705884 0.18823529411764706 0.011029411764705883 0.01568627450980392
1 0.3801470588235294 0.20130718954248367 0.011764705882352941 0.01568627450980392
1 0.3698529411764706 0.20915032679738563 0.0125 0.01699346405228758
1 0.3397058823529412 0.20261437908496732 0.01764705882352941 0.01699346405228758
1 0.3338235294117647 0.22875816993464052 0.026470588235294117 0.018300653594771243
1 0.32794117647058824 0.27058823529411763 0.01838235294117647 0.022222222222222223
1 0.32426470588235295 0.26143790849673204 0.03602941176470588 0.022222222222222223
1 0.3382352941176471 0.2496732026143791 0.016911764705882352 0.01699346405228758
1 0.5845588235294118 0.2823529411764706 0.016176470588235296 0.027450980392156862
1 0.575 0.26405228758169935 0.0125 0.026143790849673203
1 0.5720588235294117 0.23790849673202613 0.023529411764705882 0.0196078431372549
1 0.5588235294117647 0.22745098039215686 0.011029411764705883 0.01568627450980392
1 0.5389705882352941 0.1934640522875817 0.011764705882352941 0.01568627450980392
1 0.5316176470588235 0.17908496732026144 0.0125 0.013071895424836602
