1 0.4007352941176471 0.6130718954248366 0.06544117647058824 0.17254901960784313
1 0.2595588235294118 0.31633986928104574 0.061764705882352944 0.09411764705882353
1 0.16911764705882354 0.269281045751634 0.08014705882352942 0.10065359477124183
1 0.19191176470588237 0.19869281045751633 0.041176470588235294 0.06797385620915032
1 0.039705882352941174 0.5751633986928104 0.07867647058823529 0.34248366013071896
1 0.23897058823529413 0.526797385620915 0.06544117647058824 0.17254901960784313
1 0.5823529411764706 0.8941176470588236 0.0661764705882353 0.08627450980392157
0 0.04191176470588235 0.10326797385620914 0.015441176470588236 0.043137254901960784
0 0.07426470588235294 0.05620915032679739 0.013970588235294118 0.036601307189542485
1 0.04632352941176471 0.11895424836601307 0.016176470588235296 0.036601307189542485
1 0.07720588235294118 0.07320261437908497 0.011764705882352941 0.030065359477124184
0 0.1610294117647059 0.134640522875817 0.011764705882352941 0.0392156862745098
1 0.1698529411764706 0.1450980392156863 0.029411764705882353 0.05359477124183006
0 0.46397058823529413 0.742483660130719 0.019852941176470587 0.08888888888888889
0 0.5014705882352941 0.7032679738562092 0.019852941176470587 0.06928104575163399
0 0.475 0.6888888888888889 0.01838235294117647 0.06666666666666667
0 0.538235294117647 0.5464052287581699 0.014705882352941176 0.0784313725490196
0 0.5595588235294118 0.5202614379084968 0.013970588235294118 0.07581699346405228
0 0.5235294117647059 0.46797385620915033 0.016911764705882352 0.07450980392156863
0 0.549264705882353 0.43529411764705883 0.023529411764705882 0.07058823529411765
0 0.5617647058823529 0.4235294117647059 0.013235294117647059 0.06405228758169934
0 0.5713235294117647 0.4339869281045752 0.009558823529411765 0.058823529411764705
0 0.4573529411764706 0.33725490196078434 0.0125 0.08104575163398693
0 0.40588235294117647 0.3045751633986928 0.011764705882352941 0.058823529411764705
0 0.5264705882352941 0.30196078431372547 0.011764705882352941 0.058823529411764705
0 0.40588235294117647 0.33202614379084966 0.013235294117647059 0.06535947712418301
0 0.42058823529411765 0.31241830065359477 0.013235294117647059 0.07058823529411765
0 0.42720588235294116 0.23529411764705882 0.010294117647058823 0.06274509803921569
0 0.40294117647058825 0.13986928104575164 0.008823529411764706 0.043137254901960784
0 0.3323529411764706 0.12156862745098039 0.008088235294117648 0.048366013071895426
0 0.5911764705882353 0.6091503267973856 0.021323529411764706 0.04967320261437908
0 0.5551470588235294 0.5398692810457516 0.0125 0.03398692810457516
0 0.6367647058823529 0.4470588235294118 0.016911764705882352 0.0718954248366013
0 0.6764705882352942 0.46797385620915033 0.023529411764705882 0.0392156862745098
0 0.6801470588235294 0.44313725490196076 0.01764705882352941 0.07058823529411765
0 0.8051470588235294 0.33202614379084966 0.01764705882352941 0.05228758169934641
0 0.3845588235294118 0.2980392156862745 0.014705882352941176 0.02875816993464052
0 0.37058823529411766 0.32941176470588235 0.014705882352941176 0.04967320261437908
0 0.3154411764705882 0.2130718954248366 0.016911764705882352 0.03398692810457516
0 0.42573529411764705 0.16339869281045752 0.013970588235294118 0.03137254901960784
0 0.45588235294117646 0.21568627450980393 0.015441176470588236 0.040522875816993466
0 0.4933823529411765 0.2601307189542484 0.015441176470588236 0.040522875816993466
0 0.5279411764705882 0.17254901960784313 0.015441176470588236 0.03790849673202614
0 0.5176470588235295 0.09542483660130718 0.0125 0.03529411764705882
0 0.5970588235294118 0.10196078431372549 0.011764705882352941 0.05228758169934641
0 0.638235294117647 0.09542483660130718 0.011764705882352941 0.058823529411764705
0 0.5654411764705882 0.044444444444444446 0.011029411764705883 0.03137254901960784
0 0.5220588235294118 0.22091503267973855 0.014705882352941176 0.047058823529411764
0 0.6507352941176471 0.21830065359477124 0.014705882352941176 0.06013071895424837
0 0.625 0.19738562091503267 0.014705882352941176 0.06013071895424837
0 0.586764705882353 0.06797385620915032 0.007352941176470588 0.030065359477124184
0 0.6029411764705882 0.0784313725490196 0.007352941176470588 0.030065359477124184
0 0.5985294117647059 0.07320261437908497 0.007352941176470588 0.03529411764705882
1 0.5007352941176471 0.7803921568627451 0.08602941176470588 0.18823529411764706
1 0.37720588235294117 0.3359477124183007 0.054411764705882354 0.07058823529411765
1 0.32426470588235295 0.3032679738562091 0.06397058823529411 0.09934640522875816
1 0.31470588235294117 0.22875816993464052 0.03897058823529412 0.0392156862745098
1 0.34705882352941175 0.269281045751634 0.04264705882352941 0.05228758169934641
1 0.5058823529411764 0.2928104575163399 0.06397058823529411 0.07058823529411765
1 0.6764705882352942 0.5359477124183006 0.0838235294117647 0.10457516339869281
1 0.6933823529411764 0.4954248366013072 0.08529411764705883 0.08235294117647059
1 0.8610294117647059 0.5699346405228758 0.07647058823529412 0.06013071895424837
1 0.9852941176470589 0.5712418300653594 0.028676470588235293 0.07058823529411765
1 0.9360294117647059 0.5686274509803921 0.06102941176470588 0.06143790849673202
0 0.8808823529411764 0.5241830065359477 0.020588235294117647 0.06143790849673202
0 0.8955882352941177 0.5437908496732026 0.019852941176470587 0.06013071895424837
0 0.9125 0.5490196078431373 0.01838235294117647 0.06274509803921569
0 0.9176470588235294 0.526797385620915 0.028676470588235293 0.054901960784313725
0 0.9044117647058824 0.48366013071895425 0.016176470588235296 0.06143790849673202
0 0.8860294117647058 0.4849673202614379 0.016176470588235296 0.06013071895424837
0 0.8757352941176471 0.4915032679738562 0.019852941176470587 0.030065359477124184
0 0.8926470588235295 0.4993464052287582 0.015441176470588236 0.02091503267973856
0 0.9117647058823529 0.4954248366013072 0.015441176470588236 0.03529411764705882
0 0.9257352941176471 0.4980392156862745 0.015441176470588236 0.05620915032679739
0 0.9264705882352942 0.4888888888888889 0.01764705882352941 0.06013071895424837
1 0.8007352941176471 0.3464052287581699 0.033823529411764704 0.036601307189542485
0 0.7720588235294118 0.47320261437908495 0.016176470588235296 0.040522875816993466
1 0.8985294117647059 0.403921568627451 0.04264705882352941 0.07058823529411765
1 0.9808823529411764 0.35294117647058826 0.03161764705882353 0.05620915032679739
1 0.5573529411764706 0.5555555555555556 0.027941176470588237 0.030065359477124184
1 0.6345588235294117 0.45359477124183006 0.04338235294117647 0.05228758169934641
1 0.5654411764705882 0.09542483660130718 0.020588235294117647 0.03137254901960784
1 0.4933823529411765 0.1084967320261438 0.025 0.044444444444444446
1 0.5176470588235295 0.11372549019607843 0.010294117647058823 0.02875816993464052
1 0.524264705882353 0.05359477124183006 0.016176470588235296 0.032679738562091505
1 0.5375 0.07058823529411765 0.016176470588235296 0.030065359477124184
1 0.55 0.08366013071895424 0.021323529411764706 0.03398692810457516
1 0.6088235294117647 0.134640522875817 0.021323529411764706 0.03529411764705882
1 0.6139705882352942 0.12549019607843137 0.021323529411764706 0.02875816993464052
1 0.675 0.13333333333333333 0.016176470588235296 0.03529411764705882
1 0.6573529411764706 0.1411764705882353 0.010294117647058823 0.030065359477124184
1 0.6477941176470589 0.13856209150326798 0.010294117647058823 0.03137254901960784
1 0.4647058823529412 0.17516339869281045 0.01911764705882353 0.0392156862745098
1 0.6654411764705882 0.22875816993464052 0.016176470588235296 0.040522875816993466
1 0.6227941176470588 0.9712418300653595 0.10735294117647058 0.05620915032679739
1 0.9301470588235294 0.8640522875816994 0.033823529411764704 0.08496732026143791
0 0.8308823529411765 0.7660130718954249 0.01764705882352941 0.07712418300653595
0 0.85 0.8026143790849674 0.01911764705882353 0.08758169934640522
0 0.8669117647058824 0.8287581699346406 0.01838235294117647 0.07058823529411765
