1 0.061764705882352944 0.46797385620915033 0.058823529411764705 0.12941176470588237
0 0.3205882352941177 0.2326797385620915 0.009558823529411765 0.05751633986928104
1 0.3125 0.09803921568627451 0.011764705882352941 0.036601307189542485
0 0.3125 0.08888888888888889 0.0125 0.0392156862745098
1 0.2625 0.12418300653594772 0.05514705882352941 0.09934640522875816
1 0.43823529411764706 0.0196078431372549 0.008088235294117648 0.0392156862745098
1 0.5110294117647058 0.09281045751633987 0.011764705882352941 0.040522875816993466
1 0.5485294117647059 0.21568627450980393 0.011029411764705883 0.05359477124183006
1 0.5735294117647058 0.29150326797385623 0.026470588235294117 0.0457516339869281
1 0.45441176470588235 0.17777777777777778 0.09264705882352942 0.0718954248366013
1 0.5264705882352941 0.27712418300653596 0.08529411764705883 0.08888888888888889
1 0.5360294117647059 0.35947712418300654 0.10735294117647058 0.09411764705882353
1 0.3779411764705882 0.6457516339869281 0.07941176470588235 0.17777777777777778
1 0.43676470588235294 0.8836601307189542 0.09705882352941177 0.2326797385620915
1 0.6183823529411765 0.9084967320261438 0.10735294117647058 0.18169934640522875
1 0.6102941176470589 0.538562091503268 0.11544117647058824 0.10718954248366012
1 0.9029411764705882 0.7712418300653595 0.023529411764705882 0.07581699346405228
1 0.8661764705882353 0.7254901960784313 0.03823529411764706 0.07973856209150326
1 0.7955882352941176 0.5699346405228758 0.027941176470588237 0.07320261437908497
1 0.7772058823529412 0.5738562091503268 0.03529411764705882 0.07450980392156863
1 0.6375 0.6941176470588235 0.09485294117647058 0.1568627450980392
