1 0.538235294117647 0.9176470588235294 0.060294117647058824 0.15294117647058825
1 0.09264705882352942 0.7503267973856209 0.07941176470588235 0.13071895424836602
1 0.20220588235294118 0.5555555555555556 0.05588235294117647 0.06535947712418301
1 0.051470588235294115 0.6901960784313725 0.03235294117647059 0.036601307189542485
1 0.033823529411764704 0.6666666666666666 0.029411764705882353 0.03790849673202614
1 0.047058823529411764 0.6640522875816993 0.03455882352941177 0.026143790849673203
0 0.24044117647058824 0.6444444444444445 0.013235294117647059 0.05751633986928104
0 0.26544117647058824 0.47320261437908495 0.009558823529411765 0.047058823529411764
0 0.275 0.4797385620915033 0.008088235294117648 0.043137254901960784
1 0.1860294117647059 0.47320261437908495 0.06470588235294118 0.048366013071895426
1 0.23676470588235293 0.4117647058823529 0.05367647058823529 0.03529411764705882
1 0.3058823529411765 0.3790849673202614 0.033823529411764704 0.05620915032679739
0 0.3316176470588235 0.3803921568627451 0.007352941176470588 0.036601307189542485
0 0.3338235294117647 0.35294117647058826 0.010294117647058823 0.03137254901960784
0 0.3448529411764706 0.35294117647058826 0.007352941176470588 0.03529411764705882
1 0.3073529411764706 0.3058823529411765 0.03529411764705882 0.03137254901960784
1 0.39926470588235297 0.2169934640522876 0.0125 0.018300653594771243
1 0.4073529411764706 0.20261437908496732 0.013970588235294118 0.02091503267973856
1 0.4198529411764706 0.1830065359477124 0.010294117647058823 0.018300653594771243
1 0.4088235294117647 0.17777777777777778 0.0125 0.01699346405228758
1 0.43823529411764706 0.17124183006535948 0.011764705882352941 0.01437908496732026
1 0.43161764705882355 0.15555555555555556 0.008088235294117648 0.01437908496732026
1 0.4404411764705882 0.14640522875816994 0.008088235294117648 0.011764705882352941
1 0.4455882352941177 0.13725490196078433 0.006617647058823529 0.01437908496732026
1 0.45441176470588235 0.12287581699346405 0.0058823529411764705 0.009150326797385621
1 0.475 0.134640522875817 0.0058823529411764705 0.01045751633986928
1 0.48455882352941176 0.13333333333333333 0.0058823529411764705 0.011764705882352941
1 0.4860294117647059 0.15294117647058825 0.007352941176470588 0.011764705882352941
1 0.49411764705882355 0.12418300653594772 0.005147058823529412 0.01568627450980392
1 0.4889705882352941 0.1450980392156863 0.0058823529411764705 0.01568627450980392
1 0.4860294117647059 0.12026143790849673 0.005147058823529412 0.00784313725490196
1 0.5058823529411764 0.13333333333333333 0.006617647058823529 0.013071895424836602
1 0.5139705882352941 0.13725490196078433 0.006617647058823529 0.013071895424836602
1 0.5058823529411764 0.12026143790849673 0.006617647058823529 0.00784313725490196
1 0.5044117647058823 0.16993464052287582 0.008088235294117648 0.013071895424836602
1 0.4573529411764706 0.1869281045751634 0.011029411764705883 0.01568627450980392
1 0.4610294117647059 0.17908496732026144 0.010294117647058823 0.01699346405228758
1 0.4764705882352941 0.19738562091503267 0.011764705882352941 0.018300653594771243
1 0.47941176470588237 0.2169934640522876 0.011764705882352941 0.026143790849673203
1 0.5022058823529412 0.20261437908496732 0.011029411764705883 0.0196078431372549
1 0.5029411764705882 0.19084967320261437 0.010294117647058823 0.01699346405228758
1 0.5198529411764706 0.21437908496732025 0.011764705882352941 0.0196078431372549
1 0.5360294117647059 0.1934640522875817 0.011764705882352941 0.0196078431372549
1 0.5323529411764706 0.17516339869281045 0.010294117647058823 0.01437908496732026
1 0.5286764705882353 0.16862745098039217 0.008088235294117648 0.013071895424836602
1 0.5375 0.2169934640522876 0.0125 0.018300653594771243
1 0.5044117647058823 0.24444444444444444 0.013970588235294118 0.023529411764705882
1 0.5455882352941176 0.24705882352941178 0.013970588235294118 0.022222222222222223
1 0.5080882352941176 0.2928104575163399 0.01764705882352941 0.02875816993464052
1 0.5088235294117647 0.3477124183006536 0.01911764705882353 0.03398692810457516
1 0.5183823529411765 0.41045751633986927 0.025735294117647058 0.044444444444444446
1 0.6757352941176471 0.42091503267973857 0.03308823529411765 0.054901960784313725
1 0.6595588235294118 0.39215686274509803 0.029411764705882353 0.04967320261437908
1 0.6404411764705882 0.3660130718954248 0.025 0.032679738562091505
1 0.6235294117647059 0.3111111111111111 0.021323529411764706 0.026143790849673203
1 0.6286764705882353 0.2954248366013072 0.03529411764705882 0.02483660130718954
1 0.6066176470588235 0.2496732026143791 0.027205882352941177 0.022222222222222223
1 0.5933823529411765 0.24313725490196078 0.015441176470588236 0.02091503267973856
1 0.5882352941176471 0.22483660130718955 0.01911764705882353 0.022222222222222223
1 0.5419117647058823 0.34509803921568627 0.003676470588235294 0.0196078431372549
0 0.5426470588235294 0.3359477124183007 0.004411764705882353 0.02091503267973856
0 0.5625 0.30980392156862746 0.004411764705882353 0.02483660130718954
0 0.5595588235294118 0.30718954248366015 0.003676470588235294 0.027450980392156862
0 0.5676470588235294 0.20130718954248367 0.0029411764705882353 0.018300653594771243
0 0.425 0.2849673202614379 0.008088235294117648 0.02483660130718954
1 0.42720588235294116 0.28888888888888886 0.004411764705882353 0.0196078431372549
1 0.43161764705882355 0.257516339869281 0.005147058823529412 0.01437908496732026
0 0.4323529411764706 0.25359477124183005 0.0058823529411764705 0.0196078431372549
0 0.4522058823529412 0.2130718954248366 0.003676470588235294 0.013071895424836602
1 0.4522058823529412 0.21830065359477124 0.004411764705882353 0.01437908496732026
0 0.5073529411764706 0.1803921568627451 0.003676470588235294 0.01568627450980392
0 0.5117647058823529 0.1803921568627451 0.004411764705882353 0.01699346405228758
0 0.5198529411764706 0.17777777777777778 0.003676470588235294 0.01568627450980392
1 0.5220588235294118 0.15163398692810456 0.003676470588235294 0.011764705882352941
0 0.5220588235294118 0.14901960784313725 0.003676470588235294 0.00784313725490196
0 0.513235294117647 0.15163398692810456 0.003676470588235294 0.00784313725490196
1 0.5139705882352941 0.1568627450980392 0.004411764705882353 0.00784313725490196
1 0.4264705882352941 0.530718954248366 0.045588235294117645 0.06535947712418301
1 0.5102941176470588 0.5424836601307189 0.030147058823529412 0.06274509803921569
1 0.5955882352941176 0.5359477124183006 0.011029411764705883 0.048366013071895426
0 0.5963235294117647 0.5281045751633987 0.010294117647058823 0.040522875816993466
1 0.7242647058823529 0.526797385620915 0.03897058823529412 0.054901960784313725
0 0.6661764705882353 0.5320261437908497 0.010294117647058823 0.044444444444444446
1 0.6654411764705882 0.5437908496732026 0.0125 0.03529411764705882
1 0.7904411764705882 0.6862745098039216 0.06323529411764706 0.09281045751633987
1 0.8470588235294118 0.7516339869281046 0.08676470588235294 0.09673202614379085
0 0.8301470588235295 0.9477124183006536 0.021323529411764706 0.06013071895424837
1 0.8286764705882353 0.9660130718954248 0.021323529411764706 0.06797385620915032
1 0.9573529411764706 0.722875816993464 0.08529411764705883 0.06928104575163399
1 0.975735294117647 0.7869281045751634 0.04779411764705882 0.08496732026143791
1 0.9742647058823529 0.6509803921568628 0.05 0.0915032679738562
1 0.9595588235294118 0.4823529411764706 0.02426470588235294 0.050980392156862744
1 0.7433823529411765 0.4261437908496732 0.04485294117647059 0.036601307189542485
1 0.7308823529411764 0.4091503267973856 0.06102941176470588 0.032679738562091505
1 0.8095588235294118 0.3712418300653595 0.025 0.026143790849673203
0 0.8352941176470589 0.4065359477124183 0.008088235294117648 0.022222222222222223
1 0.7794117647058824 0.4496732026143791 0.06397058823529411 0.03398692810457516
1 0.7860294117647059 0.46143790849673205 0.057352941176470586 0.023529411764705882
1 0.7977941176470589 0.48366013071895425 0.06470588235294118 0.04183006535947712
1 0.9772058823529411 0.3673202614379085 0.045588235294117645 0.03137254901960784
0 0.9154411764705882 0.36470588235294116 0.008823529411764706 0.023529411764705882
1 0.7691176470588236 0.32679738562091504 0.03676470588235294 0.03137254901960784
1 0.8514705882352941 0.31895424836601305 0.03602941176470588 0.032679738562091505
0 0.6617647058823529 0.2797385620915033 0.005147058823529412 0.02483660130718954
0 0.6573529411764706 0.2784313725490196 0.003676470588235294 0.02483660130718954
