1 0.2546875 0.1814814814814815 0.004166666666666667 0.006481481481481481
1 0.27708333333333335 0.20092592592592592 0.0067708333333333336 0.009259259259259259
1 0.2375 0.27685185185185185 0.011458333333333333 0.016666666666666666
1 0.3458333333333333 0.3055555555555556 0.0140625 0.020370370370370372
1 0.453125 0.49537037037037035 0.03333333333333333 0.05
1 0.46197916666666666 0.575 0.0375 0.06574074074074074
1 0.4171875 0.8092592592592592 0.0625 0.13240740740740742
