1 0.4294117647058823 0.6483660130718955 0.011764705882352941 0.044444444444444446
0 0.4294117647058823 0.6313725490196078 0.013235294117647059 0.047058823529411764
1 0.40294117647058825 0.2849673202614379 0.015441176470588236 0.027450980392156862
1 0.3625 0.2679738562091503 0.0125 0.0196078431372549
1 0.27426470588235297 0.1477124183006536 0.005147058823529412 0.009150326797385621
