1 0.1 0.1542483660130719 0.06838235294117648 0.10718954248366012
1 0.24191176470588235 0.06013071895424837 0.04632352941176471 0.06013071895424837
1 0.6213235294117647 0.3281045751633987 0.04852941176470588 0.11372549019607843
1 0.6661764705882353 0.5777777777777777 0.17058823529411765 0.134640522875817
1 0.6772058823529412 0.6980392156862745 0.17647058823529413 0.1477124183006536
1 0.6963235294117647 0.8509803921568627 0.18308823529411763 0.16339869281045752
1 0.9058823529411765 0.9516339869281045 0.041176470588235294 0.09673202614379085
1 0.7235294117647059 0.9660130718954248 0.15441176470588236 0.06666666666666667
0 0.475 0.4888888888888889 0.01764705882352941 0.06143790849673202
0 0.6507352941176471 0.30980392156862746 0.011029411764705883 0.06405228758169934
1 0.4764705882352941 0.5228758169934641 0.010294117647058823 0.032679738562091505
0 0.4022058823529412 0.2784313725490196 0.011764705882352941 0.06666666666666667
1 0.42205882352941176 0.08888888888888889 0.027941176470588237 0.06928104575163399
1 0.42426470588235293 0.026143790849673203 0.027205882352941177 0.04967320261437908
1 0.08014705882352942 0.06143790849673202 0.016911764705882352 0.022222222222222223
0 0.07647058823529412 0.05228758169934641 0.010294117647058823 0.03790849673202614
0 0.43014705882352944 0.47843137254901963 0.013235294117647059 0.030065359477124184
0 0.42573529411764705 0.5071895424836601 0.010294117647058823 0.026143790849673203
1 0.4308823529411765 0.5032679738562091 0.015441176470588236 0.06535947712418301
