1 0.32708333333333334 0.8555555555555555 0.0671875 0.1824074074074074
1 0.490625 0.5259259259259259 0.0265625 0.05
1 0.546875 0.5916666666666667 0.023958333333333335 0.05555555555555555
1 0.7630208333333334 0.962037037037037 0.078125 0.07592592592592592
0 0.43645833333333334 0.5398148148148149 0.008333333333333333 0.03425925925925926
1 0.43645833333333334 0.5509259259259259 0.008333333333333333 0.03333333333333333
1 0.3963541666666667 0.5518518518518518 0.03958333333333333 0.11296296296296296
1 0.40677083333333336 0.5083333333333333 0.0375 0.07962962962962963
1 0.42604166666666665 0.4425925925925926 0.0296875 0.08055555555555556
1 0.5046875 0.3638888888888889 0.0171875 0.027777777777777776
0 0.4578125 0.4083333333333333 0.005729166666666666 0.023148148148148147
1 0.4578125 0.4148148148148148 0.00625 0.021296296296296296
1 0.44427083333333334 0.3425925925925926 0.016145833333333335 0.03333333333333333
1 0.4479166666666667 0.3277777777777778 0.017708333333333333 0.030555555555555555
1 0.484375 0.2861111111111111 0.0109375 0.018518518518518517
1 0.4557291666666667 0.29907407407407405 0.0109375 0.018518518518518517
1 0.45729166666666665 0.2861111111111111 0.013541666666666667 0.019444444444444445
1 0.14635416666666667 0.2712962962962963 0.026041666666666668 0.022222222222222223
1 0.27239583333333334 0.2935185185185185 0.0265625 0.017592592592592594
1 0.2078125 0.2537037037037037 0.033854166666666664 0.027777777777777776
1 0.1828125 0.26481481481481484 0.0265625 0.022222222222222223
1 0.18854166666666666 0.262037037037037 0.025520833333333333 0.021296296296296296
1 0.15520833333333334 0.2722222222222222 0.019791666666666666 0.019444444444444445
1 0.1625 0.2722222222222222 0.022916666666666665 0.016666666666666666
1 0.275 0.2898148148148148 0.025520833333333333 0.013888888888888888
1 0.30572916666666666 0.2898148148148148 0.020833333333333332 0.01574074074074074
1 0.3140625 0.2833333333333333 0.0203125 0.016666666666666666
1 0.46145833333333336 0.2601851851851852 0.013020833333333334 0.02962962962962963
1 0.46770833333333334 0.2462962962962963 0.008854166666666666 0.017592592592592594
