1 0.07867647058823529 0.9019607843137255 0.15808823529411764 0.15555555555555556
1 0.21911764705882353 0.8287581699346406 0.16691176470588234 0.16209150326797386
0 0.04852941176470588 0.7437908496732026 0.030147058823529412 0.09542483660130718
0 0.06397058823529411 0.7398692810457517 0.030147058823529412 0.09673202614379085
1 0.11029411764705882 0.7189542483660131 0.03823529411764706 0.06274509803921569
1 0.2 0.726797385620915 0.08161764705882353 0.0718954248366013
1 0.25 0.6797385620915033 0.09044117647058823 0.1111111111111111
1 0.2867647058823529 0.6418300653594772 0.0713235294117647 0.06928104575163399
0 0.2926470588235294 0.5973856209150327 0.019852941176470587 0.06928104575163399
0 0.275 0.5281045751633987 0.021323529411764706 0.044444444444444446
0 0.2786764705882353 0.4915032679738562 0.014705882352941176 0.03790849673202614
0 0.2786764705882353 0.4392156862745098 0.013235294117647059 0.044444444444444446
1 0.30661764705882355 0.5555555555555556 0.03529411764705882 0.04967320261437908
0 0.3235294117647059 0.5202614379084968 0.01764705882352941 0.0392156862745098
1 0.32426470588235295 0.530718954248366 0.03235294117647059 0.030065359477124184
0 0.4022058823529412 0.4849673202614379 0.016176470588235296 0.0457516339869281
1 0.33897058823529413 0.5803921568627451 0.08602941176470588 0.10980392156862745
1 0.3352941176470588 0.49411764705882355 0.04926470588235294 0.08235294117647059
1 0.3125 0.4169934640522876 0.04485294117647059 0.07450980392156863
1 0.28602941176470587 0.3908496732026144 0.041176470588235294 0.054901960784313725
1 0.275 0.3607843137254902 0.03308823529411765 0.047058823529411764
1 0.2610294117647059 0.32679738562091504 0.03308823529411765 0.0457516339869281
1 0.2529411764705882 0.3084967320261438 0.025735294117647058 0.04183006535947712
1 0.23970588235294119 0.2875816993464052 0.025735294117647058 0.04183006535947712
1 0.2595588235294118 0.27320261437908494 0.01911764705882353 0.0392156862745098
0 0.2713235294117647 0.28104575163398693 0.009558823529411765 0.03529411764705882
0 0.32794117647058824 0.36470588235294116 0.009558823529411765 0.030065359477124184
1 0.3272058823529412 0.37254901960784315 0.016911764705882352 0.032679738562091505
1 0.49117647058823527 0.8104575163398693 0.09411764705882353 0.19869281045751633
1 0.40147058823529413 0.5098039215686274 0.020588235294117647 0.044444444444444446
1 0.5367647058823529 0.5934640522875817 0.0838235294117647 0.1084967320261438
0 0.5588235294117647 0.5673202614379085 0.016176470588235296 0.05751633986928104
0 0.5882352941176471 0.6339869281045751 0.016176470588235296 0.0915032679738562
0 0.6213235294117647 0.7594771241830065 0.02426470588235294 0.10065359477124183
0 0.6161764705882353 0.7398692810457517 0.021323529411764706 0.09281045751633987
1 0.6169117647058824 0.5542483660130719 0.07352941176470588 0.12549019607843137
1 0.6897058823529412 0.5594771241830065 0.09264705882352942 0.10326797385620914
1 0.6036764705882353 0.47581699346405226 0.06323529411764706 0.08366013071895424
1 0.5470588235294118 0.4287581699346405 0.054411764705882354 0.06143790849673202
0 0.6198529411764706 0.35555555555555557 0.008088235294117648 0.040522875816993466
0 0.8661764705882353 0.6470588235294118 0.028676470588235293 0.08366013071895424
0 0.8889705882352941 0.657516339869281 0.014705882352941176 0.03398692810457516
0 0.9801470588235294 0.6444444444444445 0.029411764705882353 0.08104575163398693
0 0.9595588235294118 0.6196078431372549 0.021323529411764706 0.07320261437908497
1 0.6735294117647059 0.32287581699346407 0.03455882352941177 0.0392156862745098
1 0.7323529411764705 0.34248366013071896 0.022058823529411766 0.02875816993464052
1 0.7294117647058823 0.3660130718954248 0.05955882352941176 0.047058823529411764
1 0.7808823529411765 0.39738562091503266 0.06397058823529411 0.050980392156862744
1 0.8301470588235295 0.3607843137254902 0.03823529411764706 0.040522875816993466
0 0.8375 0.4 0.013970588235294118 0.03137254901960784
1 0.8544117647058823 0.41568627450980394 0.05588235294117647 0.054901960784313725
0 0.9176470588235294 0.35294117647058826 0.013235294117647059 0.04183006535947712
0 0.9330882352941177 0.3568627450980392 0.011029411764705883 0.03529411764705882
0 0.9411764705882353 0.3516339869281046 0.009558823529411765 0.0392156862745098
1 0.9125 0.4300653594771242 0.05367647058823529 0.05751633986928104
1 0.9676470588235294 0.46143790849673205 0.058823529411764705 0.06535947712418301
