0 0.5484375 0.7018518518518518 0.008333333333333333 0.05277777777777778
1 0.9385416666666667 0.7046296296296296 0.078125 0.07407407407407407
1 0.38177083333333334 0.35185185185185186 0.023958333333333335 0.01574074074074074
1 0.40260416666666665 0.34814814814814815 0.0171875 0.017592592592592594
1 0.49166666666666664 0.3453703703703704 0.016145833333333335 0.013888888888888888
1 0.5151041666666667 0.34629629629629627 0.017708333333333333 0.012962962962962963
1 0.4630208333333333 0.34814814814814815 0.019791666666666666 0.012962962962962963
1 0.4317708333333333 0.3490740740740741 0.018229166666666668 0.014814814814814815
1 0.5682291666666667 0.49907407407407406 0.04010416666666667 0.037037037037037035
