0 0.24558823529411763 0.5045751633986928 0.022794117647058822 0.07581699346405228
0 0.26323529411764707 0.465359477124183 0.021323529411764706 0.054901960784313725
0 0.15661764705882353 0.403921568627451 0.011764705882352941 0.05620915032679739
0 0.20294117647058824 0.2718954248366013 0.0125 0.054901960784313725
0 0.17205882352941176 0.24705882352941178 0.011029411764705883 0.04967320261437908
0 0.3191176470588235 0.4849673202614379 0.01838235294117647 0.06928104575163399
0 0.33455882352941174 0.5071895424836601 0.013235294117647059 0.03529411764705882
1 0.3477941176470588 0.4130718954248366 0.06470588235294118 0.06405228758169934
0 0.4360294117647059 0.3908496732026144 0.016911764705882352 0.047058823529411764
0 0.4786764705882353 0.3895424836601307 0.013970588235294118 0.058823529411764705
0 0.5022058823529412 0.3764705882352941 0.006617647058823529 0.043137254901960784
0 0.5088235294117647 0.3437908496732026 0.013235294117647059 0.027450980392156862
0 0.4963235294117647 0.3568627450980392 0.01911764705882353 0.05620915032679739
0 0.6625 0.726797385620915 0.011029411764705883 0.06143790849673202
0 0.6808823529411765 0.7398692810457517 0.01911764705882353 0.08366013071895424
0 0.6904411764705882 0.7163398692810458 0.016911764705882352 0.08235294117647059
0 0.5911764705882353 0.39869281045751637 0.011764705882352941 0.06535947712418301
0 0.6036764705882353 0.396078431372549 0.013235294117647059 0.06274509803921569
0 0.5808823529411765 0.31895424836601305 0.013235294117647059 0.044444444444444446
0 0.5889705882352941 0.3176470588235294 0.0125 0.043137254901960784
0 0.6397058823529411 0.29934640522875816 0.011764705882352941 0.05228758169934641
0 0.6286764705882353 0.3006535947712418 0.016911764705882352 0.050980392156862744
0 0.6779411764705883 0.2875816993464052 0.010294117647058823 0.0457516339869281
0 0.7213235294117647 0.27712418300653596 0.016911764705882352 0.04183006535947712
0 0.7485294117647059 0.27058823529411763 0.010294117647058823 0.03790849673202614
1 0.7382352941176471 0.2901960784313726 0.027941176470588237 0.04183006535947712
0 0.850735294117647 0.3712418300653595 0.013970588235294118 0.06143790849673202
0 0.8433823529411765 0.35294117647058826 0.01838235294117647 0.06013071895424837
0 0.9948529411764706 0.16993464052287582 0.010294117647058823 0.04967320261437908
1 0.9794117647058823 0.17254901960784313 0.025735294117647058 0.026143790849673203
0 0.8448529411764706 0.16209150326797386 0.007352941176470588 0.023529411764705882
0 0.836764705882353 0.14901960784313725 0.014705882352941176 0.03398692810457516
0 0.850735294117647 0.08104575163398693 0.006617647058823529 0.030065359477124184
0 0.836764705882353 0.07973856209150326 0.008088235294117648 0.026143790849673203
0 0.6191176470588236 0.15294117647058825 0.0125 0.03790849673202614
0 0.7580882352941176 0.12549019607843137 0.0125 0.02875816993464052
1 0.8 0.043137254901960784 0.015441176470588236 0.02091503267973856
1 0.8022058823529412 0.054901960784313725 0.008088235294117648 0.022222222222222223
0 0.7911764705882353 0.06013071895424837 0.011764705882352941 0.023529411764705882
0 0.7735294117647059 0.03529411764705882 0.007352941176470588 0.023529411764705882
0 0.7860294117647059 0.048366013071895426 0.011764705882352941 0.023529411764705882
1 0.7676470588235295 0.06666666666666667 0.015441176470588236 0.022222222222222223
0 0.7183823529411765 0.01045751633986928 0.008088235294117648 0.02091503267973856
0 0.6786764705882353 0.0718954248366013 0.006617647058823529 0.032679738562091505
0 0.6830882352941177 0.06666666666666667 0.004411764705882353 0.03137254901960784
0 0.6367647058823529 0.06143790849673202 0.007352941176470588 0.03529411764705882
0 0.6463235294117647 0.022222222222222223 0.006617647058823529 0.02875816993464052
0 0.6257352941176471 0.01045751633986928 0.007352941176470588 0.02091503267973856
0 0.5625 0.02091503267973856 0.006617647058823529 0.01568627450980392
0 0.5639705882352941 0.018300653594771243 0.005147058823529412 0.01437908496732026
0 0.6610294117647059 0.05751633986928104 0.006617647058823529 0.036601307189542485
0 0.6676470588235294 0.07450980392156863 0.006617647058823529 0.036601307189542485
0 0.6639705882352941 0.09019607843137255 0.008088235294117648 0.03790849673202614
0 0.525 0.09934640522875816 0.005147058823529412 0.03790849673202614
0 0.47573529411764703 0.09803921568627451 0.0058823529411764705 0.032679738562091505
1 0.48308823529411765 0.11372549019607843 0.030882352941176472 0.05751633986928104
1 0.48970588235294116 0.10326797385620914 0.027941176470588237 0.032679738562091505
0 0.40441176470588236 0.0392156862745098 0.007352941176470588 0.036601307189542485
0 0.42867647058823527 0.011764705882352941 0.011029411764705883 0.02483660130718954
0 0.5117647058823529 0.01437908496732026 0.008088235294117648 0.030065359477124184
0 0.47352941176470587 0.009150326797385621 0.006617647058823529 0.0196078431372549
0 0.40588235294117647 0.13202614379084968 0.007352941176470588 0.040522875816993466
0 0.3977941176470588 0.08758169934640522 0.007352941176470588 0.040522875816993466
0 0.4088235294117647 0.10326797385620914 0.006617647058823529 0.02091503267973856
0 0.3830882352941177 0.12418300653594772 0.007352941176470588 0.044444444444444446
0 0.38235294117647056 0.09803921568627451 0.0058823529411764705 0.022222222222222223
0 0.37426470588235294 0.11503267973856209 0.009558823529411765 0.027450980392156862
0 0.37426470588235294 0.0915032679738562 0.005147058823529412 0.03137254901960784
0 0.37058823529411766 0.09542483660130718 0.008088235294117648 0.036601307189542485
0 0.3625 0.1084967320261438 0.008088235294117648 0.040522875816993466
0 0.3397058823529412 0.1084967320261438 0.008823529411764706 0.03529411764705882
0 0.3323529411764706 0.1084967320261438 0.008823529411764706 0.036601307189542485
0 0.3382352941176471 0.08758169934640522 0.0058823529411764705 0.022222222222222223
0 0.3514705882352941 0.10196078431372549 0.0058823529411764705 0.036601307189542485
0 0.34852941176470587 0.09281045751633987 0.008823529411764706 0.026143790849673203
0 0.3610294117647059 0.09281045751633987 0.005147058823529412 0.02875816993464052
0 0.3551470588235294 0.10065359477124183 0.006617647058823529 0.027450980392156862
0 0.3220588235294118 0.09803921568627451 0.009558823529411765 0.018300653594771243
0 0.31691176470588234 0.10196078431372549 0.007352941176470588 0.01568627450980392
0 0.2676470588235294 0.1111111111111111 0.009558823529411765 0.0392156862745098
0 0.26544117647058824 0.09019607843137255 0.007352941176470588 0.040522875816993466
0 0.275 0.08627450980392157 0.009558823529411765 0.03529411764705882
0 0.27794117647058825 0.10588235294117647 0.008823529411764706 0.03790849673202614
0 0.2786764705882353 0.1084967320261438 0.007352941176470588 0.030065359477124184
0 0.21176470588235294 0.08627450980392157 0.007352941176470588 0.030065359477124184
1 0.2375 0.06928104575163399 0.027941176470588237 0.030065359477124184
1 0.2485294117647059 0.02091503267973856 0.03676470588235294 0.02875816993464052
1 0.175 0.0196078431372549 0.03897058823529412 0.030065359477124184
1 0.20147058823529412 0.03529411764705882 0.03823529411764706 0.0392156862745098
1 0.16323529411764706 0.05359477124183006 0.04852941176470588 0.032679738562091505
0 0.18382352941176472 0.08496732026143791 0.009558823529411765 0.04183006535947712
0 0.1948529411764706 0.08888888888888889 0.009558823529411765 0.043137254901960784
0 0.19705882352941176 0.08496732026143791 0.008823529411764706 0.04183006535947712
0 0.19117647058823528 0.08366013071895424 0.007352941176470588 0.02875816993464052
1 0.08676470588235294 0.04967320261437908 0.03823529411764706 0.03398692810457516
0 0.07352941176470588 0.02483660130718954 0.005147058823529412 0.030065359477124184
0 0.04485294117647059 0.03137254901960784 0.007352941176470588 0.03137254901960784
1 0.057352941176470586 0.022222222222222223 0.04411764705882353 0.040522875816993466
1 0.01764705882352941 0.040522875816993466 0.03602941176470588 0.032679738562091505
0 0.06397058823529411 0.19738562091503267 0.013970588235294118 0.050980392156862744
1 0.030147058823529412 0.09542483660130718 0.05367647058823529 0.048366013071895426
0 0.019852941176470587 0.17124183006535948 0.011029411764705883 0.0392156862745098
0 0.028676470588235293 0.1738562091503268 0.008823529411764706 0.030065359477124184
0 0.011764705882352941 0.1934640522875817 0.008823529411764706 0.023529411764705882
0 0.003676470588235294 0.19477124183006536 0.008088235294117648 0.022222222222222223
0 0.041176470588235294 0.15947712418300652 0.011029411764705883 0.04183006535947712
0 0.0375 0.16732026143790849 0.008823529411764706 0.040522875816993466
0 0.05220588235294118 0.16209150326797386 0.010294117647058823 0.026143790849673203
0 0.010294117647058823 0.1503267973856209 0.010294117647058823 0.0457516339869281
0 0.06470588235294118 0.16993464052287582 0.008088235294117648 0.0457516339869281
0 0.058823529411764705 0.15947712418300652 0.009558823529411765 0.047058823529411764
0 0.07647058823529412 0.15947712418300652 0.008088235294117648 0.02091503267973856
0 0.08161764705882353 0.14640522875816994 0.011029411764705883 0.04183006535947712
0 0.09779411764705882 0.13856209150326798 0.01764705882352941 0.02091503267973856
0 0.09926470588235294 0.13333333333333333 0.011029411764705883 0.03137254901960784
0 0.08529411764705883 0.11764705882352941 0.009558823529411765 0.036601307189542485
0 0.1125 0.12679738562091503 0.008088235294117648 0.03137254901960784
0 0.12352941176470589 0.11764705882352941 0.007352941176470588 0.03529411764705882
0 0.13455882352941176 0.11372549019607843 0.013970588235294118 0.040522875816993466
0 0.17058823529411765 0.09019607843137255 0.008088235294117648 0.03790849673202614
0 0.16029411764705884 0.08366013071895424 0.007352941176470588 0.03137254901960784
0 0.16029411764705884 0.09934640522875816 0.008823529411764706 0.043137254901960784
0 0.15441176470588236 0.10718954248366012 0.007352941176470588 0.036601307189542485
0 0.15220588235294116 0.09803921568627451 0.010294117647058823 0.04183006535947712
0 0.1448529411764706 0.10718954248366012 0.008088235294117648 0.04183006535947712
1 0.10147058823529412 0.08366013071895424 0.008088235294117648 0.02483660130718954
0 0.10147058823529412 0.07712418300653595 0.009558823529411765 0.03137254901960784
0 0.1161764705882353 0.10980392156862745 0.007352941176470588 0.026143790849673203
0 0.11176470588235295 0.10326797385620914 0.008088235294117648 0.03398692810457516
1 0.12058823529411765 0.08888888888888889 0.030882352941176472 0.044444444444444446
1 0.12426470588235294 0.07973856209150326 0.04926470588235294 0.05228758169934641
1 0.01911764705882353 0.13986928104575164 0.03897058823529412 0.054901960784313725
1 0.027205882352941177 0.12810457516339868 0.04926470588235294 0.0457516339869281
1 0.05661764705882353 0.12941176470588237 0.026470588235294117 0.04967320261437908
0 0.08308823529411764 0.0915032679738562 0.007352941176470588 0.03398692810457516
0 0.08823529411764706 0.08888888888888889 0.0058823529411764705 0.02091503267973856
0 0.07426470588235294 0.08235294117647059 0.011029411764705883 0.032679738562091505
0 0.06985294117647059 0.08366013071895424 0.004411764705882353 0.026143790849673203
1 0.07352941176470588 0.10980392156862745 0.05955882352941176 0.048366013071895426
