1 0.6385416666666667 0.9388888888888889 0.0421875 0.09166666666666666
1 0.6135416666666667 0.850925925925926 0.05260416666666667 0.1
1 0.6895833333333333 0.9361111111111111 0.043229166666666666 0.09907407407407408
1 0.6338541666666667 0.7592592592592593 0.0421875 0.07037037037037037
0 0.453125 0.8814814814814815 0.008854166666666666 0.030555555555555555
1 0.4453125 0.8916666666666667 0.022916666666666665 0.020370370370370372
0 0.4390625 0.8046296296296296 0.008854166666666666 0.025
0 0.43802083333333336 0.8175925925925925 0.0067708333333333336 0.016666666666666666
1 0.43854166666666666 0.8074074074074075 0.015625 0.04814814814814815
1 0.584375 0.6777777777777778 0.0296875 0.05555555555555555
1 0.6203125 0.6574074074074074 0.028645833333333332 0.046296296296296294
1 0.5692708333333333 0.5814814814814815 0.022395833333333334 0.040740740740740744
1 0.5677083333333334 0.6203703703703703 0.025 0.04722222222222222
1 0.5979166666666667 0.5925925925925926 0.024479166666666666 0.03981481481481482
1 0.5838541666666667 0.5462962962962963 0.03333333333333333 0.041666666666666664
1 0.5817708333333333 0.5101851851851852 0.020833333333333332 0.03611111111111111
1 0.55 0.4787037037037037 0.0203125 0.03796296296296296
1 0.5489583333333333 0.45925925925925926 0.015625 0.024074074074074074
1 0.56875 0.4398148148148148 0.029166666666666667 0.026851851851851852
1 0.5604166666666667 0.7907407407407407 0.007291666666666667 0.03611111111111111
1 0.5296875 0.7574074074074074 0.0109375 0.041666666666666664
1 0.465625 0.725 0.008333333333333333 0.037037037037037035
1 0.5546875 0.6722222222222223 0.0125 0.04537037037037037
1 0.5390625 0.6731481481481482 0.009895833333333333 0.030555555555555555
1 0.5161458333333333 0.674074074074074 0.009895833333333333 0.032407407407407406
1 0.5260416666666666 0.6314814814814815 0.008854166666666666 0.027777777777777776
1 0.496875 0.6222222222222222 0.0078125 0.03796296296296296
1 0.4875 0.6416666666666667 0.007291666666666667 0.025
1 0.475 0.6388888888888888 0.0078125 0.025925925925925925
1 0.4609375 0.562037037037037 0.0067708333333333336 0.019444444444444445
1 0.475 0.5287037037037037 0.005208333333333333 0.023148148148148147
1 0.4734375 0.5018518518518519 0.0067708333333333336 0.019444444444444445
1 0.490625 0.49907407407407406 0.005208333333333333 0.018518518518518517
1 0.5166666666666667 0.4675925925925926 0.00625 0.022222222222222223
1 0.5302083333333333 0.48055555555555557 0.005729166666666666 0.021296296296296296
1 0.5135416666666667 0.38981481481481484 0.0036458333333333334 0.014814814814814815
1 0.5119791666666667 0.35833333333333334 0.004166666666666667 0.013888888888888888
1 0.5078125 0.3685185185185185 0.0026041666666666665 0.012037037037037037
1 0.5041666666666667 0.35648148148148145 0.004166666666666667 0.012037037037037037
1 0.50625 0.33240740740740743 0.005208333333333333 0.012037037037037037
1 0.5130208333333334 0.33240740740740743 0.004166666666666667 0.012962962962962963
1 0.5057291666666667 0.31851851851851853 0.004166666666666667 0.018518518518518517
1 0.5171875 0.3138888888888889 0.013541666666666667 0.01574074074074074
1 0.48854166666666665 0.3175925925925926 0.009375 0.016666666666666666
0 0.5098958333333333 0.2953703703703704 0.003125 0.014814814814814815
1 0.5041666666666667 0.29074074074074074 0.0026041666666666665 0.008333333333333333
1 0.4864583333333333 0.30185185185185187 0.0036458333333333334 0.014814814814814815
0 0.5010416666666667 0.262037037037037 0.0015625 0.010185185185185186
0 0.5026041666666666 0.25925925925925924 0.0015625 0.009259259259259259
0 0.5041666666666667 0.28703703703703703 0.0026041666666666665 0.010185185185185186
0 0.4864583333333333 0.29907407407407405 0.003125 0.010185185185185186
0 0.5057291666666667 0.3175925925925926 0.0036458333333333334 0.011111111111111112
0 0.50625 0.3175925925925926 0.003125 0.008333333333333333
0 0.5125 0.3287037037037037 0.0026041666666666665 0.011111111111111112
0 0.50625 0.3287037037037037 0.0036458333333333334 0.009259259259259259
0 0.5041666666666667 0.35462962962962963 0.0036458333333333334 0.011111111111111112
0 0.5041666666666667 0.35462962962962963 0.0026041666666666665 0.007407407407407408
0 0.5114583333333333 0.3537037037037037 0.0036458333333333334 0.012037037037037037
0 0.5083333333333333 0.3638888888888889 0.003125 0.013888888888888888
0 0.5135416666666667 0.3851851851851852 0.003125 0.01574074074074074
0 0.5302083333333333 0.4740740740740741 0.0046875 0.022222222222222223
0 0.5166666666666667 0.4638888888888889 0.005208333333333333 0.020370370370370372
0 0.490625 0.49074074074074076 0.005208333333333333 0.021296296296296296
0 0.4739583333333333 0.4962962962962963 0.004166666666666667 0.018518518518518517
0 0.4744791666666667 0.5212962962962963 0.0046875 0.025
0 0.4609375 0.5527777777777778 0.0067708333333333336 0.023148148148148147
0 0.46145833333333336 0.5564814814814815 0.005208333333333333 0.017592592592592594
0 0.47552083333333334 0.6277777777777778 0.008854166666666666 0.02962962962962963
0 0.48802083333333335 0.6305555555555555 0.008333333333333333 0.030555555555555555
0 0.4979166666666667 0.6138888888888889 0.008333333333333333 0.02962962962962963
0 0.5260416666666666 0.6222222222222222 0.008333333333333333 0.028703703703703703
0 0.5166666666666667 0.662962962962963 0.010416666666666666 0.026851851851851852
0 0.5390625 0.6648148148148149 0.008854166666666666 0.026851851851851852
0 0.553125 0.6722222222222223 0.0078125 0.024074074074074074
0 0.46510416666666665 0.7129629629629629 0.009375 0.03796296296296296
0 0.46458333333333335 0.7175925925925926 0.005729166666666666 0.025
0 0.5291666666666667 0.7481481481481481 0.010416666666666666 0.03148148148148148
0 0.5296875 0.7518518518518519 0.011979166666666667 0.030555555555555555
0 0.5609375 0.7768518518518519 0.011458333333333333 0.03796296296296296
0 0.9036458333333334 0.912962962962963 0.016666666666666666 0.04259259259259259
0 0.9 0.9074074074074074 0.011979166666666667 0.03518518518518519
0 0.7927083333333333 0.8166666666666667 0.0109375 0.04351851851851852
0 0.7973958333333333 0.8212962962962963 0.011458333333333333 0.046296296296296294
0 0.9703125 0.8435185185185186 0.0125 0.044444444444444446
1 0.9541666666666667 0.762962962962963 0.011979166666666667 0.03981481481481482
0 0.953125 0.7546296296296297 0.010416666666666666 0.04537037037037037
0 0.9640625 0.7518518518518519 0.011979166666666667 0.030555555555555555
0 0.9677083333333333 0.7555555555555555 0.0078125 0.02962962962962963
0 0.9666666666666667 0.7537037037037037 0.013541666666666667 0.04537037037037037
1 0.9661458333333334 0.7648148148148148 0.013020833333333334 0.03148148148148148
1 0.9020833333333333 0.9296296296296296 0.0171875 0.03796296296296296
1 0.79375 0.8268518518518518 0.024479166666666666 0.026851851851851852
1 0.9927083333333333 0.7435185185185185 0.014583333333333334 0.028703703703703703
0 0.9770833333333333 0.7 0.009895833333333333 0.040740740740740744
0 0.9572916666666667 0.6574074074074074 0.015625 0.040740740740740744
0 0.9682291666666667 0.6675925925925926 0.0067708333333333336 0.023148148148148147
0 0.9442708333333333 0.5916666666666667 0.008333333333333333 0.025925925925925925
0 0.9578125 0.5685185185185185 0.005729166666666666 0.021296296296296296
1 0.6666666666666666 0.7287037037037037 0.022395833333333334 0.03425925925925926
1 0.6515625 0.7157407407407408 0.022395833333333334 0.04351851851851852
0 0.6390625 0.7064814814814815 0.007291666666666667 0.028703703703703703
0 0.6385416666666667 0.7 0.0067708333333333336 0.030555555555555555
1 0.753125 0.6833333333333333 0.04635416666666667 0.05185185185185185
0 0.778125 0.6351851851851852 0.009375 0.03518518518518519
0 0.7692708333333333 0.6388888888888888 0.008854166666666666 0.024074074074074074
1 0.7088541666666667 0.6277777777777778 0.009895833333333333 0.026851851851851852
0 0.6895833333333333 0.5861111111111111 0.007291666666666667 0.03148148148148148
1 0.7026041666666667 0.6074074074074074 0.013541666666666667 0.024074074074074074
0 0.7067708333333333 0.5981481481481481 0.004166666666666667 0.026851851851851852
0 0.7020833333333333 0.6027777777777777 0.009375 0.03148148148148148
1 0.709375 0.5472222222222223 0.0140625 0.020370370370370372
0 0.7854166666666667 0.6268518518518519 0.005208333333333333 0.025
0 0.778125 0.6018518518518519 0.0067708333333333336 0.024074074074074074
0 0.7729166666666667 0.5935185185185186 0.0046875 0.016666666666666666
0 0.7734375 0.5981481481481481 0.003125 0.016666666666666666
0 0.7473958333333334 0.5907407407407408 0.00625 0.024074074074074074
0 0.7489583333333333 0.5555555555555556 0.0067708333333333336 0.03333333333333333
0 0.7677083333333333 0.5768518518518518 0.007291666666666667 0.028703703703703703
0 0.75625 0.5787037037037037 0.011979166666666667 0.016666666666666666
1 0.7640625 0.5787037037037037 0.011458333333333333 0.013888888888888888
1 0.7359375 0.5212962962962963 0.011979166666666667 0.03333333333333333
0 0.7369791666666666 0.5231481481481481 0.0067708333333333336 0.025925925925925925
0 0.7447916666666666 0.5212962962962963 0.0046875 0.025925925925925925
0 0.7354166666666667 0.5083333333333333 0.003125 0.023148148148148147
0 0.7947916666666667 0.5138888888888888 0.005729166666666666 0.027777777777777776
0 0.7947916666666667 0.5092592592592593 0.0036458333333333334 0.016666666666666666
0 0.8322916666666667 0.587037037037037 0.010416666666666666 0.030555555555555555
1 0.8333333333333334 0.5916666666666667 0.008333333333333333 0.024074074074074074
0 0.8755208333333333 0.5675925925925925 0.011458333333333333 0.03148148148148148
0 0.8567708333333334 0.5740740740740741 0.0078125 0.022222222222222223
0 0.8869791666666667 0.575925925925926 0.010416666666666666 0.014814814814814815
0 0.859375 0.549074074074074 0.005729166666666666 0.016666666666666666
1 0.8578125 0.5425925925925926 0.016145833333333335 0.019444444444444445
0 0.8588541666666667 0.5351851851851852 0.0067708333333333336 0.025925925925925925
1 0.8557291666666667 0.5083333333333333 0.018229166666666668 0.017592592592592594
1 0.99375 0.5777777777777777 0.011979166666666667 0.019444444444444445
0 0.9895833333333334 0.5537037037037037 0.007291666666666667 0.026851851851851852
0 0.9932291666666667 0.5518518518518518 0.005208333333333333 0.027777777777777776
1 0.9791666666666666 0.5398148148148149 0.0125 0.017592592592592594
0 0.9796875 0.5361111111111111 0.0078125 0.027777777777777776
0 0.9703125 0.5305555555555556 0.0067708333333333336 0.028703703703703703
0 0.9229166666666667 0.5175925925925926 0.0078125 0.028703703703703703
0 0.946875 0.5203703703703704 0.005208333333333333 0.026851851851851852
0 0.9609375 0.5231481481481481 0.0078125 0.028703703703703703
0 0.9276041666666667 0.5074074074074074 0.005729166666666666 0.028703703703703703
0 0.9364583333333333 0.5037037037037037 0.0067708333333333336 0.025925925925925925
0 0.9354166666666667 0.5018518518518519 0.0046875 0.028703703703703703
0 0.8984375 0.5018518518518519 0.007291666666666667 0.027777777777777776
0 0.9088541666666666 0.4981481481481482 0.0067708333333333336 0.026851851851851852
0 0.871875 0.47314814814814815 0.005208333333333333 0.025
0 0.8807291666666667 0.475 0.0067708333333333336 0.024074074074074074
0 0.8890625 0.47962962962962963 0.00625 0.026851851851851852
0 0.9166666666666666 0.4981481481481482 0.00625 0.026851851851851852
0 0.9010416666666666 0.4888888888888889 0.0036458333333333334 0.026851851851851852
0 0.9052083333333333 0.4925925925925926 0.0046875 0.027777777777777776
1 0.8828125 0.44907407407407407 0.011458333333333333 0.026851851851851852
1 0.8744791666666667 0.4444444444444444 0.015625 0.017592592592592594
0 0.846875 0.487962962962963 0.0067708333333333336 0.021296296296296296
1 0.8473958333333333 0.4925925925925926 0.010416666666666666 0.016666666666666666
0 0.8333333333333334 0.4787037037037037 0.005729166666666666 0.023148148148148147
1 0.8333333333333334 0.46111111111111114 0.009895833333333333 0.024074074074074074
1 0.8239583333333333 0.48148148148148145 0.004166666666666667 0.014814814814814815
0 0.8234375 0.47314814814814815 0.005208333333333333 0.01574074074074074
0 0.825 0.47685185185185186 0.005208333333333333 0.020370370370370372
0 0.8536458333333333 0.45925925925925926 0.0046875 0.019444444444444445
0 0.84375 0.45925925925925926 0.0067708333333333336 0.01574074074074074
0 0.8390625 0.46111111111111114 0.004166666666666667 0.010185185185185186
0 0.8427083333333333 0.4527777777777778 0.00625 0.018518518518518517
1 0.84375 0.4388888888888889 0.017708333333333333 0.018518518518518517
0 0.8125 0.4361111111111111 0.0046875 0.021296296296296296
0 0.8260416666666667 0.4305555555555556 0.005729166666666666 0.013888888888888888
0 0.8307291666666666 0.4324074074074074 0.005729166666666666 0.013888888888888888
0 0.796875 0.42777777777777776 0.003125 0.012037037037037037
0 0.8015625 0.4361111111111111 0.00625 0.023148148148148147
0 0.8072916666666666 0.4361111111111111 0.005208333333333333 0.021296296296296296
0 0.8078125 0.4287037037037037 0.0026041666666666665 0.007407407407407408
0 0.8125 0.43148148148148147 0.003125 0.007407407407407408
0 0.79375 0.40555555555555556 0.005729166666666666 0.013888888888888888
0 0.7979166666666667 0.40555555555555556 0.0078125 0.020370370370370372
0 0.8213541666666667 0.4148148148148148 0.005729166666666666 0.012962962962962963
0 0.8255208333333334 0.4185185185185185 0.0046875 0.012962962962962963
0 0.8145833333333333 0.42407407407407405 0.0067708333333333336 0.01574074074074074
0 0.8166666666666667 0.42777777777777776 0.005208333333333333 0.01574074074074074
1 0.6442708333333333 0.4759259259259259 0.016666666666666666 0.028703703703703703
1 0.6598958333333333 0.4777777777777778 0.016666666666666666 0.030555555555555555
0 0.6630208333333333 0.48148148148148145 0.0036458333333333334 0.024074074074074074
0 0.6890625 0.46296296296296297 0.00625 0.024074074074074074
0 0.7208333333333333 0.462037037037037 0.00625 0.025
0 0.6880208333333333 0.4083333333333333 0.004166666666666667 0.022222222222222223
1 0.6375 0.4101851851851852 0.011458333333333333 0.018518518518518517
1 0.6276041666666666 0.4425925925925926 0.011458333333333333 0.022222222222222223
1 0.6166666666666667 0.42777777777777776 0.009895833333333333 0.026851851851851852
1 0.6635416666666667 0.39166666666666666 0.0109375 0.025925925925925925
1 0.6166666666666667 0.3972222222222222 0.009895833333333333 0.012962962962962963
1 0.6161458333333333 0.4111111111111111 0.009375 0.013888888888888888
0 0.6166666666666667 0.39444444444444443 0.005729166666666666 0.016666666666666666
0 0.6203125 0.3962962962962963 0.005208333333333333 0.014814814814814815
0 0.7583333333333333 0.40925925925925927 0.0046875 0.021296296296296296
0 0.7541666666666667 0.41388888888888886 0.0036458333333333334 0.012962962962962963
0 0.75 0.41203703703703703 0.005208333333333333 0.011111111111111112
1 0.75 0.42407407407407405 0.009375 0.025925925925925925
0 0.75 0.425 0.007291666666666667 0.019444444444444445
0 0.7119791666666667 0.3851851851851852 0.0026041666666666665 0.018518518518518517
0 0.7197916666666667 0.39166666666666666 0.005729166666666666 0.016666666666666666
0 0.7140625 0.39444444444444443 0.0036458333333333334 0.009259259259259259
0 0.7270833333333333 0.38055555555555554 0.005208333333333333 0.020370370370370372
0 0.7223958333333333 0.37962962962962965 0.0036458333333333334 0.01574074074074074
0 0.721875 0.36944444444444446 0.003125 0.018518518518518517
0 0.7317708333333334 0.37222222222222223 0.003125 0.016666666666666666
1 0.7447916666666666 0.38333333333333336 0.008854166666666666 0.013888888888888888
1 0.7421875 0.37592592592592594 0.009375 0.019444444444444445
1 0.7348958333333333 0.375 0.0078125 0.013888888888888888
1 0.7229166666666667 0.36666666666666664 0.008333333333333333 0.010185185185185186
0 0.7286458333333333 0.3685185185185185 0.0026041666666666665 0.016666666666666666
0 0.7489583333333333 0.4 0.0036458333333333334 0.019444444444444445
0 0.7171875 0.33425925925925926 0.0036458333333333334 0.011111111111111112
0 0.8177083333333334 0.8972222222222223 0.007291666666666667 0.04351851851851852
