0 0.5779411764705882 0.9856209150326798 0.008088235294117648 0.02875816993464052
0 0.5764705882352941 0.9764705882352941 0.006617647058823529 0.030065359477124184
0 0.5816176470588236 0.9790849673202614 0.008823529411764706 0.04183006535947712
1 0.44485294117647056 0.9529411764705882 0.051470588235294115 0.09411764705882353
1 0.45073529411764707 0.6444444444444445 0.029411764705882353 0.06928104575163399
0 0.8735294117647059 0.9803921568627451 0.015441176470588236 0.0392156862745098
1 0.875 0.8875816993464052 0.07573529411764705 0.09542483660130718
1 0.9669117647058824 0.7215686274509804 0.06544117647058824 0.06013071895424837
1 0.7941176470588235 0.7856209150326797 0.12352941176470589 0.12549019607843137
1 0.663235294117647 0.7516339869281046 0.047058823529411764 0.06797385620915032
0 0.8455882352941176 0.7281045751633987 0.013970588235294118 0.0392156862745098
1 0.8536764705882353 0.7411764705882353 0.052941176470588235 0.044444444444444446
1 0.9823529411764705 0.5777777777777777 0.03308823529411765 0.06274509803921569
1 0.986764705882353 0.6509803921568628 0.025735294117647058 0.0457516339869281
1 0.9705882352941176 0.661437908496732 0.05661764705882353 0.06143790849673202
1 0.9279411764705883 0.6470588235294118 0.051470588235294115 0.054901960784313725
1 0.9463235294117647 0.5686274509803921 0.03529411764705882 0.04967320261437908
1 0.9073529411764706 0.5529411764705883 0.03602941176470588 0.043137254901960784
1 0.8764705882352941 0.5424836601307189 0.03235294117647059 0.04183006535947712
1 0.8419117647058824 0.5320261437908497 0.03897058823529412 0.044444444444444446
0 0.8933823529411765 0.6091503267973856 0.008088235294117648 0.040522875816993466
0 0.8654411764705883 0.5882352941176471 0.011764705882352941 0.040522875816993466
0 0.8727941176470588 0.515032679738562 0.0058823529411764705 0.036601307189542485
0 0.8485294117647059 0.5111111111111111 0.0058823529411764705 0.03790849673202614
0 0.8338235294117647 0.5124183006535947 0.006617647058823529 0.032679738562091505
0 0.8308823529411765 0.5111111111111111 0.009558823529411765 0.02091503267973856
0 0.7198529411764706 0.6470588235294118 0.011764705882352941 0.030065359477124184
1 0.7183823529411765 0.6562091503267974 0.015441176470588236 0.03398692810457516
1 0.6220588235294118 0.5437908496732026 0.027941176470588237 0.03790849673202614
0 0.0125 0.9686274509803922 0.013970588235294118 0.058823529411764705
0 0.09705882352941177 0.9673202614379085 0.01838235294117647 0.054901960784313725
0 0.10588235294117647 0.9568627450980393 0.029411764705882353 0.043137254901960784
1 0.04926470588235294 0.8339869281045752 0.03308823529411765 0.036601307189542485
1 0.08014705882352942 0.8261437908496732 0.033823529411764704 0.04183006535947712
1 0.07941176470588235 0.8026143790849674 0.08014705882352942 0.07058823529411765
1 0.09411764705882353 0.7738562091503268 0.0713235294117647 0.06143790849673202
1 0.10808823529411765 0.7477124183006536 0.0625 0.06013071895424837
1 0.11764705882352941 0.7254901960784313 0.05808823529411765 0.054901960784313725
1 0.14852941176470588 0.7725490196078432 0.03602941176470588 0.07973856209150326
1 0.1610294117647059 0.7398692810457517 0.03308823529411765 0.06797385620915032
1 0.18161764705882352 0.6954248366013072 0.033823529411764704 0.06797385620915032
1 0.1963235294117647 0.657516339869281 0.03235294117647059 0.05359477124183006
1 0.12720588235294117 0.6993464052287581 0.0625 0.05228758169934641
1 0.13970588235294118 0.6745098039215687 0.06397058823529411 0.05359477124183006
1 0.1514705882352941 0.6562091503267974 0.05955882352941176 0.05751633986928104
1 0.1661764705882353 0.6326797385620915 0.061764705882352944 0.05751633986928104
1 0.25220588235294117 0.6235294117647059 0.06838235294117648 0.0457516339869281
1 0.2661764705882353 0.5816993464052288 0.0625 0.044444444444444446
0 0.21764705882352942 0.5490196078431373 0.0058823529411764705 0.04183006535947712
0 0.23529411764705882 0.550326797385621 0.008088235294117648 0.03790849673202614
1 0.2977941176470588 0.5111111111111111 0.04926470588235294 0.04183006535947712
1 0.40661764705882353 0.49019607843137253 0.022058823529411766 0.0392156862745098
1 0.4404411764705882 0.5019607843137255 0.022058823529411766 0.040522875816993466
1 0.47941176470588237 0.534640522875817 0.025 0.04967320261437908
1 0.3301470588235294 0.45359477124183006 0.04338235294117647 0.02875816993464052
1 0.31691176470588234 0.4287581699346405 0.041176470588235294 0.02875816993464052
1 0.34191176470588236 0.4130718954248366 0.015441176470588236 0.01699346405228758
1 0.2698529411764706 0.4222222222222222 0.008823529411764706 0.011764705882352941
1 0.2772058823529412 0.43529411764705883 0.005147058823529412 0.0196078431372549
1 0.28455882352941175 0.4196078431372549 0.0125 0.013071895424836602
0 0.3220588235294118 0.31895424836601305 0.0029411764705882353 0.013071895424836602
1 0.31985294117647056 0.39738562091503266 0.013235294117647059 0.011764705882352941
1 0.47205882352941175 0.44575163398692813 0.01911764705882353 0.03529411764705882
1 0.4551470588235294 0.4169934640522876 0.01911764705882353 0.030065359477124184
1 0.8455882352941176 0.681045751633987 0.07794117647058824 0.05228758169934641
1 0.825 0.6509803921568628 0.06911764705882353 0.05228758169934641
1 0.8110294117647059 0.6300653594771242 0.06838235294117648 0.04183006535947712
1 0.7977941176470589 0.6104575163398693 0.06691176470588235 0.04183006535947712
1 0.7838235294117647 0.5869281045751634 0.058823529411764705 0.040522875816993466
1 0.7639705882352941 0.5660130718954248 0.054411764705882354 0.048366013071895426
1 0.7433823529411765 0.5529411764705883 0.052941176470588235 0.0392156862745098
1 0.7272058823529411 0.5372549019607843 0.05367647058823529 0.03790849673202614
1 0.7169117647058824 0.5124183006535947 0.057352941176470586 0.040522875816993466
1 0.6191176470588236 0.44836601307189544 0.01911764705882353 0.032679738562091505
1 0.7132352941176471 0.4993464052287582 0.05 0.03137254901960784
1 0.7088235294117647 0.4823529411764706 0.04338235294117647 0.03137254901960784
0 0.7147058823529412 0.47058823529411764 0.006617647058823529 0.02483660130718954
1 0.6941176470588235 0.469281045751634 0.052941176470588235 0.043137254901960784
0 0.7639705882352941 0.4444444444444444 0.004411764705882353 0.013071895424836602
0 0.7610294117647058 0.4418300653594771 0.0058823529411764705 0.01568627450980392
1 0.6845588235294118 0.465359477124183 0.04411764705882353 0.027450980392156862
1 0.674264705882353 0.4562091503267974 0.03897058823529412 0.023529411764705882
1 0.6735294117647059 0.4470588235294118 0.03602941176470588 0.026143790849673203
1 0.7154411764705882 0.4 0.005147058823529412 0.01437908496732026
1 0.7022058823529411 0.4 0.022058823529411766 0.023529411764705882
1 0.6213235294117647 0.4117647058823529 0.005147058823529412 0.01437908496732026
0 0.600735294117647 0.4300653594771242 0.008823529411764706 0.02483660130718954
1 0.600735294117647 0.43529411764705883 0.006617647058823529 0.018300653594771243
0 0.675 0.4261437908496732 0.0058823529411764705 0.026143790849673203
1 0.6654411764705882 0.4169934640522876 0.03529411764705882 0.030065359477124184
1 0.6470588235294118 0.4117647058823529 0.03455882352941177 0.02483660130718954
1 0.6441176470588236 0.4 0.03529411764705882 0.022222222222222223
1 0.6404411764705882 0.3934640522875817 0.03529411764705882 0.023529411764705882
1 0.6683823529411764 0.3241830065359477 0.030882352941176472 0.018300653594771243
1 0.6404411764705882 0.34509803921568627 0.029411764705882353 0.018300653594771243
1 0.6066176470588235 0.36470588235294116 0.03235294117647059 0.0196078431372549
1 0.6051470588235294 0.35947712418300654 0.029411764705882353 0.022222222222222223
0 0.5691176470588235 0.36209150326797385 0.005147058823529412 0.01437908496732026
1 0.5691176470588235 0.3660130718954248 0.005147058823529412 0.013071895424836602
1 0.5779411764705882 0.35294117647058826 0.025 0.022222222222222223
1 0.5852941176470589 0.3516339869281046 0.023529411764705882 0.018300653594771243
1 0.6073529411764705 0.33986928104575165 0.015441176470588236 0.02091503267973856
1 0.6257352941176471 0.338562091503268 0.01764705882352941 0.022222222222222223
1 0.6183823529411765 0.33202614379084966 0.021323529411764706 0.0196078431372549
1 0.6294117647058823 0.32287581699346407 0.008823529411764706 0.01045751633986928
0 0.6213235294117647 0.3111111111111111 0.004411764705882353 0.01437908496732026
0 0.6139705882352942 0.3058823529411765 0.0029411764705882353 0.01699346405228758
0 0.6 0.3084967320261438 0.003676470588235294 0.01437908496732026
1 0.6029411764705882 0.2901960784313726 0.008088235294117648 0.00784313725490196
1 0.5779411764705882 0.32287581699346407 0.016911764705882352 0.01699346405228758
0 0.575735294117647 0.2849673202614379 0.003676470588235294 0.01437908496732026
1 0.5742647058823529 0.28104575163398693 0.01911764705882353 0.013071895424836602
1 0.5566176470588236 0.2718954248366013 0.01764705882352941 0.011764705882352941
1 0.4411764705882353 0.3686274509803922 0.013970588235294118 0.023529411764705882
1 0.3816176470588235 0.3568627450980392 0.014705882352941176 0.026143790849673203
1 0.4375 0.29934640522875816 0.008823529411764706 0.01699346405228758
1 0.475 0.28888888888888886 0.009558823529411765 0.013071895424836602
1 0.49411764705882355 0.29411764705882354 0.010294117647058823 0.01437908496732026
0 0.3948529411764706 0.34248366013071896 0.004411764705882353 0.0196078431372549
0 0.3977941176470588 0.32679738562091504 0.004411764705882353 0.018300653594771243
0 0.39338235294117646 0.330718954248366 0.004411764705882353 0.018300653594771243
1 0.38529411764705884 0.3333333333333333 0.0125 0.02091503267973856
1 0.3875 0.32679738562091504 0.010294117647058823 0.018300653594771243
1 0.38235294117647056 0.3202614379084967 0.022794117647058822 0.018300653594771243
1 0.3875 0.30980392156862746 0.022794117647058822 0.018300653594771243
1 0.39926470588235297 0.3045751633986928 0.0125 0.01699346405228758
1 0.38529411764705884 0.2875816993464052 0.01911764705882353 0.013071895424836602
1 0.4007352941176471 0.2758169934640523 0.013970588235294118 0.022222222222222223
1 0.3830882352941177 0.24705882352941178 0.016176470588235296 0.01045751633986928
1 0.43676470588235294 0.27712418300653596 0.008823529411764706 0.01568627450980392
1 0.43676470588235294 0.2601307189542484 0.008088235294117648 0.013071895424836602
1 0.43308823529411766 0.24444444444444444 0.007352941176470588 0.011764705882352941
0 0.4161764705882353 0.2758169934640523 0.0029411764705882353 0.00784313725490196
1 0.4161764705882353 0.27712418300653596 0.0029411764705882353 0.009150326797385621
0 0.4161764705882353 0.25098039215686274 0.0022058823529411764 0.011764705882352941
1 0.4088235294117647 0.2457516339869281 0.007352941176470588 0.013071895424836602
1 0.43014705882352944 0.2235294117647059 0.004411764705882353 0.01045751633986928
1 0.4264705882352941 0.23529411764705882 0.006617647058823529 0.01045751633986928
1 0.4 0.2496732026143791 0.0125 0.01045751633986928
1 0.39191176470588235 0.24052287581699347 0.016176470588235296 0.009150326797385621
1 0.3875 0.23790849673202613 0.016176470588235296 0.009150326797385621
1 0.3963235294117647 0.1895424836601307 0.004411764705882353 0.006535947712418301
0 0.4139705882352941 0.22875816993464052 0.0014705882352941176 0.009150326797385621
1 0.45073529411764707 0.25359477124183005 0.004411764705882353 0.009150326797385621
0 0.4176470588235294 0.2196078431372549 0.0022058823529411764 0.009150326797385621
0 0.4198529411764706 0.2222222222222222 0.0014705882352941176 0.00522875816993464
1 0.4198529411764706 0.2235294117647059 0.0022058823529411764 0.006535947712418301
1 0.4161764705882353 0.2130718954248366 0.005147058823529412 0.00784313725490196
1 0.4198529411764706 0.19869281045751633 0.004411764705882353 0.006535947712418301
1 0.4213235294117647 0.2 0.005147058823529412 0.006535947712418301
0 0.4227941176470588 0.20784313725490197 0.0022058823529411764 0.00784313725490196
1 0.4345588235294118 0.19477124183006536 0.009558823529411765 0.006535947712418301
1 0.43014705882352944 0.19084967320261437 0.004411764705882353 0.006535947712418301
1 0.45955882352941174 0.18169934640522875 0.003676470588235294 0.00522875816993464
1 0.45294117647058824 0.2 0.004411764705882353 0.00784313725490196
0 0.4632352941176471 0.2 0.0022058823529411764 0.006535947712418301
1 0.47205882352941175 0.21045751633986928 0.005147058823529412 0.00784313725490196
1 0.45955882352941174 0.2235294117647059 0.005147058823529412 0.009150326797385621
1 0.46397058823529413 0.23790849673202613 0.006617647058823529 0.01045751633986928
1 0.46691176470588236 0.25098039215686274 0.006617647058823529 0.013071895424836602
1 0.4713235294117647 0.2718954248366013 0.008088235294117648 0.013071895424836602
1 0.5058823529411764 0.3281045751633987 0.011764705882352941 0.018300653594771243
0 0.5507352941176471 0.3359477124183007 0.004411764705882353 0.01699346405228758
0 0.5573529411764706 0.33725490196078434 0.003676470588235294 0.01699346405228758
0 0.5551470588235294 0.338562091503268 0.0022058823529411764 0.011764705882352941
1 0.55 0.33986928104575165 0.006617647058823529 0.011764705882352941
1 0.5573529411764706 0.3411764705882353 0.007352941176470588 0.01045751633986928
1 0.5463235294117647 0.3215686274509804 0.0125 0.018300653594771243
1 0.5419117647058823 0.3137254901960784 0.011764705882352941 0.01568627450980392
1 0.5375 0.3006535947712418 0.006617647058823529 0.013071895424836602
1 0.5301470588235294 0.29150326797385623 0.009558823529411765 0.01699346405228758
1 0.5272058823529412 0.2849673202614379 0.009558823529411765 0.01568627450980392
1 0.5389705882352941 0.269281045751634 0.011029411764705883 0.01045751633986928
1 0.5345588235294118 0.26405228758169935 0.016911764705882352 0.011764705882352941
1 0.5323529411764706 0.25359477124183005 0.013970588235294118 0.009150326797385621
1 0.5360294117647059 0.2522875816993464 0.0125 0.0196078431372549
1 0.5102941176470588 0.27058823529411763 0.0022058823529411764 0.009150326797385621
0 0.5102941176470588 0.269281045751634 0.0022058823529411764 0.011764705882352941
1 0.5294117647058824 0.24836601307189543 0.013970588235294118 0.009150326797385621
1 0.5272058823529412 0.24705882352941178 0.014705882352941176 0.009150326797385621
1 0.4919117647058823 0.257516339869281 0.0029411764705882353 0.00784313725490196
0 0.4919117647058823 0.25620915032679736 0.0022058823529411764 0.01045751633986928
1 0.5198529411764706 0.20522875816993463 0.011029411764705883 0.009150326797385621
1 0.5272058823529412 0.2222222222222222 0.0058823529411764705 0.00784313725490196
0 0.5235294117647059 0.2196078431372549 0.0014705882352941176 0.009150326797385621
0 0.48308823529411765 0.2222222222222222 0.0022058823529411764 0.00522875816993464
1 0.48308823529411765 0.2222222222222222 0.0022058823529411764 0.006535947712418301
0 0.48676470588235293 0.22745098039215686 0.0022058823529411764 0.006535947712418301
0 0.4889705882352941 0.23137254901960785 0.0014705882352941176 0.00522875816993464
1 0.48676470588235293 0.22875816993464052 0.0022058823529411764 0.006535947712418301
1 0.4889705882352941 0.2326797385620915 0.0029411764705882353 0.006535947712418301
1 0.4919117647058823 0.23006535947712417 0.0022058823529411764 0.00522875816993464
1 0.5088235294117647 0.25359477124183005 0.008088235294117648 0.011764705882352941
1 0.5022058823529412 0.25098039215686274 0.008088235294117648 0.009150326797385621
1 0.49779411764705883 0.2457516339869281 0.0058823529411764705 0.009150326797385621
1 0.4948529411764706 0.23529411764705882 0.007352941176470588 0.009150326797385621
