1 0.37604166666666666 0.4185185185185185 0.042708333333333334 0.03148148148148148
1 0.4197916666666667 0.4166666666666667 0.042708333333333334 0.03148148148148148
1 0.475 0.412962962962963 0.03958333333333333 0.02962962962962963
1 0.2125 0.43148148148148147 0.04479166666666667 0.03148148148148148
1 0.24583333333333332 0.5814814814814815 0.058333333333333334 0.04259259259259259
1 0.26979166666666665 0.42592592592592593 0.04375 0.03148148148148148
1 0.4083333333333333 0.5296296296296297 0.051041666666666666 0.037037037037037035
1 0.5760416666666667 0.40555555555555556 0.03854166666666667 0.027777777777777776
1 0.578125 0.3888888888888889 0.035416666666666666 0.024074074074074074
1 0.6541666666666667 0.3962962962962963 0.03854166666666667 0.03148148148148148
1 0.7052083333333333 0.3962962962962963 0.03958333333333333 0.025925925925925925
1 0.753125 0.3925925925925926 0.03854166666666667 0.025925925925925925
1 0.7989583333333333 0.3907407407407407 0.03854166666666667 0.025925925925925925
1 0.8260416666666667 0.48518518518518516 0.016666666666666666 0.018518518518518517
1 0.903125 0.3851851851851852 0.036458333333333336 0.024074074074074074
1 0.9604166666666667 0.5037037037037037 0.053125 0.03888888888888889
1 0.9895833333333334 0.3814814814814815 0.019791666666666666 0.024074074074074074
0 0.509375 0.38333333333333336 0.00625 0.020370370370370372
0 0.8260416666666667 0.4777777777777778 0.009375 0.022222222222222223
0 0.06458333333333334 0.5722222222222222 0.009375 0.03333333333333333
0 0.5177083333333333 0.38333333333333336 0.005208333333333333 0.025925925925925925
0 0.5864583333333333 0.37777777777777777 0.005208333333333333 0.020370370370370372
0 0.6635416666666667 0.30925925925925923 0.005208333333333333 0.020370370370370372
0 0.865625 0.3 0.005208333333333333 0.020370370370370372
0 0.32395833333333335 0.3277777777777778 0.00625 0.022222222222222223
0 0.40208333333333335 0.32407407407407407 0.007291666666666667 0.025925925925925925
0 0.396875 0.28703703703703703 0.00625 0.018518518518518517
0 0.175 0.23703703703703705 0.004166666666666667 0.020370370370370372
0 0.21354166666666666 0.2222222222222222 0.005208333333333333 0.018518518518518517
1 0.027083333333333334 0.45 0.051041666666666666 0.037037037037037035
1 0.05520833333333333 0.575925925925926 0.03125 0.020370370370370372
1 0.13854166666666667 0.43703703703703706 0.046875 0.03148148148148148
1 0.3229166666666667 0.4203703703703704 0.041666666666666664 0.03333333333333333
1 0.5260416666666666 0.40555555555555556 0.0375 0.03148148148148148
1 0.5364583333333334 0.5148148148148148 0.04479166666666667 0.037037037037037035
1 0.6541666666666667 0.5296296296296297 0.04895833333333333 0.03888888888888889
1 0.703125 0.5259259259259259 0.052083333333333336 0.04259259259259259
1 0.8604166666666667 0.3851851851851852 0.0375 0.02962962962962963
1 0.95 0.37962962962962965 0.0375 0.03148148148148148
