0 0.725 0.9425925925925925 0.034375 0.05740740740740741
0 0.6208333333333333 0.7870370370370371 0.023958333333333335 0.05
0 0.8520833333333333 0.7092592592592593 0.0375 0.06111111111111111
0 0.8614583333333333 0.6037037037037037 0.034375 0.053703703703703705
0 0.7385416666666667 0.7092592592592593 0.03125 0.05185185185185185
0 0.759375 0.48518518518518516 0.027083333333333334 0.07222222222222222
0 0.7645833333333333 0.37222222222222223 0.027083333333333334 0.05555555555555555
0 0.440625 0.95 0.027083333333333334 0.05925925925925926
0 0.4708333333333333 0.8740740740740741 0.019791666666666666 0.04814814814814815
0 0.49375 0.7574074074074074 0.020833333333333332 0.06481481481481481
0 0.5302083333333333 0.5851851851851851 0.019791666666666666 0.06481481481481481
0 0.6489583333333333 0.5592592592592592 0.019791666666666666 0.06111111111111111
0 0.5541666666666667 0.45925925925925926 0.016666666666666666 0.06666666666666667
0 0.671875 0.4462962962962963 0.020833333333333332 0.06111111111111111
0 0.6291666666666667 0.35 0.020833333333333332 0.06666666666666667
0 0.5322916666666667 0.31851851851851853 0.015625 0.05925925925925926
0 0.6489583333333333 0.2388888888888889 0.017708333333333333 0.06481481481481481
0 0.32395833333333335 0.037037037037037035 0.019791666666666666 0.06111111111111111
0 0.175 0.19074074074074074 0.019791666666666666 0.046296296296296294
0 0.20416666666666666 0.2111111111111111 0.022916666666666665 0.06481481481481481
0 0.11041666666666666 0.6518518518518519 0.01875 0.040740740740740744
0 0.315625 0.26851851851851855 0.025 0.07962962962962963
0 0.33125 0.26851851851851855 0.023958333333333335 0.06111111111111111
0 0.7447916666666666 0.08518518518518518 0.019791666666666666 0.07222222222222222
0 0.921875 0.09259259259259259 0.028125 0.07037037037037037
0 0.9364583333333333 0.09074074074074075 0.025 0.06851851851851852
0 0.7083333333333334 0.18703703703703703 0.013541666666666667 0.053703703703703705
0 0.7270833333333333 0.19814814814814816 0.017708333333333333 0.07037037037037037
0 0.7229166666666667 0.17777777777777778 0.015625 0.07037037037037037
0 0.4479166666666667 0.1962962962962963 0.014583333333333334 0.046296296296296294
0 0.3875 0.20555555555555555 0.016666666666666666 0.06111111111111111
0 0.3645833333333333 0.19814814814814816 0.014583333333333334 0.05925925925925926
0 0.44375 0.25555555555555554 0.015625 0.06481481481481481
0 0.834375 0.06851851851851852 0.015625 0.06111111111111111
0 0.834375 0.08888888888888889 0.022916666666666665 0.06666666666666667
0 0.42916666666666664 0.24259259259259258 0.013541666666666667 0.06666666666666667
0 0.1125 0.6055555555555555 0.0375 0.05185185185185185
