1 0.2713235294117647 0.21437908496732025 0.10441176470588236 0.09803921568627451
1 0.34558823529411764 0.2901960784313726 0.10882352941176471 0.10980392156862745
1 0.41691176470588237 0.3934640522875817 0.11029411764705882 0.1084967320261438
1 0.5632352941176471 0.469281045751634 0.03823529411764706 0.06666666666666667
1 0.5191176470588236 0.42483660130718953 0.03235294117647059 0.06274509803921569
1 0.5066176470588235 0.39215686274509803 0.04191176470588235 0.043137254901960784
1 0.48970588235294116 0.40522875816993464 0.03529411764705882 0.054901960784313725
1 0.7705882352941177 0.6666666666666666 0.060294117647058824 0.07581699346405228
0 0.27058823529411763 0.1111111111111111 0.014705882352941176 0.048366013071895426
1 0.14191176470588235 0.6313725490196078 0.1514705882352941 0.16993464052287582
1 0.22647058823529412 0.7895424836601307 0.16029411764705884 0.20261437908496732
0 0.04485294117647059 0.13202614379084968 0.0125 0.0457516339869281
0 0.05588235294117647 0.12679738562091503 0.0125 0.0457516339869281
1 0.0713235294117647 0.10980392156862745 0.027941176470588237 0.05620915032679739
