1 0.3588235294117647 0.5058823529411764 0.051470588235294115 0.07450980392156863
1 0.39705882352941174 0.5633986928104575 0.05514705882352941 0.08366013071895424
1 0.5742647058823529 0.5254901960784314 0.04485294117647059 0.06797385620915032
1 0.5176470588235295 0.396078431372549 0.025 0.036601307189542485
1 0.48455882352941176 0.3058823529411765 0.013970588235294118 0.027450980392156862
1 0.5183823529411765 0.31895424836601305 0.013970588235294118 0.027450980392156862
1 0.5272058823529412 0.35294117647058826 0.01764705882352941 0.032679738562091505
1 0.8441176470588235 0.477124183006536 0.06323529411764706 0.06274509803921569
1 0.03676470588235294 0.7594771241830065 0.07352941176470588 0.1503267973856209
1 0.7095588235294118 0.5137254901960784 0.051470588235294115 0.08758169934640522
1 0.5205882352941177 0.2901960784313726 0.015441176470588236 0.03137254901960784
1 0.7183823529411765 0.36470588235294116 0.019852941176470587 0.022222222222222223
1 0.2051470588235294 0.37254901960784315 0.061764705882352944 0.036601307189542485
1 0.22205882352941175 0.35947712418300654 0.05955882352941176 0.03398692810457516
1 0.24632352941176472 0.34248366013071896 0.03455882352941177 0.027450980392156862
1 0.11470588235294117 0.44052287581699345 0.07205882352941176 0.03790849673202614
1 0.7198529411764706 0.8026143790849674 0.04632352941176471 0.050980392156862744
1 0.7963235294117647 0.9830065359477124 0.06470588235294118 0.03398692810457516
1 0.43823529411764706 0.5986928104575163 0.01911764705882353 0.06666666666666667
1 0.8720588235294118 0.5542483660130719 0.05367647058823529 0.06143790849673202
1 0.8139705882352941 0.5320261437908497 0.03161764705882353 0.030065359477124184
1 0.649264705882353 0.49673202614379086 0.015441176470588236 0.04183006535947712
0 0.9485294117647058 0.5084967320261438 0.010294117647058823 0.05228758169934641
0 0.7279411764705882 0.7673202614379085 0.014705882352941176 0.06405228758169934
0 0.8058823529411765 0.9529411764705882 0.01764705882352941 0.06274509803921569
0 0.8227941176470588 0.9673202614379085 0.015441176470588236 0.04967320261437908
0 0.16838235294117648 0.5751633986928104 0.016176470588235296 0.06274509803921569
0 0.1 0.5686274509803921 0.014705882352941176 0.07058823529411765
0 0.12352941176470589 0.5725490196078431 0.013970588235294118 0.06666666666666667
0 0.18455882352941178 0.5333333333333333 0.011764705882352941 0.0457516339869281
0 0.16838235294117648 0.5254901960784314 0.009558823529411765 0.0457516339869281
1 0.16176470588235295 0.5228758169934641 0.016911764705882352 0.032679738562091505
1 0.48970588235294116 0.27712418300653596 0.010294117647058823 0.023529411764705882
0 0.5720588235294117 0.3516339869281046 0.007352941176470588 0.03790849673202614
0 0.6625 0.42745098039215684 0.015441176470588236 0.0196078431372549
0 0.6794117647058824 0.41830065359477125 0.005147058823529412 0.0392156862745098
0 0.6830882352941177 0.43137254901960786 0.010294117647058823 0.05359477124183006
0 0.6926470588235294 0.4130718954248366 0.008088235294117648 0.0457516339869281
0 0.7705882352941177 0.46013071895424834 0.008088235294117648 0.02875816993464052
0 0.788235294117647 0.38300653594771245 0.008823529411764706 0.04183006535947712
0 0.16691176470588234 0.3411764705882353 0.007352941176470588 0.043137254901960784
0 0.15735294117647058 0.33725490196078434 0.007352941176470588 0.04183006535947712
1 0.2852941176470588 0.3176470588235294 0.01764705882352941 0.03137254901960784
1 0.3058823529411765 0.3150326797385621 0.02426470588235294 0.03398692810457516
1 0.3735294117647059 0.2784313725490196 0.021323529411764706 0.0196078431372549
1 0.35955882352941176 0.24705882352941178 0.016176470588235296 0.02483660130718954
0 0.4573529411764706 0.2823529411764706 0.005147058823529412 0.01699346405228758
0 0.4661764705882353 0.25359477124183005 0.0022058823529411764 0.013071895424836602
0 0.7448529411764706 0.4326797385620915 0.007352941176470588 0.03790849673202614
0 0.6352941176470588 0.3215686274509804 0.011029411764705883 0.023529411764705882
0 0.6448529411764706 0.3437908496732026 0.007352941176470588 0.03790849673202614
0 0.6735294117647059 0.3660130718954248 0.0029411764705882353 0.02875816993464052
0 0.6757352941176471 0.33725490196078434 0.004411764705882353 0.027450980392156862
0 0.6566176470588235 0.338562091503268 0.006617647058823529 0.03790849673202614
0 0.6639705882352941 0.3359477124183007 0.005147058823529412 0.040522875816993466
1 0.6867647058823529 0.32679738562091504 0.01764705882352941 0.03398692810457516
1 0.6625 0.31241830065359477 0.026470588235294117 0.03529411764705882
0 0.8235294117647058 0.5098039215686274 0.008088235294117648 0.03790849673202614
0 0.8544117647058823 0.5516339869281046 0.013970588235294118 0.05228758169934641
0 0.8860294117647058 0.5607843137254902 0.013970588235294118 0.06274509803921569
0 0.8705882352941177 0.5215686274509804 0.009558823529411765 0.047058823529411764
0 0.8544117647058823 0.4915032679738562 0.008088235294117648 0.05620915032679739
0 0.8691176470588236 0.49019607843137253 0.015441176470588236 0.06143790849673202
1 0.7411764705882353 0.5660130718954248 0.025 0.03790849673202614
0 0.7264705882352941 0.5098039215686274 0.006617647058823529 0.03790849673202614
0 0.7448529411764706 0.5398692810457516 0.013235294117647059 0.06797385620915032
