1 0.06323529411764706 0.6457516339869281 0.11691176470588235 0.10065359477124183
1 0.20073529411764707 0.5777777777777777 0.058823529411764705 0.08235294117647059
0 0.22205882352941175 0.5777777777777777 0.013235294117647059 0.05359477124183006
0 0.1536764705882353 0.5699346405228758 0.0125 0.054901960784313725
0 0.11470588235294117 0.47843137254901963 0.011764705882352941 0.0392156862745098
0 0.008088235294117648 0.9594771241830066 0.015441176470588236 0.0718954248366013
1 0.24191176470588235 0.4143790849673203 0.04926470588235294 0.0457516339869281
1 0.39191176470588235 0.2627450980392157 0.016176470588235296 0.02483660130718954
0 0.38529411764705884 0.2457516339869281 0.0029411764705882353 0.0196078431372549
1 0.4036764705882353 0.24313725490196078 0.01764705882352941 0.026143790849673203
1 0.4213235294117647 0.21568627450980393 0.013235294117647059 0.02091503267973856
1 0.39044117647058824 0.2261437908496732 0.023529411764705882 0.023529411764705882
1 0.4102941176470588 0.21045751633986928 0.013235294117647059 0.018300653594771243
1 0.43970588235294117 0.1803921568627451 0.008823529411764706 0.013071895424836602
1 0.45 0.1803921568627451 0.009558823529411765 0.01437908496732026
1 0.44926470588235295 0.16732026143790849 0.008088235294117648 0.011764705882352941
1 0.45588235294117646 0.15947712418300652 0.007352941176470588 0.013071895424836602
1 0.4676470588235294 0.13986928104575164 0.007352941176470588 0.009150326797385621
1 0.4727941176470588 0.13071895424836602 0.0058823529411764705 0.009150326797385621
0 0.5676470588235294 0.1568627450980392 0.0029411764705882353 0.01437908496732026
0 0.5852941176470589 0.18823529411764706 0.015441176470588236 0.02483660130718954
0 0.5875 0.21045751633986928 0.003676470588235294 0.01699346405228758
1 0.6176470588235294 0.25620915032679736 0.0125 0.023529411764705882
1 0.6183823529411765 0.24836601307189543 0.020588235294117647 0.023529411764705882
0 0.5948529411764706 0.23006535947712417 0.0029411764705882353 0.01437908496732026
1 0.5941176470588235 0.23660130718954248 0.003676470588235294 0.011764705882352941
1 0.6220588235294118 0.27712418300653596 0.022058823529411766 0.026143790849673203
1 0.6301470588235294 0.3032679738562091 0.01911764705882353 0.026143790849673203
1 0.6448529411764706 0.3111111111111111 0.02426470588235294 0.02875816993464052
0 0.638235294117647 0.3176470588235294 0.004411764705882353 0.026143790849673203
0 0.6139705882352942 0.3045751633986928 0.0058823529411764705 0.02091503267973856
1 0.6139705882352942 0.30980392156862746 0.0058823529411764705 0.01568627450980392
1 0.6845588235294118 0.39477124183006534 0.045588235294117645 0.032679738562091505
1 0.6823529411764706 0.4235294117647059 0.030882352941176472 0.0392156862745098
0 0.7602941176470588 0.4470588235294118 0.0058823529411764705 0.036601307189542485
0 0.7676470588235295 0.4444444444444444 0.008088235294117648 0.0392156862745098
1 0.7705882352941177 0.45098039215686275 0.011764705882352941 0.023529411764705882
1 0.7375 0.4418300653594771 0.022058823529411766 0.023529411764705882
1 0.7514705882352941 0.39215686274509803 0.011764705882352941 0.022222222222222223
1 0.7294117647058823 0.4915032679738562 0.06397058823529411 0.04183006535947712
1 0.7191176470588235 0.5320261437908497 0.04338235294117647 0.054901960784313725
1 0.7595588235294117 0.5934640522875817 0.05367647058823529 0.0915032679738562
1 0.7970588235294118 0.6745098039215687 0.06323529411764706 0.10718954248366012
1 0.9066176470588235 0.6849673202614379 0.08897058823529412 0.07058823529411765
1 0.8823529411764706 0.6444444444444445 0.10073529411764706 0.05620915032679739
1 0.9375 0.9581699346405229 0.09117647058823529 0.08235294117647059
1 0.625 0.6444444444444445 0.04191176470588235 0.07450980392156863
1 0.5066176470588235 0.665359477124183 0.041176470588235294 0.10980392156862745
1 0.5411764705882353 0.4718954248366013 0.05955882352941176 0.06535947712418301
0 0.6205882352941177 0.5254901960784314 0.008088235294117648 0.0457516339869281
0 0.6176470588235294 0.5176470588235295 0.008088235294117648 0.043137254901960784
1 0.4294117647058823 0.4130718954248366 0.027205882352941177 0.047058823529411764
1 0.46911764705882353 0.3869281045751634 0.022058823529411766 0.05620915032679739
1 0.42573529411764705 0.3254901960784314 0.006617647058823529 0.0196078431372549
0 0.42573529411764705 0.3202614379084967 0.0058823529411764705 0.02091503267973856
0 0.4345588235294118 0.3058823529411765 0.008088235294117648 0.027450980392156862
1 0.43676470588235294 0.30980392156862746 0.004411764705882353 0.02091503267973856
1 0.5154411764705882 0.3464052287581699 0.022058823529411766 0.03398692810457516
1 0.5536764705882353 0.3464052287581699 0.020588235294117647 0.03137254901960784
1 0.5705882352941176 0.30980392156862746 0.016911764705882352 0.027450980392156862
1 0.5602941176470588 0.26143790849673204 0.016176470588235296 0.022222222222222223
1 0.5198529411764706 0.27320261437908494 0.015441176470588236 0.023529411764705882
1 0.4904411764705882 0.24444444444444444 0.013970588235294118 0.030065359477124184
1 0.4661764705882353 0.2196078431372549 0.0125 0.0196078431372549
1 0.5213235294117647 0.2496732026143791 0.0125 0.0196078431372549
1 0.5235294117647059 0.23398692810457516 0.013235294117647059 0.022222222222222223
1 0.524264705882353 0.21830065359477124 0.011029411764705883 0.01699346405228758
1 0.4948529411764706 0.2130718954248366 0.0125 0.0196078431372549
1 0.4698529411764706 0.20915032679738563 0.0125 0.022222222222222223
1 0.4764705882352941 0.19215686274509805 0.01838235294117647 0.013071895424836602
1 0.49411764705882355 0.19084967320261437 0.009558823529411765 0.01437908496732026
1 0.5014705882352941 0.20261437908496732 0.010294117647058823 0.01699346405228758
1 0.5220588235294118 0.2065359477124183 0.011764705882352941 0.01568627450980392
1 0.524264705882353 0.19084967320261437 0.010294117647058823 0.01437908496732026
0 0.5117647058823529 0.2065359477124183 0.0029411764705882353 0.018300653594771243
0 0.5477941176470589 0.2496732026143791 0.004411764705882353 0.01568627450980392
1 0.5477941176470589 0.25620915032679736 0.004411764705882353 0.011764705882352941
1 0.5573529411764706 0.23006535947712417 0.0125 0.023529411764705882
0 0.5397058823529411 0.20130718954248367 0.0029411764705882353 0.01045751633986928
1 0.5389705882352941 0.2065359477124183 0.0022058823529411764 0.009150326797385621
0 0.5360294117647059 0.19215686274509805 0.0029411764705882353 0.01045751633986928
1 0.5352941176470588 0.19738562091503267 0.0022058823529411764 0.009150326797385621
1 0.5654411764705882 0.21437908496732025 0.025735294117647058 0.01568627450980392
1 0.5529411764705883 0.2065359477124183 0.011764705882352941 0.01437908496732026
1 0.5485294117647059 0.1934640522875817 0.009558823529411765 0.01437908496732026
1 0.5227941176470589 0.16862745098039217 0.008823529411764706 0.01568627450980392
1 0.5014705882352941 0.16862745098039217 0.008088235294117648 0.01045751633986928
1 0.5058823529411764 0.1568627450980392 0.007352941176470588 0.01568627450980392
0 0.4838235294117647 0.16339869281045752 0.0029411764705882353 0.00784313725490196
1 0.4838235294117647 0.16732026143790849 0.003676470588235294 0.006535947712418301
1 0.4889705882352941 0.15294117647058825 0.008088235294117648 0.011764705882352941
1 0.4970588235294118 0.15555555555555556 0.0029411764705882353 0.00784313725490196
0 0.4970588235294118 0.15163398692810456 0.003676470588235294 0.009150326797385621
1 0.5051470588235294 0.13333333333333333 0.006617647058823529 0.011764705882352941
1 0.525 0.1411764705882353 0.006617647058823529 0.009150326797385621
1 0.9735294117647059 0.7633986928104575 0.05220588235294118 0.07581699346405228
1 0.15735294117647058 0.4888888888888889 0.025 0.036601307189542485
0 0.7441176470588236 0.4 0.006617647058823529 0.03529411764705882
1 0.6397058823529411 0.2758169934640523 0.0125 0.01437908496732026
1 0.5433823529411764 0.14901960784313725 0.008088235294117648 0.01045751633986928
0 0.5375 0.15163398692810456 0.0022058823529411764 0.00784313725490196
1 0.5375 0.1542483660130719 0.0029411764705882353 0.006535947712418301
