1 0.03676470588235294 0.7333333333333333 0.07426470588235294 0.13333333333333333
1 0.48161764705882354 0.46405228758169936 0.1036764705882353 0.15294117647058825
1 0.5205882352941177 0.30718954248366015 0.08897058823529412 0.10196078431372549
1 0.5404411764705882 0.23921568627450981 0.0838235294117647 0.07058823529411765
1 0.7985294117647059 0.2130718954248366 0.075 0.07973856209150326
1 0.8948529411764706 0.0718954248366013 0.060294117647058824 0.0718954248366013
1 0.020588235294117647 0.10718954248366012 0.041176470588235294 0.0784313725490196
0 0.17573529411764705 0.2784313725490196 0.016911764705882352 0.06666666666666667
0 0.23970588235294119 0.396078431372549 0.01838235294117647 0.05228758169934641
1 0.24044117647058824 0.4117647058823529 0.04264705882352941 0.05359477124183006
1 0.6639705882352941 0.043137254901960784 0.057352941176470586 0.06928104575163399
1 0.7720588235294118 0.011764705882352941 0.04191176470588235 0.02483660130718954
0 0.7463235294117647 0.5856209150326798 0.020588235294117647 0.05620915032679739
1 0.7448529411764706 0.6 0.03455882352941177 0.06143790849673202
