0 0.190625 0.7074074074074074 0.07708333333333334 0.24814814814814815
0 0.36875 0.8648148148148148 0.06770833333333333 0.26851851851851855
0 0.58125 0.5981481481481481 0.07291666666666667 0.21481481481481482
0 0.6947916666666667 0.7166666666666667 0.05520833333333333 0.27037037037037037
0 0.85625 0.8388888888888889 0.084375 0.3148148148148148
0 0.7979166666666667 0.7537037037037037 0.090625 0.2537037037037037
0 0.9677083333333333 0.5166666666666667 0.041666666666666664 0.11666666666666667
0 0.91875 0.5037037037037037 0.04583333333333333 0.1
0 0.47291666666666665 0.34074074074074073 0.03125 0.1388888888888889
0 0.84375 0.31296296296296294 0.03333333333333333 0.14814814814814814
0 0.9291666666666667 0.34814814814814815 0.03229166666666667 0.1537037037037037
0 0.953125 0.30925925925925923 0.034375 0.15
0 0.965625 0.2962962962962963 0.040625 0.13703703703703704
0 0.853125 0.28703703703703703 0.027083333333333334 0.13148148148148148
0 0.8208333333333333 0.2537037037037037 0.029166666666666667 0.1111111111111111
0 0.9770833333333333 0.25 0.03229166666666667 0.1111111111111111
0 0.9260416666666667 0.2574074074074074 0.0375 0.11481481481481481
0 0.9052083333333333 0.22962962962962963 0.03125 0.11666666666666667
0 0.9864583333333333 0.2518518518518518 0.026041666666666668 0.10740740740740741
0 0.16979166666666667 0.34074074074074073 0.030208333333333334 0.06666666666666667
0 0.17708333333333334 0.35 0.014583333333333334 0.046296296296296294
0 0.22395833333333334 0.3277777777777778 0.0375 0.14814814814814814
0 0.19375 0.3111111111111111 0.021875 0.0962962962962963
0 0.253125 0.3074074074074074 0.030208333333333334 0.13703703703703704
0 0.3177083333333333 0.24259259259259258 0.020833333333333332 0.10185185185185185
0 0.23958333333333334 0.31666666666666665 0.0125 0.05
0 0.26979166666666665 0.29259259259259257 0.026041666666666668 0.07222222222222222
0 0.0125 0.2074074074074074 0.025 0.0962962962962963
1 0.18125 0.1648148148148148 0.013541666666666667 0.044444444444444446
0 0.5802083333333333 0.15185185185185185 0.013541666666666667 0.08148148148148149
0 0.496875 0.11481481481481481 0.014583333333333334 0.06481481481481481
0 0.246875 0.20555555555555555 0.019791666666666666 0.09259259259259259
0 0.0625 0.08888888888888889 0.01875 0.05740740740740741
0 0.15208333333333332 0.10185185185185185 0.017708333333333333 0.06111111111111111
0 0.24375 0.08518518518518518 0.016666666666666666 0.04814814814814815
0 0.22083333333333333 0.17407407407407408 0.01875 0.08333333333333333
0 0.23645833333333333 0.17222222222222222 0.014583333333333334 0.08888888888888889
0 0.24791666666666667 0.1574074074074074 0.023958333333333335 0.07777777777777778
0 0.26145833333333335 0.15185185185185185 0.016666666666666666 0.08148148148148149
0 0.278125 0.17592592592592593 0.03333333333333333 0.08888888888888889
0 0.32916666666666666 0.13703703703703704 0.009375 0.05555555555555555
0 0.328125 0.15 0.026041666666666668 0.07037037037037037
0 0.3260416666666667 0.15555555555555556 0.01875 0.08333333333333333
0 0.32916666666666666 0.09814814814814815 0.010416666666666666 0.05185185185185185
0 0.3541666666666667 0.10185185185185185 0.013541666666666667 0.046296296296296294
0 0.365625 0.10185185185185185 0.016666666666666666 0.046296296296296294
0 0.403125 0.09259259259259259 0.008333333333333333 0.03518518518518519
0 0.43020833333333336 0.08888888888888889 0.014583333333333334 0.06111111111111111
0 0.45729166666666665 0.09444444444444444 0.011458333333333333 0.05555555555555555
0 0.4895833333333333 0.08888888888888889 0.0125 0.05925925925925926
0 0.5020833333333333 0.09074074074074075 0.010416666666666666 0.05740740740740741
0 0.55 0.09444444444444444 0.011458333333333333 0.05925925925925926
0 0.5760416666666667 0.10185185185185185 0.016666666666666666 0.06296296296296296
0 0.8552083333333333 0.1 0.023958333333333335 0.06111111111111111
0 0.8958333333333334 0.11296296296296296 0.017708333333333333 0.07037037037037037
0 0.9083333333333333 0.11666666666666667 0.015625 0.06851851851851852
0 0.9291666666666667 0.11851851851851852 0.016666666666666666 0.06481481481481481
0 0.928125 0.12407407407407407 0.017708333333333333 0.06851851851851852
1 0.9875 0.09259259259259259 0.025 0.040740740740740744
1 0.9375 0.08333333333333333 0.01875 0.037037037037037035
1 0.846875 0.08333333333333333 0.011458333333333333 0.03518518518518519
1 0.9177083333333333 0.09074074074074075 0.010416666666666666 0.03333333333333333
1 0.9010416666666666 0.08703703703703704 0.017708333333333333 0.03333333333333333
1 0.803125 0.07777777777777778 0.016666666666666666 0.044444444444444446
0 0.7677083333333333 0.07407407407407407 0.007291666666666667 0.040740740740740744
0 0.759375 0.07037037037037037 0.008333333333333333 0.046296296296296294
1 0.7572916666666667 0.06666666666666667 0.03229166666666667 0.04814814814814815
1 0.7208333333333333 0.07777777777777778 0.0125 0.037037037037037035
1 0.725 0.053703703703703705 0.03229166666666667 0.03333333333333333
1 0.696875 0.07222222222222222 0.013541666666666667 0.03888888888888889
1 0.6854166666666667 0.053703703703703705 0.029166666666666667 0.03333333333333333
1 0.68125 0.07592592592592592 0.008333333333333333 0.02962962962962963
1 0.6666666666666666 0.07222222222222222 0.013541666666666667 0.03148148148148148
1 0.6395833333333333 0.07037037037037037 0.010416666666666666 0.03518518518518519
1 0.6302083333333334 0.07222222222222222 0.009375 0.03148148148148148
1 0.6208333333333333 0.07222222222222222 0.011458333333333333 0.03333333333333333
1 0.6083333333333333 0.07037037037037037 0.013541666666666667 0.027777777777777776
1 0.5864583333333333 0.06666666666666667 0.016666666666666666 0.03148148148148148
1 0.565625 0.06666666666666667 0.017708333333333333 0.03333333333333333
