1 0.7308823529411764 0.9411764705882353 0.08970588235294118 0.11764705882352941
1 0.7316176470588235 0.6431372549019608 0.08014705882352942 0.0915032679738562
1 0.6647058823529411 0.6797385620915033 0.08088235294117647 0.10065359477124183
1 0.8360294117647059 0.534640522875817 0.0713235294117647 0.08496732026143791
1 0.5404411764705882 0.4496732026143791 0.0661764705882353 0.06405228758169934
1 0.6213235294117647 0.41568627450980394 0.06544117647058824 0.05751633986928104
1 0.611764705882353 0.3764705882352941 0.06544117647058824 0.05359477124183006
1 0.7110294117647059 0.3712418300653595 0.07279411764705883 0.06666666666666667
1 0.6963235294117647 0.3411764705882353 0.05661764705882353 0.054901960784313725
1 0.7801470588235294 0.3516339869281046 0.057352941176470586 0.04967320261437908
1 0.8375 0.23529411764705882 0.041176470588235294 0.03790849673202614
1 0.7801470588235294 0.23137254901960785 0.04632352941176471 0.03529411764705882
1 0.7933823529411764 0.22091503267973855 0.03602941176470588 0.047058823529411764
1 0.8095588235294118 0.21437908496732025 0.03823529411764706 0.040522875816993466
1 0.8397058823529412 0.20392156862745098 0.03455882352941177 0.030065359477124184
1 0.8705882352941177 0.19607843137254902 0.033823529411764704 0.03398692810457516
1 0.8919117647058824 0.19084967320261437 0.03161764705882353 0.030065359477124184
1 0.9022058823529412 0.21437908496732025 0.030147058823529412 0.02483660130718954
0 0.8352941176470589 0.16732026143790849 0.006617647058823529 0.02875816993464052
0 0.8147058823529412 0.16862745098039217 0.006617647058823529 0.027450980392156862
1 0.725 0.23790849673202613 0.03897058823529412 0.040522875816993466
1 0.6198529411764706 0.26143790849673204 0.039705882352941174 0.0457516339869281
0 0.6698529411764705 0.2797385620915033 0.008823529411764706 0.03529411764705882
0 0.6529411764705882 0.269281045751634 0.006617647058823529 0.036601307189542485
0 0.6316176470588235 0.2758169934640523 0.0058823529411764705 0.02875816993464052
0 0.6338235294117647 0.28366013071895424 0.006617647058823529 0.023529411764705882
0 0.6132352941176471 0.2784313725490196 0.0058823529411764705 0.023529411764705882
1 0.6110294117647059 0.30196078431372547 0.051470588235294115 0.04183006535947712
1 0.586764705882353 0.3464052287581699 0.05073529411764706 0.06143790849673202
1 0.5551470588235294 0.2875816993464052 0.04852941176470588 0.040522875816993466
1 0.5183823529411765 0.28888888888888886 0.03823529411764706 0.0457516339869281
1 0.47205882352941175 0.28888888888888886 0.010294117647058823 0.026143790849673203
0 0.5522058823529412 0.33464052287581697 0.011764705882352941 0.04183006535947712
0 0.5345588235294118 0.31241830065359477 0.010294117647058823 0.02091503267973856
1 0.5352941176470588 0.32287581699346407 0.03161764705882353 0.03790849673202614
1 0.5139705882352941 0.3333333333333333 0.03161764705882353 0.04183006535947712
0 0.5036764705882353 0.33725490196078434 0.008088235294117648 0.032679738562091505
1 0.4823529411764706 0.38300653594771245 0.05955882352941176 0.06797385620915032
0 0.39558823529411763 0.2718954248366013 0.008088235294117648 0.03398692810457516
1 0.43823529411764706 0.3281045751633987 0.019852941176470587 0.023529411764705882
1 0.425 0.3215686274509804 0.01764705882352941 0.02875816993464052
1 0.4051470588235294 0.3137254901960784 0.01764705882352941 0.027450980392156862
1 0.4147058823529412 0.30196078431372547 0.01911764705882353 0.023529411764705882
1 0.3889705882352941 0.33725490196078434 0.007352941176470588 0.027450980392156862
1 0.4227941176470588 0.3660130718954248 0.030882352941176472 0.044444444444444446
0 0.4125 0.3738562091503268 0.009558823529411765 0.03137254901960784
0 0.3963235294117647 0.3764705882352941 0.011764705882352941 0.04183006535947712
0 0.3860294117647059 0.3843137254901961 0.009558823529411765 0.0457516339869281
0 0.3816176470588235 0.3790849673202614 0.007352941176470588 0.03790849673202614
1 0.3926470588235294 0.37516339869281046 0.027205882352941177 0.0392156862745098
1 0.35955882352941176 0.3437908496732026 0.027941176470588237 0.027450980392156862
0 0.36911764705882355 0.28104575163398693 0.009558823529411765 0.027450980392156862
0 0.375 0.28104575163398693 0.008088235294117648 0.026143790849673203
1 0.36176470588235293 0.38169934640522873 0.030882352941176472 0.040522875816993466
0 0.3573529411764706 0.39477124183006534 0.008823529411764706 0.04183006535947712
0 0.34558823529411764 0.403921568627451 0.008823529411764706 0.044444444444444446
0 0.33676470588235297 0.403921568627451 0.009558823529411765 0.04183006535947712
0 0.31323529411764706 0.39477124183006534 0.010294117647058823 0.0392156862745098
1 0.29705882352941176 0.4169934640522876 0.020588235294117647 0.0457516339869281
1 0.2911764705882353 0.3869281045751634 0.025735294117647058 0.04183006535947712
0 0.2985294117647059 0.3803921568627451 0.007352941176470588 0.027450980392156862
0 0.27647058823529413 0.30196078431372547 0.008088235294117648 0.03790849673202614
0 0.2889705882352941 0.2954248366013072 0.008088235294117648 0.026143790849673203
1 0.3779411764705882 0.6941176470588235 0.10735294117647058 0.09673202614379085
0 0.23455882352941176 0.5176470588235295 0.015441176470588236 0.043137254901960784
1 0.23602941176470588 0.5320261437908497 0.039705882352941174 0.044444444444444446
0 0.763235294117647 0.8601307189542484 0.016176470588235296 0.07712418300653595
0 0.7911764705882353 0.8352941176470589 0.030882352941176472 0.050980392156862744
1 0.12205882352941176 0.538562091503268 0.0838235294117647 0.0718954248366013
1 0.10514705882352941 0.5281045751633987 0.07647058823529412 0.06535947712418301
1 0.09264705882352942 0.4326797385620915 0.06470588235294118 0.06928104575163399
1 0.009558823529411765 0.3503267973856209 0.01911764705882353 0.06666666666666667
0 0.1036764705882353 0.3137254901960784 0.010294117647058823 0.036601307189542485
0 0.11691176470588235 0.29150326797385623 0.008823529411764706 0.0392156862745098
0 0.23823529411764705 0.396078431372549 0.011764705882352941 0.03790849673202614
0 0.21470588235294116 0.43137254901960786 0.0125 0.043137254901960784
0 0.21176470588235294 0.4117647058823529 0.008823529411764706 0.040522875816993466
0 0.2 0.4326797385620915 0.013235294117647059 0.044444444444444446
1 0.19705882352941176 0.41830065359477125 0.022794117647058822 0.0457516339869281
1 0.1713235294117647 0.4130718954248366 0.03161764705882353 0.050980392156862744
0 0.15955882352941175 0.4235294117647059 0.011029411764705883 0.047058823529411764
0 0.13676470588235295 0.39869281045751637 0.009558823529411765 0.023529411764705882
0 0.14191176470588235 0.41568627450980394 0.011029411764705883 0.044444444444444446
0 0.15073529411764705 0.41568627450980394 0.011764705882352941 0.04967320261437908
1 0.14338235294117646 0.40522875816993464 0.023529411764705882 0.06274509803921569
0 0.1463235294117647 0.3686274509803922 0.013970588235294118 0.03790849673202614
0 0.15808823529411764 0.3516339869281046 0.008088235294117648 0.02091503267973856
0 0.15 0.35947712418300654 0.010294117647058823 0.026143790849673203
1 0.15661764705882353 0.3673202614379085 0.05073529411764706 0.0457516339869281
1 0.20147058823529412 0.30718954248366015 0.05514705882352941 0.05359477124183006
1 0.17426470588235293 0.2980392156862745 0.04338235294117647 0.043137254901960784
1 0.1463235294117647 0.28627450980392155 0.03897058823529412 0.047058823529411764
1 0.13676470588235295 0.20915032679738563 0.04926470588235294 0.030065359477124184
1 0.15661764705882353 0.2222222222222222 0.039705882352941174 0.03790849673202614
1 0.1375 0.19215686274509805 0.03676470588235294 0.03529411764705882
1 0.09411764705882353 0.15816993464052287 0.04632352941176471 0.0784313725490196
1 0.060294117647058824 0.1738562091503268 0.03235294117647059 0.027450980392156862
1 0.0713235294117647 0.12810457516339868 0.028676470588235293 0.02091503267973856
1 0.05808823529411765 0.09673202614379085 0.07941176470588235 0.05359477124183006
1 0.027941176470588237 0.05751633986928104 0.026470588235294117 0.023529411764705882
1 0.016911764705882352 0.03790849673202614 0.028676470588235293 0.0196078431372549
1 0.2338235294117647 0.3176470588235294 0.028676470588235293 0.0392156862745098
1 0.24411764705882352 0.3241830065359477 0.026470588235294117 0.03398692810457516
0 0.9257352941176471 0.9633986928104575 0.01764705882352941 0.07320261437908497
0 0.7073529411764706 0.28104575163398693 0.008088235294117648 0.02483660130718954
1 0.7073529411764706 0.2875816993464052 0.014705882352941176 0.022222222222222223
1 0.5816176470588236 0.22483660130718955 0.013970588235294118 0.02483660130718954
1 0.6073529411764705 0.2196078431372549 0.011764705882352941 0.022222222222222223
0 0.008088235294117648 0.08496732026143791 0.0058823529411764705 0.0196078431372549
0 0.0029411764705882353 0.11895424836601307 0.006617647058823529 0.023529411764705882
0 0.04632352941176471 0.15294117647058825 0.007352941176470588 0.018300653594771243
0 0.027941176470588237 0.13333333333333333 0.005147058823529412 0.023529411764705882
0 0.03235294117647059 0.13594771241830064 0.005147058823529412 0.027450980392156862
0 0.01911764705882353 0.12156862745098039 0.008088235294117648 0.01568627450980392
0 0.004411764705882353 0.06666666666666667 0.006617647058823529 0.0196078431372549
0 0.03676470588235294 0.0392156862745098 0.004411764705882353 0.01699346405228758
0 0.04191176470588235 0.03790849673202614 0.005147058823529412 0.01699346405228758
0 0.15441176470588236 0.2601307189542484 0.013235294117647059 0.02483660130718954
0 0.1661764705882353 0.2549019607843137 0.010294117647058823 0.02091503267973856
1 0.19411764705882353 0.25359477124183005 0.011029411764705883 0.02483660130718954
