0 0.109375 0.022222222222222223 0.020833333333333332 0.046296296296296294
0 0.17708333333333334 0.03888888888888889 0.023958333333333335 0.05555555555555555
0 0.07083333333333333 0.15185185185185185 0.015625 0.03148148148148148
0 0.078125 0.15185185185185185 0.026041666666666668 0.06296296296296296
0 0.07604166666666666 0.32037037037037036 0.027083333333333334 0.05740740740740741
0 0.09375 0.3 0.034375 0.07592592592592592
0 0.10520833333333333 0.4185185185185185 0.036458333333333336 0.06111111111111111
0 0.109375 0.387037037037037 0.034375 0.06851851851851852
0 0.29791666666666666 0.5351851851851852 0.027083333333333334 0.07037037037037037
0 0.73125 0.5537037037037037 0.019791666666666666 0.06296296296296296
0 0.3802083333333333 0.4425925925925926 0.017708333333333333 0.05925925925925926
0 0.39375 0.44074074074074077 0.019791666666666666 0.06666666666666667
0 0.775 0.025925925925925925 0.01875 0.053703703703703705
0 0.9708333333333333 0.022222222222222223 0.022916666666666665 0.046296296296296294
0 0.9854166666666667 0.024074074074074074 0.021875 0.05
0 0.8260416666666667 0.1814814814814815 0.015625 0.044444444444444446
1 0.821875 0.19814814814814816 0.021875 0.05555555555555555
