1 0.20588235294117646 0.0718954248366013 0.033823529411764704 0.026143790849673203
1 0.04852941176470588 0.2065359477124183 0.039705882352941174 0.047058823529411764
1 0.20808823529411766 0.06143790849673202 0.030147058823529412 0.02483660130718954
0 0.27205882352941174 0.12679738562091503 0.006617647058823529 0.02483660130718954
1 0.27205882352941174 0.134640522875817 0.007352941176470588 0.018300653594771243
1 0.32279411764705884 0.0784313725490196 0.01838235294117647 0.02875816993464052
1 0.17647058823529413 0.38562091503267976 0.05073529411764706 0.10196078431372549
1 0.3514705882352941 0.06666666666666667 0.013970588235294118 0.02483660130718954
0 0.3551470588235294 0.036601307189542485 0.004411764705882353 0.01699346405228758
0 0.3514705882352941 0.036601307189542485 0.003676470588235294 0.018300653594771243
1 0.40441176470588236 0.03529411764705882 0.011029411764705883 0.02091503267973856
1 0.3625 0.10588235294117647 0.01764705882352941 0.023529411764705882
1 0.6433823529411765 0.9176470588235294 0.12205882352941176 0.13333333333333333
0 0.44926470588235295 0.24313725490196078 0.008088235294117648 0.026143790849673203
1 0.44926470588235295 0.25882352941176473 0.007352941176470588 0.02875816993464052
1 0.4698529411764706 0.26143790849673204 0.021323529411764706 0.044444444444444446
1 0.4713235294117647 0.30718954248366015 0.022794117647058822 0.0457516339869281
1 0.4661764705882353 0.35555555555555557 0.023529411764705882 0.047058823529411764
1 0.44338235294117645 0.40522875816993464 0.03308823529411765 0.05620915032679739
1 0.4786764705882353 0.4928104575163399 0.04338235294117647 0.07320261437908497
1 0.4985294117647059 0.5699346405228758 0.054411764705882354 0.09542483660130718
1 0.47941176470588237 0.6797385620915033 0.045588235294117645 0.09934640522875816
1 0.6058823529411764 0.6143790849673203 0.09852941176470588 0.07320261437908497
1 0.6036764705882353 0.6627450980392157 0.08897058823529412 0.06797385620915032
0 0.5375 0.6209150326797386 0.008823529411764706 0.0457516339869281
0 0.5441176470588235 0.596078431372549 0.008088235294117648 0.054901960784313725
0 0.5573529411764706 0.596078431372549 0.011029411764705883 0.05228758169934641
0 0.5955882352941176 0.5869281045751634 0.011764705882352941 0.04967320261437908
1 0.5970588235294118 0.5241830065359477 0.10661764705882353 0.07712418300653595
1 0.5713235294117647 0.44575163398692813 0.0838235294117647 0.06797385620915032
0 0.6205882352941177 0.4496732026143791 0.009558823529411765 0.050980392156862744
1 0.5948529411764706 0.09019607843137255 0.03529411764705882 0.026143790849673203
1 0.6022058823529411 0.10457516339869281 0.03897058823529412 0.027450980392156862
1 0.6051470588235294 0.12026143790849673 0.03676470588235294 0.023529411764705882
1 0.6485294117647059 0.16601307189542483 0.019852941176470587 0.02091503267973856
1 0.6294117647058823 0.2522875816993464 0.030147058823529412 0.050980392156862744
0 0.6845588235294118 0.27320261437908494 0.007352941176470588 0.040522875816993466
0 0.675 0.269281045751634 0.008823529411764706 0.0392156862745098
1 0.6272058823529412 0.7542483660130719 0.2625 0.24444444444444444
0 0.7838235294117647 0.3176470588235294 0.007352941176470588 0.040522875816993466
1 0.7198529411764706 0.32287581699346407 0.06911764705882353 0.048366013071895426
1 0.7573529411764706 0.39477124183006534 0.08014705882352942 0.06274509803921569
1 0.7852941176470588 0.44313725490196076 0.08161764705882353 0.06928104575163399
0 0.7963235294117647 0.3660130718954248 0.011764705882352941 0.027450980392156862
0 0.8610294117647059 0.8130718954248366 0.021323529411764706 0.0784313725490196
0 0.8764705882352941 0.6823529411764706 0.021323529411764706 0.0718954248366013
0 0.8492647058823529 0.6627450980392157 0.021323529411764706 0.0718954248366013
0 0.8154411764705882 0.6784313725490196 0.016911764705882352 0.06666666666666667
1 0.9470588235294117 0.7555555555555555 0.10514705882352941 0.09803921568627451
1 0.9786764705882353 0.9111111111111111 0.041176470588235294 0.17647058823529413
