0 0.4197916666666667 0.6907407407407408 0.01875 0.08703703703703704
0 0.421875 0.6648148148148149 0.011458333333333333 0.040740740740740744
0 0.38333333333333336 0.5944444444444444 0.022916666666666665 0.08518518518518518
0 0.44479166666666664 0.3814814814814815 0.011458333333333333 0.05555555555555555
0 0.45416666666666666 0.37777777777777777 0.010416666666666666 0.05740740740740741
0 0.42916666666666664 0.17407407407407408 0.005208333333333333 0.024074074074074074
0 0.4041666666666667 0.17962962962962964 0.005208333333333333 0.03333333333333333
0 0.41041666666666665 0.17962962962962964 0.00625 0.03333333333333333
0 0.41041666666666665 0.16111111111111112 0.007291666666666667 0.027777777777777776
