1 0.5911764705882353 0.8313725490196079 0.05367647058823529 0.13725490196078433
1 0.2757352941176471 0.7830065359477124 0.04632352941176471 0.08758169934640522
1 0.2977941176470588 0.6692810457516339 0.03455882352941177 0.06797385620915032
1 0.1889705882352941 0.5633986928104575 0.033823529411764704 0.05228758169934641
1 0.16029411764705884 0.5542483660130719 0.030147058823529412 0.044444444444444446
1 0.11985294117647059 0.5633986928104575 0.0375 0.03790849673202614
1 0.16397058823529412 0.5359477124183006 0.04191176470588235 0.03398692810457516
1 0.575 0.4169934640522876 0.011764705882352941 0.018300653594771243
1 0.5661764705882353 0.39738562091503266 0.009558823529411765 0.01568627450980392
1 0.5735294117647058 0.38300653594771245 0.008823529411764706 0.013071895424836602
1 0.5911764705882353 0.3908496732026144 0.0058823529411764705 0.018300653594771243
1 0.5889705882352941 0.3738562091503268 0.009558823529411765 0.01568627450980392
1 0.575735294117647 0.33986928104575165 0.04485294117647059 0.02875816993464052
1 0.5352941176470588 0.34901960784313724 0.027205882352941177 0.02091503267973856
1 0.4933823529411765 0.3503267973856209 0.022058823529411766 0.013071895424836602
1 0.4404411764705882 0.33986928104575165 0.011764705882352941 0.01568627450980392
1 0.39558823529411763 0.33464052287581697 0.033823529411764704 0.02483660130718954
1 0.4264705882352941 0.3281045751633987 0.011764705882352941 0.011764705882352941
1 0.4235294117647059 0.3215686274509804 0.0125 0.011764705882352941
1 0.4139705882352941 0.3058823529411765 0.007352941176470588 0.009150326797385621
1 0.3985294117647059 0.31241830065359477 0.008823529411764706 0.026143790849673203
1 0.3875 0.30718954248366015 0.0058823529411764705 0.009150326797385621
1 0.3941176470588235 0.2928104575163399 0.005147058823529412 0.009150326797385621
1 0.46176470588235297 0.3202614379084967 0.013235294117647059 0.01045751633986928
1 0.4536764705882353 0.3241830065359477 0.014705882352941176 0.011764705882352941
1 0.5683823529411764 0.32287581699346407 0.028676470588235293 0.018300653594771243
1 0.2 0.4522875816993464 0.01764705882352941 0.032679738562091505
1 0.2338235294117647 0.403921568627451 0.016911764705882352 0.030065359477124184
1 0.2647058823529412 0.3764705882352941 0.022058823529411766 0.018300653594771243
1 0.28161764705882353 0.4745098039215686 0.05661764705882353 0.03529411764705882
1 0.2772058823529412 0.4562091503267974 0.04264705882352941 0.02091503267973856
1 0.2838235294117647 0.44575163398692813 0.033823529411764704 0.02091503267973856
1 0.29558823529411765 0.43529411764705883 0.03235294117647059 0.026143790849673203
1 0.3 0.4261437908496732 0.03308823529411765 0.027450980392156862
1 0.3088235294117647 0.40261437908496733 0.0375 0.03137254901960784
1 0.31691176470588234 0.3633986928104575 0.013235294117647059 0.030065359477124184
1 0.16470588235294117 0.4954248366013072 0.013235294117647059 0.018300653594771243
1 0.09117647058823529 0.5777777777777777 0.019852941176470587 0.022222222222222223
1 0.013235294117647059 0.5934640522875817 0.026470588235294117 0.023529411764705882
1 0.3411764705882353 0.3477124183006536 0.057352941176470586 0.026143790849673203
1 0.3235294117647059 0.32941176470588235 0.039705882352941174 0.02875816993464052
1 0.40955882352941175 0.27450980392156865 0.003676470588235294 0.00784313725490196
1 0.34191176470588236 0.29411764705882354 0.005147058823529412 0.00784313725490196
1 0.34411764705882353 0.2875816993464052 0.007352941176470588 0.006535947712418301
1 0.06397058823529411 0.677124183006536 0.016176470588235296 0.02875816993464052
