0 0.8197916666666667 0.9388888888888889 0.014583333333333334 0.04259259259259259
1 0.8197916666666667 0.9444444444444444 0.016666666666666666 0.06481481481481481
1 0.22395833333333334 0.5537037037037037 0.171875 0.16666666666666666
1 0.24166666666666667 0.26296296296296295 0.020833333333333332 0.018518518518518517
1 0.49375 0.37777777777777777 0.023958333333333335 0.025925925925925925
0 0.571875 0.337037037037037 0.004166666666666667 0.018518518518518517
1 0.5708333333333333 0.3425925925925926 0.005208333333333333 0.014814814814814815
1 0.6083333333333333 0.2537037037037037 0.016666666666666666 0.022222222222222223
1 0.646875 0.2722222222222222 0.014583333333333334 0.018518518518518517
0 0.5864583333333333 0.23148148148148148 0.004166666666666667 0.014814814814814815
1 0.5916666666666667 0.2388888888888889 0.010416666666666666 0.020370370370370372
1 0.5510416666666667 0.2388888888888889 0.035416666666666666 0.05
1 0.5583333333333333 0.18518518518518517 0.007291666666666667 0.011111111111111112
1 0.515625 0.17962962962962964 0.013541666666666667 0.012962962962962963
1 0.5770833333333333 0.21296296296296297 0.015625 0.012962962962962963
1 0.6010416666666667 0.18703703703703703 0.015625 0.012962962962962963
1 0.60625 0.18518518518518517 0.017708333333333333 0.012962962962962963
1 0.5875 0.19814814814814816 0.020833333333333332 0.014814814814814815
0 0.7166666666666667 0.18888888888888888 0.003125 0.011111111111111112
1 0.7322916666666667 0.15185185185185185 0.008333333333333333 0.011111111111111112
1 0.7302083333333333 0.2222222222222222 0.014583333333333334 0.012962962962962963
1 0.7354166666666667 0.21851851851851853 0.011458333333333333 0.011111111111111112
1 0.740625 0.21481481481481482 0.013541666666666667 0.011111111111111112
1 0.6927083333333334 0.13703703703703704 0.013541666666666667 0.007407407407407408
1 0.7989583333333333 0.15925925925925927 0.013541666666666667 0.011111111111111112
1 0.9020833333333333 0.1574074074074074 0.014583333333333334 0.009259259259259259
1 0.8447916666666667 0.15185185185185185 0.013541666666666667 0.011111111111111112
1 0.7885416666666667 0.1388888888888889 0.009375 0.007407407407407408
1 0.8020833333333334 0.14444444444444443 0.009375 0.007407407407407408
1 0.8197916666666667 0.14444444444444443 0.01875 0.014814814814814815
1 0.7927083333333333 0.12222222222222222 0.008333333333333333 0.007407407407407408
0 0.7166666666666667 0.30925925925925923 0.003125 0.016666666666666666
