1 0.9595588235294118 0.21830065359477124 0.01838235294117647 0.0196078431372549
0 0.961764705882353 0.21176470588235294 0.009558823529411765 0.026143790849673203
1 0.7970588235294118 0.040522875816993466 0.041176470588235294 0.036601307189542485
1 0.7669117647058824 0.10196078431372549 0.025735294117647058 0.050980392156862744
0 0.7595588235294117 0.1411764705882353 0.009558823529411765 0.02875816993464052
1 0.7779411764705882 0.1869281045751634 0.05220588235294118 0.0457516339869281
1 0.8227941176470588 0.20522875816993463 0.0125 0.02875816993464052
0 0.8147058823529412 0.20915032679738563 0.009558823529411765 0.02875816993464052
0 0.8198529411764706 0.19084967320261437 0.008823529411764706 0.022222222222222223
1 0.9441176470588235 0.5124183006535947 0.06323529411764706 0.06143790849673202
1 0.8044117647058824 0.5490196078431373 0.06544117647058824 0.06535947712418301
1 0.6669117647058823 0.5398692810457516 0.0625 0.06797385620915032
1 0.6867647058823529 0.46797385620915033 0.06397058823529411 0.054901960784313725
1 0.8566176470588235 0.6222222222222222 0.06397058823529411 0.06797385620915032
1 0.9786764705882353 0.9647058823529412 0.04191176470588235 0.07058823529411765
1 0.5610294117647059 0.6601307189542484 0.08602941176470588 0.08104575163398693
1 0.4573529411764706 0.5071895424836601 0.10294117647058823 0.17516339869281045
1 0.3948529411764706 0.7660130718954249 0.05955882352941176 0.07320261437908497
1 0.175 0.7241830065359477 0.07720588235294118 0.08235294117647059
1 0.025 0.6196078431372549 0.05073529411764706 0.06405228758169934
1 0.01911764705882353 0.8 0.03823529411764706 0.06797385620915032
1 0.7139705882352941 0.26143790849673204 0.019852941176470587 0.022222222222222223
0 0.7154411764705882 0.2601307189542484 0.010294117647058823 0.02483660130718954
0 0.7213235294117647 0.2627450980392157 0.008823529411764706 0.023529411764705882
1 0.7242647058823529 0.16209150326797386 0.025735294117647058 0.040522875816993466
1 0.7095588235294118 0.10326797385620914 0.025735294117647058 0.05228758169934641
1 0.6904411764705882 0.13986928104575164 0.019852941176470587 0.0392156862745098
1 0.7176470588235294 0.0392156862745098 0.010294117647058823 0.026143790849673203
1 0.6970588235294117 0.040522875816993466 0.006617647058823529 0.023529411764705882
0 0.6507352941176471 0.01699346405228758 0.007352941176470588 0.02875816993464052
1 0.6617647058823529 0.10196078431372549 0.027205882352941177 0.06274509803921569
1 0.625 0.06666666666666667 0.041176470588235294 0.040522875816993466
1 0.6375 0.09281045751633987 0.028676470588235293 0.04967320261437908
1 0.5779411764705882 0.011764705882352941 0.029411764705882353 0.023529411764705882
0 0.5801470588235295 0.05228758169934641 0.007352941176470588 0.030065359477124184
0 0.5823529411764706 0.10718954248366012 0.005147058823529412 0.030065359477124184
1 0.6147058823529412 0.09673202614379085 0.007352941176470588 0.022222222222222223
1 0.6147058823529412 0.12679738562091503 0.010294117647058823 0.023529411764705882
0 0.6147058823529412 0.12026143790849673 0.005147058823529412 0.022222222222222223
0 0.6507352941176471 0.2 0.008088235294117648 0.02483660130718954
0 0.6183823529411765 0.1738562091503268 0.008823529411764706 0.026143790849673203
0 0.6345588235294117 0.1843137254901961 0.006617647058823529 0.02875816993464052
0 0.6235294117647059 0.20130718954248367 0.007352941176470588 0.027450980392156862
0 0.5904411764705882 0.20261437908496732 0.0058823529411764705 0.027450980392156862
0 0.5933823529411765 0.19215686274509805 0.006617647058823529 0.027450980392156862
0 0.6036764705882353 0.20261437908496732 0.0058823529411764705 0.02875816993464052
0 0.6051470588235294 0.19215686274509805 0.007352941176470588 0.030065359477124184
0 0.575735294117647 0.22875816993464052 0.0058823529411764705 0.027450980392156862
0 0.5705882352941176 0.2222222222222222 0.007352941176470588 0.030065359477124184
1 0.5345588235294118 0.2522875816993464 0.020588235294117647 0.047058823529411764
0 0.4904411764705882 0.2496732026143791 0.008823529411764706 0.030065359477124184
0 0.4904411764705882 0.24313725490196078 0.010294117647058823 0.02875816993464052
1 0.43014705882352944 0.16601307189542483 0.027205882352941177 0.06274509803921569
1 0.34558823529411764 0.4013071895424837 0.01838235294117647 0.02483660130718954
0 0.3426470588235294 0.396078431372549 0.009558823529411765 0.026143790849673203
0 0.33897058823529413 0.4 0.009558823529411765 0.022222222222222223
1 0.3426470588235294 0.3176470588235294 0.011029411764705883 0.03137254901960784
0 0.34338235294117647 0.30980392156862746 0.005147058823529412 0.026143790849673203
1 0.35294117647058826 0.3137254901960784 0.008823529411764706 0.02875816993464052
0 0.3514705882352941 0.3045751633986928 0.008088235294117648 0.026143790849673203
1 0.41911764705882354 0.04967320261437908 0.007352941176470588 0.03398692810457516
0 0.4198529411764706 0.047058823529411764 0.006617647058823529 0.023529411764705882
1 0.3536764705882353 0.09803921568627451 0.026470588235294117 0.06013071895424837
1 0.2823529411764706 0.08235294117647059 0.022794117647058822 0.058823529411764705
0 0.3352941176470588 0.07581699346405228 0.008088235294117648 0.03137254901960784
0 0.3286764705882353 0.06928104575163399 0.005147058823529412 0.03137254901960784
0 0.3338235294117647 0.011764705882352941 0.005147058823529412 0.02483660130718954
0 0.34558823529411764 0.01045751633986928 0.009558823529411765 0.022222222222222223
1 0.2875 0.01699346405228758 0.019852941176470587 0.03529411764705882
1 0.3154411764705882 0.07320261437908497 0.007352941176470588 0.026143790849673203
0 0.31470588235294117 0.06797385620915032 0.007352941176470588 0.027450980392156862
0 0.3176470588235294 0.06797385620915032 0.004411764705882353 0.022222222222222223
0 0.07941176470588235 0.45098039215686275 0.015441176470588236 0.03529411764705882
0 0.07794117647058824 0.4392156862745098 0.016911764705882352 0.030065359477124184
1 0.04485294117647059 0.4091503267973856 0.06911764705882353 0.050980392156862744
0 0.12941176470588237 0.32679738562091504 0.011029411764705883 0.03137254901960784
0 0.13676470588235295 0.3281045751633987 0.008823529411764706 0.026143790849673203
1 0.16323529411764706 0.29673202614379085 0.051470588235294115 0.04967320261437908
1 0.09044117647058823 0.3686274509803922 0.061764705882352944 0.04967320261437908
1 0.04264705882352941 0.34901960784313724 0.030882352941176472 0.02483660130718954
0 0.2639705882352941 0.027450980392156862 0.008088235294117648 0.02091503267973856
0 0.25073529411764706 0.05228758169934641 0.0058823529411764705 0.032679738562091505
1 0.26029411764705884 0.13202614379084968 0.01838235294117647 0.027450980392156862
1 0.17647058823529413 0.2222222222222222 0.013235294117647059 0.030065359477124184
0 0.009558823529411765 0.13986928104575164 0.013235294117647059 0.030065359477124184
0 0.0058823529411764705 0.11241830065359477 0.008088235294117648 0.032679738562091505
0 0.075 0.12810457516339868 0.011029411764705883 0.03137254901960784
0 0.07352941176470588 0.1437908496732026 0.009558823529411765 0.027450980392156862
1 0.12573529411764706 0.1843137254901961 0.008823529411764706 0.030065359477124184
1 0.13529411764705881 0.18823529411764706 0.008823529411764706 0.03137254901960784
1 0.1448529411764706 0.18823529411764706 0.009558823529411765 0.03398692810457516
1 0.15073529411764705 0.18823529411764706 0.006617647058823529 0.032679738562091505
1 0.1588235294117647 0.1869281045751634 0.008823529411764706 0.030065359477124184
1 0.2 0.24313725490196078 0.0375 0.047058823529411764
1 0.20661764705882352 0.23006535947712417 0.026470588235294117 0.03529411764705882
1 0.225 0.21176470588235294 0.03161764705882353 0.047058823529411764
1 0.24044117647058824 0.18823529411764706 0.03161764705882353 0.032679738562091505
1 0.2235294117647059 0.1411764705882353 0.014705882352941176 0.027450980392156862
0 0.2301470588235294 0.08235294117647059 0.0058823529411764705 0.0196078431372549
1 0.18382352941176472 0.14901960784313725 0.015441176470588236 0.030065359477124184
1 0.17352941176470588 0.16470588235294117 0.009558823529411765 0.03137254901960784
1 0.1698529411764706 0.1843137254901961 0.008823529411764706 0.032679738562091505
1 0.18823529411764706 0.19607843137254902 0.016176470588235296 0.030065359477124184
1 0.2088235294117647 0.10718954248366012 0.01764705882352941 0.02091503267973856
1 0.19191176470588237 0.09411764705882353 0.014705882352941176 0.01568627450980392
1 0.175 0.05359477124183006 0.013970588235294118 0.02483660130718954
1 0.18161764705882352 0.036601307189542485 0.013970588235294118 0.013071895424836602
1 0.2088235294117647 0.12156862745098039 0.014705882352941176 0.018300653594771243
1 0.17794117647058824 0.08758169934640522 0.013235294117647059 0.02091503267973856
1 0.17279411764705882 0.11503267973856209 0.013235294117647059 0.022222222222222223
1 0.19852941176470587 0.1477124183006536 0.013970588235294118 0.0196078431372549
1 0.2 0.15816993464052287 0.0125 0.023529411764705882
1 0.19338235294117648 0.11895424836601307 0.014705882352941176 0.02483660130718954
1 0.1889705882352941 0.12810457516339868 0.015441176470588236 0.018300653594771243
0 0.23602941176470588 0.011764705882352941 0.004411764705882353 0.02483660130718954
0 0.22647058823529412 0.013071895424836602 0.0058823529411764705 0.02091503267973856
1 0.2338235294117647 0.036601307189542485 0.016176470588235296 0.02091503267973856
1 0.23161764705882354 0.0457516339869281 0.013970588235294118 0.018300653594771243
1 0.2485294117647059 0.11372549019607843 0.014705882352941176 0.02091503267973856
0 0.24926470588235294 0.10980392156862745 0.004411764705882353 0.02875816993464052
1 0.21985294117647058 0.1843137254901961 0.014705882352941176 0.03398692810457516
0 0.1036764705882353 0.23137254901960785 0.008823529411764706 0.03529411764705882
