1 0.0546875 0.9842592592592593 0.08854166666666667 0.030555555555555555
0 0.11979166666666667 0.9287037037037037 0.011979166666666667 0.05648148148148148
1 0.12864583333333332 0.8222222222222222 0.05416666666666667 0.08055555555555556
1 0.6213541666666667 0.337037037037037 0.008854166666666666 0.017592592592592594
1 0.6067708333333334 0.33240740740740743 0.007291666666666667 0.017592592592592594
1 0.057291666666666664 0.8083333333333333 0.04739583333333333 0.075
0 0.19479166666666667 0.775 0.00625 0.03796296296296296
1 0.17760416666666667 0.8083333333333333 0.022916666666666665 0.03611111111111111
1 0.15625 0.7953703703703704 0.013020833333333334 0.05185185185185185
0 0.18802083333333333 0.7657407407407407 0.010416666666666666 0.041666666666666664
0 0.20260416666666667 0.7472222222222222 0.0078125 0.024074074074074074
0 0.21979166666666666 0.7388888888888889 0.016145833333333335 0.032407407407407406
0 0.2203125 0.7583333333333333 0.009375 0.025925925925925925
0 0.2390625 0.7657407407407407 0.011458333333333333 0.02962962962962963
0 0.2625 0.8527777777777777 0.010416666666666666 0.04814814814814815
0 0.2630208333333333 0.8638888888888889 0.008333333333333333 0.04814814814814815
0 0.27291666666666664 0.8629629629629629 0.008333333333333333 0.05185185185185185
1 0.278125 0.8537037037037037 0.0203125 0.04259259259259259
1 0.32708333333333334 0.825 0.0328125 0.07592592592592592
0 0.3463541666666667 0.8064814814814815 0.0078125 0.049074074074074076
1 0.5963541666666666 0.9740740740740741 0.028645833333333332 0.03611111111111111
1 0.5911458333333334 0.9583333333333334 0.03854166666666667 0.05092592592592592
1 0.5786458333333333 0.9148148148148149 0.06354166666666666 0.08425925925925926
1 0.5739583333333333 0.8379629629629629 0.03802083333333333 0.0824074074074074
1 0.5723958333333333 0.7824074074074074 0.033854166666666664 0.03981481481481482
1 0.5817708333333333 0.7638888888888888 0.027083333333333334 0.03148148148148148
0 0.38229166666666664 0.7944444444444444 0.008333333333333333 0.05185185185185185
1 0.5760416666666667 0.7268518518518519 0.0234375 0.03518518518518519
1 0.571875 0.7064814814814815 0.021875 0.025
0 0.56875 0.6925925925925925 0.008854166666666666 0.032407407407407406
1 0.5729166666666666 0.6842592592592592 0.03333333333333333 0.04722222222222222
0 0.5333333333333333 0.6944444444444444 0.007291666666666667 0.032407407407407406
1 0.5317708333333333 0.7092592592592593 0.008333333333333333 0.03333333333333333
0 0.38229166666666664 0.7157407407407408 0.0125 0.044444444444444446
1 0.38333333333333336 0.7203703703703703 0.014583333333333334 0.037037037037037035
0 0.5546875 0.6601851851851852 0.0067708333333333336 0.032407407407407406
1 0.5541666666666667 0.6148148148148148 0.015625 0.028703703703703703
1 0.5036458333333333 0.6342592592592593 0.026041666666666668 0.04814814814814815
1 0.45677083333333335 0.6157407407407407 0.025 0.06018518518518518
0 0.5088541666666667 0.562962962962963 0.005208333333333333 0.019444444444444445
1 0.5088541666666667 0.5731481481481482 0.005208333333333333 0.017592592592592594
0 0.45364583333333336 0.5601851851851852 0.0067708333333333336 0.020370370370370372
1 0.45260416666666664 0.5685185185185185 0.011458333333333333 0.028703703703703703
0 0.5484375 0.5148148148148148 0.007291666666666667 0.03148148148148148
0 0.5671875 0.549074074074074 0.005208333333333333 0.023148148148148147
1 0.5671875 0.5509259259259259 0.0140625 0.019444444444444445
1 0.5291666666666667 0.5388888888888889 0.020833333333333332 0.03888888888888889
0 0.5572916666666666 0.49166666666666664 0.005729166666666666 0.020370370370370372
1 0.5572916666666666 0.5018518518518519 0.004166666666666667 0.013888888888888888
1 0.5015625 0.5407407407407407 0.020833333333333332 0.03611111111111111
1 0.48125 0.5148148148148148 0.0234375 0.046296296296296294
0 0.471875 0.49444444444444446 0.005208333333333333 0.012962962962962963
1 0.4713541666666667 0.5037037037037037 0.005208333333333333 0.016666666666666666
1 0.43645833333333334 0.5175925925925926 0.019791666666666666 0.03611111111111111
1 0.46145833333333336 0.4861111111111111 0.011979166666666667 0.024074074074074074
1 0.5119791666666667 0.36944444444444446 0.015104166666666667 0.018518518518518517
1 0.39895833333333336 0.35185185185185186 0.017708333333333333 0.019444444444444445
1 0.40625 0.375 0.019270833333333334 0.012962962962962963
1 0.36822916666666666 0.3537037037037037 0.025520833333333333 0.016666666666666666
1 0.3302083333333333 0.34814814814814815 0.025 0.018518518518518517
0 0.5375 0.46296296296296297 0.005208333333333333 0.014814814814814815
1 0.5375 0.47129629629629627 0.0046875 0.013888888888888888
0 0.5359375 0.44074074074074077 0.003125 0.012962962962962963
1 0.5354166666666667 0.45 0.0046875 0.013888888888888888
0 0.5015625 0.4148148148148148 0.005208333333333333 0.012037037037037037
1 0.5005208333333333 0.42314814814814816 0.005729166666666666 0.01574074074074074
0 0.4901041666666667 0.4166666666666667 0.0046875 0.013888888888888888
1 0.4895833333333333 0.42407407407407405 0.0046875 0.013888888888888888
0 0.4739583333333333 0.4083333333333333 0.005729166666666666 0.012962962962962963
1 0.4734375 0.4166666666666667 0.005729166666666666 0.018518518518518517
0 0.47760416666666666 0.35648148148148145 0.0026041666666666665 0.011111111111111112
1 0.478125 0.362962962962963 0.0046875 0.012037037037037037
0 0.5458333333333333 0.4185185185185185 0.0036458333333333334 0.012962962962962963
1 0.5453125 0.425 0.004166666666666667 0.012037037037037037
0 0.5270833333333333 0.3990740740740741 0.004166666666666667 0.012037037037037037
1 0.5265625 0.4074074074074074 0.003125 0.010185185185185186
0 0.5197916666666667 0.3907407407407407 0.0046875 0.009259259259259259
1 0.5197916666666667 0.3972222222222222 0.00625 0.011111111111111112
0 0.5364583333333334 0.38796296296296295 0.004166666666666667 0.022222222222222223
0 0.5458333333333333 0.36018518518518516 0.003125 0.011111111111111112
1 0.5458333333333333 0.36666666666666664 0.003125 0.010185185185185186
0 0.5520833333333334 0.37222222222222223 0.0026041666666666665 0.008333333333333333
0 0.5520833333333334 0.3685185185185185 0.003125 0.009259259259259259
1 0.5520833333333334 0.37592592592592594 0.003125 0.010185185185185186
1 0.546875 0.3962962962962963 0.00625 0.022222222222222223
0 0.546875 0.39537037037037037 0.004166666666666667 0.010185185185185186
0 0.6229166666666667 0.637962962962963 0.009375 0.03981481481481482
