1 0.3897058823529412 0.9215686274509803 0.057352941176470586 0.15555555555555556
1 0.49264705882352944 0.9111111111111111 0.0625 0.17777777777777778
1 0.6360294117647058 0.9006535947712418 0.1125 0.19738562091503267
1 0.5801470588235295 0.7163398692810458 0.05661764705882353 0.1503267973856209
1 0.4933823529411765 0.7176470588235294 0.04338235294117647 0.13202614379084968
1 0.5698529411764706 0.5529411764705883 0.04411764705882353 0.10980392156862745
1 0.4764705882352941 0.550326797385621 0.04264705882352941 0.11895424836601307
1 0.5411764705882353 0.44313725490196076 0.04044117647058824 0.09281045751633987
1 0.47205882352941175 0.43137254901960786 0.03602941176470588 0.08888888888888889
1 0.47352941176470587 0.34509803921568627 0.03455882352941177 0.0718954248366013
1 0.5286764705882353 0.06666666666666667 0.04411764705882353 0.050980392156862744
1 0.5897058823529412 0.02875816993464052 0.04191176470588235 0.036601307189542485
1 0.6735294117647059 0.013071895424836602 0.03823529411764706 0.027450980392156862
1 0.7419117647058824 0.00784313725490196 0.05 0.01568627450980392
1 0.4698529411764706 0.25882352941176473 0.03161764705882353 0.06666666666666667
1 0.3713235294117647 0.28366013071895424 0.03823529411764706 0.07712418300653595
1 0.5338235294117647 0.2679738562091503 0.060294117647058824 0.19477124183006536
1 0.4308823529411765 0.15816993464052287 0.061764705882352944 0.134640522875817
1 0.42058823529411765 0.41045751633986927 0.03897058823529412 0.13202614379084968
1 0.31985294117647056 0.2627450980392157 0.008823529411764706 0.03790849673202614
0 0.31985294117647056 0.25098039215686274 0.008823529411764706 0.043137254901960784
1 0.3110294117647059 0.1895424836601307 0.05661764705882353 0.05620915032679739
1 0.23088235294117648 0.16470588235294117 0.05367647058823529 0.05620915032679739
1 0.2977941176470588 0.12810457516339868 0.013235294117647059 0.02875816993464052
0 0.3 0.12418300653594772 0.006617647058823529 0.022222222222222223
0 0.2963235294117647 0.12156862745098039 0.008823529411764706 0.03398692810457516
0 0.16397058823529412 0.2 0.010294117647058823 0.043137254901960784
1 0.27647058823529413 0.05359477124183006 0.025735294117647058 0.040522875816993466
0 0.2698529411764706 0.047058823529411764 0.005147058823529412 0.022222222222222223
1 0.17426470588235293 0.07320261437908497 0.052941176470588235 0.043137254901960784
1 0.07279411764705883 0.08758169934640522 0.05220588235294118 0.04183006535947712
