1 0.8308823529411765 0.9777777777777777 0.04044117647058824 0.044444444444444446
1 0.6080882352941176 0.6745098039215687 0.05588235294117647 0.12287581699346405
1 0.6941176470588235 0.6052287581699346 0.03235294117647059 0.0392156862745098
1 0.674264705882353 0.4718954248366013 0.027205882352941177 0.03137254901960784
1 0.6595588235294118 0.4143790849673203 0.01911764705882353 0.03790849673202614
1 0.5816176470588236 0.43529411764705883 0.03676470588235294 0.07712418300653595
1 0.5455882352941176 0.34248366013071896 0.027941176470588237 0.050980392156862744
1 0.5470588235294118 0.2849673202614379 0.026470588235294117 0.05359477124183006
0 0.5264705882352941 0.23921568627450981 0.007352941176470588 0.03790849673202614
0 0.5808823529411765 0.21437908496732025 0.007352941176470588 0.03529411764705882
1 0.5691176470588235 0.16862745098039217 0.023529411764705882 0.036601307189542485
1 0.5330882352941176 0.1542483660130719 0.01838235294117647 0.03137254901960784
1 0.5514705882352942 0.12679738562091503 0.01838235294117647 0.030065359477124184
0 0.5522058823529412 0.10326797385620914 0.003676470588235294 0.026143790849673203
0 0.5441176470588235 0.1084967320261438 0.003676470588235294 0.027450980392156862
1 0.5691176470588235 0.11764705882352941 0.014705882352941176 0.01568627450980392
1 0.55 0.08366013071895424 0.01764705882352941 0.01699346405228758
1 0.5117647058823529 0.07320261437908497 0.013970588235294118 0.027450980392156862
1 0.5117647058823529 0.058823529411764705 0.013970588235294118 0.022222222222222223
1 0.5080882352941176 0.048366013071895426 0.014705882352941176 0.02483660130718954
0 0.5191176470588236 0.03790849673202614 0.003676470588235294 0.01568627450980392
1 0.5183823529411765 0.03529411764705882 0.019852941176470587 0.022222222222222223
1 0.5051470588235294 0.01699346405228758 0.010294117647058823 0.018300653594771243
1 0.5183823529411765 0.009150326797385621 0.009558823529411765 0.011764705882352941
1 0.475 0.026143790849673203 0.011029411764705883 0.0196078431372549
1 0.45073529411764707 0.01437908496732026 0.011764705882352941 0.022222222222222223
0 0.15441176470588236 0.8156862745098039 0.01911764705882353 0.07320261437908497
1 0.11397058823529412 0.6888888888888889 0.11764705882352941 0.09934640522875816
1 0.05220588235294118 0.5542483660130719 0.09191176470588236 0.07450980392156863
1 0.4176470588235294 0.01568627450980392 0.021323529411764706 0.026143790849673203
1 0.41911764705882354 0.027450980392156862 0.02426470588235294 0.023529411764705882
1 0.3985294117647059 0.032679738562091505 0.041176470588235294 0.03137254901960784
1 0.4117647058823529 0.0457516339869281 0.030147058823529412 0.02091503267973856
1 0.425 0.054901960784313725 0.026470588235294117 0.02483660130718954
1 0.4102941176470588 0.06405228758169934 0.027205882352941177 0.022222222222222223
1 0.4088235294117647 0.0718954248366013 0.03455882352941177 0.02483660130718954
1 0.3764705882352941 0.07712418300653595 0.020588235294117647 0.036601307189542485
1 0.4036764705882353 0.1084967320261438 0.039705882352941174 0.026143790849673203
0 0.42426470588235293 0.11895424836601307 0.004411764705882353 0.027450980392156862
1 0.39338235294117646 0.12549019607843137 0.04191176470588235 0.040522875816993466
1 0.35073529411764703 0.14248366013071895 0.016176470588235296 0.01699346405228758
1 0.3875 0.1830065359477124 0.03676470588235294 0.04183006535947712
1 0.3720588235294118 0.26405228758169935 0.058823529411764705 0.047058823529411764
1 0.30220588235294116 0.28627450980392155 0.05661764705882353 0.048366013071895426
1 0.3191176470588235 0.2169934640522876 0.051470588235294115 0.040522875816993466
1 0.31029411764705883 0.23921568627450981 0.05367647058823529 0.036601307189542485
1 0.3205882352941177 0.4496732026143791 0.0375 0.06797385620915032
1 0.27941176470588236 0.4222222222222222 0.03897058823529412 0.06405228758169934
1 0.2713235294117647 0.3437908496732026 0.013970588235294118 0.03529411764705882
1 0.23529411764705882 0.43529411764705883 0.04044117647058824 0.06928104575163399
0 0.27647058823529413 0.5163398692810458 0.013970588235294118 0.05228758169934641
1 0.5022058823529412 0.3058823529411765 0.007352941176470588 0.03529411764705882
0 0.5029411764705882 0.29673202614379085 0.007352941176470588 0.036601307189542485
1 0.4308823529411765 0.22483660130718955 0.006617647058823529 0.032679738562091505
0 0.4308823529411765 0.2196078431372549 0.007352941176470588 0.03137254901960784
1 0.4360294117647059 0.3333333333333333 0.008823529411764706 0.032679738562091505
0 0.43676470588235294 0.32287581699346407 0.008823529411764706 0.03137254901960784
1 0.15661764705882353 0.4300653594771242 0.0661764705882353 0.06666666666666667
1 0.33676470588235297 0.7516339869281046 0.020588235294117647 0.06274509803921569
0 0.3360294117647059 0.734640522875817 0.014705882352941176 0.05228758169934641
