1 0.4671875 0.006481481481481481 0.010416666666666666 0.012962962962962963
1 0.45208333333333334 0.019444444444444445 0.009895833333333333 0.01574074074074074
1 0.43333333333333335 0.022222222222222223 0.0109375 0.017592592592592594
1 0.43333333333333335 0.04351851851851852 0.009375 0.016666666666666666
1 0.43072916666666666 0.058333333333333334 0.013020833333333334 0.018518518518518517
1 0.44635416666666666 0.06111111111111111 0.013541666666666667 0.023148148148148147
1 0.425 0.07777777777777778 0.0125 0.021296296296296296
1 0.44375 0.07962962962962963 0.013020833333333334 0.018518518518518517
1 0.44166666666666665 0.13148148148148148 0.015104166666666667 0.025925925925925925
0 0.5239583333333333 0.2574074074074074 0.007291666666666667 0.030555555555555555
0 0.5317708333333333 0.2574074074074074 0.007291666666666667 0.030555555555555555
1 0.41822916666666665 0.03888888888888889 0.015104166666666667 0.025
1 0.3614583333333333 0.017592592592592594 0.0125 0.018518518518518517
1 0.37916666666666665 0.021296296296296296 0.011458333333333333 0.018518518518518517
1 0.3890625 0.03611111111111111 0.0125 0.018518518518518517
1 0.35 0.04351851851851852 0.014583333333333334 0.021296296296296296
1 0.3645833333333333 0.05092592592592592 0.013020833333333334 0.020370370370370372
1 0.36770833333333336 0.07222222222222222 0.014583333333333334 0.020370370370370372
1 0.32135416666666666 0.09722222222222222 0.01875 0.02962962962962963
1 0.34375 0.1527777777777778 0.01875 0.02962962962962963
1 0.309375 0.22037037037037038 0.042708333333333334 0.08518518518518518
1 0.40729166666666666 0.04537037037037037 0.011458333333333333 0.018518518518518517
1 0.4010416666666667 0.07037037037037037 0.024479166666666666 0.05925925925925926
1 0.39114583333333336 0.10277777777777777 0.0140625 0.020370370370370372
1 0.3890625 0.11296296296296296 0.015104166666666667 0.024074074074074074
1 0.38697916666666665 0.13425925925925927 0.016145833333333335 0.025925925925925925
1 0.37916666666666665 0.1527777777777778 0.017708333333333333 0.027777777777777776
1 0.37552083333333336 0.1814814814814815 0.019791666666666666 0.02962962962962963
1 0.3692708333333333 0.20185185185185187 0.017708333333333333 0.028703703703703703
1 0.3567708333333333 0.23148148148148148 0.021354166666666667 0.03333333333333333
1 0.34739583333333335 0.25555555555555554 0.025 0.05092592592592592
1 0.340625 0.30462962962962964 0.027083333333333334 0.041666666666666664
1 0.3463541666666667 0.337037037037037 0.043229166666666666 0.041666666666666664
1 0.43072916666666666 0.20185185185185187 0.01875 0.03333333333333333
1 0.4588541666666667 0.22777777777777777 0.019270833333333334 0.032407407407407406
1 0.31302083333333336 0.40925925925925927 0.03177083333333333 0.049074074074074076
1 0.3026041666666667 0.4703703703703704 0.0390625 0.06759259259259259
1 0.27239583333333334 0.549074074074074 0.040625 0.07407407407407407
1 0.25625 0.6555555555555556 0.05416666666666667 0.10833333333333334
1 0.8291666666666667 0.08333333333333333 0.026041666666666668 0.03425925925925926
1 0.8666666666666667 0.10092592592592593 0.03177083333333333 0.020370370370370372
1 0.8661458333333333 0.1175925925925926 0.040625 0.041666666666666664
1 0.890625 0.1675925925925926 0.014583333333333334 0.022222222222222223
1 0.9104166666666667 0.1824074074074074 0.015104166666666667 0.019444444444444445
1 0.8734375 0.011111111111111112 0.013541666666666667 0.014814814814814815
1 0.8864583333333333 0.012037037037037037 0.011458333333333333 0.01574074074074074
1 0.44947916666666665 0.43796296296296294 0.029166666666666667 0.05462962962962963
1 0.20052083333333334 0.8925925925925926 0.08020833333333334 0.13240740740740742
