1 0.5369791666666667 0.8629629629629629 0.0765625 0.17407407407407408
0 0.0421875 0.912962962962963 0.022395833333333334 0.0962962962962963
1 0.009895833333333333 0.8685185185185185 0.019791666666666666 0.06481481481481481
1 0.15260416666666668 0.9638888888888889 0.05572916666666667 0.06111111111111111
1 0.21927083333333333 0.9555555555555556 0.06354166666666666 0.08888888888888889
1 0.24322916666666666 0.8333333333333334 0.06510416666666667 0.15925925925925927
0 0.15104166666666666 0.7546296296296297 0.016666666666666666 0.0712962962962963
1 0.15520833333333334 0.7657407407407407 0.04375 0.058333333333333334
0 0.1484375 0.7064814814814815 0.017708333333333333 0.06111111111111111
1 0.1484375 0.7185185185185186 0.03854166666666667 0.049074074074074076
1 0.21770833333333334 0.6416666666666667 0.0328125 0.046296296296296294
1 0.26666666666666666 0.6953703703703704 0.0515625 0.12407407407407407
0 0.31979166666666664 0.6842592592592592 0.0140625 0.04814814814814815
0 0.32083333333333336 0.6694444444444444 0.008333333333333333 0.03148148148148148
1 0.31979166666666664 0.6953703703703704 0.018229166666666668 0.05740740740740741
0 0.07760416666666667 0.6222222222222222 0.018229166666666668 0.06296296296296296
0 0.096875 0.6231481481481481 0.022916666666666665 0.06111111111111111
0 0.115625 0.6074074074074074 0.016666666666666666 0.06296296296296296
0 0.1890625 0.6175925925925926 0.015625 0.049074074074074076
1 0.19010416666666666 0.6305555555555555 0.017708333333333333 0.05185185185185185
1 0.046875 0.5648148148148148 0.016666666666666666 0.04259259259259259
1 0.07864583333333333 0.5472222222222223 0.030208333333333334 0.03518518518518519
1 0.08385416666666666 0.5509259259259259 0.034375 0.03796296296296296
0 0.05 0.5259259259259259 0.016145833333333335 0.05185185185185185
1 0.05364583333333333 0.5324074074074074 0.034375 0.037037037037037035
0 0.12239583333333333 0.5638888888888889 0.017708333333333333 0.05740740740740741
0 0.1421875 0.5796296296296296 0.011979166666666667 0.06018518518518518
1 0.0265625 0.4888888888888889 0.053125 0.05925925925925926
0 0.12135416666666667 0.5268518518518519 0.0140625 0.05092592592592592
0 0.16614583333333333 0.5694444444444444 0.009375 0.053703703703703705
0 0.1828125 0.5574074074074075 0.010416666666666666 0.06111111111111111
0 0.13697916666666668 0.5351851851851852 0.014583333333333334 0.05555555555555555
0 0.10885416666666667 0.4703703703703704 0.013541666666666667 0.046296296296296294
1 0.022395833333333334 0.3990740740740741 0.04479166666666667 0.05185185185185185
0 0.12552083333333333 0.5083333333333333 0.015104166666666667 0.046296296296296294
1 0.12708333333333333 0.5203703703703704 0.0265625 0.040740740740740744
0 0.1484375 0.475 0.0109375 0.04351851851851852
1 0.15052083333333333 0.49074074074074076 0.027604166666666666 0.032407407407407406
0 0.15052083333333333 0.4638888888888889 0.010416666666666666 0.03888888888888889
0 0.1765625 0.4685185185185185 0.0109375 0.04537037037037037
0 0.159375 0.5601851851851852 0.009375 0.053703703703703705
0 0.1609375 0.5425925925925926 0.008333333333333333 0.049074074074074076
0 0.18489583333333334 0.5018518518518519 0.015104166666666667 0.04351851851851852
1 0.18645833333333334 0.5120370370370371 0.027604166666666666 0.032407407407407406
0 0.209375 0.5351851851851852 0.010416666666666666 0.05185185185185185
0 0.21979166666666666 0.5194444444444445 0.0125 0.049074074074074076
0 0.23229166666666667 0.5351851851851852 0.0109375 0.05277777777777778
0 0.2421875 0.5407407407407407 0.013541666666666667 0.05092592592592592
0 0.26510416666666664 0.5324074074074074 0.0140625 0.053703703703703705
0 0.2911458333333333 0.5388888888888889 0.009895833333333333 0.049074074074074076
0 0.2942708333333333 0.5453703703703704 0.013541666666666667 0.05092592592592592
1 0.03229166666666667 0.3351851851851852 0.057291666666666664 0.040740740740740744
1 0.0171875 0.32314814814814813 0.034375 0.03981481481481482
1 0.1640625 0.4425925925925926 0.07395833333333333 0.053703703703703705
0 0.19375 0.45740740740740743 0.009375 0.040740740740740744
0 0.19791666666666666 0.4601851851851852 0.007291666666666667 0.03611111111111111
1 0.1953125 0.4638888888888889 0.014583333333333334 0.030555555555555555
0 0.20572916666666666 0.4842592592592593 0.009375 0.04351851851851852
0 0.209375 0.45092592592592595 0.011458333333333333 0.05
0 0.21822916666666667 0.4537037037037037 0.008854166666666666 0.04351851851851852
0 0.221875 0.45925925925925926 0.007291666666666667 0.044444444444444446
0 0.228125 0.46111111111111114 0.008854166666666666 0.044444444444444446
0 0.23177083333333334 0.4462962962962963 0.0109375 0.041666666666666664
0 0.246875 0.45092592592592595 0.011458333333333333 0.044444444444444446
1 0.24635416666666668 0.45740740740740743 0.0109375 0.03518518518518519
0 0.1765625 0.3907407407407407 0.0078125 0.040740740740740744
0 0.25885416666666666 0.5037037037037037 0.008333333333333333 0.04259259259259259
1 0.2875 0.41759259259259257 0.06770833333333333 0.04814814814814815
0 0.25416666666666665 0.38055555555555554 0.0109375 0.027777777777777776
1 0.2552083333333333 0.38796296296296295 0.014583333333333334 0.02962962962962963
0 0.3302083333333333 0.45092592592592595 0.0125 0.037037037037037035
1 0.33125 0.4601851851851852 0.022916666666666665 0.03425925925925926
0 0.33177083333333335 0.4324074074074074 0.00625 0.03981481481481482
0 0.22604166666666667 0.38333333333333336 0.0109375 0.025925925925925925
0 0.22708333333333333 0.3768518518518518 0.008854166666666666 0.030555555555555555
1 0.228125 0.3861111111111111 0.0125 0.02962962962962963
1 0.153125 0.36018518518518516 0.051041666666666666 0.04259259259259259
0 0.171875 0.33055555555555555 0.008854166666666666 0.025925925925925925
1 0.171875 0.3388888888888889 0.0203125 0.024074074074074074
1 0.16770833333333332 0.3194444444444444 0.05625 0.03796296296296296
1 0.15729166666666666 0.3037037037037037 0.04739583333333333 0.03611111111111111
1 0.12604166666666666 0.2916666666666667 0.050520833333333334 0.03425925925925926
0 0.04010416666666667 0.30185185185185187 0.0067708333333333336 0.03611111111111111
0 0.044270833333333336 0.29907407407407405 0.005729166666666666 0.032407407407407406
0 0.0546875 0.30462962962962964 0.0067708333333333336 0.03518518518518519
0 0.06197916666666667 0.30092592592592593 0.005729166666666666 0.03148148148148148
0 0.06979166666666667 0.29444444444444445 0.0067708333333333336 0.030555555555555555
0 0.07552083333333333 0.2898148148148148 0.0067708333333333336 0.03333333333333333
0 0.071875 0.2851851851851852 0.005208333333333333 0.02962962962962963
0 0.05625 0.28888888888888886 0.005729166666666666 0.02962962962962963
1 0.0890625 0.275 0.016145833333333335 0.017592592592592594
1 0.10677083333333333 0.2712962962962963 0.0125 0.023148148148148147
0 0.015625 0.28888888888888886 0.007291666666666667 0.021296296296296296
0 0.027083333333333334 0.28703703703703703 0.008333333333333333 0.023148148148148147
1 0.016145833333333335 0.2972222222222222 0.016145833333333335 0.021296296296296296
1 0.027083333333333334 0.2972222222222222 0.017708333333333333 0.020370370370370372
0 0.03229166666666667 0.27314814814814814 0.008333333333333333 0.023148148148148147
0 0.03958333333333333 0.27685185185185185 0.005729166666666666 0.027777777777777776
0 0.03958333333333333 0.2722222222222222 0.005208333333333333 0.027777777777777776
0 0.04583333333333333 0.26666666666666666 0.00625 0.027777777777777776
0 0.05625 0.25555555555555554 0.0067708333333333336 0.02962962962962963
0 0.06197916666666667 0.25277777777777777 0.00625 0.026851851851851852
0 0.07239583333333334 0.25 0.00625 0.028703703703703703
0 0.051041666666666666 0.25092592592592594 0.0036458333333333334 0.030555555555555555
0 0.0359375 0.2351851851851852 0.005729166666666666 0.025
0 0.10625 0.21666666666666667 0.00625 0.019444444444444445
1 0.09635416666666667 0.2574074074074074 0.027604166666666666 0.03611111111111111
1 0.11979166666666667 0.2518518518518518 0.027604166666666666 0.032407407407407406
1 0.14322916666666666 0.25 0.0234375 0.028703703703703703
1 0.165625 0.2462962962962963 0.021354166666666667 0.02962962962962963
1 0.18697916666666667 0.24166666666666667 0.025 0.023148148148148147
1 0.21458333333333332 0.2388888888888889 0.0296875 0.025925925925925925
1 0.2359375 0.23148148148148148 0.022395833333333334 0.023148148148148147
1 0.2671875 0.21944444444444444 0.034375 0.022222222222222223
1 0.2677083333333333 0.2564814814814815 0.10208333333333333 0.07407407407407407
0 0.29375 0.2861111111111111 0.007291666666666667 0.024074074074074074
1 0.2942708333333333 0.29259259259259257 0.007291666666666667 0.021296296296296296
1 0.6734375 0.9185185185185185 0.08854166666666667 0.1537037037037037
1 0.73125 0.8546296296296296 0.08854166666666667 0.1388888888888889
1 0.6145833333333334 0.7518518518518519 0.06927083333333334 0.1111111111111111
1 0.6625 0.7055555555555556 0.07239583333333334 0.10833333333333334
1 0.7927083333333333 0.8194444444444444 0.103125 0.1537037037037037
0 0.8817708333333333 0.85 0.026041666666666668 0.058333333333333334
1 0.884375 0.8657407407407407 0.04895833333333333 0.07777777777777778
0 0.8692708333333333 0.7296296296296296 0.019791666666666666 0.06481481481481481
1 0.8682291666666667 0.7490740740740741 0.022395833333333334 0.06111111111111111
0 0.8270833333333333 0.6657407407407407 0.015625 0.04537037037037037
1 0.8244791666666667 0.6833333333333333 0.011458333333333333 0.05185185185185185
1 0.9895833333333334 0.8027777777777778 0.0203125 0.06018518518518518
1 0.978125 0.7935185185185185 0.03125 0.058333333333333334
1 0.9661458333333334 0.7777777777777778 0.03229166666666667 0.058333333333333334
1 0.9598958333333333 0.7675925925925926 0.03333333333333333 0.06296296296296296
1 0.95625 0.7546296296296297 0.020833333333333332 0.05555555555555555
1 0.9442708333333333 0.7527777777777778 0.01875 0.053703703703703705
1 0.9354166666666667 0.7453703703703703 0.027083333333333334 0.05925925925925926
1 0.9317708333333333 0.7388888888888889 0.027083333333333334 0.04537037037037037
1 0.9135416666666667 0.7425925925925926 0.0296875 0.04814814814814815
1 0.915625 0.7240740740740741 0.028125 0.046296296296296294
1 0.9203125 0.7092592592592593 0.029166666666666667 0.05277777777777778
1 0.9088541666666666 0.7046296296296296 0.018229166666666668 0.049074074074074076
1 0.8973958333333333 0.7046296296296296 0.022916666666666665 0.04722222222222222
1 0.9052083333333333 0.687962962962963 0.021875 0.04722222222222222
1 0.8869791666666667 0.6712962962962963 0.028125 0.041666666666666664
1 0.871875 0.6481481481481481 0.03333333333333333 0.049074074074074076
1 0.8572916666666667 0.6324074074074074 0.021354166666666667 0.049074074074074076
1 0.84375 0.6212962962962963 0.020833333333333332 0.03888888888888889
1 0.8375 0.612037037037037 0.0234375 0.03796296296296296
0 0.8546875 0.5953703703703703 0.010416666666666666 0.058333333333333334
0 0.8697916666666666 0.5361111111111111 0.0109375 0.05277777777777778
0 0.9942708333333333 0.5592592592592592 0.011458333333333333 0.053703703703703705
0 0.9296875 0.4583333333333333 0.0109375 0.049074074074074076
0 0.9572916666666667 0.4564814814814815 0.015104166666666667 0.046296296296296294
0 0.7729166666666667 0.4759259259259259 0.011979166666666667 0.03796296296296296
1 0.7723958333333333 0.4888888888888889 0.013020833333333334 0.03425925925925926
1 0.5692708333333333 0.6222222222222222 0.052083333333333336 0.08055555555555556
1 0.6151041666666667 0.5888888888888889 0.05416666666666667 0.07222222222222222
1 0.6703125 0.5851851851851851 0.057291666666666664 0.07407407407407407
1 0.5427083333333333 0.5342592592592592 0.04635416666666667 0.06481481481481481
1 0.5776041666666667 0.5064814814814815 0.043229166666666666 0.058333333333333334
1 0.5994791666666667 0.4601851851851852 0.044270833333333336 0.05277777777777778
0 0.7296875 0.5277777777777778 0.013020833333333334 0.044444444444444446
1 0.728125 0.5370370370370371 0.018229166666666668 0.03981481481481482
0 0.7067708333333333 0.5185185185185185 0.011458333333333333 0.04722222222222222
1 0.70625 0.5259259259259259 0.014583333333333334 0.03888888888888889
0 0.6911458333333333 0.5157407407407407 0.015104166666666667 0.05092592592592592
1 0.690625 0.524074074074074 0.016145833333333335 0.040740740740740744
0 0.7140625 0.5074074074074074 0.009895833333333333 0.04351851851851852
1 0.7125 0.5166666666666667 0.016666666666666666 0.03611111111111111
0 0.6822916666666666 0.4898148148148148 0.013020833333333334 0.037037037037037035
1 0.6802083333333333 0.49907407407407406 0.013541666666666667 0.03888888888888889
0 0.6979166666666666 0.4824074074074074 0.010416666666666666 0.03611111111111111
1 0.6979166666666666 0.4925925925925926 0.009375 0.03148148148148148
0 0.6911458333333333 0.4638888888888889 0.011979166666666667 0.03796296296296296
1 0.6911458333333333 0.47314814814814815 0.013020833333333334 0.03518518518518519
0 0.6505208333333333 0.4666666666666667 0.008854166666666666 0.041666666666666664
1 0.6505208333333333 0.475 0.009895833333333333 0.037037037037037035
0 0.6692708333333334 0.47314814814814815 0.013020833333333334 0.03888888888888889
1 0.6703125 0.47685185185185186 0.011458333333333333 0.03981481481481482
0 0.6567708333333333 0.4564814814814815 0.009375 0.03333333333333333
1 0.6572916666666667 0.46574074074074073 0.010416666666666666 0.037037037037037035
0 0.4203125 0.4462962962962963 0.011458333333333333 0.046296296296296294
0 0.4041666666666667 0.4074074074074074 0.011979166666666667 0.03611111111111111
1 0.40572916666666664 0.41759259259259257 0.021875 0.026851851851851852
1 0.346875 0.3675925925925926 0.013020833333333334 0.041666666666666664
0 0.3302083333333333 0.3435185185185185 0.0078125 0.027777777777777776
1 0.3302083333333333 0.3490740740740741 0.0078125 0.025
0 0.3453125 0.34629629629629627 0.0078125 0.028703703703703703
1 0.3458333333333333 0.3527777777777778 0.008333333333333333 0.024074074074074074
0 0.365625 0.3416666666666667 0.007291666666666667 0.03148148148148148
1 0.3651041666666667 0.3490740740740741 0.0067708333333333336 0.025925925925925925
0 0.30520833333333336 0.31666666666666665 0.007291666666666667 0.025925925925925925
1 0.30520833333333336 0.32407407407407407 0.015625 0.022222222222222223
0 0.6703125 0.44537037037037036 0.008854166666666666 0.028703703703703703
1 0.6677083333333333 0.45185185185185184 0.013541666666666667 0.027777777777777776
0 0.6776041666666667 0.4361111111111111 0.008333333333333333 0.026851851851851852
1 0.6760416666666667 0.44537037037037036 0.009895833333333333 0.03425925925925926
0 0.6760416666666667 0.42685185185185187 0.0067708333333333336 0.027777777777777776
1 0.675 0.4361111111111111 0.010416666666666666 0.027777777777777776
0 0.6598958333333333 0.43333333333333335 0.0078125 0.032407407407407406
1 0.6598958333333333 0.4444444444444444 0.011458333333333333 0.02962962962962963
0 0.6291666666666667 0.44166666666666665 0.0078125 0.03518518518518519
1 0.628125 0.45 0.009375 0.03425925925925926
0 0.6359375 0.43333333333333335 0.0109375 0.037037037037037035
1 0.6354166666666666 0.4425925925925926 0.009375 0.03518518518518519
0 0.6463541666666667 0.4351851851851852 0.009895833333333333 0.040740740740740744
1 0.6473958333333333 0.44166666666666665 0.010416666666666666 0.03333333333333333
0 0.6614583333333334 0.4203703703703704 0.009375 0.03148148148148148
1 0.6604166666666667 0.4305555555555556 0.009375 0.03148148148148148
0 0.6682291666666667 0.41759259259259257 0.009895833333333333 0.03333333333333333
1 0.66875 0.4222222222222222 0.009375 0.025925925925925925
0 0.6447916666666667 0.40925925925925927 0.008333333333333333 0.03611111111111111
0 0.6348958333333333 0.4111111111111111 0.0067708333333333336 0.03333333333333333
1 0.6463541666666667 0.41388888888888886 0.021875 0.03148148148148148
0 0.6619791666666667 0.3972222222222222 0.005729166666666666 0.04351851851851852
0 0.6453125 0.38796296296296295 0.009895833333333333 0.03888888888888889
0 0.5791666666666667 0.40185185185185185 0.010416666666666666 0.03981481481481482
0 0.6182291666666667 0.3787037037037037 0.008333333333333333 0.037037037037037035
0 0.6296875 0.3712962962962963 0.011458333333333333 0.03148148148148148
1 0.63125 0.37407407407407406 0.0109375 0.032407407407407406
0 0.6333333333333333 0.35648148148148145 0.007291666666666667 0.025925925925925925
1 0.6333333333333333 0.36203703703703705 0.0067708333333333336 0.024074074074074074
0 0.6125 0.35833333333333334 0.007291666666666667 0.03518518518518519
0 0.6026041666666667 0.35462962962962963 0.0078125 0.03981481481481482
0 0.6166666666666667 0.3490740740740741 0.005208333333333333 0.03425925925925926
0 0.6307291666666667 0.3416666666666667 0.007291666666666667 0.03796296296296296
0 0.6390625 0.3388888888888889 0.005729166666666666 0.026851851851851852
1 0.6390625 0.34814814814814815 0.0067708333333333336 0.025925925925925925
0 0.6526041666666667 0.35555555555555557 0.008333333333333333 0.03796296296296296
0 0.6682291666666667 0.3685185185185185 0.0078125 0.023148148148148147
0 0.6114583333333333 0.33425925925925926 0.008854166666666666 0.025
1 0.6114583333333333 0.3416666666666667 0.013541666666666667 0.021296296296296296
0 0.5979166666666667 0.33425925925925926 0.008333333333333333 0.02962962962962963
0 0.5963541666666666 0.32685185185185184 0.009895833333333333 0.030555555555555555
1 0.5994791666666667 0.34074074074074073 0.017708333333333333 0.026851851851851852
1 0.5958333333333333 0.3333333333333333 0.016666666666666666 0.024074074074074074
0 0.65 0.33796296296296297 0.008333333333333333 0.03611111111111111
1 0.5536458333333333 0.3925925925925926 0.033854166666666664 0.044444444444444446
1 0.5619791666666667 0.35648148148148145 0.028645833333333332 0.03796296296296296
1 0.58125 0.3074074074074074 0.027604166666666666 0.04537037037037037
0 0.40677083333333336 0.28703703703703703 0.005729166666666666 0.028703703703703703
1 0.40729166666666666 0.29444444444444445 0.00625 0.020370370370370372
1 0.446875 0.2953703703703704 0.028125 0.03888888888888889
1 0.4578125 0.2601851851851852 0.03125 0.030555555555555555
1 0.48020833333333335 0.2740740740740741 0.0296875 0.03333333333333333
1 0.5177083333333333 0.24074074074074073 0.03125 0.027777777777777776
1 0.615625 0.27037037037037037 0.027604166666666666 0.028703703703703703
1 0.5947916666666667 0.2490740740740741 0.03177083333333333 0.026851851851851852
0 0.7270833333333333 0.43148148148148147 0.013541666666666667 0.041666666666666664
0 0.6817708333333333 0.387037037037037 0.0036458333333333334 0.030555555555555555
0 0.7109375 0.3138888888888889 0.004166666666666667 0.028703703703703703
0 0.7119791666666667 0.3194444444444444 0.004166666666666667 0.027777777777777776
1 0.33177083333333335 0.23425925925925925 0.021354166666666667 0.025925925925925925
1 0.34270833333333334 0.22037037037037038 0.015625 0.024074074074074074
0 0.3651041666666667 0.22314814814814815 0.00625 0.025
1 0.3640625 0.22777777777777777 0.011458333333333333 0.01574074074074074
0 0.38125 0.2212962962962963 0.0046875 0.024074074074074074
1 0.38125 0.22777777777777777 0.007291666666666667 0.016666666666666666
0 0.3640625 0.21481481481481482 0.004166666666666667 0.020370370370370372
1 0.36354166666666665 0.22037037037037038 0.011458333333333333 0.01574074074074074
0 0.3572916666666667 0.21203703703703702 0.0046875 0.020370370370370372
1 0.3572916666666667 0.21666666666666667 0.011979166666666667 0.017592592592592594
0 0.32135416666666666 0.22407407407407406 0.0046875 0.021296296296296296
0 0.33645833333333336 0.2074074074074074 0.004166666666666667 0.022222222222222223
1 0.3375 0.20925925925925926 0.0125 0.01574074074074074
1 0.20052083333333334 0.17777777777777778 0.01875 0.019444444444444445
0 0.19635416666666666 0.1814814814814815 0.0046875 0.021296296296296296
0 0.14947916666666666 0.22592592592592592 0.005208333333333333 0.024074074074074074
0 0.1453125 0.21574074074074073 0.005208333333333333 0.025925925925925925
1 0.159375 0.20092592592592592 0.0359375 0.020370370370370372
1 0.15833333333333333 0.19537037037037036 0.0375 0.020370370370370372
0 0.13697916666666668 0.1935185185185185 0.004166666666666667 0.023148148148148147
0 0.1296875 0.18796296296296297 0.004166666666666667 0.020370370370370372
0 0.134375 0.18425925925925926 0.004166666666666667 0.017592592592592594
1 0.15416666666666667 0.17592592592592593 0.030729166666666665 0.020370370370370372
1 0.15416666666666667 0.17037037037037037 0.028645833333333332 0.019444444444444445
1 0.15208333333333332 0.16111111111111112 0.022395833333333334 0.022222222222222223
1 0.15104166666666666 0.1574074074074074 0.026041666666666668 0.018518518518518517
0 0.14895833333333333 0.14629629629629629 0.0020833333333333333 0.012962962962962963
0 0.1484375 0.14351851851851852 0.0020833333333333333 0.013888888888888888
0 0.1640625 0.1361111111111111 0.0036458333333333334 0.013888888888888888
0 0.1828125 0.16111111111111112 0.0036458333333333334 0.018518518518518517
0 0.18541666666666667 0.16203703703703703 0.0036458333333333334 0.018518518518518517
0 0.190625 0.16018518518518518 0.0036458333333333334 0.018518518518518517
0 0.19427083333333334 0.16574074074074074 0.004166666666666667 0.016666666666666666
1 0.24895833333333334 0.19444444444444445 0.03177083333333333 0.019444444444444445
1 0.24635416666666668 0.19166666666666668 0.0296875 0.019444444444444445
1 0.23854166666666668 0.18796296296296297 0.03177083333333333 0.019444444444444445
1 0.2359375 0.18055555555555555 0.0265625 0.020370370370370372
1 0.2328125 0.17685185185185184 0.0328125 0.020370370370370372
1 0.22447916666666667 0.17037037037037037 0.025520833333333333 0.017592592592592594
1 0.22604166666666667 0.1638888888888889 0.030729166666666665 0.023148148148148147
1 0.2171875 0.16296296296296298 0.0234375 0.016666666666666666
1 0.2171875 0.15833333333333333 0.025 0.016666666666666666
1 0.21302083333333333 0.15648148148148147 0.023958333333333335 0.018518518518518517
1 0.21041666666666667 0.1527777777777778 0.025 0.014814814814814815
0 0.2604166666666667 0.1824074074074074 0.005208333333333333 0.020370370370370372
0 0.29583333333333334 0.2074074074074074 0.004166666666666667 0.017592592592592594
0 0.296875 0.20462962962962963 0.0036458333333333334 0.01574074074074074
0 0.16458333333333333 0.10740740740740741 0.0026041666666666665 0.01574074074074074
0 0.1671875 0.11481481481481481 0.0020833333333333333 0.014814814814814815
0 0.1703125 0.11388888888888889 0.003125 0.014814814814814815
0 0.17395833333333333 0.11388888888888889 0.0026041666666666665 0.013888888888888888
0 0.16979166666666667 0.10648148148148148 0.003125 0.01574074074074074
0 0.17291666666666666 0.09814814814814815 0.0026041666666666665 0.012962962962962963
0 0.1546875 0.10740740740740741 0.0020833333333333333 0.012962962962962963
0 0.1578125 0.10092592592592593 0.0026041666666666665 0.012037037037037037
0 0.2 0.13518518518518519 0.003125 0.019444444444444445
0 0.22291666666666668 0.1398148148148148 0.004166666666666667 0.014814814814814815
0 0.2078125 0.13240740740740742 0.0020833333333333333 0.014814814814814815
1 0.2015625 0.12407407407407407 0.015625 0.013888888888888888
0 0.23854166666666668 0.12962962962962962 0.003125 0.011111111111111112
0 0.2515625 0.1398148148148148 0.0036458333333333334 0.012037037037037037
0 0.25677083333333334 0.1425925925925926 0.004166666666666667 0.013888888888888888
0 0.2635416666666667 0.14907407407407408 0.004166666666666667 0.011111111111111112
1 0.25677083333333334 0.14629629629629629 0.003125 0.010185185185185186
1 0.2515625 0.14444444444444443 0.003125 0.011111111111111112
1 0.2635416666666667 0.1527777777777778 0.0036458333333333334 0.008333333333333333
1 0.2890625 0.14907407407407408 0.0125 0.01574074074074074
0 0.30833333333333335 0.2037037037037037 0.004166666666666667 0.022222222222222223
0 0.315625 0.21203703703703702 0.004166666666666667 0.024074074074074074
0 0.32135416666666666 0.2101851851851852 0.0046875 0.020370370370370372
0 0.31927083333333334 0.19907407407407407 0.004166666666666667 0.019444444444444445
0 0.31302083333333336 0.19722222222222222 0.005729166666666666 0.017592592592592594
0 0.309375 0.1935185185185185 0.0036458333333333334 0.019444444444444445
1 0.3140625 0.2037037037037037 0.00625 0.012037037037037037
1 0.30885416666666665 0.19722222222222222 0.0046875 0.013888888888888888
1 0.33229166666666665 0.19814814814814816 0.019791666666666666 0.025925925925925925
1 0.31927083333333334 0.18888888888888888 0.0171875 0.019444444444444445
1 0.30833333333333335 0.17962962962962964 0.0140625 0.019444444444444445
1 0.2984375 0.17314814814814813 0.0140625 0.020370370370370372
1 0.3375 0.18425925925925926 0.0171875 0.023148148148148147
1 0.328125 0.1787037037037037 0.0125 0.018518518518518517
1 0.31927083333333334 0.17222222222222222 0.0140625 0.022222222222222223
1 0.30885416666666665 0.1638888888888889 0.014583333333333334 0.020370370370370372
1 0.29791666666666666 0.15462962962962962 0.013020833333333334 0.017592592592592594
1 0.2796875 0.1425925925925926 0.0140625 0.01574074074074074
1 0.27395833333333336 0.13796296296296295 0.011458333333333333 0.013888888888888888
1 0.2682291666666667 0.13425925925925927 0.0109375 0.012962962962962963
1 0.25677083333333334 0.13703703703703704 0.011979166666666667 0.016666666666666666
1 0.26145833333333335 0.12962962962962962 0.0109375 0.013888888888888888
1 0.2578125 0.125 0.009895833333333333 0.013888888888888888
1 0.2520833333333333 0.12129629629629629 0.009375 0.013888888888888888
1 0.2453125 0.11388888888888889 0.009375 0.012962962962962963
1 0.23802083333333332 0.10833333333333334 0.009895833333333333 0.012037037037037037
1 0.1953125 0.0962962962962963 0.0078125 0.011111111111111112
1 0.20885416666666667 0.09351851851851851 0.008854166666666666 0.010185185185185186
1 0.2234375 0.10648148148148148 0.0109375 0.016666666666666666
1 0.26197916666666665 0.11944444444444445 0.011979166666666667 0.012037037037037037
1 0.26979166666666665 0.12314814814814815 0.009895833333333333 0.012962962962962963
1 0.27760416666666665 0.12777777777777777 0.0109375 0.011111111111111112
1 0.2859375 0.13333333333333333 0.0109375 0.012962962962962963
1 0.29270833333333335 0.13796296296296295 0.0109375 0.013888888888888888
1 0.3020833333333333 0.14351851851851852 0.013541666666666667 0.013888888888888888
1 0.31145833333333334 0.15185185185185185 0.013020833333333334 0.014814814814814815
1 0.32083333333333336 0.15925925925925927 0.014583333333333334 0.016666666666666666
1 0.33125 0.16296296296296298 0.014583333333333334 0.018518518518518517
1 0.34270833333333334 0.17222222222222222 0.015104166666666667 0.020370370370370372
1 0.3567708333333333 0.1824074074074074 0.016145833333333335 0.022222222222222223
1 0.3776041666666667 0.08055555555555556 0.005729166666666666 0.011111111111111112
0 0.371875 0.12222222222222222 0.0026041666666666665 0.011111111111111112
0 0.40729166666666666 0.12962962962962962 0.0036458333333333334 0.012037037037037037
1 0.40729166666666666 0.13240740740740742 0.0036458333333333334 0.010185185185185186
0 0.4140625 0.13240740740740742 0.0026041666666666665 0.012962962962962963
1 0.41770833333333335 0.15 0.0109375 0.01574074074074074
1 0.44479166666666664 0.17222222222222222 0.025 0.021296296296296296
1 0.44947916666666665 0.16944444444444445 0.022395833333333334 0.022222222222222223
0 0.44166666666666665 0.19074074074074074 0.004166666666666667 0.016666666666666666
1 0.44114583333333335 0.1962962962962963 0.0046875 0.016666666666666666
0 0.45208333333333334 0.21296296296296297 0.005729166666666666 0.024074074074074074
0 0.44895833333333335 0.2064814814814815 0.004166666666666667 0.017592592592592594
1 0.4479166666666667 0.21203703703703702 0.009895833333333333 0.016666666666666666
0 0.4635416666666667 0.2111111111111111 0.005208333333333333 0.019444444444444445
1 0.4630208333333333 0.21574074074074073 0.004166666666666667 0.01574074074074074
0 0.46197916666666666 0.19074074074074074 0.004166666666666667 0.019444444444444445
1 0.46145833333333336 0.19444444444444445 0.0046875 0.01574074074074074
0 0.46979166666666666 0.17037037037037037 0.0036458333333333334 0.018518518518518517
1 0.46979166666666666 0.1712962962962963 0.008854166666666666 0.012037037037037037
0 0.4578125 0.1527777777777778 0.0026041666666666665 0.020370370370370372
0 0.4791666666666667 0.16018518518518518 0.003125 0.017592592592592594
1 0.46145833333333336 0.14074074074074075 0.003125 0.010185185185185186
0 0.4828125 0.15092592592592594 0.0036458333333333334 0.010185185185185186
0 0.7828125 0.4351851851851852 0.008333333333333333 0.053703703703703705
0 0.8145833333333333 0.3962962962962963 0.007291666666666667 0.03981481481481482
0 0.8151041666666666 0.4027777777777778 0.008333333333333333 0.03333333333333333
0 0.8322916666666667 0.4101851851851852 0.008854166666666666 0.044444444444444446
0 0.8005208333333333 0.37777777777777777 0.013541666666666667 0.030555555555555555
0 0.765625 0.3351851851851852 0.0078125 0.037037037037037035
0 0.7723958333333333 0.3388888888888889 0.0067708333333333336 0.02962962962962963
0 0.734375 0.3148148148148148 0.007291666666666667 0.03333333333333333
0 0.8770833333333333 0.4222222222222222 0.0125 0.04259259259259259
0 0.928125 0.4166666666666667 0.011979166666666667 0.03981481481481482
0 0.9390625 0.41203703703703703 0.009895833333333333 0.040740740740740744
0 0.9427083333333334 0.425 0.009895833333333333 0.044444444444444446
0 0.9484375 0.42962962962962964 0.008854166666666666 0.04259259259259259
0 0.953125 0.4351851851851852 0.014583333333333334 0.04259259259259259
0 0.971875 0.4287037037037037 0.010416666666666666 0.04814814814814815
0 0.9713541666666666 0.44074074074074077 0.011979166666666667 0.03888888888888889
0 0.9833333333333333 0.43796296296296294 0.013541666666666667 0.04814814814814815
0 0.9151041666666667 0.3907407407407407 0.008854166666666666 0.040740740740740744
0 0.9234375 0.39166666666666666 0.008333333333333333 0.04537037037037037
0 0.8869791666666667 0.35648148148148145 0.007291666666666667 0.03888888888888889
1 0.8583333333333333 0.31851851851851853 0.0067708333333333336 0.037037037037037035
0 0.884375 0.27685185185185185 0.008333333333333333 0.028703703703703703
0 0.7489583333333333 0.31851851851851853 0.007291666666666667 0.03518518518518519
0 0.7552083333333334 0.31851851851851853 0.005729166666666666 0.032407407407407406
0 0.7489583333333333 0.3138888888888889 0.00625 0.03611111111111111
0 0.7557291666666667 0.31296296296296294 0.00625 0.03425925925925926
0 0.7677083333333333 0.30925925925925923 0.00625 0.032407407407407406
0 0.7942708333333334 0.3111111111111111 0.007291666666666667 0.03333333333333333
0 0.7723958333333333 0.3037037037037037 0.005729166666666666 0.027777777777777776
0 0.7760416666666666 0.3074074074074074 0.005729166666666666 0.025925925925925925
0 0.7651041666666667 0.3 0.005208333333333333 0.025925925925925925
0 0.7776041666666667 0.29814814814814816 0.005729166666666666 0.026851851851851852
0 0.7822916666666667 0.29259259259259257 0.005208333333333333 0.027777777777777776
0 0.8135416666666667 0.2796296296296296 0.00625 0.025925925925925925
0 0.790625 0.29444444444444445 0.0046875 0.022222222222222223
0 0.6395833333333333 0.3037037037037037 0.008333333333333333 0.032407407407407406
0 0.6395833333333333 0.29814814814814816 0.005208333333333333 0.02962962962962963
1 0.6380208333333334 0.3101851851851852 0.015104166666666667 0.023148148148148147
0 0.6911458333333333 0.29444444444444445 0.005208333333333333 0.024074074074074074
0 0.69375 0.30092592592592593 0.0046875 0.022222222222222223
0 0.6588541666666666 0.3037037037037037 0.007291666666666667 0.028703703703703703
0 0.6572916666666667 0.2962962962962963 0.004166666666666667 0.02962962962962963
0 0.6578125 0.2861111111111111 0.0046875 0.026851851851851852
0 0.6723958333333333 0.287962962962963 0.0046875 0.02962962962962963
0 0.7375 0.27870370370370373 0.0078125 0.024074074074074074
1 0.7369791666666666 0.2851851851851852 0.011458333333333333 0.019444444444444445
0 0.7473958333333334 0.28055555555555556 0.005208333333333333 0.019444444444444445
1 0.7473958333333334 0.2851851851851852 0.0078125 0.017592592592592594
0 0.7760416666666666 0.2611111111111111 0.0078125 0.019444444444444445
1 0.775 0.26944444444444443 0.0109375 0.016666666666666666
0 0.78125 0.26851851851851855 0.007291666666666667 0.013888888888888888
0 0.7822916666666667 0.29259259259259257 0.005208333333333333 0.027777777777777776
1 0.7807291666666667 0.2759259259259259 0.011979166666666667 0.014814814814814815
0 0.7822916666666667 0.2611111111111111 0.0046875 0.016666666666666666
1 0.7822916666666667 0.26666666666666666 0.008333333333333333 0.012962962962962963
0 0.7848958333333333 0.25555555555555554 0.005729166666666666 0.01574074074074074
1 0.7833333333333333 0.262037037037037 0.008854166666666666 0.017592592592592594
0 0.7916666666666666 0.25462962962962965 0.005729166666666666 0.014814814814814815
0 0.7947916666666667 0.2518518518518518 0.004166666666666667 0.013888888888888888
0 0.8109375 0.24444444444444444 0.005729166666666666 0.018518518518518517
0 0.809375 0.2537037037037037 0.005208333333333333 0.014814814814814815
1 0.8109375 0.25 0.009375 0.014814814814814815
1 0.48020833333333335 0.23055555555555557 0.005208333333333333 0.014814814814814815
0 0.5296875 0.19537037037037036 0.0046875 0.014814814814814815
1 0.5296875 0.20092592592592592 0.0078125 0.01574074074074074
0 0.5364583333333334 0.21944444444444444 0.0046875 0.025
1 0.5369791666666667 0.22685185185185186 0.009375 0.016666666666666666
0 0.5442708333333334 0.19166666666666668 0.0046875 0.012962962962962963
1 0.5442708333333334 0.19814814814814816 0.008854166666666666 0.014814814814814815
0 0.5479166666666667 0.22037037037037038 0.004166666666666667 0.022222222222222223
0 0.5546875 0.21574074074074073 0.004166666666666667 0.025
1 0.5802083333333333 0.2222222222222222 0.03125 0.023148148148148147
1 0.6 0.22685185185185186 0.030208333333333334 0.025925925925925925
1 0.5822916666666667 0.21296296296296297 0.030208333333333334 0.020370370370370372
1 0.5739583333333333 0.20462962962962963 0.028645833333333332 0.026851851851851852
1 0.5729166666666666 0.19907407407407407 0.027604166666666666 0.020370370370370372
1 0.6052083333333333 0.19074074074074074 0.0296875 0.026851851851851852
1 0.6151041666666667 0.20277777777777778 0.029166666666666667 0.027777777777777776
1 0.6322916666666667 0.19074074074074074 0.023958333333333335 0.023148148148148147
1 0.6369791666666667 0.18333333333333332 0.022916666666666665 0.018518518518518517
1 0.6442708333333333 0.19814814814814816 0.025520833333333333 0.020370370370370372
1 0.6427083333333333 0.21481481481481482 0.027604166666666666 0.026851851851851852
1 0.6583333333333333 0.22870370370370371 0.028125 0.024074074074074074
1 0.6671875 0.2388888888888889 0.027604166666666666 0.024074074074074074
1 0.6911458333333333 0.24259259259259258 0.029166666666666667 0.026851851851851852
1 0.7177083333333333 0.25555555555555554 0.0328125 0.026851851851851852
1 0.6776041666666667 0.2037037037037037 0.025520833333333333 0.032407407407407406
1 0.7130208333333333 0.22314814814814815 0.023958333333333335 0.023148148148148147
1 0.6598958333333333 0.18611111111111112 0.020833333333333332 0.018518518518518517
1 0.6708333333333333 0.19074074074074074 0.022395833333333334 0.019444444444444445
1 0.6848958333333334 0.1712962962962963 0.025 0.020370370370370372
1 0.6875 0.1787037037037037 0.018229166666666668 0.020370370370370372
1 0.69375 0.18425925925925926 0.021875 0.019444444444444445
1 0.7244791666666667 0.20833333333333334 0.025520833333333333 0.024074074074074074
1 0.7395833333333334 0.22685185185185186 0.027083333333333334 0.025
1 0.7609375 0.2351851851851852 0.022916666666666665 0.027777777777777776
1 0.7151041666666667 0.17222222222222222 0.019791666666666666 0.018518518518518517
1 0.7177083333333333 0.17685185185185184 0.020833333333333332 0.017592592592592594
1 0.7171875 0.18518518518518517 0.022916666666666665 0.019444444444444445
1 0.7317708333333334 0.18981481481481483 0.022395833333333334 0.022222222222222223
1 0.7416666666666667 0.16203703703703703 0.021354166666666667 0.019444444444444445
1 0.7427083333333333 0.17037037037037037 0.01875 0.018518518518518517
1 0.7463541666666667 0.17777777777777778 0.018229166666666668 0.016666666666666666
1 0.7479166666666667 0.14629629629629629 0.044270833333333336 0.037037037037037035
1 0.7671875 0.19722222222222222 0.025 0.026851851851851852
1 0.7911458333333333 0.2064814814814815 0.0234375 0.023148148148148147
1 0.803125 0.22314814814814815 0.025520833333333333 0.025
1 0.7640625 0.1814814814814815 0.021875 0.021296296296296296
1 0.7682291666666666 0.1712962962962963 0.0234375 0.019444444444444445
1 0.784375 0.17314814814814813 0.020833333333333332 0.019444444444444445
1 0.79375 0.1527777777777778 0.04375 0.046296296296296294
1 0.8015625 0.1685185185185185 0.018229166666666668 0.022222222222222223
1 0.821875 0.16111111111111112 0.017708333333333333 0.020370370370370372
1 0.83125 0.18518518518518517 0.021875 0.022222222222222223
1 0.8458333333333333 0.17222222222222222 0.0203125 0.021296296296296296
1 0.8760416666666667 0.18518518518518517 0.0203125 0.016666666666666666
1 0.8041666666666667 0.13518518518518519 0.0375 0.03333333333333333
1 0.8208333333333333 0.15462962962962962 0.013541666666666667 0.019444444444444445
1 0.7703125 0.16018518518518518 0.018229166666666668 0.01574074074074074
1 0.8255208333333334 0.14629629629629629 0.017708333333333333 0.017592592592592594
1 0.834375 0.1527777777777778 0.0171875 0.021296296296296296
1 0.8348958333333333 0.15925925925925927 0.018229166666666668 0.016666666666666666
1 0.8447916666666667 0.1361111111111111 0.014583333333333334 0.020370370370370372
1 0.9130208333333333 0.1824074074074074 0.0203125 0.017592592592592594
1 0.8953125 0.15185185185185185 0.0421875 0.04351851851851852
0 0.6791666666666667 0.1527777777777778 0.004166666666666667 0.013888888888888888
1 0.6796875 0.15925925925925927 0.0078125 0.012962962962962963
0 0.7005208333333334 0.14166666666666666 0.0036458333333333334 0.01574074074074074
0 0.6953125 0.15092592592592594 0.0036458333333333334 0.011111111111111112
1 0.6947916666666667 0.15462962962962962 0.005208333333333333 0.009259259259259259
0 0.7239583333333334 0.1388888888888889 0.003125 0.019444444444444445
