1 0.0661764705882353 0.5084967320261438 0.04632352941176471 0.08104575163398693
1 0.3095588235294118 0.6954248366013072 0.03602941176470588 0.09934640522875816
1 0.5441176470588235 0.6496732026143791 0.03676470588235294 0.09019607843137255
1 0.7279411764705882 0.6509803921568628 0.075 0.06405228758169934
1 0.4764705882352941 0.4418300653594771 0.027205882352941177 0.06013071895424837
1 0.3558823529411765 0.03398692810457516 0.013970588235294118 0.022222222222222223
1 0.6323529411764706 0.5281045751633987 0.075 0.05751633986928104
1 0.5985294117647059 0.19869281045751633 0.05 0.03398692810457516
1 0.5448529411764705 0.19738562091503267 0.04485294117647059 0.03529411764705882
1 0.5419117647058823 0.15163398692810456 0.03235294117647059 0.02483660130718954
1 0.5463235294117647 0.00784313725490196 0.0058823529411764705 0.01568627450980392
1 0.3764705882352941 0.01045751633986928 0.015441176470588236 0.022222222222222223
1 0.19338235294117648 0.14640522875816994 0.03897058823529412 0.09673202614379085
0 0.13088235294117648 0.07058823529411765 0.008088235294117648 0.02483660130718954
0 0.4007352941176471 0.4392156862745098 0.008823529411764706 0.026143790849673203
0 0.5073529411764706 0.43137254901960786 0.008088235294117648 0.02875816993464052
0 0.8433823529411765 0.7594771241830065 0.009558823529411765 0.030065359477124184
0 0.4485294117647059 0.15163398692810456 0.006617647058823529 0.022222222222222223
0 0.46838235294117647 0.06797385620915032 0.005147058823529412 0.023529411764705882
0 0.46911764705882353 0.12679738562091503 0.005147058823529412 0.02483660130718954
0 0.47352941176470587 0.12810457516339868 0.004411764705882353 0.02483660130718954
0 0.4647058823529412 0.06797385620915032 0.004411764705882353 0.023529411764705882
0 0.4823529411764706 0.12549019607843137 0.0058823529411764705 0.02483660130718954
0 0.6558823529411765 0.3032679738562091 0.008823529411764706 0.027450980392156862
1 0.2772058823529412 0.34248366013071896 0.027205882352941177 0.06797385620915032
1 0.6544117647058824 0.4549019607843137 0.10294117647058823 0.08104575163398693
1 0.5073529411764706 0.43790849673202614 0.008823529411764706 0.032679738562091505
1 0.4007352941176471 0.44575163398692813 0.008823529411764706 0.03137254901960784
1 0.4485294117647059 0.15947712418300652 0.0058823529411764705 0.023529411764705882
