1 0.4227941176470588 0.9437908496732026 0.057352941176470586 0.1084967320261438
1 0.5139705882352941 0.7189542483660131 0.052941176470588235 0.14901960784313725
1 0.09705882352941177 0.8169934640522876 0.15661764705882353 0.12026143790849673
1 0.17720588235294119 0.6849673202614379 0.14191176470588235 0.1111111111111111
0 0.09779411764705882 0.4366013071895425 0.013235294117647059 0.06274509803921569
0 0.10661764705882353 0.42483660130718953 0.015441176470588236 0.040522875816993466
1 0.26323529411764707 0.477124183006536 0.03602941176470588 0.036601307189542485
1 0.2661764705882353 0.44836601307189544 0.039705882352941174 0.03398692810457516
1 0.35 0.27058823529411763 0.0125 0.03398692810457516
1 0.3602941176470588 0.23398692810457516 0.008823529411764706 0.02875816993464052
0 0.37058823529411766 0.2326797385620915 0.007352941176470588 0.036601307189542485
1 0.3911764705882353 0.20130718954248367 0.008088235294117648 0.027450980392156862
0 0.39044117647058824 0.19084967320261437 0.008823529411764706 0.03137254901960784
1 0.4323529411764706 0.27058823529411763 0.03161764705882353 0.06797385620915032
1 0.37720588235294117 0.4588235294117647 0.011764705882352941 0.04967320261437908
0 0.3786764705882353 0.4418300653594771 0.014705882352941176 0.06143790849673202
1 0.4919117647058823 0.3686274509803922 0.03602941176470588 0.07058823529411765
1 0.5875 0.3411764705882353 0.020588235294117647 0.044444444444444446
1 0.48970588235294116 0.20915032679738563 0.023529411764705882 0.04183006535947712
1 0.2698529411764706 0.25359477124183005 0.021323529411764706 0.03137254901960784
1 0.2823529411764706 0.24183006535947713 0.022794117647058822 0.026143790849673203
1 0.35 0.1869281045751634 0.019852941176470587 0.02091503267973856
1 0.3492647058823529 0.16601307189542483 0.019852941176470587 0.02091503267973856
1 0.3375 0.07581699346405228 0.01838235294117647 0.0196078431372549
0 0.2875 0.09019607843137255 0.005147058823529412 0.022222222222222223
0 0.3375 0.0718954248366013 0.009558823529411765 0.023529411764705882
0 0.2757352941176471 0.043137254901960784 0.005147058823529412 0.02483660130718954
0 0.2823529411764706 0.043137254901960784 0.005147058823529412 0.023529411764705882
1 0.6301470588235294 0.6601307189542484 0.04926470588235294 0.13594771241830064
1 0.799264705882353 0.796078431372549 0.14926470588235294 0.12026143790849673
1 0.7272058823529411 0.6470588235294118 0.10147058823529412 0.09542483660130718
1 0.8529411764705882 0.6091503267973856 0.08602941176470588 0.13856209150326798
0 0.7654411764705882 0.5803921568627451 0.01764705882352941 0.06535947712418301
0 0.7794117647058824 0.5816993464052288 0.016911764705882352 0.06405228758169934
0 0.6889705882352941 0.4196078431372549 0.016176470588235296 0.04967320261437908
1 0.6536764705882353 0.3895424836601307 0.08088235294117647 0.06928104575163399
1 0.6088235294117647 0.2928104575163399 0.021323529411764706 0.02091503267973856
1 0.5411764705882353 0.2823529411764706 0.009558823529411765 0.03790849673202614
0 0.5419117647058823 0.27450980392156865 0.009558823529411765 0.03790849673202614
1 0.5536764705882353 0.21176470588235294 0.029411764705882353 0.05359477124183006
0 0.5301470588235294 0.1895424836601307 0.0058823529411764705 0.03790849673202614
1 0.5088235294117647 0.13725490196078433 0.021323529411764706 0.0392156862745098
1 0.5036764705882353 0.10326797385620914 0.006617647058823529 0.0196078431372549
0 0.5036764705882353 0.09411764705882353 0.007352941176470588 0.0196078431372549
1 0.5441176470588235 0.01699346405228758 0.010294117647058823 0.01437908496732026
1 0.5301470588235294 0.01568627450980392 0.011029411764705883 0.013071895424836602
1 0.42426470588235293 0.12810457516339868 0.021323529411764706 0.048366013071895426
1 0.36176470588235293 0.09934640522875816 0.020588235294117647 0.01568627450980392
1 0.3889705882352941 0.10980392156862745 0.013970588235294118 0.01699346405228758
0 0.3875 0.10196078431372549 0.008823529411764706 0.03398692810457516
1 0.42205882352941176 0.07712418300653595 0.04264705882352941 0.03398692810457516
1 0.33897058823529413 0.043137254901960784 0.013235294117647059 0.027450980392156862
1 0.4470588235294118 0.06535947712418301 0.016176470588235296 0.03137254901960784
1 0.45955882352941174 0.09411764705882353 0.009558823529411765 0.01699346405228758
0 0.46176470588235297 0.09019607843137255 0.0058823529411764705 0.02091503267973856
0 0.4588235294117647 0.08888888888888889 0.007352941176470588 0.026143790849673203
1 0.5 0.0457516339869281 0.005147058823529412 0.0196078431372549
0 0.5 0.040522875816993466 0.005147058823529412 0.018300653594771243
1 0.48161764705882354 0.048366013071895426 0.016176470588235296 0.02483660130718954
1 0.3948529411764706 0.03137254901960784 0.0058823529411764705 0.01699346405228758
0 0.3948529411764706 0.027450980392156862 0.0058823529411764705 0.022222222222222223
1 0.4455882352941177 0.01045751633986928 0.014705882352941176 0.022222222222222223
