0 0.3941176470588235 0.02091503267973856 0.0029411764705882353 0.01699346405228758
1 0.39191176470588235 0.08235294117647059 0.01911764705882353 0.027450980392156862
1 0.0625 0.6823529411764706 0.022794117647058822 0.06143790849673202
1 0.15441176470588236 0.8339869281045752 0.10661764705882353 0.08235294117647059
1 0.2566176470588235 0.6535947712418301 0.08676470588235294 0.06405228758169934
1 0.27941176470588236 0.5751633986928104 0.08235294117647059 0.07320261437908497
1 0.2875 0.534640522875817 0.08308823529411764 0.054901960784313725
1 0.2985294117647059 0.9215686274509803 0.08676470588235294 0.15555555555555556
1 0.3 0.7529411764705882 0.06911764705882353 0.14901960784313725
1 0.3477941176470588 0.6209150326797386 0.05588235294117647 0.09673202614379085
1 0.5632352941176471 0.9176470588235294 0.014705882352941176 0.0784313725490196
0 0.5617647058823529 0.9032679738562092 0.01764705882352941 0.06535947712418301
0 0.5794117647058824 0.6483660130718955 0.011764705882352941 0.06405228758169934
1 0.6455882352941177 0.734640522875817 0.05220588235294118 0.12810457516339868
1 0.6264705882352941 0.6235294117647059 0.07279411764705883 0.0915032679738562
1 0.6227941176470588 0.5424836601307189 0.04338235294117647 0.09411764705882353
0 0.5808823529411765 0.42091503267973857 0.008823529411764706 0.043137254901960784
1 0.6051470588235294 0.44575163398692813 0.03529411764705882 0.05751633986928104
0 0.5455882352941176 0.3032679738562091 0.006617647058823529 0.036601307189542485
1 0.5713235294117647 0.29150326797385623 0.041176470588235294 0.040522875816993466
1 0.5926470588235294 0.31895424836601305 0.026470588235294117 0.047058823529411764
1 0.6676470588235294 0.047058823529411764 0.047058823529411764 0.036601307189542485
1 0.6977941176470588 0.07581699346405228 0.023529411764705882 0.022222222222222223
0 0.7102941176470589 0.06666666666666667 0.004411764705882353 0.0196078431372549
1 0.7389705882352942 0.24444444444444444 0.03235294117647059 0.03398692810457516
1 0.7308823529411764 0.2169934640522876 0.030882352941176472 0.0392156862745098
1 0.7073529411764706 0.24183006535947713 0.026470588235294117 0.0392156862745098
1 0.6764705882352942 0.24705882352941178 0.029411764705882353 0.03529411764705882
1 0.6198529411764706 0.2196078431372549 0.020588235294117647 0.040522875816993466
1 0.6507352941176471 0.2169934640522876 0.026470588235294117 0.0392156862745098
1 0.6794117647058824 0.21830065359477124 0.023529411764705882 0.03529411764705882
1 0.7022058823529411 0.21568627450980393 0.030882352941176472 0.0392156862745098
1 0.6485294117647059 0.24183006535947713 0.023529411764705882 0.04183006535947712
1 0.5889705882352941 0.13202614379084968 0.016911764705882352 0.032679738562091505
1 0.5963235294117647 0.1607843137254902 0.019852941176470587 0.027450980392156862
1 0.6132352941176471 0.14248366013071895 0.01911764705882353 0.02483660130718954
1 0.6213235294117647 0.16209150326797386 0.019852941176470587 0.02875816993464052
1 0.6448529411764706 0.15816993464052287 0.021323529411764706 0.030065359477124184
1 0.6558823529411765 0.13986928104575164 0.019852941176470587 0.027450980392156862
1 0.6779411764705883 0.13856209150326798 0.023529411764705882 0.03398692810457516
1 0.6985294117647058 0.13725490196078433 0.022794117647058822 0.030065359477124184
1 0.7125 0.1542483660130719 0.01764705882352941 0.032679738562091505
1 0.6911764705882353 0.15816993464052287 0.023529411764705882 0.027450980392156862
1 0.6683823529411764 0.1607843137254902 0.019852941176470587 0.026143790849673203
1 0.4764705882352941 0.011764705882352941 0.022058823529411766 0.0196078431372549
1 0.40588235294117647 0.05620915032679739 0.026470588235294117 0.01699346405228758
1 0.4823529411764706 0.06274509803921569 0.0125 0.0196078431372549
1 0.4963235294117647 0.006535947712418301 0.009558823529411765 0.013071895424836602
1 0.5897058823529412 0.09281045751633987 0.03602941176470588 0.02875816993464052
1 0.5838235294117647 0.07712418300653595 0.03455882352941177 0.02875816993464052
0 0.5595588235294118 0.08888888888888889 0.004411764705882353 0.022222222222222223
0 0.5558823529411765 0.09019607843137255 0.003676470588235294 0.02091503267973856
0 0.5544117647058824 0.06274509803921569 0.003676470588235294 0.018300653594771243
0 0.5580882352941177 0.0392156862745098 0.0029411764705882353 0.01568627450980392
1 0.5558823529411765 0.01568627450980392 0.008823529411764706 0.013071895424836602
0 0.5514705882352942 0.08888888888888889 0.004411764705882353 0.02091503267973856
0 0.5448529411764705 0.13594771241830064 0.004411764705882353 0.02091503267973856
0 0.5448529411764705 0.13856209150326798 0.003676470588235294 0.01568627450980392
1 0.5448529411764705 0.13986928104575164 0.004411764705882353 0.018300653594771243
1 0.5316176470588235 0.04967320261437908 0.011764705882352941 0.018300653594771243
1 0.5323529411764706 0.0718954248366013 0.013235294117647059 0.030065359477124184
1 0.5117647058823529 0.08366013071895424 0.0125 0.0196078431372549
1 0.5014705882352941 0.10980392156862745 0.013235294117647059 0.02483660130718954
0 0.5419117647058823 0.0196078431372549 0.003676470588235294 0.01568627450980392
0 0.5433823529411764 0.03398692810457516 0.003676470588235294 0.01437908496732026
1 0.5433823529411764 0.03790849673202614 0.0029411764705882353 0.013071895424836602
1 0.4727941176470588 0.15816993464052287 0.01764705882352941 0.03398692810457516
1 0.43676470588235294 0.6235294117647059 0.011029411764705883 0.05620915032679739
0 0.43676470588235294 0.6039215686274509 0.011029411764705883 0.050980392156862744
1 0.45073529411764707 0.1869281045751634 0.008823529411764706 0.023529411764705882
0 0.45 0.18169934640522875 0.0058823529411764705 0.02483660130718954
1 0.4147058823529412 0.15555555555555556 0.04191176470588235 0.027450980392156862
1 0.4147058823529412 0.16732026143790849 0.03676470588235294 0.027450980392156862
1 0.3897058823529412 0.21176470588235294 0.051470588235294115 0.03398692810457516
1 0.38529411764705884 0.23921568627450981 0.05 0.03398692810457516
1 0.37941176470588234 0.25359477124183005 0.01838235294117647 0.01699346405228758
1 0.3735294117647059 0.2601307189542484 0.01764705882352941 0.018300653594771243
1 0.37426470588235294 0.3058823529411765 0.05073529411764706 0.040522875816993466
1 0.3588235294117647 0.3359477124183007 0.051470588235294115 0.047058823529411764
1 0.32794117647058824 0.3673202614379085 0.057352941176470586 0.04183006535947712
1 0.31838235294117645 0.3869281045751634 0.04852941176470588 0.027450980392156862
1 0.3161764705882353 0.4117647058823529 0.04852941176470588 0.036601307189542485
1 0.31691176470588234 0.4339869281045752 0.05514705882352941 0.044444444444444446
1 0.3625 0.4013071895424837 0.03455882352941177 0.06013071895424837
1 0.30367647058823527 0.4522875816993464 0.05220588235294118 0.05359477124183006
1 0.3911764705882353 0.43137254901960786 0.03161764705882353 0.05359477124183006
1 0.4102941176470588 0.43790849673202614 0.006617647058823529 0.03137254901960784
0 0.4102941176470588 0.4261437908496732 0.009558823529411765 0.03790849673202614
1 0.41691176470588237 0.33725490196078434 0.03161764705882353 0.06797385620915032
