1 0.9677083333333333 0.5453703703703704 0.018229166666666668 0.03425925925925926
0 0.9901041666666667 0.5805555555555556 0.013541666666666667 0.025925925925925925
0 0.9916666666666667 0.6231481481481481 0.015104166666666667 0.025
0 0.9822916666666667 0.6194444444444445 0.009895833333333333 0.025
0 0.9796875 0.6166666666666667 0.008333333333333333 0.025925925925925925
1 0.5708333333333333 0.9703703703703703 0.015104166666666667 0.058333333333333334
0 0.5708333333333333 0.9574074074074074 0.015104166666666667 0.049074074074074076
0 0.5859375 0.7555555555555555 0.011458333333333333 0.040740740740740744
1 0.5703125 0.7111111111111111 0.03333333333333333 0.06481481481481481
1 0.4552083333333333 0.7231481481481481 0.011979166666666667 0.05925925925925926
1 0.5291666666666667 0.7296296296296296 0.010416666666666666 0.04351851851851852
0 0.5286458333333334 0.7231481481481481 0.009895833333333333 0.032407407407407406
1 0.5447916666666667 0.8046296296296296 0.015625 0.06111111111111111
0 0.5442708333333334 0.8111111111111111 0.009375 0.03611111111111111
0 0.54375 0.8037037037037037 0.011458333333333333 0.03333333333333333
1 0.5447916666666667 0.5953703703703703 0.008854166666666666 0.026851851851851852
0 0.5458333333333333 0.5888888888888889 0.009895833333333333 0.032407407407407406
1 0.5177083333333333 0.6055555555555555 0.008333333333333333 0.027777777777777776
0 0.5177083333333333 0.5972222222222222 0.0078125 0.024074074074074074
1 0.5276041666666667 0.5981481481481481 0.008854166666666666 0.03518518518518519
0 0.528125 0.5953703703703703 0.007291666666666667 0.024074074074074074
1 0.46197916666666666 0.5648148148148148 0.01875 0.04537037037037037
0 0.48333333333333334 0.4583333333333333 0.004166666666666667 0.023148148148148147
1 0.4765625 0.48703703703703705 0.0078125 0.021296296296296296
0 0.4765625 0.48148148148148145 0.0067708333333333336 0.021296296296296296
1 0.45208333333333334 0.45555555555555555 0.016666666666666666 0.027777777777777776
1 0.5395833333333333 0.48333333333333334 0.015104166666666667 0.027777777777777776
1 0.4734375 0.42685185185185187 0.005208333333333333 0.020370370370370372
1 0.4947916666666667 0.48055555555555557 0.011458333333333333 0.03888888888888889
0 0.4942708333333333 0.4824074074074074 0.005729166666666666 0.018518518518518517
1 0.5395833333333333 0.4398148148148148 0.0140625 0.030555555555555555
1 0.5317708333333333 0.42407407407407405 0.01875 0.030555555555555555
1 0.5177083333333333 0.4361111111111111 0.004166666666666667 0.019444444444444445
0 0.5171875 0.4324074074074074 0.005729166666666666 0.022222222222222223
1 0.5489583333333333 0.3814814814814815 0.013020833333333334 0.025
1 0.509375 0.43333333333333335 0.005208333333333333 0.018518518518518517
0 0.509375 0.42777777777777776 0.0046875 0.017592592592592594
1 0.5286458333333334 0.387037037037037 0.014583333333333334 0.022222222222222223
1 0.5229166666666667 0.3685185185185185 0.013541666666666667 0.021296296296296296
1 0.525 0.3592592592592593 0.013020833333333334 0.021296296296296296
1 0.540625 0.3611111111111111 0.011979166666666667 0.018518518518518517
1 0.5359375 0.34629629629629627 0.01875 0.019444444444444445
1 0.5369791666666667 0.3333333333333333 0.011458333333333333 0.017592592592592594
1 0.5338541666666666 0.30648148148148147 0.01875 0.019444444444444445
1 0.509375 0.40370370370370373 0.004166666666666667 0.01574074074074074
0 0.5088541666666667 0.4 0.0046875 0.018518518518518517
1 0.5192708333333333 0.32222222222222224 0.011458333333333333 0.020370370370370372
1 0.5203125 0.31574074074074077 0.010416666666666666 0.017592592592592594
1 0.5208333333333334 0.33796296296296297 0.008854166666666666 0.013888888888888888
0 0.5208333333333334 0.33425925925925926 0.004166666666666667 0.012037037037037037
1 0.46875 0.3277777777777778 0.0036458333333333334 0.014814814814814815
0 0.46875 0.325 0.0026041666666666665 0.014814814814814815
1 0.5 0.34629629629629627 0.005208333333333333 0.014814814814814815
0 0.49947916666666664 0.3435185185185185 0.0046875 0.01574074074074074
1 0.5098958333333333 0.3472222222222222 0.004166666666666667 0.013888888888888888
0 0.5104166666666666 0.3472222222222222 0.003125 0.010185185185185186
0 0.5098958333333333 0.34444444444444444 0.0036458333333333334 0.014814814814814815
1 0.47604166666666664 0.3074074074074074 0.0036458333333333334 0.011111111111111112
0 0.47604166666666664 0.30462962962962964 0.0026041666666666665 0.012037037037037037
