1 0.3786764705882353 0.9660130718954248 0.06691176470588235 0.06666666666666667
1 0.3492647058823529 0.8679738562091504 0.0625 0.12026143790849673
1 0.2639705882352941 0.9241830065359478 0.06470588235294118 0.14248366013071895
1 0.22720588235294117 0.788235294117647 0.052941176470588235 0.11372549019607843
1 0.3125 0.74640522875817 0.05661764705882353 0.10196078431372549
1 0.27794117647058825 0.6535947712418301 0.05220588235294118 0.08496732026143791
1 0.20147058823529412 0.6705882352941176 0.05 0.09803921568627451
1 0.1801470588235294 0.5830065359477125 0.04191176470588235 0.06928104575163399
1 0.24705882352941178 0.5712418300653594 0.04338235294117647 0.07450980392156863
1 0.16691176470588234 0.5032679738562091 0.03602941176470588 0.05751633986928104
1 0.23529411764705882 0.4954248366013072 0.04338235294117647 0.07450980392156863
1 0.2125 0.44052287581699345 0.03235294117647059 0.048366013071895426
1 0.15588235294117647 0.44313725490196076 0.03529411764705882 0.05620915032679739
1 0.20147058823529412 0.37254901960784315 0.041176470588235294 0.08496732026143791
1 0.18235294117647058 0.3516339869281046 0.027205882352941177 0.036601307189542485
1 0.13970588235294118 0.38823529411764707 0.030882352941176472 0.044444444444444446
1 0.13602941176470587 0.34248366013071896 0.027941176470588237 0.03790849673202614
1 0.11838235294117647 0.2954248366013072 0.027205882352941177 0.04183006535947712
1 0.1463235294117647 0.25620915032679736 0.019852941176470587 0.030065359477124184
1 0.16176470588235295 0.28627450980392155 0.03529411764705882 0.06928104575163399
1 0.10588235294117647 0.24836601307189543 0.021323529411764706 0.03529411764705882
1 0.09485294117647058 0.2065359477124183 0.019852941176470587 0.02875816993464052
1 0.12352941176470589 0.19215686274509805 0.01838235294117647 0.027450980392156862
1 0.13014705882352942 0.2196078431372549 0.01764705882352941 0.032679738562091505
1 0.11029411764705882 0.14640522875816994 0.03308823529411765 0.07450980392156863
1 0.0838235294117647 0.14248366013071895 0.015441176470588236 0.02091503267973856
1 0.07205882352941176 0.10457516339869281 0.022794117647058822 0.04967320261437908
1 0.08823529411764706 0.07450980392156863 0.016176470588235296 0.03137254901960784
1 0.06323529411764706 0.07058823529411765 0.01764705882352941 0.03790849673202614
1 0.06102941176470588 0.048366013071895426 0.009558823529411765 0.01437908496732026
1 0.05955882352941176 0.040522875816993466 0.010294117647058823 0.01568627450980392
1 0.05955882352941176 0.023529411764705882 0.009558823529411765 0.011764705882352941
1 0.060294117647058824 0.02875816993464052 0.007352941176470588 0.01568627450980392
1 0.057352941176470586 0.01045751633986928 0.0125 0.02091503267973856
1 0.075 0.00522875816993464 0.011029411764705883 0.01045751633986928
1 0.08088235294117647 0.06274509803921569 0.009558823529411765 0.01437908496732026
1 0.07941176470588235 0.054901960784313725 0.010294117647058823 0.01437908496732026
1 0.07941176470588235 0.048366013071895426 0.009558823529411765 0.013071895424836602
1 0.07720588235294118 0.040522875816993466 0.008088235294117648 0.01568627450980392
1 0.07573529411764705 0.03529411764705882 0.008823529411764706 0.01437908496732026
1 0.07647058823529412 0.02875816993464052 0.009558823529411765 0.013071895424836602
1 0.075 0.01437908496732026 0.009558823529411765 0.013071895424836602
1 0.075 0.02091503267973856 0.010294117647058823 0.01568627450980392
