0 0.3448529411764706 0.9633986928104575 0.016176470588235296 0.07320261437908497
0 0.34852941176470587 0.9738562091503268 0.010294117647058823 0.050980392156862744
1 0.4860294117647059 0.9150326797385621 0.12279411764705882 0.16993464052287582
1 0.9477941176470588 0.9150326797385621 0.08014705882352942 0.07973856209150326
0 0.950735294117647 0.9084967320261438 0.030882352941176472 0.06797385620915032
0 0.8772058823529412 0.7450980392156863 0.025 0.07320261437908497
1 0.8860294117647058 0.6287581699346405 0.06911764705882353 0.12810457516339868
1 0.6426470588235295 0.6549019607843137 0.09852941176470588 0.12287581699346405
0 0.6066176470588235 0.5359477124183006 0.011029411764705883 0.05228758169934641
1 0.5397058823529411 0.5516339869281046 0.0838235294117647 0.10326797385620914
1 0.17573529411764705 0.730718954248366 0.09338235294117647 0.12941176470588237
1 0.10294117647058823 0.6104575163398693 0.075 0.12156862745098039
1 0.07426470588235294 0.5071895424836601 0.07058823529411765 0.09411764705882353
1 0.2375 0.5477124183006536 0.08897058823529412 0.1411764705882353
1 0.42720588235294116 0.4 0.07058823529411765 0.08627450980392157
1 0.2977941176470588 0.34901960784313724 0.054411764705882354 0.06013071895424837
1 0.1875 0.3477124183006536 0.05588235294117647 0.06143790849673202
1 0.23088235294117648 0.29934640522875816 0.052941176470588235 0.054901960784313725
1 0.24779411764705883 0.22745098039215686 0.06470588235294118 0.05359477124183006
1 0.22794117647058823 0.2169934640522876 0.06102941176470588 0.043137254901960784
1 0.011029411764705883 0.2522875816993464 0.022794117647058822 0.058823529411764705
1 0.0625 0.09411764705882353 0.01838235294117647 0.02091503267973856
0 0.04779411764705882 0.09934640522875816 0.008088235294117648 0.03137254901960784
1 0.05 0.07712418300653595 0.016176470588235296 0.0196078431372549
1 0.04632352941176471 0.07450980392156863 0.014705882352941176 0.022222222222222223
1 0.09264705882352942 0.12287581699346405 0.01838235294117647 0.023529411764705882
1 0.08529411764705883 0.13202614379084968 0.02426470588235294 0.036601307189542485
0 0.1264705882352941 0.11503267973856209 0.006617647058823529 0.030065359477124184
1 0.1213235294117647 0.13725490196078433 0.025 0.03137254901960784
