0 0.31323529411764706 0.7241830065359477 0.013970588235294118 0.07450980392156863
0 0.3411764705882353 0.7215686274509804 0.027205882352941177 0.06405228758169934
0 0.4161764705882353 0.74640522875817 0.026470588235294117 0.07450980392156863
0 0.3698529411764706 0.8248366013071895 0.03529411764705882 0.1111111111111111
0 0.4772058823529412 0.8117647058823529 0.025735294117647058 0.12026143790849673
0 0.5220588235294118 0.6993464052287581 0.019852941176470587 0.10718954248366012
0 0.5036764705882353 0.6888888888888889 0.01911764705882353 0.03790849673202614
1 0.5404411764705882 0.9058823529411765 0.0375 0.13202614379084968
0 0.5161764705882353 0.9699346405228758 0.02426470588235294 0.054901960784313725
0 0.6294117647058823 0.7581699346405228 0.02426470588235294 0.11241830065359477
0 0.8426470588235294 0.8928104575163399 0.028676470588235293 0.09934640522875816
0 0.8139705882352941 0.8862745098039215 0.026470588235294117 0.10457516339869281
0 0.7661764705882353 0.9241830065359478 0.04852941176470588 0.11895424836601307
0 0.7470588235294118 0.8496732026143791 0.03897058823529412 0.07581699346405228
0 0.7573529411764706 0.7281045751633987 0.03235294117647059 0.11503267973856209
0 0.9801470588235294 0.9529411764705882 0.039705882352941174 0.08758169934640522
1 0.9323529411764706 0.7477124183006536 0.058823529411764705 0.15555555555555556
0 0.8867647058823529 0.7411764705882353 0.0375 0.11372549019607843
0 0.6654411764705882 0.673202614379085 0.01838235294117647 0.09934640522875816
0 0.6573529411764706 0.6379084967320261 0.025 0.09411764705882353
0 0.5955882352941176 0.6418300653594772 0.022794117647058822 0.08496732026143791
0 0.5610294117647059 0.6287581699346405 0.01764705882352941 0.09934640522875816
0 0.5441176470588235 0.5908496732026144 0.01911764705882353 0.09803921568627451
0 0.5235294117647059 0.5359477124183006 0.01764705882352941 0.09803921568627451
0 0.6073529411764705 0.5777777777777777 0.015441176470588236 0.09411764705882353
0 0.6522058823529412 0.5424836601307189 0.01838235294117647 0.08758169934640522
0 0.7294117647058823 0.5947712418300654 0.026470588235294117 0.10196078431372549
0 0.8022058823529412 0.5751633986928104 0.021323529411764706 0.08627450980392157
0 0.8191176470588235 0.5699346405228758 0.029411764705882353 0.10196078431372549
0 0.8154411764705882 0.5228758169934641 0.019852941176470587 0.07712418300653595
0 0.8352941176470589 0.5437908496732026 0.023529411764705882 0.09019607843137255
0 0.8426470588235294 0.515032679738562 0.028676470588235293 0.08235294117647059
0 0.861764705882353 0.5137254901960784 0.022058823529411766 0.0784313725490196
1 0.8948529411764706 0.5934640522875817 0.04485294117647059 0.06797385620915032
0 0.8286764705882353 0.44575163398692813 0.021323529411764706 0.06143790849673202
0 0.8183823529411764 0.4222222222222222 0.014705882352941176 0.05228758169934641
0 0.8036764705882353 0.38300653594771245 0.01838235294117647 0.0784313725490196
0 0.4485294117647059 0.15163398692810456 0.011764705882352941 0.04967320261437908
1 0.8544117647058823 0.17777777777777778 0.05588235294117647 0.07058823529411765
1 0.8897058823529411 0.16470588235294117 0.06470588235294118 0.06535947712418301
1 0.9705882352941176 0.24705882352941178 0.04926470588235294 0.07058823529411765
1 0.9683823529411765 0.15163398692810456 0.051470588235294115 0.058823529411764705
0 0.7492647058823529 0.4130718954248366 0.015441176470588236 0.06013071895424837
0 0.7264705882352941 0.4169934640522876 0.016911764705882352 0.058823529411764705
0 0.75 0.33986928104575165 0.019852941176470587 0.07320261437908497
1 0.6477941176470589 0.24052287581699347 0.12426470588235294 0.09281045751633987
0 0.5823529411764706 0.5254901960784314 0.016911764705882352 0.0784313725490196
0 0.5514705882352942 0.4797385620915033 0.016911764705882352 0.08235294117647059
0 0.5360294117647059 0.4470588235294118 0.016911764705882352 0.08366013071895424
0 0.5080882352941176 0.4091503267973856 0.01838235294117647 0.06535947712418301
0 0.4889705882352941 0.3803921568627451 0.013970588235294118 0.06666666666666667
0 0.44191176470588234 0.37777777777777777 0.0125 0.07973856209150326
0 0.4985294117647059 0.49673202614379086 0.015441176470588236 0.08366013071895424
0 0.4823529411764706 0.4588235294117647 0.014705882352941176 0.07973856209150326
0 0.45955882352941174 0.42091503267973857 0.01764705882352941 0.06666666666666667
0 0.6323529411764706 0.5045751633986928 0.01764705882352941 0.07450980392156863
0 0.6022058823529411 0.477124183006536 0.01764705882352941 0.07058823529411765
0 0.5720588235294117 0.4300653594771242 0.016176470588235296 0.08104575163398693
0 0.5389705882352941 0.4013071895424837 0.013970588235294118 0.06274509803921569
0 0.5308823529411765 0.3764705882352941 0.013235294117647059 0.06143790849673202
0 0.6507352941176471 0.469281045751634 0.014705882352941176 0.06928104575163399
0 0.6095588235294118 0.42745098039215684 0.013970588235294118 0.07712418300653595
0 0.5830882352941177 0.3934640522875817 0.015441176470588236 0.06797385620915032
0 0.5720588235294117 0.3764705882352941 0.011764705882352941 0.0457516339869281
0 0.6389705882352941 0.4196078431372549 0.013970588235294118 0.08235294117647059
0 0.6235294117647059 0.37777777777777777 0.009558823529411765 0.07450980392156863
0 0.6110294117647059 0.3673202614379085 0.014705882352941176 0.09281045751633987
0 0.5786764705882353 0.3241830065359477 0.013970588235294118 0.06143790849673202
0 0.5735294117647058 0.29411764705882354 0.013235294117647059 0.05751633986928104
0 0.663235294117647 0.41568627450980394 0.014705882352941176 0.07973856209150326
0 0.6948529411764706 0.403921568627451 0.0125 0.08104575163398693
0 0.7044117647058824 0.35555555555555557 0.013970588235294118 0.036601307189542485
0 0.6948529411764706 0.35555555555555557 0.011764705882352941 0.030065359477124184
0 0.6529411764705882 0.3542483660130719 0.013235294117647059 0.06797385620915032
0 0.6294117647058823 0.330718954248366 0.013235294117647059 0.04967320261437908
0 0.6367647058823529 0.29673202614379085 0.0125 0.04967320261437908
0 0.6735294117647059 0.3281045751633987 0.013235294117647059 0.06666666666666667
1 0.6639705882352941 0.3359477124183007 0.008088235294117648 0.05620915032679739
