1 0.44375 0.7185185185185186 0.036458333333333336 0.07407407407407407
1 0.50625 0.8092592592592592 0.040625 0.07962962962962963
1 0.5041666666666667 0.7092592592592593 0.034375 0.06296296296296296
1 0.5 0.6407407407407407 0.022916666666666665 0.05925925925925926
1 0.5041666666666667 0.587037037037037 0.023958333333333335 0.053703703703703705
1 0.4666666666666667 0.5111111111111111 0.020833333333333332 0.040740740740740744
1 0.5104166666666666 0.4888888888888889 0.016666666666666666 0.03148148148148148
1 0.47291666666666665 0.42777777777777776 0.011458333333333333 0.020370370370370372
1 0.3333333333333333 0.6888888888888889 0.023958333333333335 0.053703703703703705
1 0.359375 0.7129629629629629 0.05 0.040740740740740744
1 0.371875 0.6796296296296296 0.04375 0.04259259259259259
1 0.6291666666666667 0.85 0.028125 0.027777777777777776
1 0.64375 0.8666666666666667 0.017708333333333333 0.07222222222222222
1 0.3177083333333333 0.8314814814814815 0.034375 0.03518518518518519
1 0.2760416666666667 0.975925925925926 0.036458333333333336 0.04259259259259259
1 0.3802083333333333 0.9 0.013541666666666667 0.05185185185185185
1 0.29583333333333334 0.9222222222222223 0.046875 0.03333333333333333
1 0.33229166666666665 0.9277777777777778 0.013541666666666667 0.04259259259259259
1 0.3104166666666667 0.8666666666666667 0.046875 0.03333333333333333
1 0.321875 0.8814814814814815 0.03333333333333333 0.037037037037037035
0 0.27708333333333335 0.8740740740740741 0.011458333333333333 0.06666666666666667
0 0.40625 0.512962962962963 0.007291666666666667 0.02962962962962963
0 0.38125 0.8722222222222222 0.013541666666666667 0.03888888888888889
0 0.33541666666666664 0.912962962962963 0.016666666666666666 0.05555555555555555
0 0.41875 0.5925925925925926 0.007291666666666667 0.025925925925925925
0 0.43854166666666666 0.5574074074074075 0.008333333333333333 0.02962962962962963
0 0.5572916666666666 0.4962962962962963 0.00625 0.022222222222222223
1 0.5177083333333333 0.562962962962963 0.01875 0.03518518518518519
1 0.5385416666666667 0.5370370370370371 0.00625 0.02962962962962963
1 0.45208333333333334 0.575925925925926 0.009375 0.037037037037037035
1 0.4875 0.3314814814814815 0.008333333333333333 0.018518518518518517
1 0.4864583333333333 0.3611111111111111 0.010416666666666666 0.012962962962962963
0 0.5333333333333333 0.42962962962962964 0.004166666666666667 0.027777777777777776
1 0.4625 0.4425925925925926 0.007291666666666667 0.025925925925925925
1 0.5770833333333333 0.42592592592592593 0.0125 0.024074074074074074
0 0.4666666666666667 0.39814814814814814 0.007291666666666667 0.022222222222222223
1 0.521875 0.45740740740740743 0.010416666666666666 0.022222222222222223
0 0.571875 0.5314814814814814 0.007291666666666667 0.022222222222222223
0 0.41041666666666665 0.5592592592592592 0.010416666666666666 0.027777777777777776
0 0.42291666666666666 0.5574074074074075 0.007291666666666667 0.025925925925925925
1 0.490625 0.38333333333333336 0.003125 0.020370370370370372
1 0.5 0.3851851851851852 0.003125 0.020370370370370372
0 0.42916666666666664 0.45 0.004166666666666667 0.025925925925925925
1 0.46979166666666666 0.37222222222222223 0.004166666666666667 0.009259259259259259
1 0.475 0.35 0.005208333333333333 0.016666666666666666
