1 0.3264705882352941 0.8444444444444444 0.014705882352941176 0.054901960784313725
1 0.3316176470588235 0.6888888888888889 0.019852941176470587 0.06274509803921569
1 0.3382352941176471 0.6052287581699346 0.01838235294117647 0.06928104575163399
1 0.40441176470588236 0.5254901960784314 0.013970588235294118 0.06405228758169934
1 0.4073529411764706 0.4496732026143791 0.016911764705882352 0.06405228758169934
1 0.46397058823529413 0.807843137254902 0.01764705882352941 0.06797385620915032
1 0.575735294117647 0.7816993464052288 0.016176470588235296 0.06928104575163399
1 0.5794117647058824 0.6901960784313725 0.01838235294117647 0.07058823529411765
1 0.575735294117647 0.6183006535947713 0.015441176470588236 0.06143790849673202
1 0.48970588235294116 0.954248366013072 0.007352941176470588 0.026143790849673203
0 0.4889705882352941 0.9607843137254902 0.006617647058823529 0.00784313725490196
0 0.5735294117647058 0.9281045751633987 0.0058823529411764705 0.01437908496732026
0 0.4948529411764706 0.8261437908496732 0.006617647058823529 0.01568627450980392
1 0.6272058823529412 0.6980392156862745 0.010294117647058823 0.01699346405228758
1 0.6455882352941177 0.5843137254901961 0.03823529411764706 0.03529411764705882
1 0.7867647058823529 0.5934640522875817 0.03235294117647059 0.023529411764705882
0 0.8147058823529412 0.5816993464052288 0.004411764705882353 0.009150326797385621
1 0.8727941176470588 0.5176470588235295 0.03676470588235294 0.02875816993464052
1 0.8242647058823529 0.3058823529411765 0.01911764705882353 0.07058823529411765
0 0.8117647058823529 0.28104575163398693 0.004411764705882353 0.018300653594771243
0 0.8433823529411765 0.2549019607843137 0.009558823529411765 0.013071895424836602
0 0.8551470588235294 0.25620915032679736 0.007352941176470588 0.013071895424836602
1 0.9198529411764705 0.31895424836601305 0.03308823529411765 0.026143790849673203
1 0.9227941176470589 0.2718954248366013 0.03602941176470588 0.030065359477124184
1 0.9191176470588235 0.23921568627450981 0.03602941176470588 0.02875816993464052
1 0.9139705882352941 0.1895424836601307 0.03676470588235294 0.03137254901960784
1 0.9117647058823529 0.1450980392156863 0.03455882352941177 0.032679738562091505
1 0.913235294117647 0.10457516339869281 0.03235294117647059 0.048366013071895426
1 0.8198529411764706 0.18169934640522875 0.033823529411764704 0.030065359477124184
1 0.8220588235294117 0.12287581699346405 0.03455882352941177 0.027450980392156862
1 0.9529411764705882 0.06405228758169934 0.027205882352941177 0.06405228758169934
0 0.35955882352941176 0.5542483660130719 0.006617647058823529 0.01437908496732026
1 0.2963235294117647 0.5176470588235295 0.011764705882352941 0.0457516339869281
0 0.3095588235294118 0.5111111111111111 0.0058823529411764705 0.009150326797385621
0 0.31691176470588234 0.5058823529411764 0.004411764705882353 0.011764705882352941
0 0.31176470588235294 0.5045751633986928 0.0058823529411764705 0.009150326797385621
0 0.31176470588235294 0.48366013071895425 0.0058823529411764705 0.01045751633986928
0 0.3029411764705882 0.49019607843137253 0.006617647058823529 0.00784313725490196
0 0.30661764705882355 0.48366013071895425 0.004411764705882353 0.01045751633986928
0 0.3044117647058823 0.4993464052287582 0.0058823529411764705 0.00784313725490196
0 0.3191176470588235 0.49673202614379086 0.0058823529411764705 0.01568627450980392
1 0.34191176470588236 0.4797385620915033 0.007352941176470588 0.022222222222222223
1 0.3360294117647059 0.5215686274509804 0.008088235294117648 0.02091503267973856
0 0.3220588235294118 0.5189542483660131 0.005147058823529412 0.009150326797385621
0 0.3779411764705882 0.30718954248366015 0.005147058823529412 0.01437908496732026
1 0.4073529411764706 0.3411764705882353 0.014705882352941176 0.06405228758169934
1 0.36323529411764705 0.2758169934640523 0.03823529411764706 0.03790849673202614
1 0.325 0.28627450980392155 0.03676470588235294 0.027450980392156862
1 0.3926470588235294 0.27450980392156865 0.005147058823529412 0.022222222222222223
0 0.3926470588235294 0.27450980392156865 0.0058823529411764705 0.013071895424836602
1 0.1514705882352941 0.3150326797385621 0.04338235294117647 0.032679738562091505
0 0.2985294117647059 0.4287581699346405 0.0058823529411764705 0.01437908496732026
1 0.5823529411764706 0.4091503267973856 0.01838235294117647 0.07450980392156863
1 0.5845588235294118 0.3215686274509804 0.014705882352941176 0.06274509803921569
1 0.5875 0.2496732026143791 0.014705882352941176 0.05620915032679739
0 0.6345588235294117 0.22483660130718955 0.004411764705882353 0.013071895424836602
1 0.6102941176470589 0.12679738562091503 0.016911764705882352 0.06535947712418301
1 0.49117647058823527 0.08235294117647059 0.016176470588235296 0.06143790849673202
1 0.3735294117647059 0.18823529411764706 0.013970588235294118 0.05620915032679739
1 0.3948529411764706 0.1895424836601307 0.022794117647058822 0.06535947712418301
0 0.38676470588235295 0.16209150326797386 0.0058823529411764705 0.011764705882352941
0 0.3845588235294118 0.1503267973856209 0.004411764705882353 0.01699346405228758
1 0.40955882352941175 0.19607843137254902 0.0058823529411764705 0.02091503267973856
0 0.4102941176470588 0.1934640522875817 0.004411764705882353 0.01437908496732026
0 0.3816176470588235 0.17516339869281045 0.0029411764705882353 0.009150326797385621
1 0.3536764705882353 0.17516339869281045 0.014705882352941176 0.05620915032679739
1 0.3375 0.11633986928104575 0.03602941176470588 0.0392156862745098
1 0.32794117647058824 0.06013071895424837 0.03897058823529412 0.03529411764705882
1 0.37720588235294117 0.02091503267973856 0.03529411764705882 0.04183006535947712
0 0.3375 0.0196078431372549 0.006617647058823529 0.01568627450980392
0 0.34338235294117647 0.009150326797385621 0.0058823529411764705 0.01699346405228758
