1 0.4979166666666667 0.3851851851851852 0.009375 0.014814814814814815
0 0.5208333333333334 0.4 0.005208333333333333 0.012962962962962963
1 0.5208333333333334 0.40370370370370373 0.005208333333333333 0.009259259259259259
1 0.5114583333333333 0.40370370370370373 0.008333333333333333 0.014814814814814815
0 0.5114583333333333 0.4 0.004166666666666667 0.011111111111111112
1 0.4625 0.4 0.013541666666666667 0.020370370370370372
1 0.46041666666666664 0.4203703703703704 0.0125 0.018518518518518517
1 0.453125 0.4425925925925926 0.013541666666666667 0.020370370370370372
0 0.471875 0.4166666666666667 0.005208333333333333 0.011111111111111112
1 0.47291666666666665 0.4185185185185185 0.004166666666666667 0.009259259259259259
0 0.475 0.43148148148148147 0.004166666666666667 0.011111111111111112
1 0.475 0.43703703703703706 0.003125 0.005555555555555556
1 0.46041666666666664 0.46296296296296297 0.007291666666666667 0.012962962962962963
0 0.46145833333333336 0.45740740740740743 0.004166666666666667 0.012962962962962963
1 0.5416666666666666 0.4722222222222222 0.016666666666666666 0.02962962962962963
0 0.48125 0.47962962962962963 0.007291666666666667 0.012962962962962963
1 0.4822916666666667 0.48518518518518516 0.00625 0.016666666666666666
1 0.5489583333333333 0.5148148148148148 0.016666666666666666 0.03148148148148148
1 0.5458333333333333 0.4981481481481482 0.017708333333333333 0.027777777777777776
0 0.5135416666666667 0.5185185185185185 0.007291666666666667 0.016666666666666666
1 0.5135416666666667 0.5277777777777778 0.007291666666666667 0.018518518518518517
1 0.36354166666666665 0.6333333333333333 0.030208333333333334 0.04259259259259259
0 0.36875 0.6648148148148149 0.007291666666666667 0.037037037037037035
1 0.17604166666666668 0.8629629629629629 0.03125 0.053703703703703705
1 0.20520833333333333 0.8 0.03125 0.03518518518518519
1 0.15208333333333332 0.8592592592592593 0.026041666666666668 0.03888888888888889
0 0.3416666666666667 0.8092592592592592 0.008333333333333333 0.05185185185185185
1 0.3854166666666667 0.6703703703703704 0.011458333333333333 0.027777777777777776
1 0.565625 0.5851851851851851 0.036458333333333336 0.08148148148148149
1 0.540625 0.9203703703703704 0.04895833333333333 0.1
1 0.6208333333333333 0.8925925925925926 0.046875 0.08888888888888889
0 0.4125 0.6944444444444444 0.009375 0.040740740740740744
0 0.41354166666666664 0.6907407407407408 0.007291666666666667 0.03148148148148148
1 0.41354166666666664 0.7037037037037037 0.008333333333333333 0.03518518518518519
0 0.4864583333333333 0.7055555555555556 0.010416666666666666 0.03888888888888889
1 0.4864583333333333 0.7148148148148148 0.010416666666666666 0.03888888888888889
0 0.53125 0.6851851851851852 0.008333333333333333 0.027777777777777776
0 0.5302083333333333 0.6851851851851852 0.010416666666666666 0.02962962962962963
1 0.5302083333333333 0.6944444444444444 0.010416666666666666 0.03333333333333333
1 0.5875 0.7833333333333333 0.013541666666666667 0.040740740740740744
