1 0.1448529411764706 0.7607843137254902 0.12352941176470589 0.1869281045751634
1 0.3625 0.938562091503268 0.13088235294117648 0.12287581699346405
1 0.40661764705882353 0.6745098039215687 0.07941176470588235 0.10326797385620914
1 0.49779411764705883 0.7594771241830065 0.09338235294117647 0.13071895424836602
1 0.5125 0.6392156862745098 0.09264705882352942 0.11764705882352941
0 0.4661764705882353 0.5019607843137255 0.01764705882352941 0.044444444444444446
1 0.4661764705882353 0.526797385620915 0.022794117647058822 0.03398692810457516
1 0.4213235294117647 0.43529411764705883 0.061764705882352944 0.07712418300653595
1 0.6147058823529412 0.5137254901960784 0.09264705882352942 0.16209150326797386
1 0.6875 0.40784313725490196 0.0625 0.10718954248366012
1 0.7264705882352941 0.3411764705882353 0.04044117647058824 0.050980392156862744
1 0.7051470588235295 0.27712418300653596 0.0375 0.03529411764705882
1 0.7573529411764706 0.2875816993464052 0.033823529411764704 0.05228758169934641
1 0.8080882352941177 0.28888888888888886 0.033823529411764704 0.0457516339869281
1 0.7867647058823529 0.23660130718954248 0.022058823529411766 0.040522875816993466
1 0.8308823529411765 0.22091503267973855 0.027941176470588237 0.03790849673202614
1 0.8014705882352942 0.2130718954248366 0.022058823529411766 0.032679738562091505
1 0.8397058823529412 0.044444444444444446 0.010294117647058823 0.02091503267973856
1 0.8191176470588235 0.03137254901960784 0.008088235294117648 0.01045751633986928
0 0.8191176470588235 0.02875816993464052 0.004411764705882353 0.01045751633986928
1 0.8183823529411764 0.17647058823529413 0.022058823529411766 0.032679738562091505
1 0.8514705882352941 0.18169934640522875 0.021323529411764706 0.03529411764705882
1 0.8639705882352942 0.14901960784313725 0.020588235294117647 0.03398692810457516
1 0.8323529411764706 0.15163398692810456 0.01838235294117647 0.027450980392156862
1 0.8007352941176471 0.14248366013071895 0.019852941176470587 0.02483660130718954
1 0.8154411764705882 0.12679738562091503 0.01911764705882353 0.02091503267973856
1 0.8264705882352941 0.10718954248366012 0.015441176470588236 0.023529411764705882
1 0.8772058823529412 0.12810457516339868 0.016911764705882352 0.023529411764705882
1 0.8411764705882353 0.13725490196078433 0.016176470588235296 0.023529411764705882
1 0.8470588235294118 0.12287581699346405 0.016911764705882352 0.0196078431372549
1 0.8632352941176471 0.10980392156862745 0.016176470588235296 0.018300653594771243
1 0.8522058823529411 0.10065359477124183 0.013970588235294118 0.02091503267973856
1 0.8654411764705883 0.0915032679738562 0.0125 0.01699346405228758
1 0.8911764705882353 0.09281045751633987 0.015441176470588236 0.022222222222222223
1 0.9022058823529412 0.07581699346405228 0.011764705882352941 0.018300653594771243
1 0.9102941176470588 0.04967320261437908 0.006617647058823529 0.01568627450980392
1 0.9191176470588235 0.043137254901960784 0.008823529411764706 0.013071895424836602
1 0.8742647058823529 0.08496732026143791 0.0125 0.01699346405228758
1 0.8514705882352941 0.07712418300653595 0.013970588235294118 0.018300653594771243
1 0.8551470588235294 0.06666666666666667 0.011029411764705883 0.0196078431372549
1 0.8727941176470588 0.0718954248366013 0.011764705882352941 0.02091503267973856
1 0.8654411764705883 0.05620915032679739 0.008823529411764706 0.01437908496732026
1 0.8735294117647059 0.047058823529411764 0.009558823529411765 0.01437908496732026
1 0.8786764705882353 0.044444444444444446 0.010294117647058823 0.01437908496732026
1 0.888235294117647 0.0718954248366013 0.011764705882352941 0.02091503267973856
1 0.8860294117647058 0.06143790849673202 0.013970588235294118 0.026143790849673203
1 0.8933823529411765 0.05359477124183006 0.008088235294117648 0.01699346405228758
1 0.8970588235294118 0.047058823529411764 0.009558823529411765 0.01568627450980392
1 0.8610294117647059 0.01045751633986928 0.007352941176470588 0.01045751633986928
1 0.8485294117647059 0.009150326797385621 0.008088235294117648 0.01568627450980392
1 0.8338235294117647 0.009150326797385621 0.008088235294117648 0.01045751633986928
