1 0.6458333333333334 0.9481481481481482 0.058333333333333334 0.1037037037037037
1 0.44895833333333335 0.8925925925925926 0.041666666666666664 0.10925925925925926
0 0.553125 0.8481481481481481 0.015625 0.03518518518518519
1 0.5520833333333334 0.8629629629629629 0.013541666666666667 0.05555555555555555
1 0.6208333333333333 0.8037037037037037 0.04479166666666667 0.044444444444444446
1 0.31354166666666666 0.7685185185185185 0.065625 0.06111111111111111
0 0.5572916666666666 0.6592592592592592 0.010416666666666666 0.025925925925925925
1 0.5583333333333333 0.6759259259259259 0.010416666666666666 0.024074074074074074
0 0.528125 0.6944444444444444 0.008333333333333333 0.024074074074074074
0 0.5270833333333333 0.687037037037037 0.008333333333333333 0.022222222222222223
1 0.528125 0.7055555555555556 0.007291666666666667 0.025925925925925925
0 0.43125 0.6611111111111111 0.008333333333333333 0.027777777777777776
1 0.43125 0.6814814814814815 0.00625 0.02962962962962963
1 0.3145833333333333 0.6722222222222223 0.06354166666666666 0.04814814814814815
1 0.41875 0.5814814814814815 0.010416666666666666 0.027777777777777776
1 0.50625 0.6148148148148148 0.026041666666666668 0.046296296296296294
1 0.5645833333333333 0.5722222222222222 0.014583333333333334 0.025925925925925925
1 0.41875 0.5537037037037037 0.021875 0.037037037037037035
0 0.5375 0.5592592592592592 0.008333333333333333 0.024074074074074074
1 0.5364583333333334 0.5722222222222222 0.004166666666666667 0.016666666666666666
1 0.5270833333333333 0.5259259259259259 0.010416666666666666 0.037037037037037035
0 0.525 0.4759259259259259 0.00625 0.012962962962962963
0 0.525 0.4722222222222222 0.007291666666666667 0.018518518518518517
1 0.5260416666666666 0.48333333333333334 0.00625 0.014814814814814815
1 0.43125 0.48518518518518516 0.019791666666666666 0.037037037037037035
0 0.45625 0.48333333333333334 0.005208333333333333 0.011111111111111112
1 0.45625 0.4925925925925926 0.005208333333333333 0.020370370370370372
0 0.5208333333333334 0.4537037037037037 0.005208333333333333 0.011111111111111112
1 0.521875 0.4648148148148148 0.009375 0.018518518518518517
0 0.509375 0.45 0.004166666666666667 0.009259259259259259
1 0.509375 0.45925925925925926 0.004166666666666667 0.012962962962962963
1 0.44375 0.4388888888888889 0.013541666666666667 0.020370370370370372
1 0.4427083333333333 0.4222222222222222 0.014583333333333334 0.022222222222222223
1 0.5385416666666667 0.4203703703703704 0.013541666666666667 0.018518518518518517
0 0.4625 0.4111111111111111 0.004166666666666667 0.014814814814814815
1 0.4625 0.4203703703703704 0.005208333333333333 0.011111111111111112
0 0.471875 0.4111111111111111 0.004166666666666667 0.011111111111111112
1 0.47291666666666665 0.4203703703703704 0.004166666666666667 0.011111111111111112
0 0.48125 0.40925925925925927 0.004166666666666667 0.007407407407407408
1 0.4822916666666667 0.4203703703703704 0.005208333333333333 0.011111111111111112
0 0.51875 0.387037037037037 0.004166666666666667 0.009259259259259259
1 0.51875 0.3925925925925926 0.003125 0.009259259259259259
0 0.5083333333333333 0.3851851851851852 0.004166666666666667 0.007407407407407408
1 0.5083333333333333 0.3925925925925926 0.003125 0.009259259259259259
0 0.47291666666666665 0.37592592592592594 0.003125 0.005555555555555556
1 0.47291666666666665 0.38333333333333336 0.004166666666666667 0.011111111111111112
1 0.49895833333333334 0.3574074074074074 0.010416666666666666 0.016666666666666666
1 0.490625 0.32407407407407407 0.00625 0.011111111111111112
1 0.49583333333333335 0.30185185185185187 0.007291666666666667 0.020370370370370372
0 0.4739583333333333 0.3388888888888889 0.003125 0.005555555555555556
1 0.4739583333333333 0.34444444444444444 0.005208333333333333 0.009259259259259259
1 0.4635416666666667 0.3296296296296296 0.008333333333333333 0.012962962962962963
1 0.46875 0.30925925925925923 0.008333333333333333 0.011111111111111112
1 0.4739583333333333 0.29259259259259257 0.007291666666666667 0.009259259259259259
0 0.4791666666666667 0.31296296296296294 0.003125 0.007407407407407408
1 0.4791666666666667 0.31666666666666665 0.003125 0.005555555555555556
1 0.4822916666666667 0.26851851851851855 0.005208333333333333 0.009259259259259259
0 0.48020833333333335 0.2833333333333333 0.003125 0.007407407407407408
0 0.484375 0.2814814814814815 0.004166666666666667 0.009259259259259259
0 0.4875 0.2814814814814815 0.004166666666666667 0.009259259259259259
0 0.490625 0.2833333333333333 0.003125 0.009259259259259259
