1 0.7197916666666667 0.7842592592592592 0.05260416666666667 0.11203703703703703
1 0.84375 0.8138888888888889 0.05416666666666667 0.11296296296296296
1 0.8354166666666667 0.6 0.0390625 0.06574074074074074
1 0.9479166666666666 0.6972222222222222 0.04010416666666667 0.08888888888888889
1 0.7541666666666667 0.5787037037037037 0.04114583333333333 0.06944444444444445
1 0.6666666666666666 0.700925925925926 0.05572916666666667 0.08148148148148149
1 0.746875 0.5018518518518519 0.03177083333333333 0.05740740740740741
1 0.8786458333333333 0.5287037037037037 0.034375 0.05462962962962963
1 0.80625 0.4935185185185185 0.027604166666666666 0.05185185185185185
1 0.778125 0.42962962962962964 0.027083333333333334 0.040740740740740744
1 0.8182291666666667 0.43703703703703706 0.025520833333333333 0.03888888888888889
1 0.8651041666666667 0.43703703703703706 0.023958333333333335 0.05
1 0.9151041666666667 0.4361111111111111 0.030208333333333334 0.044444444444444446
1 0.8713541666666667 0.3638888888888889 0.019270833333333334 0.023148148148148147
1 0.846875 0.32592592592592595 0.015625 0.023148148148148147
1 0.8234375 0.35 0.016666666666666666 0.027777777777777776
1 0.7802083333333333 0.3731481481481482 0.021354166666666667 0.030555555555555555
1 0.79375 0.34444444444444444 0.01875 0.032407407407407406
1 0.75625 0.3175925925925926 0.016666666666666666 0.02962962962962963
1 0.8171875 0.3175925925925926 0.019791666666666666 0.032407407407407406
1 0.7828125 0.31203703703703706 0.016145833333333335 0.024074074074074074
1 0.7979166666666667 0.30462962962962964 0.013020833333333334 0.023148148148148147
1 0.803125 0.2861111111111111 0.0140625 0.017592592592592594
1 0.7770833333333333 0.27685185185185185 0.011979166666666667 0.022222222222222223
1 0.8770833333333333 0.30462962962962964 0.033854166666666664 0.062037037037037036
1 0.9880208333333333 0.5833333333333334 0.020833333333333332 0.06388888888888888
1 0.5578125 0.4638888888888889 0.041666666666666664 0.05185185185185185
1 0.48385416666666664 0.44074074074074077 0.03333333333333333 0.041666666666666664
1 0.5203125 0.3638888888888889 0.027083333333333334 0.03148148148148148
1 0.6890625 0.34074074074074073 0.0296875 0.032407407407407406
1 0.6489583333333333 0.3101851851851852 0.019270833333333334 0.027777777777777776
1 0.6588541666666666 0.2675925925925926 0.0171875 0.040740740740740744
1 0.8046875 0.26944444444444443 0.013020833333333334 0.016666666666666666
1 0.5807291666666666 0.7444444444444445 0.0140625 0.03981481481481482
0 0.5796875 0.7268518518518519 0.014583333333333334 0.04537037037037037
1 0.5583333333333333 0.7398148148148148 0.018229166666666668 0.03425925925925926
0 0.5583333333333333 0.7240740740740741 0.011458333333333333 0.04814814814814815
1 0.4625 0.9046296296296297 0.0203125 0.05
0 0.4635416666666667 0.8796296296296297 0.016666666666666666 0.05740740740740741
1 0.25104166666666666 0.17592592592592593 0.018229166666666668 0.027777777777777776
