1 0.4661764705882353 0.9908496732026144 0.011029411764705883 0.018300653594771243
1 0.4404411764705882 0.9660130718954248 0.011029411764705883 0.02483660130718954
1 0.4610294117647059 0.9411764705882353 0.010294117647058823 0.026143790849673203
1 0.44338235294117645 0.9359477124183007 0.008823529411764706 0.027450980392156862
1 0.4323529411764706 0.918954248366013 0.009558823529411765 0.023529411764705882
1 0.5080882352941176 0.8444444444444444 0.009558823529411765 0.0196078431372549
1 0.4823529411764706 0.8013071895424837 0.010294117647058823 0.01568627450980392
1 0.5117647058823529 0.8117647058823529 0.009558823529411765 0.0196078431372549
1 0.524264705882353 0.7150326797385621 0.008823529411764706 0.01699346405228758
1 0.6404411764705882 0.9882352941176471 0.013970588235294118 0.023529411764705882
1 0.46838235294117647 0.873202614379085 0.011029411764705883 0.02483660130718954
1 0.4522058823529412 0.9084967320261438 0.009558823529411765 0.026143790849673203
1 0.4345588235294118 0.8941176470588236 0.009558823529411765 0.022222222222222223
1 0.44632352941176473 0.8784313725490196 0.008823529411764706 0.02483660130718954
1 0.45955882352941174 0.8248366013071895 0.009558823529411765 0.02483660130718954
1 0.4485294117647059 0.8339869281045752 0.009558823529411765 0.02091503267973856
1 0.44338235294117645 0.85359477124183 0.008823529411764706 0.0196078431372549
1 0.4345588235294118 0.8209150326797385 0.009558823529411765 0.02091503267973856
1 0.42867647058823527 0.8326797385620915 0.008823529411764706 0.023529411764705882
1 0.4338235294117647 0.8549019607843137 0.008823529411764706 0.02091503267973856
1 0.43308823529411766 0.8718954248366013 0.008823529411764706 0.022222222222222223
1 0.42205882352941176 0.8143790849673203 0.008088235294117648 0.02091503267973856
1 0.4183823529411765 0.796078431372549 0.008088235294117648 0.018300653594771243
1 0.4308823529411765 0.7856209150326797 0.008088235294117648 0.018300653594771243
1 0.43970588235294117 0.7777777777777778 0.006617647058823529 0.01699346405228758
1 0.44485294117647056 0.7581699346405228 0.008088235294117648 0.02091503267973856
1 0.425 0.7450980392156863 0.008088235294117648 0.01699346405228758
1 0.4198529411764706 0.7764705882352941 0.008823529411764706 0.018300653594771243
1 0.41544117647058826 0.7620915032679738 0.007352941176470588 0.01699346405228758
1 0.41102941176470587 0.7450980392156863 0.008088235294117648 0.01568627450980392
1 0.4088235294117647 0.730718954248366 0.008088235294117648 0.018300653594771243
1 0.43161764705882355 0.7058823529411765 0.006617647058823529 0.018300653594771243
1 0.4183823529411765 0.7202614379084967 0.008088235294117648 0.018300653594771243
1 0.40661764705882353 0.7124183006535948 0.007352941176470588 0.0196078431372549
1 0.4139705882352941 0.6875816993464052 0.008088235294117648 0.0196078431372549
1 0.4036764705882353 0.6993464052287581 0.006617647058823529 0.01437908496732026
1 0.4007352941176471 0.6862745098039216 0.007352941176470588 0.01568627450980392
1 0.39926470588235297 0.673202614379085 0.0058823529411764705 0.013071895424836602
1 0.42058823529411765 0.6601307189542484 0.006617647058823529 0.01437908496732026
1 0.40955882352941175 0.665359477124183 0.006617647058823529 0.01437908496732026
1 0.3985294117647059 0.6601307189542484 0.0058823529411764705 0.01568627450980392
1 0.39191176470588235 0.6352941176470588 0.011764705882352941 0.040522875816993466
1 0.4007352941176471 0.6274509803921569 0.006617647058823529 0.013071895424836602
1 0.41323529411764703 0.6300653594771242 0.007352941176470588 0.01568627450980392
1 0.39558823529411763 0.5947712418300654 0.006617647058823529 0.011764705882352941
1 0.40294117647058825 0.5856209150326798 0.005147058823529412 0.013071895424836602
1 0.38235294117647056 0.5843137254901961 0.013235294117647059 0.040522875816993466
1 0.39191176470588235 0.5424836601307189 0.0058823529411764705 0.01045751633986928
1 0.375 0.5581699346405229 0.004411764705882353 0.011764705882352941
1 0.38088235294117645 0.5281045751633987 0.004411764705882353 0.011764705882352941
1 0.3779411764705882 0.5137254901960784 0.004411764705882353 0.009150326797385621
1 0.42573529411764705 0.48366013071895425 0.009558823529411765 0.02875816993464052
1 0.37573529411764706 0.5490196078431373 0.0058823529411764705 0.01045751633986928
1 0.37279411764705883 0.538562091503268 0.005147058823529412 0.009150326797385621
1 0.37279411764705883 0.5294117647058824 0.003676470588235294 0.009150326797385621
1 0.3683823529411765 0.5111111111111111 0.008823529411764706 0.030065359477124184
1 0.3875 0.46797385620915033 0.003676470588235294 0.01045751633986928
1 0.37426470588235294 0.48627450980392156 0.004411764705882353 0.006535947712418301
1 0.375 0.469281045751634 0.007352941176470588 0.01437908496732026
1 0.3779411764705882 0.41830065359477125 0.0029411764705882353 0.00522875816993464
1 0.37058823529411766 0.4091503267973856 0.0029411764705882353 0.00522875816993464
1 0.38382352941176473 0.37516339869281046 0.006617647058823529 0.01045751633986928
