1 0.6558823529411765 0.8967320261437909 0.04044117647058824 0.10718954248366012
1 0.6176470588235294 0.8954248366013072 0.041176470588235294 0.12549019607843137
1 0.6338235294117647 0.7503267973856209 0.030147058823529412 0.08758169934640522
1 0.625 0.6261437908496732 0.033823529411764704 0.07450980392156863
1 0.6102941176470589 0.5333333333333333 0.028676470588235293 0.06013071895424837
1 0.600735294117647 0.4718954248366013 0.030147058823529412 0.06274509803921569
1 0.5941176470588235 0.4065359477124183 0.022058823529411766 0.05359477124183006
1 0.5816176470588236 0.36209150326797385 0.023529411764705882 0.05359477124183006
1 0.5830882352941177 0.3111111111111111 0.020588235294117647 0.044444444444444446
1 0.4772058823529412 0.3137254901960784 0.01838235294117647 0.043137254901960784
1 0.5161764705882353 0.3437908496732026 0.01764705882352941 0.043137254901960784
1 0.4573529411764706 0.5660130718954248 0.021323529411764706 0.06405228758169934
1 0.3764705882352941 0.5633986928104575 0.025735294117647058 0.06797385620915032
1 0.3830882352941177 0.6849673202614379 0.030882352941176472 0.08627450980392157
1 0.3639705882352941 0.8496732026143791 0.03308823529411765 0.10065359477124183
1 0.4345588235294118 0.8810457516339869 0.052941176470588235 0.1111111111111111
1 0.3264705882352941 0.9660130718954248 0.025 0.06797385620915032
1 0.43014705882352944 0.6183006535947713 0.01911764705882353 0.06666666666666667
0 0.4308823529411765 0.6248366013071895 0.011029411764705883 0.030065359477124184
1 0.4727941176470588 0.4196078431372549 0.028676470588235293 0.11633986928104575
1 0.4742647058823529 0.19084967320261437 0.016176470588235296 0.03137254901960784
1 0.4345588235294118 0.16732026143790849 0.01838235294117647 0.043137254901960784
1 0.4088235294117647 0.09019607843137255 0.014705882352941176 0.03137254901960784
1 0.43970588235294117 0.08627450980392157 0.013970588235294118 0.030065359477124184
1 0.4713235294117647 0.07581699346405228 0.013235294117647059 0.02483660130718954
1 0.4889705882352941 0.030065359477124184 0.011764705882352941 0.027450980392156862
1 0.5617647058823529 0.15555555555555556 0.0125 0.03398692810457516
1 0.5779411764705882 0.16209150326797386 0.015441176470588236 0.03137254901960784
1 0.5610294117647059 0.13202614379084968 0.014705882352941176 0.026143790849673203
1 0.5558823529411765 0.09803921568627451 0.013970588235294118 0.02483660130718954
1 0.5566176470588236 0.07581699346405228 0.025735294117647058 0.027450980392156862
1 0.5507352941176471 0.058823529411764705 0.015441176470588236 0.023529411764705882
1 0.5477941176470589 0.02875816993464052 0.011764705882352941 0.022222222222222223
1 0.2 0.8235294117647058 0.04485294117647059 0.09673202614379085
1 0.21838235294117647 0.7137254901960784 0.04632352941176471 0.08888888888888889
1 0.2411764705882353 0.6326797385620915 0.03235294117647059 0.07320261437908497
1 0.21323529411764705 0.550326797385621 0.057352941176470586 0.048366013071895426
1 0.2676470588235294 0.5241830065359477 0.025735294117647058 0.06143790849673202
1 0.3176470588235294 0.2758169934640523 0.021323529411764706 0.0457516339869281
1 0.3272058823529412 0.23006535947712417 0.01838235294117647 0.0392156862745098
1 0.35441176470588237 0.10980392156862745 0.014705882352941176 0.032679738562091505
1 0.3602941176470588 0.08104575163398693 0.015441176470588236 0.027450980392156862
1 0.35955882352941176 0.06143790849673202 0.01764705882352941 0.03137254901960784
1 0.37058823529411766 0.03137254901960784 0.013970588235294118 0.03137254901960784
1 0.6227941176470588 0.22091503267973855 0.04044117647058824 0.0392156862745098
1 0.6095588235294118 0.14901960784313725 0.015441176470588236 0.030065359477124184
1 0.15441176470588236 0.9725490196078431 0.01838235294117647 0.04967320261437908
