1 0.325 0.058823529411764705 0.08602941176470588 0.06666666666666667
1 0.19852941176470587 0.06928104575163399 0.05588235294117647 0.0718954248366013
1 0.6080882352941176 0.2784313725490196 0.10808823529411765 0.08366013071895424
1 0.48455882352941176 0.018300653594771243 0.047058823529411764 0.03790849673202614
1 0.5470588235294118 0.02483660130718954 0.07941176470588235 0.050980392156862744
1 0.5691176470588235 0.047058823529411764 0.07867647058823529 0.06928104575163399
1 0.5875 0.09411764705882353 0.047058823529411764 0.06013071895424837
0 0.586764705882353 0.07712418300653595 0.007352941176470588 0.06013071895424837
0 0.6095588235294118 0.09542483660130718 0.011029411764705883 0.0392156862745098
0 0.5786764705882353 0.09281045751633987 0.011764705882352941 0.040522875816993466
0 0.5272058823529412 0.1895424836601307 0.0125 0.0718954248366013
0 0.5102941176470588 0.45359477124183006 0.022058823529411766 0.07320261437908497
0 0.5051470588235294 0.33202614379084966 0.01911764705882353 0.06274509803921569
0 0.49264705882352944 0.1895424836601307 0.010294117647058823 0.07450980392156863
0 0.5051470588235294 0.21045751633986928 0.01764705882352941 0.05751633986928104
0 0.5044117647058823 0.25098039215686274 0.008823529411764706 0.05228758169934641
0 0.5066176470588235 0.28888888888888886 0.013970588235294118 0.06405228758169934
