0 0.3911764705882353 0.930718954248366 0.020588235294117647 0.08104575163398693
1 0.3911764705882353 0.9516339869281045 0.021323529411764706 0.08235294117647059
0 0.18823529411764706 0.8522875816993464 0.022794117647058822 0.06405228758169934
1 0.18676470588235294 0.8640522875816994 0.022794117647058822 0.06666666666666667
1 0.18382352941176472 0.9006535947712418 0.030882352941176472 0.08104575163398693
0 0.23676470588235293 0.8143790849673203 0.01911764705882353 0.08496732026143791
0 0.09779411764705882 0.7215686274509804 0.030882352941176472 0.07581699346405228
1 0.14705882352941177 0.7294117647058823 0.07647058823529412 0.10588235294117647
1 0.10294117647058823 0.6052287581699346 0.12352941176470589 0.07058823529411765
1 0.12573529411764706 0.5568627450980392 0.11397058823529412 0.0718954248366013
1 0.15808823529411764 0.4954248366013072 0.10514705882352941 0.050980392156862744
1 0.1889705882352941 0.4549019607843137 0.09632352941176471 0.050980392156862744
0 0.34411764705882353 0.3908496732026144 0.006617647058823529 0.030065359477124184
0 0.33455882352941174 0.3712418300653595 0.007352941176470588 0.02483660130718954
1 0.33088235294117646 0.3738562091503268 0.016176470588235296 0.043137254901960784
0 0.4360294117647059 0.36470588235294116 0.009558823529411765 0.03529411764705882
1 0.4360294117647059 0.37254901960784315 0.021323529411764706 0.02483660130718954
0 0.34191176470588236 0.3032679738562091 0.006617647058823529 0.030065359477124184
1 0.33088235294117646 0.269281045751634 0.030882352941176472 0.06013071895424837
1 0.33308823529411763 0.2261437908496732 0.033823529411764704 0.02483660130718954
1 0.4139705882352941 0.23921568627450981 0.014705882352941176 0.02483660130718954
1 0.3625 0.2196078431372549 0.013970588235294118 0.023529411764705882
0 0.3786764705882353 0.23006535947712417 0.005147058823529412 0.018300653594771243
0 0.38382352941176473 0.22875816993464052 0.0029411764705882353 0.018300653594771243
0 0.3860294117647059 0.22875816993464052 0.003676470588235294 0.0196078431372549
1 0.3735294117647059 0.19477124183006536 0.013970588235294118 0.018300653594771243
1 0.36911764705882355 0.1895424836601307 0.027941176470588237 0.01699346405228758
1 0.36323529411764705 0.17254901960784313 0.02426470588235294 0.011764705882352941
1 0.37720588235294117 0.18562091503267975 0.010294117647058823 0.0196078431372549
0 0.3830882352941177 0.16993464052287582 0.0029411764705882353 0.01437908496732026
0 0.3948529411764706 0.16339869281045752 0.0022058823529411764 0.013071895424836602
0 0.9455882352941176 0.8130718954248366 0.02426470588235294 0.048366013071895426
1 0.9441176470588235 0.8379084967320262 0.02426470588235294 0.07450980392156863
1 0.9536764705882353 0.6222222222222222 0.09191176470588236 0.06666666666666667
1 0.9352941176470588 0.5647058823529412 0.0875 0.07973856209150326
0 0.9294117647058824 0.4418300653594771 0.013235294117647059 0.02875816993464052
0 0.8926470588235295 0.4326797385620915 0.0125 0.0392156862745098
1 0.8919117647058824 0.4418300653594771 0.010294117647058823 0.032679738562091505
1 0.8705882352941177 0.5032679738562091 0.08970588235294118 0.06013071895424837
1 0.85 0.5333333333333333 0.10735294117647058 0.07058823529411765
1 0.7595588235294117 0.4875816993464052 0.04632352941176471 0.058823529411764705
1 0.825 0.4522875816993464 0.07426470588235294 0.05359477124183006
0 0.7669117647058824 0.5751633986928104 0.008823529411764706 0.027450980392156862
0 0.7647058823529411 0.5699346405228758 0.010294117647058823 0.03398692810457516
1 0.763235294117647 0.5790849673202615 0.01838235294117647 0.04183006535947712
0 0.6264705882352941 0.46797385620915033 0.010294117647058823 0.036601307189542485
1 0.625 0.477124183006536 0.011764705882352941 0.04183006535947712
0 0.7191176470588235 0.4143790849673203 0.010294117647058823 0.0392156862745098
1 0.7235294117647059 0.4222222222222222 0.03529411764705882 0.03529411764705882
0 0.6183823529411765 0.3516339869281046 0.008088235294117648 0.027450980392156862
1 0.6183823529411765 0.3633986928104575 0.013235294117647059 0.03790849673202614
1 0.6794117647058824 0.3542483660130719 0.020588235294117647 0.026143790849673203
0 0.674264705882353 0.3464052287581699 0.007352941176470588 0.02875816993464052
0 0.6794117647058824 0.3464052287581699 0.010294117647058823 0.030065359477124184
0 0.7227941176470588 0.338562091503268 0.008823529411764706 0.03398692810457516
0 0.7198529411764706 0.330718954248366 0.009558823529411765 0.03529411764705882
0 0.7088235294117647 0.3137254901960784 0.006617647058823529 0.030065359477124184
0 0.6882352941176471 0.2980392156862745 0.005147058823529412 0.023529411764705882
1 0.65 0.3137254901960784 0.03455882352941177 0.03137254901960784
0 0.5220588235294118 0.257516339869281 0.005147058823529412 0.0196078431372549
1 0.5220588235294118 0.26143790849673204 0.005147058823529412 0.0196078431372549
1 0.5272058823529412 0.24052287581699347 0.016176470588235296 0.023529411764705882
1 0.42426470588235293 0.15816993464052287 0.008823529411764706 0.01437908496732026
1 0.5066176470588235 0.20261437908496732 0.0125 0.018300653594771243
1 0.5014705882352941 0.18823529411764706 0.011764705882352941 0.0196078431372549
1 0.4852941176470588 0.1869281045751634 0.011764705882352941 0.018300653594771243
1 0.47058823529411764 0.19738562091503267 0.011764705882352941 0.01699346405228758
1 0.425 0.1450980392156863 0.007352941176470588 0.013071895424836602
1 0.42867647058823527 0.13202614379084968 0.009558823529411765 0.011764705882352941
1 0.4294117647058823 0.12418300653594772 0.007352941176470588 0.01045751633986928
1 0.4389705882352941 0.11503267973856209 0.0058823529411764705 0.01045751633986928
1 0.4536764705882353 0.08235294117647059 0.003676470588235294 0.006535947712418301
0 0.47941176470588237 0.16732026143790849 0.0022058823529411764 0.01437908496732026
1 0.48970588235294116 0.1542483660130719 0.008823529411764706 0.01437908496732026
1 0.4808823529411765 0.134640522875817 0.006617647058823529 0.011764705882352941
1 0.46838235294117647 0.11372549019607843 0.004411764705882353 0.00784313725490196
1 0.47058823529411764 0.10457516339869281 0.003676470588235294 0.006535947712418301
1 0.46838235294117647 0.14901960784313725 0.008823529411764706 0.01437908496732026
1 0.46911764705882353 0.12549019607843137 0.007352941176470588 0.009150326797385621
1 0.4625 0.14248366013071895 0.007352941176470588 0.013071895424836602
1 0.4661764705882353 0.13856209150326798 0.006617647058823529 0.013071895424836602
1 0.4625 0.13333333333333333 0.006617647058823529 0.011764705882352941
1 0.45955882352941174 0.12549019607843137 0.0058823529411764705 0.00784313725490196
1 0.625 0.29150326797385623 0.030882352941176472 0.032679738562091505
1 0.6132352941176471 0.2797385620915033 0.020588235294117647 0.022222222222222223
1 0.6029411764705882 0.2679738562091503 0.01764705882352941 0.02483660130718954
1 0.6095588235294118 0.24705882352941178 0.013235294117647059 0.01568627450980392
1 0.6036764705882353 0.23790849673202613 0.013235294117647059 0.01437908496732026
0 0.5794117647058824 0.25098039215686274 0.005147058823529412 0.02483660130718954
1 0.5926470588235294 0.2549019607843137 0.01764705882352941 0.02483660130718954
1 0.5830882352941177 0.24313725490196078 0.01911764705882353 0.023529411764705882
1 0.5786764705882353 0.2261437908496732 0.016176470588235296 0.027450980392156862
1 0.5654411764705882 0.21437908496732025 0.011764705882352941 0.02483660130718954
1 0.5610294117647059 0.20261437908496732 0.010294117647058823 0.022222222222222223
1 0.5529411764705883 0.2 0.011764705882352941 0.018300653594771243
1 0.5463235294117647 0.1895424836601307 0.011029411764705883 0.022222222222222223
1 0.5301470588235294 0.1450980392156863 0.015441176470588236 0.011764705882352941
1 0.5176470588235295 0.1477124183006536 0.009558823529411765 0.013071895424836602
0 0.5294117647058824 0.1738562091503268 0.003676470588235294 0.018300653594771243
1 0.5433823529411764 0.18169934640522875 0.023529411764705882 0.01568627450980392
1 0.5455882352941176 0.17647058823529413 0.021323529411764706 0.01568627450980392
1 0.5338235294117647 0.16993464052287582 0.009558823529411765 0.013071895424836602
1 0.5294117647058824 0.16470588235294117 0.009558823529411765 0.01437908496732026
1 0.5279411764705882 0.1568627450980392 0.013970588235294118 0.01045751633986928
