1 0.28088235294117647 0.48366013071895425 0.08014705882352942 0.06405228758169934
1 0.3323529411764706 0.6928104575163399 0.05073529411764706 0.12418300653594772
1 0.49117647058823527 0.7660130718954249 0.052941176470588235 0.13333333333333333
1 0.5713235294117647 0.7908496732026143 0.05661764705882353 0.12941176470588237
1 0.4742647058823529 0.3359477124183007 0.023529411764705882 0.043137254901960784
1 0.4772058823529412 0.26666666666666666 0.022794117647058822 0.032679738562091505
1 0.11985294117647059 0.38823529411764707 0.05 0.05228758169934641
1 0.3735294117647059 0.3437908496732026 0.025735294117647058 0.047058823529411764
1 0.41544117647058826 0.33725490196078434 0.025 0.04967320261437908
1 0.6235294117647059 0.3045751633986928 0.02426470588235294 0.03790849673202614
1 0.5088235294117647 0.1934640522875817 0.013235294117647059 0.027450980392156862
1 0.41691176470588237 0.18562091503267975 0.011764705882352941 0.02483660130718954
1 0.4323529411764706 0.19607843137254902 0.013970588235294118 0.03529411764705882
1 0.4308823529411765 0.23529411764705882 0.020588235294117647 0.030065359477124184
1 0.43161764705882355 0.26143790849673204 0.016176470588235296 0.03137254901960784
1 0.4264705882352941 0.2954248366013072 0.023529411764705882 0.03790849673202614
1 0.38382352941176473 0.3058823529411765 0.025 0.03790849673202614
1 0.3948529411764706 0.2758169934640523 0.021323529411764706 0.0392156862745098
1 0.3875 0.20392156862745098 0.019852941176470587 0.036601307189542485
1 0.39705882352941174 0.1895424836601307 0.011764705882352941 0.027450980392156862
1 0.4007352941176471 0.16339869281045752 0.013970588235294118 0.03137254901960784
1 0.40661764705882353 0.13594771241830064 0.015441176470588236 0.026143790849673203
1 0.41102941176470587 0.11764705882352941 0.013235294117647059 0.023529411764705882
1 0.2580882352941177 0.3254901960784314 0.028676470588235293 0.050980392156862744
1 0.2823529411764706 0.26666666666666666 0.01838235294117647 0.03398692810457516
1 0.44191176470588234 0.13594771241830064 0.022058823529411766 0.048366013071895426
1 0.5919117647058824 0.2261437908496732 0.020588235294117647 0.0392156862745098
1 0.7080882352941177 0.34901960784313724 0.05514705882352941 0.040522875816993466
1 0.9661764705882353 0.46013071895424834 0.05808823529411765 0.047058823529411764
1 0.9036764705882353 0.9464052287581699 0.09632352941176471 0.10588235294117647
1 0.5073529411764706 0.1477124183006536 0.011764705882352941 0.02091503267973856
1 0.1213235294117647 0.4326797385620915 0.04779411764705882 0.03790849673202614
1 0.18161764705882352 0.4235294117647059 0.05661764705882353 0.032679738562091505
1 0.06544117647058824 0.39477124183006534 0.029411764705882353 0.044444444444444446
1 0.1161764705882353 0.5686274509803921 0.025 0.06013071895424837
1 0.14852941176470588 0.5738562091503268 0.03455882352941177 0.08104575163398693
0 0.7308823529411764 0.6065359477124183 0.015441176470588236 0.05228758169934641
0 0.7448529411764706 0.5986928104575163 0.008088235294117648 0.0457516339869281
0 0.6720588235294118 0.9594771241830066 0.023529411764705882 0.06274509803921569
0 0.27058823529411763 0.41568627450980394 0.010294117647058823 0.040522875816993466
0 0.1610294117647059 0.5594771241830065 0.014705882352941176 0.06013071895424837
0 0.12352941176470589 0.5437908496732026 0.010294117647058823 0.030065359477124184
0 0.1323529411764706 0.5594771241830065 0.0125 0.047058823529411764
0 0.17794117647058824 0.4222222222222222 0.008088235294117648 0.0392156862745098
0 0.10294117647058823 0.5516339869281046 0.011029411764705883 0.044444444444444446
1 0.12205882352941176 0.32679738562091504 0.01764705882352941 0.022222222222222223
1 0.3338235294117647 0.38823529411764707 0.011764705882352941 0.01437908496732026
0 0.33455882352941174 0.38300653594771245 0.008088235294117648 0.0392156862745098
1 0.6705882352941176 0.9738562091503268 0.023529411764705882 0.05228758169934641
1 0.1889705882352941 0.35294117647058826 0.05588235294117647 0.05620915032679739
1 0.20661764705882352 0.32287581699346407 0.05367647058823529 0.05620915032679739
0 0.31323529411764706 0.20784313725490197 0.008823529411764706 0.02483660130718954
1 0.32426470588235295 0.19215686274509805 0.01764705882352941 0.02483660130718954
1 0.5191176470588236 0.23137254901960785 0.01911764705882353 0.032679738562091505
1 0.4176470588235294 0.09281045751633987 0.008088235294117648 0.01437908496732026
1 0.4227941176470588 0.08366013071895424 0.011029411764705883 0.01568627450980392
1 0.42426470588235293 0.07712418300653595 0.009558823529411765 0.02091503267973856
1 0.5330882352941176 0.07973856209150326 0.010294117647058823 0.01699346405228758
1 0.30073529411764705 0.1738562091503268 0.015441176470588236 0.027450980392156862
1 0.3375 0.12679738562091503 0.033823529411764704 0.02483660130718954
1 0.3338235294117647 0.17908496732026144 0.020588235294117647 0.02875816993464052
1 0.3426470588235294 0.16209150326797386 0.014705882352941176 0.027450980392156862
1 0.35073529411764703 0.15555555555555556 0.01911764705882353 0.023529411764705882
1 0.45294117647058824 0.048366013071895426 0.006617647058823529 0.011764705882352941
1 0.45 0.0392156862745098 0.005147058823529412 0.013071895424836602
1 0.45441176470588235 0.03398692810457516 0.008088235294117648 0.011764705882352941
1 0.6713235294117647 0.24052287581699347 0.005147058823529412 0.023529411764705882
1 0.6830882352941177 0.24836601307189543 0.009558823529411765 0.02091503267973856
1 0.6911764705882353 0.28366013071895424 0.016911764705882352 0.0196078431372549
1 0.6852941176470588 0.28104575163398693 0.016911764705882352 0.018300653594771243
1 0.44191176470588234 0.11241830065359477 0.0125 0.02483660130718954
0 0.42573529411764705 0.11372549019607843 0.005147058823529412 0.01437908496732026
1 0.4264705882352941 0.12287581699346405 0.007352941176470588 0.013071895424836602
0 0.5022058823529412 0.11895424836601307 0.005147058823529412 0.018300653594771243
