0 0.02426470588235294 0.27058823529411763 0.011029411764705883 0.04183006535947712
0 0.03308823529411765 0.29150326797385623 0.010294117647058823 0.044444444444444446
0 0.039705882352941174 0.2954248366013072 0.011764705882352941 0.04183006535947712
0 0.10220588235294117 0.2901960784313726 0.0125 0.044444444444444446
0 0.1125 0.28366013071895424 0.011029411764705883 0.043137254901960784
1 0.0838235294117647 0.32679738562091504 0.027941176470588237 0.027450980392156862
1 0.10147058823529412 0.25359477124183005 0.020588235294117647 0.02483660130718954
1 0.13823529411764707 0.24183006535947713 0.02426470588235294 0.022222222222222223
1 0.13529411764705881 0.21830065359477124 0.027205882352941177 0.023529411764705882
0 0.10955882352941176 0.18169934640522875 0.007352941176470588 0.03529411764705882
0 0.10220588235294117 0.1738562091503268 0.008823529411764706 0.03529411764705882
0 0.013235294117647059 0.4470588235294118 0.015441176470588236 0.050980392156862744
0 0.2125 0.6562091503267974 0.013235294117647059 0.05359477124183006
1 0.2125 0.6784313725490196 0.014705882352941176 0.047058823529411764
0 0.37279411764705883 0.9607843137254902 0.0125 0.06274509803921569
0 0.3654411764705882 0.9411764705882353 0.0125 0.05751633986928104
0 0.3654411764705882 0.9176470588235294 0.011764705882352941 0.058823529411764705
1 0.2838235294117647 0.6222222222222222 0.07573529411764705 0.1084967320261438
1 0.18308823529411763 0.09803921568627451 0.023529411764705882 0.03398692810457516
1 0.18970588235294117 0.048366013071895426 0.021323529411764706 0.03790849673202614
0 0.2125 0.06535947712418301 0.006617647058823529 0.026143790849673203
1 0.2139705882352941 0.07320261437908497 0.003676470588235294 0.02483660130718954
1 0.19264705882352942 0.018300653594771243 0.01838235294117647 0.030065359477124184
1 0.2727941176470588 0.06013071895424837 0.019852941176470587 0.03398692810457516
1 0.28161764705882353 0.12941176470588237 0.028676470588235293 0.047058823529411764
1 0.28602941176470587 0.22745098039215686 0.03161764705882353 0.04967320261437908
0 0.2823529411764706 0.29934640522875816 0.0125 0.044444444444444446
0 0.3191176470588235 0.20130718954248367 0.008088235294117648 0.032679738562091505
1 0.3205882352941177 0.21176470588235294 0.006617647058823529 0.027450980392156862
0 0.1889705882352941 0.21176470588235294 0.011029411764705883 0.02875816993464052
1 0.18823529411764706 0.2261437908496732 0.010294117647058823 0.032679738562091505
1 0.31838235294117645 0.01568627450980392 0.029411764705882353 0.022222222222222223
1 0.33455882352941174 0.027450980392156862 0.04411764705882353 0.027450980392156862
0 0.37058823529411766 0.06274509803921569 0.008088235294117648 0.03398692810457516
0 0.38088235294117645 0.05751633986928104 0.006617647058823529 0.03790849673202614
0 0.3926470588235294 0.044444444444444446 0.0058823529411764705 0.03398692810457516
0 0.3985294117647059 0.044444444444444446 0.006617647058823529 0.030065359477124184
0 0.39926470588235297 0.06013071895424837 0.005147058823529412 0.032679738562091505
0 0.41691176470588237 0.10326797385620914 0.006617647058823529 0.036601307189542485
1 0.3338235294117647 0.10326797385620914 0.023529411764705882 0.0392156862745098
1 0.3352941176470588 0.13986928104575164 0.025735294117647058 0.0392156862745098
0 0.3360294117647059 0.16732026143790849 0.007352941176470588 0.03790849673202614
0 0.3272058823529412 0.1503267973856209 0.008823529411764706 0.036601307189542485
0 0.3375 0.15947712418300652 0.0058823529411764705 0.032679738562091505
1 0.3801470588235294 0.17647058823529413 0.019852941176470587 0.023529411764705882
1 0.40955882352941175 0.1503267973856209 0.05514705882352941 0.0392156862745098
0 0.4198529411764706 0.17777777777777778 0.006617647058823529 0.03398692810457516
0 0.45073529411764707 0.1869281045751634 0.008823529411764706 0.03790849673202614
0 0.5198529411764706 0.20130718954248367 0.008088235294117648 0.036601307189542485
1 0.425 0.2 0.03308823529411765 0.03398692810457516
1 0.3522058823529412 0.21830065359477124 0.030147058823529412 0.04967320261437908
0 0.3801470588235294 0.26405228758169935 0.009558823529411765 0.03398692810457516
1 0.37720588235294117 0.28104575163398693 0.01838235294117647 0.04183006535947712
1 0.44191176470588234 0.2601307189542484 0.022794117647058822 0.03137254901960784
1 0.4536764705882353 0.2901960784313726 0.009558823529411765 0.032679738562091505
0 0.4 0.29150326797385623 0.0058823529411764705 0.03529411764705882
0 0.4051470588235294 0.2954248366013072 0.005147058823529412 0.032679738562091505
0 0.4036764705882353 0.3176470588235294 0.008823529411764706 0.03398692810457516
1 0.3985294117647059 0.32679738562091504 0.01838235294117647 0.02875816993464052
1 0.4183823529411765 0.3503267973856209 0.07279411764705883 0.054901960784313725
0 0.48308823529411765 0.33202614379084966 0.0058823529411764705 0.036601307189542485
1 0.48970588235294116 0.29673202614379085 0.008823529411764706 0.0392156862745098
0 0.5073529411764706 0.2849673202614379 0.008088235294117648 0.043137254901960784
1 0.5198529411764706 0.2901960784313726 0.009558823529411765 0.03398692810457516
1 0.5154411764705882 0.2601307189542484 0.0125 0.02483660130718954
0 0.45955882352941174 0.40784313725490196 0.011764705882352941 0.03790849673202614
0 0.5875 0.49019607843137253 0.008823529411764706 0.048366013071895426
0 0.5617647058823529 0.9359477124183007 0.0125 0.06013071895424837
0 0.5602941176470588 0.9084967320261438 0.015441176470588236 0.06274509803921569
1 0.5588235294117647 0.9254901960784314 0.025 0.07450980392156863
0 0.5801470588235295 0.5437908496732026 0.0125 0.054901960784313725
1 0.5794117647058824 0.5450980392156862 0.033823529411764704 0.040522875816993466
0 0.475 0.39477124183006534 0.008823529411764706 0.050980392156862744
1 0.47352941176470587 0.4013071895424837 0.022058823529411766 0.027450980392156862
1 0.5632352941176471 0.2130718954248366 0.0058823529411764705 0.03137254901960784
1 0.5735294117647058 0.21568627450980393 0.008823529411764706 0.026143790849673203
1 0.5514705882352942 0.26666666666666666 0.0058823529411764705 0.032679738562091505
1 0.5661764705882353 0.26143790849673204 0.009558823529411765 0.030065359477124184
0 0.611764705882353 0.24836601307189543 0.0058823529411764705 0.04183006535947712
0 0.6507352941176471 0.24444444444444444 0.0058823529411764705 0.036601307189542485
1 0.6169117647058824 0.269281045751634 0.008088235294117648 0.03398692810457516
1 0.6338235294117647 0.20392156862745098 0.016176470588235296 0.02483660130718954
0 0.6727941176470589 0.25098039215686274 0.005147058823529412 0.0392156862745098
1 0.6727941176470589 0.29150326797385623 0.06470588235294118 0.047058823529411764
0 0.5882352941176471 0.31241830065359477 0.0058823529411764705 0.03790849673202614
0 0.5808823529411765 0.3137254901960784 0.007352941176470588 0.03529411764705882
1 0.5786764705882353 0.3241830065359477 0.028676470588235293 0.026143790849673203
0 0.5772058823529411 0.33464052287581697 0.008088235294117648 0.03137254901960784
1 0.5735294117647058 0.34509803921568627 0.022794117647058822 0.032679738562091505
0 0.538235294117647 0.3607843137254902 0.007352941176470588 0.044444444444444446
1 0.5345588235294118 0.3660130718954248 0.023529411764705882 0.032679738562091505
0 0.5441176470588235 0.3607843137254902 0.007352941176470588 0.02483660130718954
1 0.6308823529411764 0.3660130718954248 0.07279411764705883 0.054901960784313725
1 0.6125 0.4222222222222222 0.07573529411764705 0.054901960784313725
1 0.6963235294117647 0.25620915032679736 0.01911764705882353 0.036601307189542485
1 0.7507352941176471 0.2496732026143791 0.010294117647058823 0.027450980392156862
1 0.7654411764705882 0.24836601307189543 0.008823529411764706 0.02875816993464052
1 0.7779411764705882 0.3803921568627451 0.07426470588235294 0.06013071895424837
0 0.7919117647058823 0.2 0.0058823529411764705 0.036601307189542485
0 0.8051470588235294 0.2065359477124183 0.0058823529411764705 0.036601307189542485
1 0.8963235294117647 0.24183006535947713 0.0625 0.0457516339869281
0 0.9492647058823529 0.25359477124183005 0.008823529411764706 0.036601307189542485
1 0.8801470588235294 0.35947712418300654 0.07426470588235294 0.05359477124183006
1 0.7279411764705882 0.7294117647058823 0.1338235294117647 0.13856209150326798
1 0.45808823529411763 0.42091503267973857 0.026470588235294117 0.030065359477124184
0 0.4852941176470588 0.3281045751633987 0.004411764705882353 0.018300653594771243
