1 0.44485294117647056 0.17254901960784313 0.008823529411764706 0.013071895424836602
1 0.43970588235294117 0.18562091503267975 0.015441176470588236 0.018300653594771243
0 0.4602941176470588 0.19738562091503267 0.004411764705882353 0.01568627450980392
1 0.48455882352941176 0.19477124183006536 0.011029411764705883 0.01437908496732026
1 0.5102941176470588 0.19215686274509805 0.010294117647058823 0.01568627450980392
0 0.4985294117647059 0.1843137254901961 0.004411764705882353 0.011764705882352941
0 0.5 0.19738562091503267 0.004411764705882353 0.0196078431372549
0 0.5014705882352941 0.3058823529411765 0.0058823529411764705 0.01437908496732026
1 0.5 0.3150326797385621 0.008088235294117648 0.022222222222222223
0 0.5007352941176471 0.31241830065359477 0.004411764705882353 0.01437908496732026
1 0.5169117647058824 0.23006535947712417 0.013970588235294118 0.018300653594771243
1 0.5257352941176471 0.2718954248366013 0.014705882352941176 0.026143790849673203
0 0.5330882352941176 0.2627450980392157 0.0058823529411764705 0.022222222222222223
1 0.5279411764705882 0.3084967320261438 0.01838235294117647 0.030065359477124184
1 0.5345588235294118 0.3437908496732026 0.023529411764705882 0.03529411764705882
1 0.5705882352941176 0.48104575163398694 0.03308823529411765 0.054901960784313725
1 0.5485294117647059 0.19869281045751633 0.015441176470588236 0.01568627450980392
1 0.5558823529411765 0.21568627450980393 0.014705882352941176 0.0196078431372549
1 0.5720588235294117 0.21176470588235294 0.015441176470588236 0.01437908496732026
0 0.5588235294117647 0.23790849673202613 0.005147058823529412 0.0196078431372549
1 0.5742647058823529 0.23529411764705882 0.022794117647058822 0.01437908496732026
1 0.5676470588235294 0.2457516339869281 0.009558823529411765 0.011764705882352941
1 0.5735294117647058 0.25098039215686274 0.011764705882352941 0.01699346405228758
1 0.5808823529411765 0.2627450980392157 0.014705882352941176 0.0196078431372549
1 0.5992647058823529 0.2784313725490196 0.03676470588235294 0.022222222222222223
1 0.6036764705882353 0.3111111111111111 0.01838235294117647 0.03529411764705882
1 0.6161764705882353 0.338562091503268 0.022794117647058822 0.032679738562091505
1 0.6330882352941176 0.3516339869281046 0.020588235294117647 0.03529411764705882
1 0.6426470588235295 0.3908496732026144 0.027205882352941177 0.043137254901960784
1 0.6735294117647059 0.4366013071895425 0.03161764705882353 0.06143790849673202
1 0.6867647058823529 0.49673202614379086 0.04191176470588235 0.054901960784313725
0 0.5720588235294117 0.2875816993464052 0.004411764705882353 0.013071895424836602
0 0.5705882352941176 0.28366013071895424 0.005147058823529412 0.01568627450980392
1 0.5705882352941176 0.29150326797385623 0.0058823529411764705 0.01699346405228758
0 0.611764705882353 0.396078431372549 0.006617647058823529 0.01699346405228758
1 0.611764705882353 0.4065359477124183 0.005147058823529412 0.0196078431372549
0 0.6338235294117647 0.4418300653594771 0.009558823529411765 0.02483660130718954
0 0.6360294117647058 0.45098039215686275 0.0058823529411764705 0.01699346405228758
1 0.6338235294117647 0.4549019607843137 0.010294117647058823 0.02875816993464052
1 0.711764705882353 0.5215686274509804 0.025735294117647058 0.02091503267973856
1 0.7220588235294118 0.5542483660130719 0.045588235294117645 0.06013071895424837
0 0.6963235294117647 0.5856209150326798 0.011029411764705883 0.036601307189542485
1 0.6948529411764706 0.6065359477124183 0.013235294117647059 0.044444444444444446
1 0.4294117647058823 0.20915032679738563 0.008823529411764706 0.0196078431372549
1 0.4213235294117647 0.23398692810457516 0.0125 0.0196078431372549
1 0.44485294117647056 0.22091503267973855 0.009558823529411765 0.02483660130718954
0 0.43529411764705883 0.21045751633986928 0.003676470588235294 0.018300653594771243
0 0.4227941176470588 0.25620915032679736 0.005147058823529412 0.0196078431372549
1 0.4227941176470588 0.2627450980392157 0.011764705882352941 0.013071895424836602
1 0.4808823529411765 0.33986928104575165 0.021323529411764706 0.03790849673202614
0 0.44926470588235295 0.25882352941176473 0.005147058823529412 0.013071895424836602
0 0.45 0.25620915032679736 0.005147058823529412 0.01437908496732026
1 0.45 0.26666666666666666 0.0058823529411764705 0.01699346405228758
0 0.7073529411764706 0.3581699346405229 0.008823529411764706 0.026143790849673203
0 0.7279411764705882 0.3895424836601307 0.007352941176470588 0.027450980392156862
0 0.7779411764705882 0.4522875816993464 0.011764705882352941 0.03137254901960784
0 0.7808823529411765 0.4588235294117647 0.006617647058823529 0.03398692810457516
1 0.763235294117647 0.6352941176470588 0.058823529411764705 0.07320261437908497
1 0.8036764705882353 0.7137254901960784 0.05955882352941176 0.08758169934640522
1 0.861764705882353 0.7045751633986929 0.06323529411764706 0.06928104575163399
1 0.9176470588235294 0.7581699346405228 0.04191176470588235 0.07058823529411765
1 0.8639705882352942 0.8183006535947712 0.0838235294117647 0.13071895424836602
0 0.8080882352941177 0.8183006535947712 0.013970588235294118 0.07581699346405228
0 0.7897058823529411 0.807843137254902 0.01838235294117647 0.07712418300653595
0 0.5713235294117647 0.6784313725490196 0.013970588235294118 0.03790849673202614
1 0.575 0.7058823529411765 0.027941176470588237 0.0718954248366013
1 0.3477941176470588 0.9006535947712418 0.07573529411764705 0.1934640522875817
1 0.39044117647058824 0.20261437908496732 0.0125 0.0196078431372549
1 0.38676470588235295 0.21045751633986928 0.013235294117647059 0.01568627450980392
1 0.37941176470588234 0.2261437908496732 0.013235294117647059 0.01699346405228758
1 0.3669117647058823 0.23660130718954248 0.015441176470588236 0.0196078431372549
1 0.3639705882352941 0.21176470588235294 0.02426470588235294 0.01568627450980392
1 0.36323529411764705 0.2627450980392157 0.011029411764705883 0.023529411764705882
1 0.3235294117647059 0.2627450980392157 0.028676470588235293 0.02091503267973856
1 0.34411764705882353 0.2496732026143791 0.01764705882352941 0.011764705882352941
0 0.3426470588235294 0.24313725490196078 0.0029411764705882353 0.011764705882352941
1 0.021323529411764706 0.41568627450980394 0.04264705882352941 0.0457516339869281
1 0.10441176470588236 0.5228758169934641 0.07867647058823529 0.06666666666666667
1 0.18308823529411763 0.42483660130718953 0.06544117647058824 0.048366013071895426
1 0.25588235294117645 0.39869281045751637 0.033823529411764704 0.047058823529411764
1 0.3110294117647059 0.3202614379084967 0.02426470588235294 0.032679738562091505
1 0.3095588235294118 0.30718954248366015 0.04411764705882353 0.02875816993464052
1 0.3264705882352941 0.29411764705882354 0.01764705882352941 0.027450980392156862
1 0.04632352941176471 0.6915032679738562 0.09264705882352942 0.23137254901960785
0 0.11470588235294117 0.7254901960784313 0.014705882352941176 0.05620915032679739
1 0.10955882352941176 0.7555555555555555 0.0375 0.07450980392156863
