0 0.052941176470588235 0.8091503267973856 0.013970588235294118 0.05359477124183006
1 0.023529411764705882 0.7856209150326797 0.04779411764705882 0.06013071895424837
1 0.03676470588235294 0.7516339869281046 0.07426470588235294 0.06013071895424837
1 0.07941176470588235 0.7202614379084967 0.0713235294117647 0.048366013071895426
1 0.10588235294117647 0.6980392156862745 0.0713235294117647 0.047058823529411764
1 0.09191176470588236 0.6718954248366014 0.0125 0.030065359477124184
1 0.13676470588235295 0.6392156862745098 0.05220588235294118 0.047058823529411764
1 0.1786764705882353 0.5869281045751634 0.01838235294117647 0.022222222222222223
1 0.2610294117647059 0.5908496732026144 0.025 0.03790849673202614
0 0.1860294117647059 0.5490196078431373 0.006617647058823529 0.02875816993464052
1 0.2963235294117647 0.5477124183006536 0.019852941176470587 0.03529411764705882
1 0.3205882352941177 0.515032679738562 0.019852941176470587 0.03137254901960784
1 0.33676470588235297 0.4928104575163399 0.03235294117647059 0.023529411764705882
1 0.3338235294117647 0.48104575163398694 0.016176470588235296 0.02091503267973856
1 0.35441176470588237 0.4666666666666667 0.014705882352941176 0.027450980392156862
1 0.3573529411764706 0.4588235294117647 0.011029411764705883 0.023529411764705882
1 0.40441176470588236 0.4627450980392157 0.013970588235294118 0.0196078431372549
0 0.3698529411764706 0.5189542483660131 0.005147058823529412 0.02483660130718954
0 0.39044117647058824 0.49673202614379086 0.008088235294117648 0.026143790849673203
0 0.33308823529411763 0.6026143790849673 0.0058823529411764705 0.03529411764705882
0 0.33897058823529413 0.6065359477124183 0.007352941176470588 0.03398692810457516
0 0.35 0.6065359477124183 0.009558823529411765 0.032679738562091505
0 0.34191176470588236 0.5882352941176471 0.009558823529411765 0.03790849673202614
1 0.2625 0.5045751633986928 0.013970588235294118 0.02483660130718954
1 0.6198529411764706 0.7986928104575164 0.010294117647058823 0.03790849673202614
0 0.6191176470588236 0.7908496732026143 0.011764705882352941 0.040522875816993466
1 0.7338235294117647 0.7790849673202614 0.03823529411764706 0.05751633986928104
1 0.6823529411764706 0.6457516339869281 0.030147058823529412 0.048366013071895426
1 0.8014705882352942 0.7241830065359477 0.04338235294117647 0.040522875816993466
0 0.7830882352941176 0.6 0.007352941176470588 0.027450980392156862
0 0.7698529411764706 0.5986928104575163 0.007352941176470588 0.03137254901960784
1 0.7294117647058823 0.5764705882352941 0.02426470588235294 0.044444444444444446
1 0.6522058823529412 0.5568627450980392 0.04338235294117647 0.09019607843137255
0 0.6470588235294118 0.6091503267973856 0.008823529411764706 0.030065359477124184
1 0.4676470588235294 0.7320261437908496 0.027205882352941177 0.06143790849673202
1 0.4566176470588235 0.6562091503267974 0.027941176470588237 0.06666666666666667
1 0.4389705882352941 0.596078431372549 0.011764705882352941 0.043137254901960784
0 0.4389705882352941 0.5973856209150327 0.010294117647058823 0.02483660130718954
1 0.46544117647058825 0.5751633986928104 0.019852941176470587 0.03398692810457516
0 0.43823529411764706 0.5241830065359477 0.006617647058823529 0.023529411764705882
1 0.4389705882352941 0.5294117647058824 0.007352941176470588 0.02091503267973856
1 0.5588235294117647 0.5542483660130719 0.007352941176470588 0.02091503267973856
0 0.5580882352941177 0.5464052287581699 0.006617647058823529 0.0196078431372549
1 0.5330882352941176 0.5254901960784314 0.015441176470588236 0.02483660130718954
1 0.5088235294117647 0.5137254901960784 0.013970588235294118 0.02483660130718954
1 0.4786764705882353 0.5202614379084968 0.016911764705882352 0.027450980392156862
1 0.5411764705882353 0.4718954248366013 0.011764705882352941 0.022222222222222223
1 0.5786764705882353 0.4496732026143791 0.0125 0.02091503267973856
0 0.6169117647058824 0.5084967320261438 0.007352941176470588 0.02483660130718954
1 0.600735294117647 0.4666666666666667 0.023529411764705882 0.0457516339869281
1 0.34338235294117647 0.42091503267973857 0.0125 0.018300653594771243
1 0.5375 0.45359477124183006 0.010294117647058823 0.0196078431372549
1 0.4889705882352941 0.38300653594771245 0.008088235294117648 0.013071895424836602
1 0.5102941176470588 0.4117647058823529 0.009558823529411765 0.013071895424836602
1 0.5022058823529412 0.40261437908496733 0.008823529411764706 0.01568627450980392
1 0.5007352941176471 0.38169934640522873 0.008088235294117648 0.011764705882352941
1 0.49117647058823527 0.3738562091503268 0.007352941176470588 0.011764705882352941
1 0.4176470588235294 0.43137254901960786 0.011029411764705883 0.01699346405228758
