1 0.9213235294117647 0.8797385620915033 0.058823529411764705 0.058823529411764705
1 0.9573529411764706 0.7281045751633987 0.03602941176470588 0.03137254901960784
1 0.9676470588235294 0.7450980392156863 0.03602941176470588 0.036601307189542485
1 0.9301470588235294 0.7856209150326797 0.12426470588235294 0.134640522875817
1 0.5301470588235294 0.8313725490196079 0.03161764705882353 0.054901960784313725
0 0.5220588235294118 0.8248366013071895 0.005147058823529412 0.01699346405228758
0 0.5375 0.8261437908496732 0.007352941176470588 0.023529411764705882
1 0.3477941176470588 0.7019607843137254 0.07058823529411765 0.11895424836601307
1 0.4 0.6496732026143791 0.04485294117647059 0.06797385620915032
1 0.44926470588235295 0.657516339869281 0.03676470588235294 0.05359477124183006
1 0.4073529411764706 0.7137254901960784 0.04632352941176471 0.09281045751633987
1 0.538235294117647 0.7437908496732026 0.023529411764705882 0.047058823529411764
1 0.5411764705882353 0.7189542483660131 0.01911764705882353 0.03137254901960784
1 0.5397058823529411 0.6980392156862745 0.014705882352941176 0.030065359477124184
1 0.5360294117647059 0.6836601307189543 0.013970588235294118 0.023529411764705882
1 0.5485294117647059 0.6745098039215687 0.013970588235294118 0.027450980392156862
1 0.5330882352941176 0.6679738562091503 0.016176470588235296 0.023529411764705882
1 0.5602941176470588 0.657516339869281 0.013970588235294118 0.0196078431372549
1 0.5404411764705882 0.6588235294117647 0.0125 0.022222222222222223
1 0.4713235294117647 0.7450980392156863 0.023529411764705882 0.04967320261437908
1 0.47573529411764703 0.730718954248366 0.01764705882352941 0.048366013071895426
1 0.48161764705882354 0.7098039215686275 0.015441176470588236 0.02875816993464052
1 0.48455882352941176 0.7019607843137254 0.011764705882352941 0.03790849673202614
1 0.4875 0.6627450980392157 0.01911764705882353 0.0457516339869281
1 0.5323529411764706 0.5856209150326798 0.021323529411764706 0.02875816993464052
1 0.6176470588235294 0.5803921568627451 0.01838235294117647 0.02483660130718954
1 0.6588235294117647 0.5830065359477125 0.008088235294117648 0.00784313725490196
1 0.7551470588235294 0.7176470588235294 0.025 0.036601307189542485
