1 0.24791666666666667 0.8657407407407407 0.08802083333333334 0.26851851851851855
1 0.18333333333333332 0.5851851851851851 0.06302083333333333 0.19444444444444445
1 0.3385416666666667 0.6018518518518519 0.03333333333333333 0.075
1 0.4432291666666667 0.7685185185185185 0.049479166666666664 0.09814814814814815
1 0.5104166666666666 0.812037037037037 0.0546875 0.10185185185185185
1 0.5796875 0.7694444444444445 0.0609375 0.09351851851851851
1 0.46510416666666665 0.6129629629629629 0.03958333333333333 0.06388888888888888
1 0.4046875 0.5398148148148149 0.0328125 0.05462962962962963
1 0.43697916666666664 0.4861111111111111 0.025520833333333333 0.044444444444444446
1 0.39791666666666664 0.46111111111111114 0.027083333333333334 0.05185185185185185
1 0.5166666666666667 0.5898148148148148 0.08125 0.18611111111111112
1 0.578125 0.5861111111111111 0.09479166666666666 0.19166666666666668
1 0.6786458333333333 0.7851851851851852 0.17552083333333332 0.30648148148148147
1 0.4203125 0.41203703703703703 0.025520833333333333 0.03981481481481482
1 0.45364583333333336 0.40555555555555556 0.025 0.046296296296296294
1 0.21666666666666667 0.4388888888888889 0.0484375 0.12037037037037036
1 0.2677083333333333 0.3990740740740741 0.0234375 0.05092592592592592
1 0.2734375 0.30833333333333335 0.022395833333333334 0.02962962962962963
0 0.2552083333333333 0.30277777777777776 0.0046875 0.024074074074074074
0 0.2598958333333333 0.30277777777777776 0.0046875 0.024074074074074074
1 0.2625 0.29074074074074074 0.013541666666666667 0.025
1 0.26927083333333335 0.27037037037037037 0.015104166666666667 0.023148148148148147
1 0.2916666666666667 0.24351851851851852 0.0140625 0.019444444444444445
1 0.2708333333333333 0.24722222222222223 0.011979166666666667 0.017592592592592594
1 0.27395833333333336 0.2388888888888889 0.009895833333333333 0.020370370370370372
1 0.278125 0.2324074074074074 0.010416666666666666 0.020370370370370372
1 0.29375 0.21574074074074073 0.024479166666666666 0.03888888888888889
0 0.28958333333333336 0.2657407407407407 0.0046875 0.01574074074074074
1 0.28958333333333336 0.2712962962962963 0.005729166666666666 0.013888888888888888
0 0.2828125 0.2574074074074074 0.004166666666666667 0.016666666666666666
1 0.28229166666666666 0.262037037037037 0.004166666666666667 0.012037037037037037
0 0.253125 0.3611111111111111 0.0067708333333333336 0.040740740740740744
0 0.26197916666666665 0.35648148148148145 0.005208333333333333 0.03796296296296296
0 0.303125 0.3453703703703704 0.0046875 0.03611111111111111
0 0.30364583333333334 0.3425925925925926 0.0046875 0.03796296296296296
0 0.14270833333333333 0.30277777777777776 0.005208333333333333 0.019444444444444445
1 0.14270833333333333 0.3101851851851852 0.005729166666666666 0.016666666666666666
0 0.15572916666666667 0.28425925925925927 0.005208333333333333 0.016666666666666666
1 0.15572916666666667 0.2898148148148148 0.00625 0.01574074074074074
0 0.15989583333333332 0.25833333333333336 0.005208333333333333 0.022222222222222223
0 0.15572916666666667 0.25833333333333336 0.0046875 0.020370370370370372
0 0.1078125 0.3 0.0067708333333333336 0.023148148148148147
0 0.09583333333333334 0.29259259259259257 0.005729166666666666 0.023148148148148147
0 0.09114583333333333 0.2916666666666667 0.005208333333333333 0.025
0 0.0890625 0.3194444444444444 0.007291666666666667 0.024074074074074074
0 0.08385416666666666 0.32314814814814813 0.007291666666666667 0.018518518518518517
0 0.07864583333333333 0.32037037037037036 0.005208333333333333 0.024074074074074074
0 0.0828125 0.3055555555555556 0.00625 0.025
0 0.0765625 0.3074074074074074 0.00625 0.025
0 0.07083333333333333 0.337037037037037 0.00625 0.024074074074074074
0 0.0625 0.33796296296296297 0.008333333333333333 0.025925925925925925
0 0.057291666666666664 0.325 0.0067708333333333336 0.02962962962962963
0 0.050520833333333334 0.32685185185185184 0.00625 0.028703703703703703
0 0.04791666666666667 0.2898148148148148 0.007291666666666667 0.025
0 0.12864583333333332 0.262037037037037 0.005208333333333333 0.018518518518518517
0 0.07239583333333334 0.2814814814814815 0.004166666666666667 0.01574074074074074
0 0.06822916666666666 0.27870370370370373 0.005208333333333333 0.020370370370370372
0 0.0609375 0.27870370370370373 0.0046875 0.021296296296296296
0 0.3463541666666667 0.3351851851851852 0.008854166666666666 0.03425925925925926
0 0.740625 0.45092592592592595 0.0078125 0.03796296296296296
0 0.7328125 0.44814814814814813 0.008854166666666666 0.04814814814814815
0 0.603125 0.3333333333333333 0.011458333333333333 0.03611111111111111
0 0.6244791666666667 0.32685185185185184 0.007291666666666667 0.03796296296296296
0 0.6307291666666667 0.32685185185185184 0.005729166666666666 0.03425925925925926
0 0.6625 0.3333333333333333 0.00625 0.03333333333333333
0 0.665625 0.3416666666666667 0.005729166666666666 0.022222222222222223
0 0.6677083333333333 0.32592592592592595 0.0067708333333333336 0.03611111111111111
0 0.7088541666666667 0.3435185185185185 0.0067708333333333336 0.037037037037037035
0 0.6963541666666667 0.337037037037037 0.0067708333333333336 0.03611111111111111
0 0.6927083333333334 0.3435185185185185 0.008333333333333333 0.032407407407407406
0 0.6515625 0.33425925925925926 0.0078125 0.03796296296296296
0 0.6458333333333334 0.33240740740740743 0.0067708333333333336 0.03425925925925926
0 0.6432291666666666 0.3287037037037037 0.00625 0.03333333333333333
0 0.5645833333333333 0.34444444444444444 0.005729166666666666 0.03148148148148148
0 0.5598958333333334 0.3435185185185185 0.0078125 0.03333333333333333
0 0.5489583333333333 0.35185185185185186 0.0109375 0.03611111111111111
0 0.5260416666666666 0.3388888888888889 0.0067708333333333336 0.03333333333333333
0 0.5223958333333333 0.33425925925925926 0.007291666666666667 0.037037037037037035
0 0.5505208333333333 0.31666666666666665 0.00625 0.023148148148148147
0 0.5333333333333333 0.29259259259259257 0.0046875 0.023148148148148147
0 0.5286458333333334 0.29259259259259257 0.0036458333333333334 0.022222222222222223
0 0.5270833333333333 0.3111111111111111 0.005729166666666666 0.017592592592592594
1 0.528125 0.31666666666666665 0.007291666666666667 0.013888888888888888
0 0.4875 0.30185185185185187 0.005729166666666666 0.020370370370370372
0 0.47552083333333334 0.2833333333333333 0.0046875 0.020370370370370372
0 0.4859375 0.27037037037037037 0.0036458333333333334 0.013888888888888888
1 0.4864583333333333 0.2759259259259259 0.005208333333333333 0.012037037037037037
0 0.4703125 0.2675925925925926 0.005208333333333333 0.021296296296296296
0 0.5354166666666667 0.262037037037037 0.0046875 0.020370370370370372
0 0.515625 0.2722222222222222 0.004166666666666667 0.019444444444444445
0 0.5125 0.2712962962962963 0.003125 0.016666666666666666
0 0.5098958333333333 0.2712962962962963 0.003125 0.018518518518518517
0 0.54375 0.2601851851851852 0.0026041666666666665 0.016666666666666666
0 0.5489583333333333 0.25925925925925924 0.004166666666666667 0.014814814814814815
0 0.6177083333333333 0.4166666666666667 0.0067708333333333336 0.026851851851851852
1 0.6182291666666667 0.42314814814814816 0.008854166666666666 0.025925925925925925
0 0.5 0.2953703703703704 0.005729166666666666 0.019444444444444445
1 0.5005208333333333 0.30092592592592593 0.007291666666666667 0.016666666666666666
0 0.48333333333333334 0.2324074074074074 0.0046875 0.017592592592592594
0 0.49270833333333336 0.22592592592592592 0.0036458333333333334 0.017592592592592594
0 0.39739583333333334 0.34814814814814815 0.008333333333333333 0.037037037037037035
1 0.4125 0.2851851851851852 0.016145833333333335 0.023148148148148147
1 0.4036458333333333 0.2638888888888889 0.0140625 0.018518518518518517
1 0.4114583333333333 0.24074074074074073 0.0125 0.016666666666666666
1 0.40677083333333336 0.225 0.011458333333333333 0.013888888888888888
1 0.3927083333333333 0.3074074074074074 0.0171875 0.023148148148148147
1 0.3875 0.28425925925925927 0.016145833333333335 0.025
1 0.3848958333333333 0.26296296296296295 0.0125 0.016666666666666666
1 0.39895833333333336 0.2490740740740741 0.013541666666666667 0.019444444444444445
1 0.3796875 0.24074074074074073 0.0125 0.016666666666666666
1 0.39479166666666665 0.23703703703703705 0.011458333333333333 0.016666666666666666
1 0.37916666666666665 0.22962962962962963 0.011458333333333333 0.01574074074074074
1 0.39010416666666664 0.22777777777777777 0.009895833333333333 0.016666666666666666
1 0.37135416666666665 0.2222222222222222 0.009895833333333333 0.014814814814814815
1 0.35625 0.21851851851851853 0.010416666666666666 0.014814814814814815
1 0.4046875 0.21296296296296297 0.008854166666666666 0.01574074074074074
1 0.3854166666666667 0.21296296296296297 0.0109375 0.013888888888888888
1 0.3807291666666667 0.19722222222222222 0.008333333333333333 0.011111111111111112
1 0.3729166666666667 0.21481481481481482 0.010416666666666666 0.012037037037037037
1 0.37083333333333335 0.20833333333333334 0.009375 0.012962962962962963
1 0.36875 0.20277777777777778 0.008333333333333333 0.012037037037037037
1 0.3671875 0.19722222222222222 0.009375 0.013888888888888888
1 0.36614583333333334 0.18981481481481483 0.007291666666666667 0.012962962962962963
1 0.39375 0.2064814814814815 0.009895833333333333 0.013888888888888888
1 0.3953125 0.19814814814814816 0.007291666666666667 0.010185185185185186
1 0.39479166666666665 0.19074074074074074 0.00625 0.012962962962962963
1 0.38385416666666666 0.1814814814814815 0.015625 0.026851851851851852
1 0.365625 0.17962962962962964 0.008333333333333333 0.010185185185185186
1 0.37395833333333334 0.17592592592592593 0.007291666666666667 0.011111111111111112
0 0.2484375 0.29074074074074074 0.004166666666666667 0.022222222222222223
1 0.4796875 0.21296296296296297 0.013541666666666667 0.017592592592592594
1 0.4765625 0.2064814814814815 0.013020833333333334 0.019444444444444445
1 0.4890625 0.20555555555555555 0.008854166666666666 0.01574074074074074
0 0.4546875 0.23425925925925925 0.0046875 0.016666666666666666
0 0.4510416666666667 0.24166666666666667 0.004166666666666667 0.016666666666666666
0 0.45729166666666665 0.18425925925925926 0.0036458333333333334 0.013888888888888888
0 0.46041666666666664 0.1787037037037037 0.003125 0.018518518518518517
0 0.4640625 0.1787037037037037 0.0036458333333333334 0.017592592592592594
0 0.7848958333333333 0.5879629629629629 0.009895833333333333 0.05555555555555555
0 0.775 0.5796296296296296 0.009375 0.05648148148148148
0 0.7932291666666667 0.5407407407407407 0.0078125 0.049074074074074076
0 0.7848958333333333 0.5398148148148149 0.009895833333333333 0.05092592592592592
0 0.8604166666666667 0.5361111111111111 0.008333333333333333 0.041666666666666664
0 0.8677083333333333 0.5342592592592592 0.00625 0.04814814814814815
0 0.8734375 0.5296296296296297 0.0067708333333333336 0.03981481481481482
0 0.8802083333333334 0.5296296296296297 0.005208333333333333 0.037037037037037035
0 0.8427083333333333 0.5907407407407408 0.013541666666666667 0.021296296296296296
0 0.8395833333333333 0.6111111111111112 0.0140625 0.024074074074074074
1 0.9140625 0.649074074074074 0.0125 0.046296296296296294
0 0.9052083333333333 0.8101851851851852 0.0140625 0.05740740740740741
0 0.14166666666666666 0.612037037037037 0.010416666666666666 0.046296296296296294
0 0.12395833333333334 0.612037037037037 0.009895833333333333 0.046296296296296294
0 0.12135416666666667 0.6074074074074074 0.007291666666666667 0.04722222222222222
0 0.13854166666666667 0.5694444444444444 0.009375 0.04722222222222222
0 0.12239583333333333 0.5777777777777777 0.010416666666666666 0.03981481481481482
0 0.15625 0.5638888888888889 0.010416666666666666 0.046296296296296294
0 0.1015625 0.6138888888888889 0.013020833333333334 0.05092592592592592
0 0.16354166666666667 0.5268518518518519 0.0078125 0.03148148148148148
0 0.18072916666666666 0.47685185185185186 0.00625 0.03333333333333333
0 0.18645833333333334 0.475 0.0046875 0.030555555555555555
0 0.13385416666666666 0.5203703703703704 0.008333333333333333 0.03888888888888889
0 0.13645833333333332 0.5111111111111111 0.008854166666666666 0.032407407407407406
0 0.03177083333333333 0.7138888888888889 0.0140625 0.058333333333333334
0 0.12395833333333334 0.3435185185185185 0.008854166666666666 0.03888888888888889
0 0.11614583333333334 0.3416666666666667 0.007291666666666667 0.03796296296296296
0 0.146875 0.25555555555555554 0.004166666666666667 0.019444444444444445
0 0.14427083333333332 0.2601851851851852 0.003125 0.019444444444444445
0 0.11770833333333333 0.26481481481481484 0.004166666666666667 0.024074074074074074
0 0.12291666666666666 0.26944444444444443 0.005729166666666666 0.021296296296296296
0 0.09947916666666666 0.2611111111111111 0.004166666666666667 0.019444444444444445
0 0.096875 0.2601851851851852 0.004166666666666667 0.018518518518518517
0 0.07760416666666667 0.25925925925925924 0.005208333333333333 0.019444444444444445
1 0.078125 0.2638888888888889 0.0078125 0.014814814814814815
1 0.025 0.8694444444444445 0.041666666666666664 0.04351851851851852
1 0.033854166666666664 0.8268518518518518 0.041666666666666664 0.040740740740740744
1 0.028645833333333332 0.8046296296296296 0.0421875 0.04537037037037037
0 0.09583333333333334 0.6166666666666667 0.011458333333333333 0.05
