1 0.546875 0.10185185185185185 0.010416666666666666 0.037037037037037035
1 0.5625 0.10925925925925926 0.005208333333333333 0.020370370370370372
1 0.5552083333333333 0.07222222222222222 0.004166666666666667 0.022222222222222223
1 0.5145833333333333 0.21851851851851853 0.004166666666666667 0.022222222222222223
1 0.56875 0.575925925925926 0.005208333333333333 0.024074074074074074
1 0.5354166666666667 0.2 0.011458333333333333 0.04814814814814815
1 0.5552083333333333 0.22592592592592592 0.011458333333333333 0.04814814814814815
1 0.5322916666666667 0.2851851851851852 0.011458333333333333 0.04814814814814815
1 0.5604166666666667 0.31296296296296294 0.011458333333333333 0.04814814814814815
1 0.5166666666666667 0.3333333333333333 0.011458333333333333 0.04814814814814815
1 0.5375 0.3592592592592593 0.011458333333333333 0.04814814814814815
1 0.571875 0.40370370370370373 0.011458333333333333 0.04814814814814815
1 0.55625 0.42407407407407405 0.011458333333333333 0.053703703703703705
1 0.5291666666666667 0.42777777777777776 0.0125 0.05185185185185185
1 0.5104166666666666 0.4 0.013541666666666667 0.053703703703703705
1 0.5447916666666667 0.4648148148148148 0.014583333333333334 0.04814814814814815
1 0.5270833333333333 0.5018518518518519 0.014583333333333334 0.04814814814814815
1 0.546875 0.6425925925925926 0.015625 0.04814814814814815
1 0.53125 0.5851851851851851 0.022916666666666665 0.05
1 0.5739583333333333 0.6907407407407408 0.013541666666666667 0.04814814814814815
1 0.5260416666666666 0.7462962962962963 0.011458333333333333 0.046296296296296294
1 0.584375 0.8166666666666667 0.011458333333333333 0.04814814814814815
1 0.553125 0.8833333333333333 0.011458333333333333 0.053703703703703705
1 0.49166666666666664 0.7907407407407407 0.014583333333333334 0.05
1 0.48854166666666665 0.9074074074074074 0.0125 0.04814814814814815
1 0.490625 0.8537037037037037 0.0125 0.04814814814814815
1 0.4875 0.9703703703703703 0.0125 0.05
1 0.48854166666666665 0.337037037037037 0.017708333333333333 0.046296296296296294
1 0.5916666666666667 0.2462962962962963 0.01875 0.044444444444444446
1 0.5739583333333333 0.11851851851851852 0.013541666666666667 0.046296296296296294
1 0.965625 0.37777777777777777 0.025 0.022222222222222223
1 0.934375 0.4074074074074074 0.026041666666666668 0.022222222222222223
1 0.871875 0.4074074074074074 0.026041666666666668 0.025925925925925925
1 0.8427083333333333 0.40185185185185185 0.026041666666666668 0.024074074074074074
1 0.7895833333333333 0.4 0.027083333333333334 0.025925925925925925
1 0.7552083333333334 0.40555555555555556 0.021875 0.025925925925925925
1 0.7177083333333333 0.43148148148148147 0.025 0.022222222222222223
1 0.4864583333333333 0.4740740740740741 0.026041666666666668 0.040740740740740744
1 0.4375 0.35555555555555557 0.026041666666666668 0.022222222222222223
1 0.4354166666666667 0.3907407407407407 0.026041666666666668 0.022222222222222223
1 0.39791666666666664 0.35555555555555557 0.026041666666666668 0.022222222222222223
1 0.34479166666666666 0.3537037037037037 0.028125 0.022222222222222223
1 0.34270833333333334 0.3851851851851852 0.027083333333333334 0.022222222222222223
1 0.40625 0.387037037037037 0.025 0.024074074074074074
1 0.41354166666666664 0.43703703703703706 0.027083333333333334 0.025925925925925925
1 0.73125 0.39814814814814814 0.025 0.024074074074074074
1 0.74375 0.6111111111111112 0.027083333333333334 0.024074074074074074
1 0.80625 0.6166666666666667 0.028125 0.022222222222222223
1 0.8364583333333333 0.6185185185185185 0.029166666666666667 0.024074074074074074
1 0.865625 0.6185185185185185 0.026041666666666668 0.024074074074074074
1 0.9020833333333333 0.6203703703703703 0.022916666666666665 0.024074074074074074
1 0.965625 0.5962962962962963 0.03229166666666667 0.025925925925925925
1 0.37395833333333334 0.6055555555555555 0.030208333333333334 0.024074074074074074
1 0.3177083333333333 0.6388888888888888 0.014583333333333334 0.04814814814814815
1 0.4010416666666667 0.6444444444444445 0.013541666666666667 0.046296296296296294
1 0.41770833333333335 0.6444444444444445 0.0125 0.04814814814814815
1 0.46458333333333335 0.9796296296296296 0.017708333333333333 0.040740740740740744
1 0.5041666666666667 0.9777777777777777 0.013541666666666667 0.044444444444444446
1 0.5229166666666667 0.8833333333333333 0.017708333333333333 0.06481481481481481
1 0.253125 0.4 0.026041666666666668 0.024074074074074074
1 0.23229166666666667 0.3814814814814815 0.026041666666666668 0.022222222222222223
1 0.121875 0.37777777777777777 0.026041666666666668 0.022222222222222223
1 0.026041666666666668 0.825925925925926 0.029166666666666667 0.044444444444444446
1 0.071875 0.8222222222222222 0.025 0.04259259259259259
1 0.21979166666666666 0.8277777777777777 0.021875 0.046296296296296294
1 0.25625 0.8314814814814815 0.028125 0.05185185185185185
1 0.008333333333333333 0.8203703703703704 0.016666666666666666 0.046296296296296294
1 0.778125 0.6037037037037037 0.027083333333333334 0.022222222222222223
1 0.828125 0.5962962962962963 0.026041666666666668 0.022222222222222223
1 0.934375 0.6185185185185185 0.020833333333333332 0.027777777777777776
1 0.765625 0.6222222222222222 0.017708333333333333 0.016666666666666666
1 0.30520833333333336 0.37962962962962965 0.013541666666666667 0.011111111111111112
1 0.32083333333333336 0.37962962962962965 0.014583333333333334 0.012962962962962963
1 0.19479166666666667 0.07222222222222222 0.027083333333333334 0.02962962962962963
1 0.8895833333333333 0.09074074074074075 0.015625 0.044444444444444446
1 0.8760416666666667 0.09259259259259259 0.014583333333333334 0.044444444444444446
1 0.7635416666666667 0.06666666666666667 0.013541666666666667 0.03888888888888889
1 0.7895833333333333 0.07962962962962963 0.013541666666666667 0.040740740740740744
1 0.9020833333333333 0.07777777777777778 0.015625 0.05555555555555555
1 0.7760416666666666 0.07777777777777778 0.0125 0.04259259259259259
1 0.8614583333333333 0.08703703703703704 0.011458333333333333 0.04259259259259259
1 0.7166666666666667 0.08888888888888889 0.022916666666666665 0.022222222222222223
1 0.7177083333333333 0.10925925925925926 0.021875 0.020370370370370372
1 0.9447916666666667 0.8888888888888888 0.029166666666666667 0.024074074074074074
1 0.9447916666666667 0.9166666666666666 0.030208333333333334 0.024074074074074074
1 0.08125 0.5851851851851851 0.022916666666666665 0.018518518518518517
1 0.065625 0.3814814814814815 0.026041666666666668 0.024074074074074074
1 0.6510416666666666 0.45185185185185184 0.029166666666666667 0.025925925925925925
