1 0.03529411764705882 0.2222222222222222 0.03823529411764706 0.023529411764705882
1 0.04264705882352941 0.20261437908496732 0.03161764705882353 0.02483660130718954
1 0.05 0.1869281045751634 0.023529411764705882 0.0196078431372549
0 0.14926470588235294 0.8627450980392157 0.008823529411764706 0.03137254901960784
0 0.1463235294117647 0.8444444444444444 0.007352941176470588 0.032679738562091505
1 0.13014705882352942 0.8143790849673203 0.016911764705882352 0.032679738562091505
1 0.05 0.9464052287581699 0.013235294117647059 0.02875816993464052
0 0.07867647058823529 0.9895424836601308 0.009558823529411765 0.0196078431372549
1 0.17941176470588235 0.9581699346405229 0.045588235294117645 0.08235294117647059
1 0.24558823529411763 0.7294117647058823 0.03676470588235294 0.08627450980392157
1 0.2639705882352941 0.5568627450980392 0.04852941176470588 0.03790849673202614
1 0.27205882352941174 0.4300653594771242 0.03823529411764706 0.0392156862745098
1 0.2485294117647059 0.3934640522875817 0.022058823529411766 0.05359477124183006
1 0.27794117647058825 0.3908496732026144 0.022794117647058822 0.047058823529411764
1 0.3154411764705882 0.1843137254901961 0.011764705882352941 0.011764705882352941
1 0.33676470588235297 0.24705882352941178 0.015441176470588236 0.03398692810457516
1 0.3602941176470588 0.25098039215686274 0.01764705882352941 0.030065359477124184
1 0.3477941176470588 0.29150326797385623 0.020588235294117647 0.040522875816993466
1 0.3360294117647059 0.3359477124183007 0.01764705882352941 0.04183006535947712
1 0.32426470588235295 0.3908496732026144 0.019852941176470587 0.0392156862745098
1 0.40955882352941175 0.37777777777777777 0.008088235294117648 0.023529411764705882
0 0.4102941176470588 0.36993464052287583 0.0058823529411764705 0.02091503267973856
1 0.4713235294117647 0.6313725490196078 0.021323529411764706 0.06143790849673202
1 0.5272058823529412 0.8771241830065359 0.007352941176470588 0.04183006535947712
0 0.5279411764705882 0.8666666666666667 0.010294117647058823 0.022222222222222223
1 0.5455882352941176 0.8836601307189542 0.009558823529411765 0.036601307189542485
0 0.5455882352941176 0.8745098039215686 0.008088235294117648 0.022222222222222223
1 0.6147058823529412 0.8679738562091504 0.007352941176470588 0.04183006535947712
0 0.6147058823529412 0.857516339869281 0.008088235294117648 0.022222222222222223
1 0.6367647058823529 0.9581699346405229 0.008088235294117648 0.0457516339869281
0 0.6375 0.9516339869281045 0.010294117647058823 0.027450980392156862
1 0.8169117647058823 0.7241830065359477 0.05220588235294118 0.04967320261437908
0 0.8161764705882353 0.7398692810457517 0.008088235294117648 0.03529411764705882
1 0.49558823529411766 0.40784313725490196 0.028676470588235293 0.10588235294117647
1 0.4698529411764706 0.17516339869281045 0.013970588235294118 0.030065359477124184
1 0.5022058823529412 0.13202614379084968 0.011764705882352941 0.023529411764705882
0 0.5683823529411764 0.09542483660130718 0.003676470588235294 0.018300653594771243
0 0.5661764705882353 0.09673202614379085 0.003676470588235294 0.01699346405228758
1 0.663235294117647 0.1084967320261438 0.0125 0.023529411764705882
1 0.6845588235294118 0.19738562091503267 0.016176470588235296 0.032679738562091505
0 0.6411764705882353 0.09673202614379085 0.004411764705882353 0.01045751633986928
1 0.6602941176470588 0.054901960784313725 0.013235294117647059 0.02091503267973856
1 0.6786764705882353 0.05620915032679739 0.013235294117647059 0.022222222222222223
1 0.6926470588235294 0.05751633986928104 0.011029411764705883 0.0196078431372549
1 0.5772058823529411 0.05228758169934641 0.010294117647058823 0.0196078431372549
1 0.5772058823529411 0.03790849673202614 0.010294117647058823 0.018300653594771243
1 0.5198529411764706 0.02483660130718954 0.009558823529411765 0.02091503267973856
1 0.5073529411764706 0.009150326797385621 0.010294117647058823 0.0196078431372549
0 0.6477941176470589 0.2758169934640523 0.003676470588235294 0.0196078431372549
0 0.6220588235294118 0.2784313725490196 0.003676470588235294 0.013071895424836602
1 0.6205882352941177 0.3006535947712418 0.010294117647058823 0.01568627450980392
0 0.6808823529411765 0.3281045751633987 0.004411764705882353 0.023529411764705882
0 0.4441176470588235 0.0784313725490196 0.005147058823529412 0.0196078431372549
1 0.3948529411764706 0.08888888888888889 0.0125 0.022222222222222223
0 0.3411764705882353 0.1437908496732026 0.003676470588235294 0.01568627450980392
0 0.34411764705882353 0.1450980392156863 0.003676470588235294 0.01699346405228758
