1 0.030729166666666665 0.9601851851851851 0.027604166666666666 0.06296296296296296
1 0.015625 0.9203703703703704 0.0203125 0.075
1 0.019270833333333334 0.8398148148148148 0.0125 0.05092592592592592
0 0.07395833333333333 0.8203703703703704 0.0140625 0.05555555555555555
0 0.23125 0.8018518518518518 0.015625 0.05925925925925926
0 0.2828125 0.837037037037037 0.0171875 0.05925925925925926
0 0.28802083333333334 0.762962962962963 0.0109375 0.049074074074074076
0 0.3125 0.9638888888888889 0.014583333333333334 0.053703703703703705
1 0.315625 0.9824074074074074 0.01875 0.03333333333333333
0 0.2520833333333333 0.9833333333333333 0.020833333333333332 0.03333333333333333
0 0.11614583333333334 0.8342592592592593 0.015104166666666667 0.05555555555555555
0 0.10260416666666666 0.8222222222222222 0.013541666666666667 0.05277777777777778
0 0.11302083333333333 0.8064814814814815 0.016145833333333335 0.05925925925925926
1 0.21927083333333333 0.7046296296296296 0.008333333333333333 0.04259259259259259
0 0.21927083333333333 0.6925925925925925 0.010416666666666666 0.044444444444444446
0 0.08802083333333334 0.6240740740740741 0.0140625 0.041666666666666664
1 0.2 0.6157407407407407 0.0109375 0.03888888888888889
0 0.2015625 0.600925925925926 0.008333333333333333 0.04351851851851852
1 0.23333333333333334 0.5990740740740741 0.009895833333333333 0.037037037037037035
0 0.2328125 0.587037037037037 0.009895833333333333 0.03888888888888889
1 0.21145833333333333 0.5185185185185185 0.009895833333333333 0.03425925925925926
0 0.21041666666666667 0.5083333333333333 0.0078125 0.040740740740740744
1 0.19270833333333334 0.5185185185185185 0.0067708333333333336 0.028703703703703703
0 0.19166666666666668 0.5074074074074074 0.009895833333333333 0.032407407407407406
1 0.19583333333333333 0.48148148148148145 0.009375 0.025925925925925925
0 0.1953125 0.4722222222222222 0.010416666666666666 0.03148148148148148
1 0.12552083333333333 0.5009259259259259 0.0671875 0.041666666666666664
1 0.08020833333333334 0.43703703703703706 0.025 0.041666666666666664
1 0.019270833333333334 0.524074074074074 0.03854166666666667 0.04537037037037037
1 0.0578125 0.5175925925925926 0.011458333333333333 0.02962962962962963
0 0.057291666666666664 0.5083333333333333 0.008333333333333333 0.032407407407407406
1 0.09739583333333333 0.4074074074074074 0.05625 0.06018518518518518
0 0.12447916666666667 0.412962962962963 0.0078125 0.030555555555555555
1 0.14375 0.38055555555555554 0.005729166666666666 0.021296296296296296
0 0.14375 0.3731481481481482 0.0067708333333333336 0.025
1 0.1984375 0.4064814814814815 0.0067708333333333336 0.025
1 0.15572916666666667 0.39351851851851855 0.0067708333333333336 0.019444444444444445
0 0.15572916666666667 0.38796296296296295 0.00625 0.020370370370370372
0 0.15520833333333334 0.38333333333333336 0.0067708333333333336 0.019444444444444445
1 0.13229166666666667 0.35555555555555557 0.0046875 0.021296296296296296
0 0.13229166666666667 0.35 0.005729166666666666 0.025
1 0.1421875 0.3287037037037037 0.005729166666666666 0.016666666666666666
0 0.14166666666666666 0.32222222222222224 0.0046875 0.017592592592592594
1 0.013541666666666667 0.3731481481481482 0.027604166666666666 0.04814814814814815
1 0.20260416666666667 0.2953703703703704 0.0203125 0.024074074074074074
1 0.2390625 0.30277777777777776 0.0203125 0.030555555555555555
1 0.2546875 0.2935185185185185 0.019270833333333334 0.024074074074074074
1 0.8713541666666667 0.8870370370370371 0.24739583333333334 0.225
1 0.9546875 0.9175925925925926 0.0828125 0.10740740740740741
1 0.8614583333333333 0.8027777777777778 0.09114583333333333 0.10185185185185185
1 0.7161458333333334 0.7888888888888889 0.07708333333333334 0.10092592592592593
1 0.7369791666666666 0.7351851851851852 0.07239583333333334 0.0787037037037037
1 0.7901041666666667 0.7175925925925926 0.07552083333333333 0.07685185185185185
1 0.8505208333333333 0.6888888888888889 0.1984375 0.23425925925925925
1 0.759375 0.5777777777777777 0.0234375 0.018518518518518517
0 0.7609375 0.5675925925925925 0.011458333333333333 0.03518518518518519
1 0.821875 0.5509259259259259 0.0546875 0.053703703703703705
0 0.8734375 0.6111111111111112 0.010416666666666666 0.04351851851851852
1 0.7208333333333333 0.6537037037037037 0.058854166666666666 0.06296296296296296
1 0.6744791666666666 0.6527777777777778 0.0703125 0.07685185185185185
1 0.66875 0.5888888888888889 0.059375 0.06111111111111111
1 0.6572916666666667 0.7037037037037037 0.06822916666666666 0.08055555555555556
1 0.596875 0.625 0.05677083333333333 0.06296296296296296
1 0.5479166666666667 0.5666666666666667 0.050520833333333334 0.05555555555555555
1 0.6083333333333333 0.5787037037037037 0.0578125 0.06666666666666667
1 0.6489583333333333 0.5287037037037037 0.0484375 0.05092592592592592
1 0.6083333333333333 0.5287037037037037 0.052083333333333336 0.05462962962962963
1 0.5588541666666667 0.5222222222222223 0.04479166666666667 0.04722222222222222
1 0.509375 0.5194444444444445 0.0390625 0.04722222222222222
1 0.5703125 0.487962962962963 0.03802083333333333 0.041666666666666664
1 0.5182291666666666 0.47962962962962963 0.04114583333333333 0.040740740740740744
1 0.48072916666666665 0.48518518518518516 0.03333333333333333 0.040740740740740744
1 0.5229166666666667 0.4462962962962963 0.034895833333333334 0.03518518518518519
1 0.5697916666666667 0.4361111111111111 0.08177083333333333 0.10185185185185185
1 0.4942708333333333 0.4185185185185185 0.027604166666666666 0.037037037037037035
1 0.6677083333333333 0.462037037037037 0.015625 0.025925925925925925
0 0.6692708333333334 0.4537037037037037 0.0078125 0.024074074074074074
1 0.6776041666666667 0.45185185185185184 0.043229166666666666 0.046296296296296294
1 0.6463541666666667 0.42407407407407405 0.03854166666666667 0.03518518518518519
1 0.6302083333333334 0.44166666666666665 0.015104166666666667 0.021296296296296296
0 0.6302083333333334 0.43333333333333335 0.0078125 0.024074074074074074
1 0.6 0.4083333333333333 0.0125 0.018518518518518517
0 0.6010416666666667 0.40185185185185185 0.00625 0.022222222222222223
1 0.46510416666666665 0.4074074074074074 0.07291666666666667 0.09814814814814815
1 0.4473958333333333 0.4444444444444444 0.034375 0.03611111111111111
1 0.4890625 0.37222222222222223 0.07291666666666667 0.08518518518518518
1 0.5317708333333333 0.3314814814814815 0.034895833333333334 0.024074074074074074
1 0.415625 0.41574074074074074 0.03125 0.03333333333333333
1 0.41822916666666665 0.3824074074074074 0.03125 0.02962962962962963
1 0.3875 0.38333333333333336 0.025520833333333333 0.03148148148148148
1 0.415625 0.3537037037037037 0.021354166666666667 0.025925925925925925
1 0.425 0.337037037037037 0.027083333333333334 0.026851851851851852
1 0.3515625 0.34629629629629627 0.025 0.025
1 0.37552083333333336 0.34444444444444444 0.025 0.025
1 0.3723958333333333 0.31666666666666665 0.023958333333333335 0.025
1 0.3203125 0.31666666666666665 0.021354166666666667 0.026851851851851852
1 0.33645833333333336 0.30833333333333335 0.021875 0.023148148148148147
1 0.34739583333333335 0.29814814814814816 0.022395833333333334 0.023148148148148147
1 0.37447916666666664 0.28425925925925927 0.0390625 0.05277777777777778
1 0.3015625 0.29907407407407405 0.019791666666666666 0.020370370370370372
1 0.30572916666666666 0.2824074074074074 0.018229166666666668 0.019444444444444445
1 0.3229166666666667 0.27870370370370373 0.018229166666666668 0.021296296296296296
1 0.34375 0.27685185185185185 0.01875 0.020370370370370372
1 0.3307291666666667 0.262037037037037 0.013020833333333334 0.01574074074074074
1 0.28177083333333336 0.27870370370370373 0.019270833333333334 0.021296296296296296
1 0.28229166666666666 0.2611111111111111 0.017708333333333333 0.020370370370370372
1 0.29583333333333334 0.25833333333333336 0.0171875 0.018518518518518517
1 0.3614583333333333 0.25462962962962965 0.017708333333333333 0.018518518518518517
1 0.18385416666666668 0.39537037037037037 0.024479166666666666 0.03888888888888889
0 0.1875 0.3675925925925926 0.00625 0.025925925925925925
1 0.19583333333333333 0.2518518518518518 0.0171875 0.024074074074074074
1 0.215625 0.24722222222222223 0.016666666666666666 0.021296296296296296
1 0.25364583333333335 0.2518518518518518 0.015104166666666667 0.017592592592592594
1 0.2755208333333333 0.2388888888888889 0.016666666666666666 0.017592592592592594
1 0.25364583333333335 0.2388888888888889 0.016666666666666666 0.017592592592592594
1 0.23177083333333334 0.2351851851851852 0.014583333333333334 0.016666666666666666
1 0.16979166666666667 0.24074074074074073 0.016666666666666666 0.020370370370370372
1 0.18072916666666666 0.22777777777777777 0.013541666666666667 0.017592592592592594
0 0.5640625 0.38796296296296295 0.0067708333333333336 0.020370370370370372
0 0.5416666666666666 0.3861111111111111 0.0067708333333333336 0.017592592592592594
0 0.5276041666666667 0.37777777777777777 0.005729166666666666 0.023148148148148147
0 0.515625 0.3175925925925926 0.0046875 0.023148148148148147
0 0.5104166666666666 0.3175925925925926 0.0036458333333333334 0.022222222222222223
1 0.503125 0.30925925925925923 0.030208333333333334 0.024074074074074074
1 0.4864583333333333 0.3037037037037037 0.03125 0.025925925925925925
1 0.46822916666666664 0.2962962962962963 0.023958333333333335 0.024074074074074074
1 0.4395833333333333 0.2740740740740741 0.022395833333333334 0.01574074074074074
1 0.25104166666666666 0.21944444444444444 0.014583333333333334 0.01574074074074074
1 0.23020833333333332 0.2222222222222222 0.014583333333333334 0.014814814814814815
1 0.20833333333333334 0.21296296296296297 0.013020833333333334 0.014814814814814815
1 0.23125 0.21203703703703702 0.0140625 0.01574074074074074
1 0.184375 0.21481481481481482 0.0125 0.014814814814814815
1 0.196875 0.19444444444444445 0.011979166666666667 0.012962962962962963
1 0.18958333333333333 0.18055555555555555 0.0109375 0.012037037037037037
1 0.1734375 0.1685185185185185 0.0109375 0.013888888888888888
1 0.1546875 0.2212962962962963 0.0140625 0.019444444444444445
1 0.15520833333333334 0.20277777777777778 0.0125 0.01574074074074074
1 0.140625 0.20462962962962963 0.0125 0.019444444444444445
1 0.12916666666666668 0.19444444444444445 0.009375 0.014814814814814815
1 0.12083333333333333 0.18333333333333332 0.0125 0.016666666666666666
1 0.16458333333333333 0.16018518518518518 0.010416666666666666 0.012037037037037037
1 0.11041666666666666 0.17314814814814813 0.009895833333333333 0.012962962962962963
1 0.11666666666666667 0.1648148148148148 0.010416666666666666 0.012962962962962963
