0 0.016911764705882352 0.4222222222222222 0.03455882352941177 0.06666666666666667
1 0.11029411764705882 0.23529411764705882 0.11985294117647059 0.09019607843137255
0 0.2286764705882353 0.4980392156862745 0.01838235294117647 0.05228758169934641
0 0.38529411764705884 0.4849673202614379 0.014705882352941176 0.06013071895424837
0 0.36764705882352944 0.5137254901960784 0.022058823529411766 0.040522875816993466
0 0.36470588235294116 0.6143790849673203 0.016911764705882352 0.054901960784313725
0 0.38088235294117645 0.6941176470588235 0.01838235294117647 0.06013071895424837
0 0.3860294117647059 0.788235294117647 0.019852941176470587 0.05359477124183006
1 0.5051470588235294 0.6392156862745098 0.14191176470588235 0.11895424836601307
1 0.6014705882352941 0.9803921568627451 0.14338235294117646 0.0392156862745098
1 0.8169117647058823 0.4444444444444444 0.12941176470588237 0.11633986928104575
1 0.33455882352941174 0.23529411764705882 0.08823529411764706 0.12026143790849673
1 0.425 0.13594771241830064 0.10073529411764706 0.10065359477124183
0 0.42573529411764705 0.023529411764705882 0.010294117647058823 0.047058823529411764
0 0.35073529411764703 0.01437908496732026 0.0125 0.030065359477124184
0 0.3889705882352941 0.022222222222222223 0.0125 0.0457516339869281
1 0.39338235294117646 0.07450980392156863 0.09926470588235294 0.08366013071895424
1 0.31029411764705883 0.050980392156862744 0.05367647058823529 0.10326797385620914
0 0.7764705882352941 0.1411764705882353 0.013235294117647059 0.050980392156862744
1 0.7845588235294118 0.14248366013071895 0.06102941176470588 0.0718954248366013
1 0.2213235294117647 0.5019607843137255 0.060294117647058824 0.19869281045751633
