1 0.024479166666666666 0.3638888888888889 0.04895833333333333 0.03981481481481482
1 0.04375 0.32037037037037036 0.013541666666666667 0.018518518518518517
1 0.029166666666666667 0.30648148148148147 0.014583333333333334 0.01574074074074074
0 0.09739583333333333 0.2712962962962963 0.0067708333333333336 0.020370370370370372
0 0.1203125 0.2814814814814815 0.00625 0.028703703703703703
0 0.12552083333333333 0.2824074074074074 0.0067708333333333336 0.027777777777777776
0 0.13020833333333334 0.2861111111111111 0.005729166666666666 0.019444444444444445
0 0.134375 0.28703703703703703 0.0067708333333333336 0.022222222222222223
1 0.1546875 0.25925925925925924 0.020833333333333332 0.025925925925925925
0 0.15729166666666666 0.3101851851851852 0.005208333333333333 0.028703703703703703
0 0.16927083333333334 0.3101851851851852 0.00625 0.026851851851851852
1 0.17864583333333334 0.2722222222222222 0.016145833333333335 0.03518518518518519
1 0.18697916666666667 0.28703703703703703 0.009375 0.03333333333333333
1 0.09895833333333333 0.39444444444444443 0.057291666666666664 0.03611111111111111
1 0.21666666666666667 0.225 0.0109375 0.027777777777777776
1 0.21458333333333332 0.2675925925925926 0.021354166666666667 0.049074074074074076
1 0.225 0.2564814814814815 0.016145833333333335 0.030555555555555555
1 0.23125 0.2388888888888889 0.016666666666666666 0.027777777777777776
1 0.24010416666666667 0.21944444444444444 0.014583333333333334 0.021296296296296296
1 0.246875 0.2064814814814815 0.015625 0.022222222222222223
1 0.25104166666666666 0.1925925925925926 0.0140625 0.018518518518518517
1 0.259375 0.1787037037037037 0.013020833333333334 0.023148148148148147
1 0.2484375 0.1712962962962963 0.009375 0.025925925925925925
1 0.275 0.19074074074074074 0.0046875 0.018518518518518517
1 0.25833333333333336 0.1259259259259259 0.008333333333333333 0.014814814814814815
0 0.303125 0.2814814814814815 0.005729166666666666 0.016666666666666666
1 0.3140625 0.0712962962962963 0.008333333333333333 0.012037037037037037
1 0.284375 0.08703703703703704 0.008854166666666666 0.013888888888888888
0 0.3234375 0.16111111111111112 0.004166666666666667 0.016666666666666666
0 0.3260416666666667 0.21851851851851853 0.004166666666666667 0.020370370370370372
0 0.32083333333333336 0.24074074074074073 0.0046875 0.020370370370370372
0 0.3140625 0.21944444444444444 0.0036458333333333334 0.017592592592592594
0 0.3140625 0.1962962962962963 0.004166666666666667 0.014814814814814815
0 0.32395833333333335 0.19722222222222222 0.0036458333333333334 0.018518518518518517
1 0.3421875 0.19907407407407407 0.011979166666666667 0.024074074074074074
1 0.33958333333333335 0.21388888888888888 0.015625 0.025
1 0.4005208333333333 0.18333333333333332 0.024479166666666666 0.020370370370370372
0 0.33229166666666665 0.30833333333333335 0.005208333333333333 0.022222222222222223
1 0.41041666666666665 0.26944444444444443 0.009375 0.018518518518518517
0 0.43645833333333334 0.27870370370370373 0.005208333333333333 0.022222222222222223
1 0.3729166666666667 0.3296296296296296 0.016145833333333335 0.017592592592592594
0 0.4484375 0.33425925925925926 0.0046875 0.025
0 0.4578125 0.34074074074074073 0.00625 0.025
1 0.4473958333333333 0.3416666666666667 0.0171875 0.014814814814814815
1 0.45677083333333335 0.34629629629629627 0.016666666666666666 0.019444444444444445
0 0.42604166666666665 0.3685185185185185 0.007291666666666667 0.024074074074074074
0 0.4109375 0.38055555555555554 0.008333333333333333 0.025
1 0.4109375 0.387037037037037 0.0203125 0.022222222222222223
0 0.41822916666666665 0.3962962962962963 0.0067708333333333336 0.03148148148148148
1 0.4265625 0.375 0.014583333333333334 0.019444444444444445
0 0.45677083333333335 0.36944444444444446 0.008333333333333333 0.023148148148148147
1 0.45729166666666665 0.3787037037037037 0.016666666666666666 0.018518518518518517
0 0.4359375 0.4222222222222222 0.0078125 0.032407407407407406
0 0.0421875 0.5009259259259259 0.0125 0.03611111111111111
0 0.04375 0.4898148148148148 0.011979166666666667 0.03333333333333333
0 0.057291666666666664 0.4888888888888889 0.0125 0.03518518518518519
0 0.023958333333333335 0.44351851851851853 0.008854166666666666 0.03425925925925926
0 0.036458333333333336 0.4361111111111111 0.0109375 0.03518518518518519
1 0.04375 0.425 0.019791666666666666 0.024074074074074074
0 0.04114583333333333 0.4166666666666667 0.009375 0.022222222222222223
0 0.05416666666666667 0.4064814814814815 0.008333333333333333 0.021296296296296296
1 0.05677083333333333 0.41759259259259257 0.0140625 0.018518518518518517
1 0.06666666666666667 0.4546296296296296 0.027604166666666666 0.025925925925925925
0 0.40625 0.46111111111111114 0.008854166666666666 0.03888888888888889
0 0.41458333333333336 0.4638888888888889 0.0078125 0.03888888888888889
0 0.42604166666666665 0.4638888888888889 0.007291666666666667 0.03611111111111111
0 0.37395833333333334 0.4666666666666667 0.0067708333333333336 0.03611111111111111
0 0.36666666666666664 0.48703703703703705 0.005729166666666666 0.03148148148148148
0 0.3734375 0.5009259259259259 0.0078125 0.03981481481481482
1 0.4901041666666667 0.35 0.0375 0.030555555555555555
0 0.4859375 0.3861111111111111 0.0067708333333333336 0.028703703703703703
0 0.48854166666666665 0.37222222222222223 0.0067708333333333336 0.023148148148148147
1 0.4890625 0.37962962962962965 0.017708333333333333 0.019444444444444445
1 0.503125 0.3638888888888889 0.011458333333333333 0.01574074074074074
0 0.6229166666666667 0.337037037037037 0.005729166666666666 0.021296296296296296
1 0.6223958333333334 0.3435185185185185 0.0171875 0.018518518518518517
1 0.6432291666666666 0.31851851851851853 0.011458333333333333 0.018518518518518517
1 0.48333333333333334 0.4564814814814815 0.007291666666666667 0.026851851851851852
1 0.47708333333333336 0.40925925925925927 0.01875 0.022222222222222223
1 0.5010416666666667 0.42685185185185187 0.0067708333333333336 0.025
1 0.5145833333333333 0.42314814814814816 0.014583333333333334 0.03611111111111111
1 0.5244791666666667 0.4287037037037037 0.010416666666666666 0.027777777777777776
1 0.5338541666666666 0.42777777777777776 0.011458333333333333 0.025925925925925925
0 0.5364583333333334 0.40555555555555556 0.0067708333333333336 0.025925925925925925
1 0.54375 0.4287037037037037 0.009375 0.024074074074074074
1 0.496875 0.45555555555555555 0.0078125 0.030555555555555555
1 0.5036458333333333 0.4703703703703704 0.008854166666666666 0.02962962962962963
1 0.5140625 0.46944444444444444 0.00625 0.027777777777777776
0 0.4401041666666667 0.5 0.0067708333333333336 0.025925925925925925
1 0.453125 0.5009259259259259 0.008333333333333333 0.021296296296296296
1 0.4666666666666667 0.4981481481481482 0.0109375 0.022222222222222223
1 0.48125 0.4962962962962963 0.0067708333333333336 0.022222222222222223
1 0.5083333333333333 0.5037037037037037 0.0171875 0.025
0 0.471875 0.5342592592592592 0.0109375 0.03796296296296296
0 0.43125 0.5537037037037037 0.0067708333333333336 0.04259259259259259
0 0.50625 0.5564814814814815 0.008333333333333333 0.046296296296296294
1 0.5276041666666667 0.4675925925925926 0.008854166666666666 0.030555555555555555
1 0.5255208333333333 0.4583333333333333 0.014583333333333334 0.025925925925925925
1 0.5223958333333333 0.49907407407407406 0.007291666666666667 0.022222222222222223
1 0.5302083333333333 0.4981481481481482 0.0078125 0.022222222222222223
1 0.5723958333333333 0.4537037037037037 0.005729166666666666 0.024074074074074074
1 0.5807291666666666 0.4537037037037037 0.0067708333333333336 0.027777777777777776
1 0.6119791666666666 0.4638888888888889 0.011458333333333333 0.030555555555555555
1 0.6197916666666666 0.42592592592592593 0.0171875 0.020370370370370372
1 0.6036458333333333 0.40370370370370373 0.015104166666666667 0.020370370370370372
1 0.6197916666666666 0.3888888888888889 0.0296875 0.025925925925925925
1 0.5453125 0.49444444444444446 0.011458333333333333 0.021296296296296296
1 0.5604166666666667 0.4925925925925926 0.009895833333333333 0.03611111111111111
0 0.6296875 0.6601851851851852 0.009375 0.049074074074074076
0 0.6234375 0.6092592592592593 0.0067708333333333336 0.037037037037037035
0 0.634375 0.6074074074074074 0.008333333333333333 0.04351851851851852
0 0.6270833333333333 0.6305555555555555 0.009895833333333333 0.03518518518518519
0 0.6447916666666667 0.7398148148148148 0.011979166666666667 0.06111111111111111
0 0.6479166666666667 0.7796296296296297 0.008333333333333333 0.03611111111111111
0 0.35572916666666665 0.5055555555555555 0.008854166666666666 0.024074074074074074
1 0.3578125 0.5166666666666667 0.020833333333333332 0.020370370370370372
1 0.3572916666666667 0.5481481481481482 0.020833333333333332 0.027777777777777776
0 0.3854166666666667 0.5527777777777778 0.0125 0.03981481481481482
1 0.38385416666666666 0.5648148148148148 0.0078125 0.030555555555555555
0 0.34375 0.5777777777777777 0.007291666666666667 0.037037037037037035
1 0.328125 0.562037037037037 0.03958333333333333 0.025
1 0.32447916666666665 0.5935185185185186 0.0375 0.03148148148148148
0 0.3265625 0.7935185185185185 0.0109375 0.05092592592592592
0 0.33958333333333335 0.7898148148148149 0.010416666666666666 0.053703703703703705
0 0.34739583333333335 0.8333333333333334 0.010416666666666666 0.058333333333333334
0 0.36822916666666666 0.8268518518518518 0.011458333333333333 0.03425925925925926
0 0.3671875 0.9685185185185186 0.010416666666666666 0.062037037037037036
0 0.33125 0.9888888888888889 0.018229166666666668 0.022222222222222223
1 0.3625 0.8925925925925926 0.03333333333333333 0.041666666666666664
1 0.3729166666666667 0.8722222222222222 0.0359375 0.040740740740740744
1 0.39166666666666666 0.7111111111111111 0.028645833333333332 0.03518518518518519
1 0.3890625 0.7333333333333333 0.0296875 0.03611111111111111
1 0.4088541666666667 0.9833333333333333 0.04479166666666667 0.027777777777777776
1 0.40520833333333334 0.9592592592592593 0.03802083333333333 0.03981481481481482
1 0.4119791666666667 0.9148148148148149 0.033854166666666664 0.04814814814814815
1 0.409375 0.9351851851851852 0.0359375 0.02962962962962963
1 0.4395833333333333 0.65 0.0296875 0.027777777777777776
0 0.46197916666666666 0.6462962962962963 0.009895833333333333 0.04259259259259259
1 0.46197916666666666 0.6601851851851852 0.0078125 0.03425925925925926
0 0.47239583333333335 0.649074074074074 0.007291666666666667 0.05
1 0.503125 0.9796296296296296 0.04791666666666667 0.03981481481481482
0 0.4661458333333333 0.7916666666666666 0.010416666666666666 0.06481481481481481
0 0.4583333333333333 0.774074074074074 0.009375 0.06111111111111111
0 0.471875 0.7555555555555555 0.011979166666666667 0.05277777777777778
0 0.4588541666666667 0.7324074074074074 0.013020833333333334 0.046296296296296294
0 0.4625 0.7055555555555556 0.009895833333333333 0.04259259259259259
0 0.06979166666666667 0.6092592592592593 0.013020833333333334 0.03981481481481482
1 0.06979166666666667 0.6166666666666667 0.018229166666666668 0.049074074074074076
0 0.04895833333333333 0.5712962962962963 0.011458333333333333 0.02962962962962963
0 0.05364583333333333 0.5685185185185185 0.01875 0.04259259259259259
1 0.050520833333333334 0.5842592592592593 0.015625 0.03981481481481482
1 0.022395833333333334 0.5657407407407408 0.03125 0.08055555555555556
0 0.1546875 0.5185185185185185 0.009895833333333333 0.03425925925925926
1 0.1796875 0.5444444444444444 0.0390625 0.06018518518518518
0 0.153125 0.3731481481481482 0.009375 0.032407407407407406
1 0.15364583333333334 0.3824074074074074 0.007291666666666667 0.022222222222222223
0 0.18697916666666667 0.4305555555555556 0.0078125 0.025925925925925925
1 0.1875 0.44351851851851853 0.013541666666666667 0.024074074074074074
0 0.1671875 0.41203703703703703 0.013020833333333334 0.03425925925925926
0 0.16145833333333334 0.3972222222222222 0.0067708333333333336 0.022222222222222223
1 0.1671875 0.41759259259259257 0.0234375 0.025
0 0.18177083333333333 0.3888888888888889 0.0067708333333333336 0.024074074074074074
1 0.18489583333333334 0.39814814814814814 0.016666666666666666 0.019444444444444445
1 0.18072916666666666 0.3787037037037037 0.03958333333333333 0.03796296296296296
1 0.19322916666666667 0.3425925925925926 0.03177083333333333 0.03981481481481482
1 0.22395833333333334 0.3175925925925926 0.008333333333333333 0.019444444444444445
0 0.23958333333333334 0.3314814814814815 0.00625 0.024074074074074074
1 0.23958333333333334 0.33796296296296297 0.016145833333333335 0.020370370370370372
0 0.23229166666666667 0.3685185185185185 0.00625 0.020370370370370372
1 0.23541666666666666 0.3768518518518518 0.014583333333333334 0.020370370370370372
0 0.21927083333333333 0.4101851851851852 0.008333333333333333 0.025925925925925925
1 0.2203125 0.4185185185185185 0.013020833333333334 0.025
0 0.20208333333333334 0.4064814814814815 0.009375 0.025
1 0.20260416666666667 0.412962962962963 0.021875 0.022222222222222223
1 0.20989583333333334 0.45092592592592595 0.033854166666666664 0.04351851851851852
0 0.24895833333333334 0.3814814814814815 0.008333333333333333 0.024074074074074074
1 0.25 0.39166666666666666 0.019270833333333334 0.018518518518518517
0 0.2234375 0.31203703703703706 0.005729166666666666 0.022222222222222223
0 0.26145833333333335 0.29259259259259257 0.005208333333333333 0.023148148148148147
1 0.26145833333333335 0.29907407407407405 0.010416666666666666 0.021296296296296296
0 0.2640625 0.33796296296296297 0.005729166666666666 0.026851851851851852
1 0.2635416666666667 0.34074074074074073 0.014583333333333334 0.019444444444444445
0 0.27291666666666664 0.3388888888888889 0.0067708333333333336 0.021296296296296296
1 0.27291666666666664 0.34629629629629627 0.008333333333333333 0.024074074074074074
0 0.35 0.40925925925925927 0.008333333333333333 0.03148148148148148
1 0.35 0.41574074074074074 0.01875 0.022222222222222223
0 0.35989583333333336 0.4888888888888889 0.00625 0.028703703703703703
1 0.3536458333333333 0.36018518518518516 0.04583333333333333 0.04351851851851852
1 0.33125 0.31574074074074077 0.008854166666666666 0.020370370370370372
0 0.1875 0.3453703703703704 0.009375 0.026851851851851852
