1 0.20104166666666667 0.9185185185185185 0.07604166666666666 0.15925925925925927
1 0.10833333333333334 0.8722222222222222 0.08020833333333334 0.1685185185185185
1 0.575 0.9648148148148148 0.015625 0.07037037037037037
1 0.5458333333333333 0.6888888888888889 0.03958333333333333 0.11481481481481481
1 0.4979166666666667 0.5018518518518519 0.017708333333333333 0.05185185185185185
1 0.884375 0.9481481481481482 0.109375 0.1037037037037037
1 0.678125 0.9685185185185186 0.06041666666666667 0.06111111111111111
1 0.6739583333333333 0.8796296296296297 0.016666666666666666 0.06481481481481481
1 0.3229166666666667 0.4203703703703704 0.036458333333333336 0.08518518518518518
1 0.3802083333333333 0.37592592592592594 0.027083333333333334 0.06666666666666667
1 0.34479166666666666 0.16111111111111112 0.030208333333333334 0.07037037037037037
1 0.38958333333333334 0.18518518518518517 0.019791666666666666 0.040740740740740744
1 0.45729166666666665 0.2851851851851852 0.021875 0.044444444444444446
1 0.41770833333333335 0.09814814814814815 0.015625 0.046296296296296294
1 0.3385416666666667 0.20925925925925926 0.020833333333333332 0.040740740740740744
1 0.5135416666666667 0.1814814814814815 0.021875 0.053703703703703705
1 0.509375 0.07777777777777778 0.01875 0.046296296296296294
0 0.6666666666666666 0.3925925925925926 0.009375 0.03518518518518519
0 0.6958333333333333 0.3907407407407407 0.010416666666666666 0.03518518518518519
0 0.74375 0.5222222222222223 0.0125 0.040740740740740744
1 0.6416666666666667 0.22777777777777777 0.021875 0.027777777777777776
1 0.596875 0.22407407407407406 0.023958333333333335 0.044444444444444446
0 0.596875 0.12037037037037036 0.00625 0.024074074074074074
1 0.5666666666666667 0.2 0.03125 0.037037037037037035
1 0.5635416666666667 0.04259259259259259 0.013541666666666667 0.024074074074074074
1 0.45416666666666666 0.11666666666666667 0.010416666666666666 0.027777777777777776
1 0.4322916666666667 0.04814814814814815 0.016666666666666666 0.02962962962962963
1 0.484375 0.046296296296296294 0.0125 0.025925925925925925
1 0.440625 0.020370370370370372 0.015625 0.020370370370370372
1 0.20520833333333333 0.5703703703703704 0.021875 0.05185185185185185
0 0.20729166666666668 0.5074074074074074 0.0125 0.044444444444444446
0 0.21354166666666666 0.23703703703703705 0.009375 0.03518518518518519
0 0.28020833333333334 0.3814814814814815 0.009375 0.040740740740740744
1 0.2375 0.4759259259259259 0.029166666666666667 0.05925925925925926
1 0.24791666666666667 0.43333333333333335 0.026041666666666668 0.053703703703703705
1 0.26145833333333335 0.4 0.023958333333333335 0.05
1 0.28541666666666665 0.337037037037037 0.025 0.05185185185185185
1 0.29270833333333335 0.3111111111111111 0.020833333333333332 0.05
1 0.3020833333333333 0.29074074074074074 0.021875 0.044444444444444446
1 0.35833333333333334 0.12777777777777777 0.021875 0.04259259259259259
1 0.36770833333333336 0.09814814814814815 0.019791666666666666 0.046296296296296294
1 0.3875 0.053703703703703705 0.0125 0.024074074074074074
1 0.3958333333333333 0.040740740740740744 0.0125 0.020370370370370372
1 0.39895833333333336 0.022222222222222223 0.011458333333333333 0.022222222222222223
1 0.4114583333333333 0.009259259259259259 0.0125 0.020370370370370372
1 0.4583333333333333 0.053703703703703705 0.007291666666666667 0.025925925925925925
1 0.46458333333333335 0.040740740740740744 0.011458333333333333 0.020370370370370372
1 0.5072916666666667 0.04259259259259259 0.014583333333333334 0.03333333333333333
1 0.50625 0.022222222222222223 0.0125 0.027777777777777776
1 0.3229166666666667 0.05555555555555555 0.01875 0.024074074074074074
0 0.28020833333333334 0.1111111111111111 0.00625 0.022222222222222223
1 0.12708333333333333 0.5055555555555555 0.053125 0.04814814814814815
1 0.07916666666666666 0.5092592592592593 0.041666666666666664 0.044444444444444446
1 0.103125 0.4648148148148148 0.04583333333333333 0.040740740740740744
1 0.109375 0.4425925925925926 0.04479166666666667 0.04259259259259259
1 0.15104166666666666 0.4648148148148148 0.05 0.046296296296296294
1 0.035416666666666666 0.4425925925925926 0.051041666666666666 0.044444444444444446
1 0.011458333333333333 0.5037037037037037 0.023958333333333335 0.053703703703703705
1 0.09479166666666666 0.362962962962963 0.053125 0.04259259259259259
1 0.14583333333333334 0.3296296296296296 0.04583333333333333 0.03518518518518519
1 0.15208333333333332 0.31666666666666665 0.046875 0.037037037037037035
1 0.17083333333333334 0.29814814814814816 0.03333333333333333 0.03148148148148148
1 0.17708333333333334 0.2851851851851852 0.040625 0.03148148148148148
0 0.01875 0.48703703703703705 0.019791666666666666 0.040740740740740744
0 0.030208333333333334 0.40185185185185185 0.0125 0.024074074074074074
0 0.040625 0.38333333333333336 0.013541666666666667 0.03148148148148148
1 0.009375 0.06481481481481481 0.019791666666666666 0.020370370370370372
1 0.24166666666666667 0.17777777777777778 0.019791666666666666 0.03518518518518519
0 0.134375 0.3685185185185185 0.0125 0.03518518518518519
0 0.125 0.3814814814814815 0.010416666666666666 0.03518518518518519
0 0.83125 0.7111111111111111 0.017708333333333333 0.05555555555555555
1 0.5864583333333333 0.05740740740740741 0.008333333333333333 0.027777777777777776
