1 0.47205882352941175 0.6705882352941176 0.04485294117647059 0.1084967320261438
1 0.4676470588235294 0.515032679738562 0.03161764705882353 0.06666666666666667
1 0.47205882352941175 0.4196078431372549 0.026470588235294117 0.06013071895424837
1 0.47205882352941175 0.36470588235294116 0.01911764705882353 0.047058823529411764
1 0.46911764705882353 0.33464052287581697 0.020588235294117647 0.0392156862745098
1 0.4404411764705882 0.2954248366013072 0.016176470588235296 0.026143790849673203
1 0.5257352941176471 0.2875816993464052 0.016176470588235296 0.023529411764705882
1 0.47058823529411764 0.2065359477124183 0.010294117647058823 0.01699346405228758
1 0.4852941176470588 0.1934640522875817 0.007352941176470588 0.013071895424836602
1 0.48308823529411765 0.17516339869281045 0.004411764705882353 0.00784313725490196
1 0.46911764705882353 0.17254901960784313 0.007352941176470588 0.00784313725490196
1 0.49779411764705883 0.2326797385620915 0.011029411764705883 0.018300653594771243
1 0.4823529411764706 0.1607843137254902 0.005147058823529412 0.009150326797385621
1 0.4441176470588235 0.19738562091503267 0.007352941176470588 0.013071895424836602
1 0.44779411764705884 0.18169934640522875 0.011029411764705883 0.009150326797385621
1 0.44926470588235295 0.16862745098039217 0.0058823529411764705 0.01045751633986928
1 0.4588235294117647 0.16862745098039217 0.006617647058823529 0.009150326797385621
1 0.4676470588235294 0.2875816993464052 0.013235294117647059 0.02875816993464052
1 0.46691176470588236 0.3111111111111111 0.016911764705882352 0.023529411764705882
1 0.45441176470588235 0.20915032679738563 0.008088235294117648 0.013071895424836602
1 0.4485294117647059 0.23137254901960785 0.016911764705882352 0.040522875816993466
1 0.6095588235294118 0.27450980392156865 0.019852941176470587 0.022222222222222223
1 0.6948529411764706 0.42091503267973857 0.03235294117647059 0.044444444444444446
1 0.6345588235294117 0.33725490196078434 0.022794117647058822 0.03137254901960784
1 0.6176470588235294 0.31241830065359477 0.0125 0.02483660130718954
1 0.5558823529411765 0.39215686274509803 0.01911764705882353 0.043137254901960784
1 0.5772058823529411 0.4261437908496732 0.020588235294117647 0.05228758169934641
0 0.5551470588235294 0.38562091503267976 0.011029411764705883 0.030065359477124184
0 0.5580882352941177 0.38823529411764707 0.0058823529411764705 0.0196078431372549
1 0.7823529411764706 0.5450980392156862 0.052941176470588235 0.07581699346405228
0 0.6132352941176471 0.4444444444444444 0.007352941176470588 0.032679738562091505
1 0.6125 0.45751633986928103 0.008823529411764706 0.030065359477124184
0 0.7514705882352941 0.4666666666666667 0.009558823529411765 0.040522875816993466
0 0.8080882352941177 0.538562091503268 0.006617647058823529 0.040522875816993466
0 0.8132352941176471 0.5228758169934641 0.0058823529411764705 0.044444444444444446
0 0.8058823529411765 0.5058823529411764 0.007352941176470588 0.04183006535947712
0 0.8044117647058824 0.49411764705882355 0.007352941176470588 0.03529411764705882
0 0.7845588235294118 0.5084967320261438 0.007352941176470588 0.03398692810457516
0 0.7933823529411764 0.4928104575163399 0.007352941176470588 0.03398692810457516
0 0.763235294117647 0.46013071895424834 0.007352941176470588 0.03398692810457516
0 0.7683823529411765 0.477124183006536 0.013235294117647059 0.027450980392156862
0 0.5279411764705882 0.2549019607843137 0.005147058823529412 0.013071895424836602
0 0.5286764705882353 0.25620915032679736 0.005147058823529412 0.01437908496732026
1 0.5286764705882353 0.26143790849673204 0.004411764705882353 0.013071895424836602
1 0.4963235294117647 0.19869281045751633 0.0058823529411764705 0.00784313725490196
1 0.5036764705882353 0.19869281045751633 0.0029411764705882353 0.00522875816993464
1 0.49926470588235294 0.19084967320261437 0.005147058823529412 0.00522875816993464
0 0.49558823529411766 0.1934640522875817 0.0022058823529411764 0.01045751633986928
0 0.5036764705882353 0.19477124183006536 0.0029411764705882353 0.006535947712418301
1 0.14852941176470588 0.5777777777777777 0.09191176470588236 0.09673202614379085
1 0.30073529411764705 0.4222222222222222 0.03897058823529412 0.044444444444444446
1 0.3191176470588235 0.3660130718954248 0.027941176470588237 0.043137254901960784
1 0.3382352941176471 0.34248366013071896 0.022794117647058822 0.03137254901960784
1 0.3463235294117647 0.3281045751633987 0.022794117647058822 0.03137254901960784
1 0.33897058823529413 0.3084967320261438 0.03602941176470588 0.02483660130718954
1 0.3639705882352941 0.29150326797385623 0.01911764705882353 0.02483660130718954
1 0.36470588235294116 0.2718954248366013 0.023529411764705882 0.026143790849673203
1 0.2375 0.4980392156862745 0.0375 0.044444444444444446
1 0.15735294117647058 0.47843137254901963 0.039705882352941174 0.06143790849673202
1 0.21029411764705883 0.4196078431372549 0.04852941176470588 0.04967320261437908
1 0.04411764705882353 0.6313725490196078 0.03897058823529412 0.0784313725490196
1 0.11764705882352941 0.5228758169934641 0.03235294117647059 0.03790849673202614
1 0.09485294117647058 0.5163398692810458 0.026470588235294117 0.030065359477124184
1 0.054411764705882354 0.5111111111111111 0.027941176470588237 0.03137254901960784
1 0.06764705882352941 0.5568627450980392 0.01838235294117647 0.044444444444444446
1 0.075 0.4888888888888889 0.01838235294117647 0.044444444444444446
1 0.13088235294117648 0.44836601307189544 0.020588235294117647 0.032679738562091505
1 0.09264705882352942 0.44313725490196076 0.016911764705882352 0.027450980392156862
1 0.10514705882352941 0.4392156862745098 0.01838235294117647 0.026143790849673203
1 0.10882352941176471 0.4300653594771242 0.019852941176470587 0.027450980392156862
1 0.022794117647058822 0.5320261437908497 0.016176470588235296 0.044444444444444446
1 0.20588235294117646 0.29150326797385623 0.011029411764705883 0.0196078431372549
1 0.1889705882352941 0.30980392156862746 0.011029411764705883 0.0196078431372549
1 0.016176470588235296 0.47843137254901963 0.014705882352941176 0.04183006535947712
1 0.005147058823529412 0.5660130718954248 0.011029411764705883 0.047058823529411764
1 0.009558823529411765 0.5189542483660131 0.013970588235294118 0.040522875816993466
1 0.057352941176470586 0.5843137254901961 0.027941176470588237 0.043137254901960784
1 0.05367647058823529 0.5647058823529412 0.01838235294117647 0.044444444444444446
1 0.17573529411764705 0.32679738562091504 0.013970588235294118 0.01699346405228758
1 0.1698529411764706 0.3516339869281046 0.01764705882352941 0.0196078431372549
1 0.1786764705882353 0.3176470588235294 0.015441176470588236 0.018300653594771243
1 0.2713235294117647 0.3764705882352941 0.013235294117647059 0.026143790849673203
0 0.2595588235294118 0.4549019607843137 0.008088235294117648 0.0457516339869281
0 0.23823529411764705 0.44836601307189544 0.006617647058823529 0.04183006535947712
0 0.24044117647058824 0.44575163398692813 0.006617647058823529 0.040522875816993466
0 0.24926470588235294 0.44052287581699345 0.011029411764705883 0.036601307189542485
0 0.21985294117647058 0.4888888888888889 0.011029411764705883 0.044444444444444446
0 0.1536764705882353 0.41830065359477125 0.009558823529411765 0.03398692810457516
0 0.2426470588235294 0.34248366013071896 0.006617647058823529 0.02875816993464052
0 0.2536764705882353 0.3333333333333333 0.0058823529411764705 0.022222222222222223
0 0.25073529411764706 0.34901960784313724 0.0058823529411764705 0.022222222222222223
0 0.2485294117647059 0.3202614379084967 0.007352941176470588 0.022222222222222223
1 0.13529411764705881 0.6562091503267974 0.027205882352941177 0.0457516339869281
1 0.21985294117647058 0.6052287581699346 0.019852941176470587 0.047058823529411764
1 0.22647058823529412 0.5490196078431373 0.022058823529411766 0.036601307189542485
0 0.225 0.5411764705882353 0.013970588235294118 0.0392156862745098
0 0.21911764705882353 0.5882352941176471 0.013970588235294118 0.0392156862745098
0 0.1338235294117647 0.6366013071895424 0.014705882352941176 0.054901960784313725
0 0.005147058823529412 0.4130718954248366 0.011029411764705883 0.02875816993464052
1 0.09338235294117647 0.4928104575163399 0.013235294117647059 0.026143790849673203
0 0.3088235294117647 0.38823529411764707 0.007352941176470588 0.03398692810457516
0 0.31838235294117645 0.38562091503267976 0.006617647058823529 0.03398692810457516
1 0.32426470588235295 0.4339869281045752 0.011029411764705883 0.02091503267973856
0 0.3235294117647059 0.4235294117647059 0.0058823529411764705 0.02483660130718954
1 0.5794117647058824 0.9372549019607843 0.10955882352941176 0.12156862745098039
0 0.8970588235294118 0.7516339869281046 0.01838235294117647 0.08235294117647059
0 0.9514705882352941 0.7516339869281046 0.013970588235294118 0.07450980392156863
0 0.9352941176470588 0.7516339869281046 0.016911764705882352 0.07058823529411765
0 0.888235294117647 0.4745098039215686 0.007352941176470588 0.0457516339869281
0 0.8823529411764706 0.4666666666666667 0.008088235294117648 0.0457516339869281
0 0.9580882352941177 0.4849673202614379 0.007352941176470588 0.03790849673202614
0 0.9963235294117647 0.49673202614379086 0.007352941176470588 0.040522875816993466
0 0.8757352941176471 0.5084967320261438 0.007352941176470588 0.030065359477124184
1 0.9639705882352941 0.6862745098039216 0.04632352941176471 0.05359477124183006
1 0.9007352941176471 0.5084967320261438 0.011764705882352941 0.0392156862745098
1 0.8742647058823529 0.5934640522875817 0.020588235294117647 0.0457516339869281
1 0.9764705882352941 0.5738562091503268 0.016911764705882352 0.0392156862745098
1 0.9904411764705883 0.5424836601307189 0.0125 0.0392156862745098
1 0.8691176470588236 0.534640522875817 0.016911764705882352 0.0392156862745098
0 0.9683823529411765 0.673202614379085 0.019852941176470587 0.058823529411764705
