1 0.9220588235294118 0.2980392156862745 0.05073529411764706 0.07973856209150326
1 0.9610294117647059 0.3150326797385621 0.030882352941176472 0.06405228758169934
0 0.7897058823529411 0.25620915032679736 0.022058823529411766 0.08496732026143791
0 0.8088235294117647 0.4013071895424837 0.022794117647058822 0.09019607843137255
0 0.8007352941176471 0.3764705882352941 0.013235294117647059 0.07058823529411765
0 0.788235294117647 0.3581699346405229 0.01838235294117647 0.0784313725490196
0 0.7441176470588236 0.3437908496732026 0.019852941176470587 0.09019607843137255
0 0.725735294117647 0.33986928104575165 0.01764705882352941 0.08758169934640522
0 0.7183823529411765 0.34248366013071896 0.013235294117647059 0.043137254901960784
0 0.7235294117647059 0.29150326797385623 0.019852941176470587 0.06797385620915032
0 0.7455882352941177 0.2875816993464052 0.01838235294117647 0.06928104575163399
0 0.9389705882352941 0.538562091503268 0.03235294117647059 0.11241830065359477
0 0.9014705882352941 0.6209150326797386 0.039705882352941174 0.12549019607843137
0 0.8654411764705883 0.5986928104575163 0.029411764705882353 0.11372549019607843
0 0.861764705882353 0.934640522875817 0.039705882352941174 0.12156862745098039
0 0.7985294117647059 0.9620915032679739 0.03529411764705882 0.07058823529411765
0 0.7933823529411764 0.8313725490196079 0.03455882352941177 0.13856209150326798
0 0.7514705882352941 0.9294117647058824 0.03897058823529412 0.134640522875817
0 0.7205882352941176 0.85359477124183 0.041176470588235294 0.12810457516339868
0 0.7529411764705882 0.7738562091503268 0.033823529411764704 0.12418300653594772
0 0.6816176470588236 0.7869281045751634 0.03602941176470588 0.12026143790849673
0 0.7147058823529412 0.7098039215686275 0.03455882352941177 0.12287581699346405
0 0.7713235294117647 0.6457516339869281 0.030882352941176472 0.12679738562091503
0 0.7595588235294117 0.6091503267973856 0.03235294117647059 0.1084967320261438
0 0.7897058823529411 0.6248366013071895 0.02426470588235294 0.10326797385620914
0 0.6992647058823529 0.3764705882352941 0.019852941176470587 0.09019607843137255
0 0.6470588235294118 0.42091503267973857 0.019852941176470587 0.08888888888888889
0 0.6316176470588235 0.3542483660130719 0.014705882352941176 0.05359477124183006
0 0.6455882352941177 0.3464052287581699 0.01838235294117647 0.08496732026143791
0 0.6235294117647059 0.2875816993464052 0.01911764705882353 0.058823529411764705
1 0.6220588235294118 0.3045751633986928 0.028676470588235293 0.047058823529411764
0 0.5904411764705882 0.32679738562091504 0.0125 0.08104575163398693
0 0.5882352941176471 0.3895424836601307 0.022794117647058822 0.07973856209150326
0 0.5911764705882353 0.4300653594771242 0.016911764705882352 0.0784313725490196
0 0.6676470588235294 0.5071895424836601 0.021323529411764706 0.10457516339869281
0 0.6426470588235295 0.534640522875817 0.026470588235294117 0.10196078431372549
0 0.6529411764705882 0.6169934640522876 0.028676470588235293 0.10588235294117647
0 0.6529411764705882 0.7320261437908496 0.027941176470588237 0.12810457516339868
0 0.6198529411764706 0.6954248366013072 0.030147058823529412 0.11895424836601307
0 0.5676470588235294 0.6405228758169934 0.033823529411764704 0.11895424836601307
0 0.6080882352941176 0.5712418300653594 0.021323529411764706 0.10718954248366012
0 0.5897058823529412 0.534640522875817 0.020588235294117647 0.10065359477124183
0 0.5735294117647058 0.4823529411764706 0.0125 0.054901960784313725
0 0.5838235294117647 0.4849673202614379 0.03161764705882353 0.044444444444444446
0 0.5602941176470588 0.5137254901960784 0.023529411764705882 0.10457516339869281
0 0.5514705882352942 0.3895424836601307 0.020588235294117647 0.10065359477124183
0 0.5323529411764706 0.46143790849673205 0.020588235294117647 0.10457516339869281
0 0.49264705882352944 0.49673202614379086 0.027205882352941177 0.10065359477124183
0 0.5066176470588235 0.6235294117647059 0.03161764705882353 0.12679738562091503
0 0.4426470588235294 0.6091503267973856 0.022794117647058822 0.11503267973856209
0 0.43529411764705883 0.5084967320261438 0.030147058823529412 0.10457516339869281
0 0.38235294117647056 0.5228758169934641 0.022794117647058822 0.11372549019607843
0 0.3411764705882353 0.6287581699346405 0.05 0.11764705882352941
0 0.3463235294117647 0.5320261437908497 0.027205882352941177 0.10718954248366012
0 0.30073529411764705 0.5568627450980392 0.027205882352941177 0.11372549019607843
0 0.21985294117647058 0.592156862745098 0.04338235294117647 0.12026143790849673
0 0.25220588235294117 0.6758169934640523 0.03455882352941177 0.11633986928104575
0 0.15220588235294116 0.6287581699346405 0.03897058823529412 0.11241830065359477
0 0.16323529411764706 0.726797385620915 0.0375 0.12287581699346405
0 0.05588235294117647 0.6862745098039216 0.045588235294117645 0.11764705882352941
0 0.06764705882352941 0.7790849673202614 0.04632352941176471 0.12549019607843137
0 0.40441176470588236 0.3581699346405229 0.025 0.0784313725490196
0 0.38529411764705884 0.2797385620915033 0.01764705882352941 0.07450980392156863
0 0.47941176470588237 0.2222222222222222 0.016176470588235296 0.0784313725490196
0 0.47794117647058826 0.1869281045751634 0.011029411764705883 0.05228758169934641
0 0.46544117647058825 0.1542483660130719 0.0125 0.07581699346405228
0 0.4551470588235294 0.20784313725490197 0.016176470588235296 0.08496732026143791
0 0.44191176470588234 0.2222222222222222 0.016176470588235296 0.0784313725490196
0 0.4338235294117647 0.2169934640522876 0.009558823529411765 0.07058823529411765
0 0.4213235294117647 0.22091503267973855 0.013235294117647059 0.07320261437908497
0 0.2985294117647059 0.06143790849673202 0.013235294117647059 0.05620915032679739
0 0.3088235294117647 0.06535947712418301 0.0125 0.05359477124183006
0 0.32941176470588235 0.15163398692810456 0.014705882352941176 0.06797385620915032
0 0.3088235294117647 0.16209150326797386 0.015441176470588236 0.07320261437908497
0 0.28161764705882353 0.134640522875817 0.016911764705882352 0.07058823529411765
0 0.2735294117647059 0.15555555555555556 0.016176470588235296 0.06666666666666667
0 0.25588235294117645 0.1542483660130719 0.01764705882352941 0.06666666666666667
