0 0.9529411764705882 0.8562091503267973 0.007352941176470588 0.036601307189542485
0 0.9404411764705882 0.8509803921568627 0.011764705882352941 0.048366013071895426
1 0.8154411764705882 0.7830065359477124 0.061764705882352944 0.06666666666666667
1 0.7897058823529411 0.6509803921568628 0.054411764705882354 0.03529411764705882
1 0.788235294117647 0.611764705882353 0.04411764705882353 0.03137254901960784
1 0.7735294117647059 0.5947712418300654 0.04338235294117647 0.03137254901960784
0 0.7477941176470588 0.6261437908496732 0.005147058823529412 0.023529411764705882
0 0.7397058823529412 0.6274509803921569 0.007352941176470588 0.030065359477124184
0 0.7242647058823529 0.7333333333333333 0.008088235294117648 0.0392156862745098
0 0.7169117647058824 0.734640522875817 0.007352941176470588 0.03790849673202614
0 0.7102941176470589 0.7241830065359477 0.0058823529411764705 0.03790849673202614
0 0.7139705882352941 0.7084967320261438 0.011029411764705883 0.02091503267973856
0 0.6316176470588235 0.8405228758169935 0.011764705882352941 0.032679738562091505
1 0.6301470588235294 0.857516339869281 0.011029411764705883 0.040522875816993466
0 0.33455882352941174 0.8483660130718954 0.013970588235294118 0.050980392156862744
1 0.3713235294117647 0.7895424836601307 0.03676470588235294 0.06797385620915032
1 0.16029411764705884 0.8156862745098039 0.07647058823529412 0.054901960784313725
0 0.026470588235294117 0.6862745098039216 0.013970588235294118 0.026143790849673203
0 0.009558823529411765 0.6954248366013072 0.011029411764705883 0.023529411764705882
0 0.0029411764705882353 0.6967320261437908 0.0058823529411764705 0.02483660130718954
1 0.04411764705882353 0.7032679738562092 0.03529411764705882 0.05228758169934641
0 0.16176470588235295 0.592156862745098 0.007352941176470588 0.03529411764705882
1 0.7286764705882353 0.5228758169934641 0.016176470588235296 0.02091503267973856
1 0.7066176470588236 0.4954248366013072 0.013970588235294118 0.02483660130718954
1 0.6705882352941176 0.5320261437908497 0.020588235294117647 0.01699346405228758
1 0.6257352941176471 0.5516339869281046 0.01911764705882353 0.027450980392156862
1 0.5323529411764706 0.534640522875817 0.016176470588235296 0.023529411764705882
0 0.5477941176470589 0.4980392156862745 0.004411764705882353 0.01045751633986928
1 0.5477941176470589 0.5058823529411764 0.005147058823529412 0.013071895424836602
0 0.6 0.5058823529411764 0.005147058823529412 0.022222222222222223
1 0.6102941176470589 0.5032679738562091 0.013235294117647059 0.026143790849673203
1 0.6367647058823529 0.4562091503267974 0.014705882352941176 0.023529411764705882
1 0.5970588235294118 0.46143790849673205 0.025735294117647058 0.054901960784313725
1 0.5698529411764706 0.4143790849673203 0.016176470588235296 0.03398692810457516
1 0.6036764705882353 0.38169934640522873 0.008823529411764706 0.01568627450980392
1 0.5889705882352941 0.38562091503267976 0.008088235294117648 0.01437908496732026
1 0.5558823529411765 0.40522875816993464 0.008823529411764706 0.01699346405228758
1 0.524264705882353 0.4196078431372549 0.008088235294117648 0.013071895424836602
1 0.5227941176470589 0.4065359477124183 0.007352941176470588 0.011764705882352941
1 0.5205882352941177 0.39869281045751637 0.005147058823529412 0.013071895424836602
1 0.5191176470588236 0.3895424836601307 0.006617647058823529 0.009150326797385621
1 0.5161764705882353 0.38300653594771245 0.006617647058823529 0.01045751633986928
1 0.5125 0.3712418300653595 0.006617647058823529 0.01045751633986928
1 0.5102941176470588 0.3660130718954248 0.0058823529411764705 0.011764705882352941
1 0.5110294117647058 0.3568627450980392 0.0058823529411764705 0.009150326797385621
1 0.5080882352941176 0.3411764705882353 0.0058823529411764705 0.00784313725490196
1 0.5022058823529412 0.47058823529411764 0.011764705882352941 0.0196078431372549
1 0.5051470588235294 0.4 0.008823529411764706 0.011764705882352941
1 0.5 0.39215686274509803 0.006617647058823529 0.01437908496732026
0 0.5154411764705882 0.42745098039215684 0.003676470588235294 0.01045751633986928
1 0.5154411764705882 0.43529411764705883 0.003676470588235294 0.011764705882352941
0 0.5330882352941176 0.4326797385620915 0.0029411764705882353 0.01699346405228758
1 0.49779411764705883 0.37254901960784315 0.0058823529411764705 0.01045751633986928
1 0.5022058823529412 0.3660130718954248 0.005147058823529412 0.011764705882352941
0 0.5036764705882353 0.37777777777777777 0.003676470588235294 0.00784313725490196
1 0.5044117647058823 0.3803921568627451 0.0058823529411764705 0.009150326797385621
1 0.4948529411764706 0.3542483660130719 0.005147058823529412 0.00784313725490196
1 0.49926470588235294 0.34901960784313724 0.004411764705882353 0.00784313725490196
1 0.4933823529411765 0.34509803921568627 0.005147058823529412 0.00784313725490196
1 0.4948529411764706 0.33986928104575165 0.005147058823529412 0.009150326797385621
1 0.4852941176470588 0.3359477124183007 0.004411764705882353 0.009150326797385621
1 0.4852941176470588 0.3464052287581699 0.004411764705882353 0.00784313725490196
1 0.4889705882352941 0.3581699346405229 0.006617647058823529 0.00784313725490196
1 0.4764705882352941 0.38823529411764707 0.008088235294117648 0.011764705882352941
1 0.4647058823529412 0.36993464052287583 0.0058823529411764705 0.009150326797385621
1 0.4647058823529412 0.3790849673202614 0.0058823529411764705 0.01045751633986928
1 0.4625 0.3869281045751634 0.007352941176470588 0.013071895424836602
1 0.4713235294117647 0.40261437908496733 0.008823529411764706 0.018300653594771243
1 0.48161764705882354 0.4169934640522876 0.009558823529411765 0.01437908496732026
1 0.4661764705882353 0.4130718954248366 0.008823529411764706 0.01699346405228758
1 0.45808823529411763 0.4392156862745098 0.006617647058823529 0.022222222222222223
0 0.45808823529411763 0.4392156862745098 0.003676470588235294 0.01045751633986928
0 0.36323529411764705 0.5542483660130719 0.005147058823529412 0.018300653594771243
1 0.36323529411764705 0.5647058823529412 0.007352941176470588 0.0196078431372549
0 0.2801470588235294 0.5777777777777777 0.009558823529411765 0.02091503267973856
1 0.27941176470588236 0.5869281045751634 0.013235294117647059 0.026143790849673203
0 0.1713235294117647 0.6026143790849673 0.005147058823529412 0.013071895424836602
1 0.19852941176470587 0.5725490196078431 0.04779411764705882 0.03790849673202614
1 0.2125 0.5529411764705883 0.04411764705882353 0.02875816993464052
1 0.225 0.5424836601307189 0.039705882352941174 0.030065359477124184
1 0.23529411764705882 0.530718954248366 0.03602941176470588 0.026143790849673203
1 0.2485294117647059 0.5241830065359477 0.039705882352941174 0.027450980392156862
1 0.26323529411764707 0.5137254901960784 0.033823529411764704 0.0196078431372549
1 0.24632352941176472 0.5019607843137255 0.004411764705882353 0.01437908496732026
1 0.2647058823529412 0.4928104575163399 0.027205882352941177 0.023529411764705882
1 0.2735294117647059 0.477124183006536 0.010294117647058823 0.013071895424836602
1 0.2801470588235294 0.4718954248366013 0.009558823529411765 0.009150326797385621
0 0.27941176470588236 0.4522875816993464 0.004411764705882353 0.02091503267973856
1 0.33455882352941174 0.4745098039215686 0.013970588235294118 0.022222222222222223
1 0.3514705882352941 0.4549019607843137 0.011764705882352941 0.01699346405228758
1 0.3625 0.4366013071895425 0.011029411764705883 0.0196078431372549
1 0.37279411764705883 0.42745098039215684 0.021323529411764706 0.01568627450980392
1 0.36911764705882355 0.42091503267973857 0.009558823529411765 0.01437908496732026
1 0.38235294117647056 0.4117647058823529 0.008823529411764706 0.01568627450980392
1 0.38382352941176473 0.4065359477124183 0.007352941176470588 0.01437908496732026
1 0.3220588235294118 0.4339869281045752 0.011029411764705883 0.013071895424836602
0 0.34558823529411764 0.4287581699346405 0.003676470588235294 0.009150326797385621
0 0.34191176470588236 0.4287581699346405 0.0029411764705882353 0.01045751633986928
0 0.3382352941176471 0.4287581699346405 0.0029411764705882353 0.009150326797385621
0 0.3610294117647059 0.40522875816993464 0.004411764705882353 0.013071895424836602
0 0.35661764705882354 0.4 0.0029411764705882353 0.011764705882352941
1 0.3669117647058823 0.3843137254901961 0.008823529411764706 0.011764705882352941
0 0.40294117647058825 0.4366013071895425 0.004411764705882353 0.01568627450980392
1 0.41911764705882354 0.4117647058823529 0.011029411764705883 0.01437908496732026
1 0.42720588235294116 0.3934640522875817 0.007352941176470588 0.011764705882352941
1 0.425 0.35555555555555557 0.013235294117647059 0.01045751633986928
1 0.38823529411764707 0.35947712418300654 0.006617647058823529 0.011764705882352941
1 0.3985294117647059 0.3542483660130719 0.011764705882352941 0.009150326797385621
1 0.40147058823529413 0.3437908496732026 0.0058823529411764705 0.009150326797385621
1 0.42205882352941176 0.3437908496732026 0.003676470588235294 0.00784313725490196
1 0.425 0.33464052287581697 0.005147058823529412 0.009150326797385621
0 0.41911764705882354 0.33986928104575165 0.0022058823529411764 0.01045751633986928
1 0.4147058823529412 0.330718954248366 0.003676470588235294 0.006535947712418301
