0 0.05 0.20130718954248367 0.011764705882352941 0.027450980392156862
0 0.04264705882352941 0.17777777777777778 0.011029411764705883 0.043137254901960784
0 0.21838235294117647 0.3254901960784314 0.013235294117647059 0.0457516339869281
0 0.21029411764705883 0.31895424836601305 0.015441176470588236 0.04967320261437908
1 0.21102941176470588 0.33725490196078434 0.025 0.044444444444444446
0 0.3588235294117647 0.30196078431372547 0.0125 0.06666666666666667
0 0.4698529411764706 0.3764705882352941 0.009558823529411765 0.047058823529411764
0 0.4625 0.36209150326797385 0.010294117647058823 0.07058823529411765
0 0.4713235294117647 0.35294117647058826 0.016176470588235296 0.06274509803921569
0 0.44779411764705884 0.36470588235294116 0.010294117647058823 0.02483660130718954
1 0.36911764705882355 0.6915032679738562 0.21102941176470588 0.15294117647058825
0 0.37573529411764706 0.6862745098039216 0.020588235294117647 0.040522875816993466
0 0.986764705882353 0.42091503267973857 0.015441176470588236 0.03790849673202614
1 0.9852941176470589 0.4366013071895425 0.027205882352941177 0.09281045751633987
1 0.9404411764705882 0.3790849673202614 0.07352941176470588 0.09281045751633987
1 0.8823529411764706 0.330718954248366 0.06838235294117648 0.09803921568627451
1 0.9852941176470589 0.3215686274509804 0.029411764705882353 0.07712418300653595
0 0.8419117647058824 0.19607843137254902 0.010294117647058823 0.04183006535947712
0 0.8316176470588236 0.18823529411764706 0.008088235294117648 0.0392156862745098
0 0.8301470588235295 0.1934640522875817 0.007352941176470588 0.043137254901960784
0 0.8227941176470588 0.19607843137254902 0.008088235294117648 0.03398692810457516
1 0.8088235294117647 0.18562091503267975 0.011029411764705883 0.027450980392156862
1 0.6713235294117647 0.18169934640522875 0.041176470588235294 0.036601307189542485
0 0.6977941176470588 0.13725490196078433 0.008088235294117648 0.0392156862745098
1 0.7551470588235294 0.134640522875817 0.057352941176470586 0.032679738562091505
1 0.7683823529411765 0.11895424836601307 0.05367647058823529 0.030065359477124184
1 0.7963235294117647 0.10980392156862745 0.047058823529411764 0.027450980392156862
0 0.7073529411764706 0.12156862745098039 0.008823529411764706 0.01699346405228758
0 0.711764705882353 0.08627450980392157 0.007352941176470588 0.026143790849673203
0 0.7198529411764706 0.09281045751633987 0.004411764705882353 0.02483660130718954
0 0.7073529411764706 0.10588235294117647 0.008088235294117648 0.0196078431372549
1 0.8411764705882353 0.09019607843137255 0.025735294117647058 0.03137254901960784
1 0.8639705882352942 0.08104575163398693 0.020588235294117647 0.02483660130718954
0 0.8779411764705882 0.0784313725490196 0.005147058823529412 0.0196078431372549
1 0.8544117647058823 0.04183006535947712 0.026470588235294117 0.022222222222222223
0 0.8536764705882353 0.04183006535947712 0.003676470588235294 0.023529411764705882
0 0.85 0.04183006535947712 0.004411764705882353 0.0196078431372549
1 0.8492647058823529 0.05751633986928104 0.011764705882352941 0.011764705882352941
1 0.8419117647058824 0.06013071895424837 0.013970588235294118 0.01568627450980392
1 0.8191176470588235 0.07320261437908497 0.014705882352941176 0.01699346405228758
