1 0.6333333333333333 0.6259259259259259 0.04114583333333333 0.03425925925925926
0 0.1703125 0.7416666666666667 0.005208333333333333 0.016666666666666666
0 0.328125 0.6444444444444445 0.0036458333333333334 0.019444444444444445
0 0.3380208333333333 0.6370370370370371 0.004166666666666667 0.019444444444444445
1 0.35520833333333335 0.6472222222222223 0.025520833333333333 0.025925925925925925
1 0.36666666666666664 0.5101851851851852 0.016145833333333335 0.023148148148148147
1 0.5151041666666667 0.5324074074074074 0.01875 0.017592592592592594
1 0.559375 0.5472222222222223 0.023958333333333335 0.023148148148148147
1 0.64375 0.5342592592592592 0.027604166666666666 0.014814814814814815
1 0.2421875 0.5074074074074074 0.007291666666666667 0.007407407407407408
