1 0.4235294117647059 0.5934640522875817 0.1338235294117647 0.2457516339869281
1 0.4 0.2954248366013072 0.11176470588235295 0.17908496732026144
0 0.21323529411764705 0.2875816993464052 0.016911764705882352 0.05359477124183006
0 0.21323529411764705 0.2849673202614379 0.027941176470588237 0.07320261437908497
1 0.2139705882352941 0.3241830065359477 0.04926470588235294 0.07973856209150326
1 0.5360294117647059 0.1450980392156863 0.05661764705882353 0.058823529411764705
0 0.9323529411764706 0.09019607843137255 0.039705882352941174 0.09019607843137255
0 0.8801470588235294 0.24052287581699347 0.01911764705882353 0.05620915032679739
0 0.9014705882352941 0.26405228758169935 0.019852941176470587 0.07581699346405228
0 0.9051470588235294 0.43790849673202614 0.02426470588235294 0.09803921568627451
1 0.8639705882352942 0.2718954248366013 0.028676470588235293 0.048366013071895426
1 0.8897058823529411 0.28627450980392155 0.025 0.04967320261437908
1 0.8897058823529411 0.45098039215686275 0.04044117647058824 0.058823529411764705
1 0.7463235294117647 0.16339869281045752 0.11691176470588235 0.1568627450980392
1 0.9602941176470589 0.27320261437908494 0.07867647058823529 0.1503267973856209
1 0.27647058823529413 0.06535947712418301 0.09191176470588236 0.11764705882352941
