1 0.11764705882352941 0.515032679738562 0.008823529411764706 0.00784313725490196
1 0.09485294117647058 0.8836601307189542 0.01838235294117647 0.01699346405228758
1 0.11102941176470588 0.8888888888888888 0.011764705882352941 0.0196078431372549
1 0.07720588235294118 0.8875816993464052 0.01838235294117647 0.023529411764705882
1 0.026470588235294117 0.9111111111111111 0.020588235294117647 0.022222222222222223
1 0.01764705882352941 0.9424836601307189 0.03161764705882353 0.03529411764705882
1 0.10588235294117647 0.8392156862745098 0.016911764705882352 0.0196078431372549
1 0.11985294117647059 0.8379084967320262 0.01838235294117647 0.01699346405228758
1 0.12794117647058822 0.8169934640522876 0.011029411764705883 0.0196078431372549
1 0.1375 0.8091503267973856 0.007352941176470588 0.018300653594771243
1 0.14779411764705883 0.7986928104575164 0.013970588235294118 0.018300653594771243
1 0.1625 0.7843137254901961 0.014705882352941176 0.018300653594771243
1 0.21544117647058825 0.5032679738562091 0.008823529411764706 0.009150326797385621
1 0.27205882352941174 0.4954248366013072 0.007352941176470588 0.006535947712418301
1 0.3139705882352941 0.4875816993464052 0.006617647058823529 0.006535947712418301
1 0.2963235294117647 0.5189542483660131 0.030882352941176472 0.018300653594771243
1 0.19926470588235295 0.9019607843137255 0.016911764705882352 0.02091503267973856
1 0.27058823529411763 0.8941176470588236 0.020588235294117647 0.01699346405228758
1 0.3125 0.9398692810457516 0.013235294117647059 0.027450980392156862
1 0.3551470588235294 0.9620915032679739 0.019852941176470587 0.02091503267973856
1 0.3860294117647059 0.8758169934640523 0.022794117647058822 0.023529411764705882
1 0.39044117647058824 0.8601307189542484 0.016176470588235296 0.01437908496732026
1 0.32573529411764707 0.9032679738562092 0.021323529411764706 0.018300653594771243
1 0.32794117647058824 0.8915032679738563 0.019852941176470587 0.01568627450980392
1 0.3397058823529412 0.8810457516339869 0.01911764705882353 0.01699346405228758
1 0.31838235294117645 0.8823529411764706 0.01911764705882353 0.02091503267973856
0 0.3316176470588235 0.8705882352941177 0.003676470588235294 0.01699346405228758
0 0.33455882352941174 0.8379084967320262 0.0029411764705882353 0.013071895424836602
0 0.33088235294117646 0.8300653594771242 0.0029411764705882353 0.01437908496732026
0 0.32426470588235295 0.8300653594771242 0.003676470588235294 0.011764705882352941
0 0.32132352941176473 0.8209150326797385 0.0029411764705882353 0.013071895424836602
1 0.3058823529411765 0.8235294117647058 0.03161764705882353 0.040522875816993466
1 0.28161764705882353 0.8183006535947712 0.015441176470588236 0.018300653594771243
1 0.2823529411764706 0.8 0.013970588235294118 0.01568627450980392
1 0.2536764705882353 0.8183006535947712 0.014705882352941176 0.01699346405228758
1 0.23308823529411765 0.803921568627451 0.013970588235294118 0.018300653594771243
1 0.9301470588235294 0.5738562091503268 0.027941176470588237 0.0196078431372549
1 0.8272058823529411 0.5490196078431373 0.03308823529411765 0.026143790849673203
1 0.7441176470588236 0.5607843137254902 0.010294117647058823 0.006535947712418301
1 0.5926470588235294 0.6797385620915033 0.014705882352941176 0.011764705882352941
1 0.5441176470588235 0.673202614379085 0.013235294117647059 0.013071895424836602
1 0.5227941176470589 0.665359477124183 0.011029411764705883 0.011764705882352941
1 0.33455882352941174 0.7516339869281046 0.011029411764705883 0.01699346405228758
1 0.41691176470588237 0.7163398692810458 0.008823529411764706 0.013071895424836602
1 0.40955882352941175 0.6483660130718955 0.008088235294117648 0.01045751633986928
1 0.4375 0.6104575163398693 0.006617647058823529 0.01045751633986928
1 0.4742647058823529 0.5751633986928104 0.015441176470588236 0.02483660130718954
1 0.524264705882353 0.5607843137254902 0.008823529411764706 0.01699346405228758
1 0.5330882352941176 0.4797385620915033 0.004411764705882353 0.006535947712418301
1 0.5088235294117647 0.9712418300653595 0.021323529411764706 0.022222222222222223
1 0.8058823529411765 0.9908496732026144 0.025735294117647058 0.01699346405228758
1 0.6132352941176471 0.4875816993464052 0.007352941176470588 0.00522875816993464
1 0.5816176470588236 0.4718954248366013 0.011764705882352941 0.01568627450980392
1 0.5602941176470588 0.4718954248366013 0.0029411764705882353 0.00522875816993464
1 0.5544117647058824 0.45098039215686275 0.006617647058823529 0.01045751633986928
1 0.5632352941176471 0.44052287581699345 0.003676470588235294 0.006535947712418301
1 0.5808823529411765 0.42483660130718953 0.0029411764705882353 0.00522875816993464
1 0.5911764705882353 0.4065359477124183 0.005147058823529412 0.009150326797385621
