0 0.39338235294117646 0.4300653594771242 0.015441176470588236 0.0718954248366013
0 0.5727941176470588 0.49411764705882355 0.025 0.06405228758169934
0 0.7544117647058823 0.6705882352941176 0.027205882352941177 0.058823529411764705
0 0.275 0.8875816993464052 0.027941176470588237 0.06535947712418301
0 0.39705882352941174 0.6470588235294118 0.01911764705882353 0.06535947712418301
0 0.09191176470588236 0.12026143790849673 0.02426470588235294 0.05359477124183006
0 0.10441176470588236 0.06143790849673202 0.01838235294117647 0.05359477124183006
0 0.1338235294117647 0.05359477124183006 0.01911764705882353 0.050980392156862744
0 0.14044117647058824 0.12156862745098039 0.019852941176470587 0.04967320261437908
0 0.1889705882352941 0.10457516339869281 0.014705882352941176 0.05751633986928104
1 0.18676470588235294 0.10457516339869281 0.028676470588235293 0.03790849673202614
0 0.23897058823529413 0.12549019607843137 0.013235294117647059 0.054901960784313725
0 0.2529411764705882 0.17124183006535948 0.013235294117647059 0.05359477124183006
0 0.23970588235294119 0.21176470588235294 0.011764705882352941 0.02875816993464052
0 0.2323529411764706 0.18562091503267975 0.015441176470588236 0.03137254901960784
0 0.2323529411764706 0.15816993464052287 0.006617647058823529 0.0196078431372549
0 0.2301470588235294 0.16601307189542483 0.010294117647058823 0.027450980392156862
0 0.2985294117647059 0.17908496732026144 0.013970588235294118 0.03137254901960784
0 0.31323529411764706 0.17516339869281045 0.011029411764705883 0.03398692810457516
0 0.34191176470588236 0.1869281045751634 0.011029411764705883 0.040522875816993466
0 0.3301470588235294 0.1450980392156863 0.009558823529411765 0.054901960784313725
0 0.3426470588235294 0.12810457516339868 0.010294117647058823 0.048366013071895426
0 0.3338235294117647 0.10980392156862745 0.008823529411764706 0.040522875816993466
0 0.325 0.11764705882352941 0.008823529411764706 0.03529411764705882
0 0.38088235294117645 0.09934640522875816 0.0125 0.05228758169934641
0 0.4338235294117647 0.09803921568627451 0.008088235294117648 0.05620915032679739
0 0.4485294117647059 0.09934640522875816 0.011764705882352941 0.04967320261437908
0 0.45294117647058824 0.07450980392156863 0.0125 0.048366013071895426
0 0.008823529411764706 0.15947712418300652 0.01764705882352941 0.054901960784313725
0 0.40955882352941175 0.03529411764705882 0.015441176470588236 0.05228758169934641
1 0.4102941176470588 0.044444444444444446 0.013970588235294118 0.050980392156862744
0 0.45808823529411763 0.02483660130718954 0.013235294117647059 0.044444444444444446
0 0.47352941176470587 0.05359477124183006 0.011029411764705883 0.05228758169934641
0 0.5147058823529411 0.030065359477124184 0.009558823529411765 0.05359477124183006
0 0.5198529411764706 0.023529411764705882 0.007352941176470588 0.048366013071895426
0 0.5360294117647059 0.03790849673202614 0.011029411764705883 0.048366013071895426
0 0.5455882352941176 0.0392156862745098 0.013970588235294118 0.03529411764705882
0 0.6058823529411764 0.03137254901960784 0.015441176470588236 0.05228758169934641
1 0.7485294117647059 0.22745098039215686 0.020588235294117647 0.040522875816993466
1 0.6404411764705882 0.040522875816993466 0.04779411764705882 0.06928104575163399
1 0.6294117647058823 0.07450980392156863 0.026470588235294117 0.0457516339869281
1 0.6911764705882353 0.06666666666666667 0.08455882352941177 0.08496732026143791
1 0.6852941176470588 0.13071895424836602 0.025735294117647058 0.02875816993464052
1 0.6919117647058823 0.14248366013071895 0.025735294117647058 0.02875816993464052
1 0.7198529411764706 0.134640522875817 0.05220588235294118 0.0718954248366013
1 0.7220588235294118 0.17124183006535948 0.021323529411764706 0.027450980392156862
1 0.7977941176470589 0.1830065359477124 0.057352941176470586 0.09542483660130718
1 0.8551470588235294 0.2784313725490196 0.08088235294117647 0.11372549019607843
1 0.9632352941176471 0.2627450980392157 0.07352941176470588 0.12418300653594772
1 0.8573529411764705 0.03398692810457516 0.06838235294117648 0.06797385620915032
1 0.9602941176470589 0.05228758169934641 0.075 0.0784313725490196
1 0.9889705882352942 0.13725490196078433 0.022058823529411766 0.04967320261437908
0 0.1161764705882353 0.42483660130718953 0.016176470588235296 0.027450980392156862
1 0.07573529411764705 0.2954248366013072 0.05588235294117647 0.050980392156862744
1 0.03676470588235294 0.22745098039215686 0.051470588235294115 0.11764705882352941
0 0.07720588235294118 0.2875816993464052 0.016176470588235296 0.04183006535947712
