1 0.6316176470588235 0.9725490196078431 0.0375 0.054901960784313725
1 0.7169117647058824 0.8823529411764706 0.033823529411764704 0.09019607843137255
1 0.6308823529411764 0.8470588235294118 0.03529411764705882 0.10326797385620914
1 0.5198529411764706 0.9411764705882353 0.03308823529411765 0.10718954248366012
1 0.7382352941176471 0.6993464052287581 0.04411764705882353 0.05228758169934641
1 0.6867647058823529 0.615686274509804 0.05588235294117647 0.05751633986928104
0 0.14705882352941177 0.8849673202614379 0.011029411764705883 0.040522875816993466
1 0.17058823529411765 0.8810457516339869 0.03308823529411765 0.050980392156862744
0 0.06691176470588235 0.9398692810457516 0.015441176470588236 0.0392156862745098
0 0.03235294117647059 0.9333333333333333 0.016176470588235296 0.02483660130718954
1 0.045588235294117645 0.918954248366013 0.027205882352941177 0.030065359477124184
1 0.04191176470588235 0.8522875816993464 0.021323529411764706 0.048366013071895426
1 0.15294117647058825 0.7803921568627451 0.027205882352941177 0.040522875816993466
1 0.1948529411764706 0.7686274509803922 0.039705882352941174 0.09673202614379085
0 0.11397058823529412 0.7241830065359477 0.013235294117647059 0.03790849673202614
0 0.12720588235294117 0.7398692810457517 0.011764705882352941 0.03790849673202614
0 0.1264705882352941 0.7241830065359477 0.0125 0.03529411764705882
0 0.09779411764705882 0.6797385620915033 0.011764705882352941 0.03529411764705882
1 0.11764705882352941 0.6901960784313725 0.015441176470588236 0.0392156862745098
0 0.2286764705882353 0.6941176470588235 0.008823529411764706 0.040522875816993466
1 0.21985294117647058 0.6522875816993464 0.03308823529411765 0.08366013071895424
1 0.2529411764705882 0.5620915032679739 0.025 0.047058823529411764
1 0.22941176470588234 0.5411764705882353 0.05 0.05228758169934641
0 0.14852941176470588 0.5790849673202615 0.008823529411764706 0.03398692810457516
0 0.14926470588235294 0.5633986928104575 0.009558823529411765 0.018300653594771243
0 0.1514705882352941 0.5568627450980392 0.008823529411764706 0.01699346405228758
0 0.1375 0.4718954248366013 0.010294117647058823 0.03398692810457516
1 0.23308823529411765 0.4366013071895425 0.033823529411764704 0.050980392156862744
1 0.28455882352941175 0.3764705882352941 0.022058823529411766 0.048366013071895426
0 0.3110294117647059 0.38562091503267976 0.0058823529411764705 0.02483660130718954
0 0.3514705882352941 0.45751633986928103 0.008823529411764706 0.02875816993464052
0 0.35955882352941176 0.44575163398692813 0.007352941176470588 0.023529411764705882
0 0.38529411764705884 0.3084967320261438 0.005147058823529412 0.022222222222222223
1 0.38676470588235295 0.31633986928104574 0.0058823529411764705 0.023529411764705882
1 0.2948529411764706 0.31633986928104574 0.026470588235294117 0.047058823529411764
1 0.2963235294117647 0.2784313725490196 0.027205882352941177 0.0457516339869281
1 0.3095588235294118 0.2549019607843137 0.016911764705882352 0.03398692810457516
1 0.31691176470588234 0.2235294117647059 0.019852941176470587 0.047058823529411764
1 0.2897058823529412 0.23006535947712417 0.014705882352941176 0.01699346405228758
1 0.29705882352941176 0.22745098039215686 0.014705882352941176 0.01699346405228758
0 0.29411764705882354 0.21176470588235294 0.006617647058823529 0.02091503267973856
0 0.24705882352941178 0.269281045751634 0.005147058823529412 0.018300653594771243
1 0.32573529411764707 0.17124183006535948 0.016911764705882352 0.03529411764705882
1 0.3360294117647059 0.1450980392156863 0.014705882352941176 0.027450980392156862
1 0.3411764705882353 0.11895424836601307 0.016176470588235296 0.030065359477124184
1 0.4375 0.46013071895424834 0.020588235294117647 0.04967320261437908
1 0.47941176470588237 0.39869281045751637 0.030147058823529412 0.1084967320261438
1 0.36470588235294116 0.3333333333333333 0.022058823529411766 0.050980392156862744
1 0.4125 0.2928104575163399 0.01838235294117647 0.0457516339869281
1 0.4536764705882353 0.2901960784313726 0.01911764705882353 0.040522875816993466
1 0.6073529411764705 0.477124183006536 0.026470588235294117 0.05620915032679739
0 0.5985294117647059 0.47320261437908495 0.008823529411764706 0.030065359477124184
0 0.6213235294117647 0.477124183006536 0.006617647058823529 0.02875816993464052
1 0.5838235294117647 0.465359477124183 0.019852941176470587 0.050980392156862744
1 0.6522058823529412 0.4522875816993464 0.022794117647058822 0.048366013071895426
1 0.5808823529411765 0.4130718954248366 0.022058823529411766 0.0457516339869281
0 0.5404411764705882 0.3503267973856209 0.008088235294117648 0.03137254901960784
1 0.5705882352941176 0.34248366013071896 0.019852941176470587 0.04183006535947712
1 0.5720588235294117 0.3032679738562091 0.03529411764705882 0.03529411764705882
1 0.5610294117647059 0.2679738562091503 0.01838235294117647 0.03790849673202614
0 0.5735294117647058 0.26666666666666666 0.005147058823529412 0.023529411764705882
1 0.5573529411764706 0.21176470588235294 0.01764705882352941 0.030065359477124184
0 0.5389705882352941 0.15163398692810456 0.004411764705882353 0.022222222222222223
1 0.38676470588235295 0.15163398692810456 0.016176470588235296 0.03529411764705882
0 0.4036764705882353 0.14901960784313725 0.005147058823529412 0.01437908496732026
1 0.40441176470588236 0.1568627450980392 0.0058823529411764705 0.018300653594771243
0 0.39705882352941174 0.13071895424836602 0.0058823529411764705 0.0196078431372549
1 0.4308823529411765 0.09542483660130718 0.014705882352941176 0.032679738562091505
1 0.4566176470588235 0.10980392156862745 0.0125 0.02483660130718954
1 0.5727941176470588 0.17647058823529413 0.022794117647058822 0.023529411764705882
1 0.5698529411764706 0.12026143790849673 0.03235294117647059 0.030065359477124184
1 0.5426470588235294 0.09803921568627451 0.013235294117647059 0.027450980392156862
1 0.5433823529411764 0.06143790849673202 0.016911764705882352 0.054901960784313725
1 0.4875 0.06143790849673202 0.004411764705882353 0.01568627450980392
0 0.4875 0.054901960784313725 0.004411764705882353 0.013071895424836602
1 0.46691176470588236 0.03398692810457516 0.013235294117647059 0.02091503267973856
1 0.34852941176470587 0.07450980392156863 0.0125 0.023529411764705882
1 0.3669117647058823 0.06797385620915032 0.0058823529411764705 0.018300653594771243
0 0.3669117647058823 0.06274509803921569 0.004411764705882353 0.01699346405228758
1 0.35073529411764703 0.054901960784313725 0.025735294117647058 0.02875816993464052
1 0.3573529411764706 0.03398692810457516 0.013235294117647059 0.030065359477124184
0 0.40808823529411764 0.02875816993464052 0.0058823529411764705 0.023529411764705882
1 0.5367647058823529 0.023529411764705882 0.014705882352941176 0.0196078431372549
1 0.4147058823529412 0.01045751633986928 0.013235294117647059 0.022222222222222223
0 0.48308823529411765 0.006535947712418301 0.004411764705882353 0.01437908496732026
