1 0.2671428571428571 0.9133333333333333 0.032857142857142856 0.040952380952380955
1 0.2764285714285714 0.88 0.025 0.04285714285714286
0 0.3242857142857143 0.9276190476190476 0.017857142857142856 0.04
0 0.345 0.9257142857142857 0.02214285714285714 0.04
1 0.3057142857142857 0.8076190476190476 0.029285714285714286 0.030476190476190476
1 0.2757142857142857 0.7361904761904762 0.027142857142857142 0.02857142857142857
1 0.2935714285714286 0.7257142857142858 0.022857142857142857 0.022857142857142857
1 0.29285714285714287 0.7 0.025714285714285714 0.037142857142857144
1 0.19285714285714287 0.8561904761904762 0.015 0.05904761904761905
0 0.43142857142857144 0.7342857142857143 0.012857142857142857 0.03238095238095238
0 0.4421428571428571 0.7352380952380952 0.007857142857142858 0.029523809523809525
0 0.4764285714285714 0.6742857142857143 0.01 0.02857142857142857
0 0.4807142857142857 0.6247619047619047 0.010714285714285714 0.03238095238095238
0 0.225 0.5838095238095238 0.016428571428571428 0.02857142857142857
0 0.24785714285714286 0.5780952380952381 0.012857142857142857 0.030476190476190476
0 0.26285714285714284 0.5771428571428572 0.013571428571428571 0.025714285714285714
0 0.2885714285714286 0.5457142857142857 0.011428571428571429 0.02761904761904762
0 0.3221428571428571 0.5628571428571428 0.013571428571428571 0.02666666666666667
0 0.3142857142857143 0.5580952380952381 0.011428571428571429 0.02666666666666667
0 0.30642857142857144 0.5419047619047619 0.014285714285714285 0.02761904761904762
0 0.3007142857142857 0.5352380952380953 0.012142857142857143 0.025714285714285714
0 0.33214285714285713 0.5009523809523809 0.009285714285714286 0.024761904761904763
0 0.3578571428571429 0.49523809523809526 0.008571428571428572 0.02761904761904762
0 0.3792857142857143 0.5057142857142857 0.007857142857142858 0.025714285714285714
0 0.3757142857142857 0.4961904761904762 0.008571428571428572 0.024761904761904763
0 0.40214285714285714 0.4838095238095238 0.007142857142857143 0.025714285714285714
0 0.4114285714285714 0.48095238095238096 0.009285714285714286 0.025714285714285714
0 0.45571428571428574 0.4438095238095238 0.009285714285714286 0.024761904761904763
0 0.49357142857142855 0.4657142857142857 0.008571428571428572 0.021904761904761906
0 0.455 0.4114285714285714 0.007142857142857143 0.024761904761904763
0 0.4657142857142857 0.40285714285714286 0.007857142857142858 0.022857142857142857
0 0.43642857142857144 0.29333333333333333 0.0064285714285714285 0.018095238095238095
0 0.4328571428571429 0.2923809523809524 0.005714285714285714 0.018095238095238095
0 0.42714285714285716 0.2723809523809524 0.0064285714285714285 0.017142857142857144
0 0.7457142857142857 0.19238095238095237 0.005714285714285714 0.014285714285714285
1 0.7614285714285715 0.11714285714285715 0.018571428571428572 0.01904761904761905
1 0.7764285714285715 0.12 0.013571428571428571 0.012380952380952381
1 0.815 0.1523809523809524 0.005714285714285714 0.012380952380952381
1 0.7285714285714285 0.3057142857142857 0.03571428571428571 0.030476190476190476
0 0.7164285714285714 0.3333333333333333 0.005714285714285714 0.017142857142857144
0 0.7264285714285714 0.3342857142857143 0.0064285714285714285 0.01904761904761905
1 0.7771428571428571 0.3171428571428571 0.015 0.013333333333333334
0 0.7814285714285715 0.31333333333333335 0.010714285714285714 0.014285714285714285
0 0.7792857142857142 0.31142857142857144 0.0064285714285714285 0.014285714285714285
0 0.9328571428571428 0.43714285714285717 0.010714285714285714 0.018095238095238095
0 0.9014285714285715 0.38571428571428573 0.011428571428571429 0.021904761904761906
1 0.8992857142857142 0.3904761904761905 0.017857142857142856 0.01619047619047619
1 0.9307142857142857 0.44476190476190475 0.015 0.017142857142857144
0 0.8842857142857142 0.42952380952380953 0.014285714285714285 0.023809523809523808
0 0.9778571428571429 0.3295238095238095 0.007857142857142858 0.015238095238095238
0 0.9842857142857143 0.32761904761904764 0.005714285714285714 0.017142857142857144
0 0.9878571428571429 0.32666666666666666 0.0064285714285714285 0.01619047619047619
0 0.9535714285714286 0.29619047619047617 0.0064285714285714285 0.01619047619047619
0 0.9585714285714285 0.29428571428571426 0.005714285714285714 0.017142857142857144
0 0.88 0.2057142857142857 0.0064285714285714285 0.01619047619047619
0 0.8335714285714285 0.23714285714285716 0.0064285714285714285 0.012380952380952381
0 0.8342857142857143 0.23238095238095238 0.005 0.011428571428571429
0 0.9128571428571428 0.2038095238095238 0.005714285714285714 0.015238095238095238
0 0.9071428571428571 0.2019047619047619 0.007142857142857143 0.01619047619047619
0 0.9571428571428572 0.1961904761904762 0.0064285714285714285 0.012380952380952381
0 0.9635714285714285 0.19714285714285715 0.007857142857142858 0.013333333333333334
1 0.9792857142857143 0.18857142857142858 0.017857142857142856 0.013333333333333334
0 0.8992857142857142 0.19904761904761906 0.007142857142857143 0.014285714285714285
0 0.905 0.1980952380952381 0.005714285714285714 0.014285714285714285
0 0.8964285714285715 0.1961904761904762 0.005714285714285714 0.017142857142857144
0 0.915 0.18761904761904763 0.007857142857142858 0.013333333333333334
0 0.9142857142857143 0.18571428571428572 0.005714285714285714 0.015238095238095238
0 0.8614285714285714 0.2123809523809524 0.007857142857142858 0.015238095238095238
0 0.86 0.21142857142857144 0.007142857142857143 0.015238095238095238
0 0.855 0.20857142857142857 0.007857142857142858 0.01619047619047619
0 0.85 0.22 0.007142857142857143 0.014285714285714285
0 0.8471428571428572 0.21714285714285714 0.005 0.014285714285714285
0 0.8407142857142857 0.22 0.005 0.013333333333333334
0 0.8392857142857143 0.21714285714285714 0.005714285714285714 0.014285714285714285
1 0.8585714285714285 0.19714285714285715 0.011428571428571429 0.008571428571428572
0 0.8585714285714285 0.19333333333333333 0.005 0.013333333333333334
0 0.8021428571428572 0.21428571428571427 0.0064285714285714285 0.018095238095238095
0 0.8078571428571428 0.21904761904761905 0.0064285714285714285 0.013333333333333334
0 0.6578571428571428 0.23047619047619047 0.005 0.012380952380952381
0 0.6628571428571428 0.23238095238095238 0.004285714285714286 0.013333333333333334
0 0.7035714285714286 0.22476190476190477 0.0035714285714285713 0.011428571428571429
0 0.6942857142857143 0.22666666666666666 0.0035714285714285713 0.011428571428571429
0 0.6235714285714286 0.14761904761904762 0.005714285714285714 0.014285714285714285
0 0.63 0.14666666666666667 0.005 0.014285714285714285
0 0.6392857142857142 0.1523809523809524 0.004285714285714286 0.014285714285714285
1 0.6657142857142857 0.1523809523809524 0.008571428571428572 0.006666666666666667
0 0.6664285714285715 0.14952380952380953 0.0035714285714285713 0.011428571428571429
0 0.6685714285714286 0.14857142857142858 0.0035714285714285713 0.009523809523809525
1 0.6228571428571429 0.10666666666666667 0.012857142857142857 0.007619047619047619
0 0.5135714285714286 0.11428571428571428 0.005 0.012380952380952381
0 0.5764285714285714 0.13142857142857142 0.004285714285714286 0.014285714285714285
0 0.5764285714285714 0.14476190476190476 0.005 0.011428571428571429
1 0.43357142857142855 0.06285714285714286 0.007142857142857143 0.009523809523809525
