1 0.009285714285714286 0.18285714285714286 0.019285714285714285 0.029523809523809525
0 0.005 0.17142857142857143 0.010714285714285714 0.03428571428571429
1 0.047142857142857146 0.6161904761904762 0.09428571428571429 0.16666666666666666
1 0.1407142857142857 0.6171428571428571 0.09857142857142857 0.15333333333333332
1 0.25 0.6923809523809524 0.04 0.07809523809523809
1 0.2507142857142857 0.5933333333333334 0.03142857142857143 0.0761904761904762
1 0.34214285714285714 0.6009523809523809 0.025 0.07047619047619047
1 0.4907142857142857 0.5657142857142857 0.03571428571428571 0.029523809523809525
1 0.4957142857142857 0.5323809523809524 0.016428571428571428 0.037142857142857144
1 0.48714285714285716 0.49238095238095236 0.020714285714285713 0.05904761904761905
0 0.48642857142857143 0.4847619047619048 0.017857142857142856 0.03333333333333333
1 0.42214285714285715 0.4847619047619048 0.017857142857142856 0.06666666666666667
0 0.4042857142857143 0.5123809523809524 0.020714285714285713 0.047619047619047616
0 0.36142857142857143 0.5333333333333333 0.017142857142857144 0.05714285714285714
0 0.3842857142857143 0.52 0.02214285714285714 0.04476190476190476
0 0.4007142857142857 0.4838095238095238 0.014285714285714285 0.03619047619047619
1 0.385 0.4876190476190476 0.014285714285714285 0.049523809523809526
1 0.35928571428571426 0.47619047619047616 0.024285714285714285 0.06095238095238095
1 0.33214285714285713 0.40476190476190477 0.015 0.04476190476190476
0 0.3292857142857143 0.3904761904761905 0.014285714285714285 0.03619047619047619
1 0.37142857142857144 0.21523809523809523 0.04214285714285714 0.06190476190476191
1 0.335 0.17904761904761904 0.041428571428571426 0.05047619047619047
0 0.4185714285714286 0.22380952380952382 0.012857142857142857 0.03428571428571429
0 0.39571428571428574 0.03333333333333333 0.012857142857142857 0.025714285714285714
