1 0.38 0.40609137055837563 0.027142857142857142 0.021573604060913704
1 0.46714285714285714 0.8096446700507615 0.020714285714285713 0.07106598984771574
1 0.5664285714285714 0.23096446700507614 0.01 0.0266497461928934
1 0.5585714285714286 0.17766497461928935 0.008571428571428572 0.027918781725888325
1 0.5735714285714286 0.2626903553299492 0.010714285714285714 0.0266497461928934
1 0.6321428571428571 0.2639593908629442 0.022857142857142857 0.02030456852791878
1 0.5521428571428572 0.1434010152284264 0.007142857142857143 0.02284263959390863
1 0.42 0.43908629441624364 0.02214285714285714 0.03934010152284264
1 0.44642857142857145 0.5177664974619289 0.014285714285714285 0.04314720812182741
1 0.445 0.6104060913705583 0.014285714285714285 0.03807106598984772
1 0.45571428571428574 0.7373096446700508 0.015 0.04060913705583756
1 0.4421428571428571 0.5647208121827412 0.012857142857142857 0.03426395939086294
1 0.435 0.47588832487309646 0.016428571428571428 0.0266497461928934
1 0.5771428571428572 0.2868020304568528 0.011428571428571429 0.0266497461928934
1 0.5592857142857143 0.19796954314720813 0.011428571428571429 0.021573604060913704
1 0.565 0.21573604060913706 0.007857142857142858 0.017766497461928935
1 0.5464285714285714 0.1116751269035533 0.005714285714285714 0.012690355329949238
1 0.5242857142857142 0.1065989847715736 0.005714285714285714 0.015228426395939087
1 0.5557142857142857 0.16751269035532995 0.007857142857142858 0.021573604060913704
1 0.5435714285714286 0.10025380710659898 0.0064285714285714285 0.013959390862944163
1 0.55 0.1319796954314721 0.007142857142857143 0.017766497461928935
1 0.5392857142857143 0.08883248730964467 0.0064285714285714285 0.015228426395939087
1 0.5378571428571428 0.217005076142132 0.03 0.05964467005076142
1 0.5314285714285715 0.2906091370558376 0.015714285714285715 0.06345177664974619
1 0.5757142857142857 0.37944162436548223 0.018571428571428572 0.05456852791878172
1 0.5278571428571428 0.24746192893401014 0.009285714285714286 0.021573604060913704
1 0.43857142857142856 0.3946700507614213 0.02642857142857143 0.021573604060913704
0 0.46 0.4860406091370558 0.007857142857142858 0.01903553299492386
0 0.7171428571428572 0.9416243654822335 0.007857142857142858 0.0266497461928934
0 0.6228571428571429 0.5253807106598984 0.005 0.017766497461928935
0 0.49714285714285716 0.5697969543147208 0.005714285714285714 0.02030456852791878
0 0.495 0.45558375634517767 0.004285714285714286 0.013959390862944163
0 0.6114285714285714 0.48223350253807107 0.004285714285714286 0.01649746192893401
0 0.5914285714285714 0.34390862944162437 0.002857142857142857 0.01649746192893401
0 0.5957142857142858 0.33756345177664976 0.004285714285714286 0.015228426395939087
0 0.495 0.28426395939086296 0.004285714285714286 0.01903553299492386
0 0.5907142857142857 0.366751269035533 0.0035714285714285713 0.01903553299492386
0 0.5678571428571428 0.16878172588832488 0.0035714285714285713 0.01015228426395939
1 0.53 0.1383248730964467 0.009285714285714286 0.02918781725888325
0 0.5642857142857143 0.14213197969543148 0.0035714285714285713 0.013959390862944163
0 0.5635714285714286 0.1484771573604061 0.002142857142857143 0.008883248730964468
0 0.5692857142857143 0.1865482233502538 0.005 0.01903553299492386
0 0.5885714285714285 0.23857868020304568 0.002857142857142857 0.015228426395939087
0 0.585 0.2233502538071066 0.0035714285714285713 0.013959390862944163
0 0.5842857142857143 0.21192893401015228 0.004285714285714286 0.012690355329949238
0 0.5771428571428572 0.19543147208121828 0.002857142857142857 0.012690355329949238
0 0.5707142857142857 0.21065989847715735 0.0035714285714285713 0.01649746192893401
1 0.45285714285714285 0.07487309644670051 0.015 0.017766497461928935
0 0.18571428571428572 0.18781725888324874 0.004285714285714286 0.012690355329949238
