0 0.7051148225469729 0.6883116883116883 0.01826722338204593 0.06771799628942486
0 0.7066805845511482 0.6493506493506493 0.016701461377870562 0.06771799628942486
0 0.43684759916492694 0.35064935064935066 0.012004175365344467 0.04916512059369202
1 0.4441544885177453 0.32560296846011133 0.025052192066805846 0.05844155844155844
1 0.528705636743215 0.34415584415584416 0.01826722338204593 0.05473098330241188
1 0.5109603340292276 0.32560296846011133 0.016701461377870562 0.05380333951762523
1 0.477035490605428 0.2764378478664193 0.038622129436325675 0.030612244897959183
0 0.48434237995824636 0.2699443413729128 0.010438413361169102 0.0287569573283859
0 0.5020876826722338 0.2523191094619666 0.009916492693110648 0.032467532467532464
1 0.5036534446764092 0.2569573283858998 0.013569937369519834 0.022263450834879406
1 0.4592901878914405 0.25139146567717996 0.02348643006263048 0.03153988868274583
0 0.4311064718162839 0.25788497217068646 0.006784968684759917 0.021335807050092765
1 0.36899791231732776 0.29962894248608535 0.05167014613778706 0.04359925788497217
1 0.40187891440501045 0.47959183673469385 0.03444676409185804 0.06957328385899815
1 0.598643006263048 0.4155844155844156 0.08089770354906055 0.075139146567718
1 0.5835073068893528 0.39239332096474955 0.042275574112734866 0.036178107606679034
0 0.5960334029227558 0.33302411873840443 0.006784968684759917 0.04730983302411874
1 0.5302713987473904 0.20408163265306123 0.031315240083507306 0.02504638218923933
0 0.5255741127348643 0.19944341372912802 0.006784968684759917 0.022263450834879406
0 0.4733820459290188 0.19387755102040816 0.004697286012526096 0.027829313543599257
0 0.5 0.1901669758812616 0.007828810020876827 0.023191094619666047
1 0.5 0.19851576994434136 0.015135699373695199 0.01948051948051948
1 0.40605427974947805 0.12430426716141002 0.008350730688935281 0.021335807050092765
1 0.39926931106471814 0.14749536178107606 0.009916492693110648 0.022263450834879406
0 0.41492693110647183 0.18089053803339517 0.005219206680584551 0.02040816326530612
0 0.4164926931106472 0.17439703153988867 0.003131524008350731 0.01948051948051948
1 0.41179540709812107 0.18645640074211503 0.015135699373695199 0.02040816326530612
1 0.4932150313152401 0.1836734693877551 0.03653444676409186 0.032467532467532464
1 0.5730688935281837 0.6233766233766234 0.04384133611691023 0.11224489795918367
1 0.5678496868475992 0.5556586270871985 0.033402922755741124 0.08905380333951762
1 0.6863256784968684 0.6586270871985158 0.031315240083507306 0.06307977736549165
1 0.39091858037578286 0.2569573283858998 0.03288100208768267 0.03153988868274583
