0 0.547 0.9613333333333334 0.0125 0.02666666666666667
1 0.459 0.956 0.0335 0.08466666666666667
1 0.0235 0.818 0.0475 0.08066666666666666
1 0.051 0.8186666666666667 0.0675 0.08866666666666667
1 0.0745 0.7306666666666667 0.062 0.07066666666666667
1 0.1235 0.7293333333333333 0.051 0.076
1 0.177 0.7273333333333334 0.066 0.048666666666666664
1 0.3135 0.4786666666666667 0.0215 0.035333333333333335
1 0.2795 0.398 0.037 0.019333333333333334
1 0.2835 0.37933333333333336 0.035 0.023333333333333334
1 0.3465 0.18933333333333333 0.0135 0.011333333333333334
1 0.3545 0.14333333333333334 0.0135 0.009333333333333334
1 0.365 0.12666666666666668 0.0085 0.01
1 0.366 0.136 0.016 0.010666666666666666
1 0.37 0.14733333333333334 0.016 0.01
1 0.3735 0.142 0.016 0.008666666666666666
1 0.407 0.13333333333333333 0.007 0.008666666666666666
1 0.4045 0.12866666666666668 0.0115 0.007333333333333333
1 0.3965 0.11866666666666667 0.0055 0.01
1 0.3955 0.126 0.006 0.008
1 0.3835 0.12533333333333332 0.0135 0.01
1 0.3805 0.13 0.015 0.009333333333333334
1 0.3945 0.13733333333333334 0.014 0.008666666666666666
1 0.418 0.138 0.014 0.008
1 0.4265 0.14 0.0125 0.010666666666666666
1 0.4215 0.164 0.0085 0.012
1 0.409 0.152 0.009 0.009333333333333334
1 0.397 0.156 0.0085 0.011333333333333334
0 0.3985 0.14133333333333334 0.002 0.008
1 0.396 0.162 0.0085 0.012
1 0.3965 0.17 0.009 0.011333333333333334
1 0.3955 0.184 0.007 0.014666666666666666
0 0.4135 0.17866666666666667 0.0025 0.007333333333333333
1 0.414 0.18133333333333335 0.0025 0.007333333333333333
1 0.423 0.178 0.0085 0.013333333333333334
1 0.424 0.184 0.0095 0.016
1 0.423 0.194 0.007 0.011333333333333334
1 0.4115 0.20066666666666666 0.009 0.014
1 0.3935 0.19266666666666668 0.0085 0.014
1 0.396 0.20333333333333334 0.0125 0.011333333333333334
1 0.3945 0.212 0.0085 0.014666666666666666
1 0.3965 0.224 0.012 0.012666666666666666
1 0.394 0.23533333333333334 0.0135 0.016
0 0.3855 0.23533333333333334 0.004 0.011333333333333334
1 0.3715 0.23466666666666666 0.0105 0.016666666666666666
0 0.374 0.25 0.0045 0.010666666666666666
0 0.4305 0.19866666666666666 0.003 0.011333333333333334
1 0.427 0.22333333333333333 0.0175 0.012
1 0.4275 0.21066666666666667 0.0045 0.009333333333333334
1 0.4265 0.23533333333333334 0.01 0.013333333333333334
0 0.4295 0.244 0.003 0.01
1 0.409 0.25866666666666666 0.011 0.014
0 0.4035 0.27 0.0035 0.012666666666666666
0 0.3895 0.2613333333333333 0.0055 0.013333333333333334
0 0.3895 0.25 0.004 0.014666666666666666
1 0.3965 0.2833333333333333 0.0045 0.009333333333333334
0 0.39 0.2786666666666667 0.0055 0.015333333333333332
0 0.385 0.278 0.0035 0.012
1 0.386 0.28733333333333333 0.011 0.024666666666666667
1 0.3865 0.31266666666666665 0.0115 0.020666666666666667
1 0.383 0.346 0.011 0.023333333333333334
1 0.3835 0.37266666666666665 0.013 0.024
1 0.3775 0.42733333333333334 0.0215 0.030666666666666665
1 0.3725 0.4653333333333333 0.017 0.034
1 0.3695 0.5126666666666667 0.019 0.04133333333333333
1 0.401 0.5553333333333333 0.0495 0.04
1 0.4475 0.738 0.036 0.07266666666666667
1 0.635 0.8213333333333334 0.0495 0.09
1 0.5275 0.7766666666666666 0.0335 0.06933333333333333
1 0.5615 0.564 0.0295 0.052
1 0.4935 0.542 0.023 0.048666666666666664
1 0.488 0.48333333333333334 0.023 0.04
1 0.4795 0.43533333333333335 0.0245 0.05333333333333334
1 0.5145 0.428 0.013 0.014
1 0.4765 0.292 0.0115 0.026
0 0.4765 0.23866666666666667 0.004 0.013333333333333334
0 0.4735 0.24066666666666667 0.0025 0.012
0 0.4715 0.27066666666666667 0.004 0.014666666666666666
0 0.4755 0.2693333333333333 0.0035 0.012666666666666666
0 0.4785 0.268 0.003 0.014
0 0.485 0.2813333333333333 0.0035 0.014
0 0.496 0.2786666666666667 0.004 0.013333333333333334
1 0.4895 0.2853333333333333 0.0045 0.011333333333333334
1 0.491 0.2806666666666667 0.0035 0.008
1 0.497 0.25666666666666665 0.0085 0.008666666666666666
1 0.5165 0.18666666666666668 0.01 0.012666666666666666
1 0.5235 0.176 0.0115 0.013333333333333334
1 0.5405 0.09666666666666666 0.011 0.006666666666666667
1 0.545 0.09466666666666666 0.0105 0.008
1 0.55 0.09133333333333334 0.0135 0.009333333333333334
1 0.5745 0.076 0.011 0.006666666666666667
1 0.579 0.08533333333333333 0.0105 0.006666666666666667
1 0.552 0.078 0.0105 0.006
1 0.543 0.08466666666666667 0.0115 0.006666666666666667
1 0.561 0.08266666666666667 0.011 0.007333333333333333
1 0.56 0.08666666666666667 0.014 0.007333333333333333
1 0.5035 0.04933333333333333 0.007 0.004666666666666667
1 0.5145 0.05 0.0085 0.004666666666666667
1 0.4995 0.5926666666666667 0.0255 0.06333333333333334
