1 0.11571428571428571 0.840952380952381 0.145 0.22380952380952382
1 0.7957142857142857 0.8819047619047619 0.24714285714285714 0.2361904761904762
1 0.9442857142857143 0.8895238095238095 0.11142857142857143 0.1980952380952381
1 0.75 0.7180952380952381 0.17785714285714285 0.17904761904761904
0 0.08285714285714285 0.6561904761904762 0.03357142857142857 0.05333333333333334
0 0.06714285714285714 0.5438095238095239 0.041428571428571426 0.049523809523809526
1 0.06714285714285714 0.5533333333333333 0.05285714285714286 0.06190476190476191
0 0.42642857142857143 0.5076190476190476 0.020714285714285713 0.06285714285714286
1 0.6335714285714286 0.4533333333333333 0.10571428571428572 0.11333333333333333
1 0.48142857142857143 0.4847619047619048 0.11642857142857142 0.12285714285714286
1 0.6457142857142857 0.32571428571428573 0.08071428571428571 0.10380952380952381
1 0.4042857142857143 0.38571428571428573 0.13 0.08476190476190476
0 0.4992857142857143 0.4361904761904762 0.011428571428571429 0.04666666666666667
0 0.7714285714285715 0.2695238095238095 0.018571428571428572 0.05238095238095238
0 0.78 0.26571428571428574 0.011428571428571429 0.06
0 0.7721428571428571 0.2523809523809524 0.017857142857142856 0.05523809523809524
0 0.6578571428571428 0.1980952380952381 0.02 0.03142857142857143
1 0.8192857142857143 0.3295238095238095 0.03142857142857143 0.05523809523809524
1 0.7985714285714286 0.3142857142857143 0.027142857142857142 0.05047619047619047
1 0.6392857142857142 0.23809523809523808 0.015714285714285715 0.04476190476190476
1 0.685 0.2580952380952381 0.019285714285714285 0.04857142857142857
1 0.5271428571428571 0.24 0.027857142857142858 0.03619047619047619
1 0.5814285714285714 0.2419047619047619 0.03214285714285714 0.04
1 0.49785714285714283 0.21523809523809523 0.02857142857142857 0.0380952380952381
1 0.5464285714285714 0.20285714285714285 0.03142857142857143 0.029523809523809525
0 0.4742857142857143 0.24285714285714285 0.012142857142857143 0.05047619047619047
0 0.45285714285714285 0.25333333333333335 0.012142857142857143 0.05047619047619047
1 0.4157142857142857 0.16857142857142857 0.027857142857142858 0.0380952380952381
1 0.405 0.16666666666666666 0.024285714285714285 0.03142857142857143
0 0.42214285714285715 0.1180952380952381 0.012142857142857143 0.05047619047619047
1 0.415 0.12761904761904763 0.017857142857142856 0.02666666666666667
1 0.39285714285714285 0.11619047619047619 0.015 0.03333333333333333
0 0.37357142857142855 0.08571428571428572 0.011428571428571429 0.0380952380952381
0 0.31642857142857145 0.08095238095238096 0.012857142857142857 0.039047619047619046
0 0.32142857142857145 0.07809523809523809 0.012142857142857143 0.04476190476190476
0 0.11857142857142858 0.01619047619047619 0.012857142857142857 0.03238095238095238
0 0.14285714285714285 0.014285714285714285 0.01 0.025714285714285714
0 0.15357142857142858 0.013333333333333334 0.010714285714285714 0.02666666666666667
0 0.16714285714285715 0.011428571428571429 0.010714285714285714 0.022857142857142857
0 0.17642857142857143 0.011428571428571429 0.01 0.02095238095238095
1 0.20357142857142857 0.01619047619047619 0.047857142857142855 0.029523809523809525
1 0.18571428571428572 0.03333333333333333 0.06428571428571428 0.03238095238095238
1 0.18714285714285714 0.05238095238095238 0.045 0.04666666666666667
1 0.2057142857142857 0.07238095238095238 0.06571428571428571 0.05904761904761905
1 0.21642857142857144 0.09047619047619047 0.06642857142857143 0.05714285714285714
1 0.23857142857142857 0.09428571428571429 0.07214285714285715 0.06190476190476191
1 0.2914285714285714 0.13047619047619047 0.07928571428571428 0.06571428571428571
1 0.27785714285714286 0.3523809523809524 0.09142857142857143 0.08857142857142856
1 0.12642857142857142 0.3961904761904762 0.08571428571428572 0.09333333333333334
1 0.24071428571428571 0.3028571428571429 0.06785714285714285 0.08476190476190476
1 0.19142857142857142 0.2580952380952381 0.07357142857142857 0.07142857142857142
0 0.16714285714285715 0.1961904761904762 0.017857142857142856 0.040952380952380955
0 0.04857142857142857 0.1838095238095238 0.022857142857142857 0.0419047619047619
0 0.02 0.19333333333333333 0.02214285714285714 0.04
1 0.09142857142857143 0.16666666666666666 0.05785714285714286 0.05523809523809524
1 0.05 0.14095238095238094 0.05857142857142857 0.05904761904761905
1 0.024285714285714285 0.10952380952380952 0.04928571428571429 0.054285714285714284
