1 0.49857142857142855 0.8705583756345178 0.027857142857142858 0.0799492385786802
1 0.5764285714285714 0.7601522842639594 0.02142857142857143 0.06091370558375635
1 0.6042857142857143 0.549492385786802 0.02142857142857143 0.07106598984771574
0 0.69 0.5469543147208121 0.009285714285714286 0.02030456852791878
1 0.5914285714285714 0.45558375634517767 0.03642857142857143 0.13959390862944163
1 0.6307142857142857 0.39847715736040606 0.02142857142857143 0.06472081218274112
1 0.7564285714285715 0.21446700507614214 0.025 0.06725888324873096
0 0.6692857142857143 0.5203045685279187 0.009285714285714286 0.01649746192893401
1 0.5364285714285715 0.20304568527918782 0.03 0.04060913705583756
