0 0.47785714285714287 0.9495238095238095 0.025714285714285714 0.04285714285714286
0 0.4735714285714286 0.9295238095238095 0.019285714285714285 0.03619047619047619
1 0.4785714285714286 0.96 0.027142857142857142 0.08
0 0.1707142857142857 0.9828571428571429 0.012142857142857143 0.03428571428571429
0 0.12714285714285714 0.9866666666666667 0.02214285714285714 0.02666666666666667
0 0.1442857142857143 0.9266666666666666 0.018571428571428572 0.05619047619047619
0 0.19071428571428573 0.9057142857142857 0.017142857142857144 0.04476190476190476
0 0.18357142857142858 0.8133333333333334 0.024285714285714285 0.054285714285714284
0 0.2257142857142857 0.6628571428571428 0.02142857142857143 0.04380952380952381
0 0.24357142857142858 0.6514285714285715 0.015 0.037142857142857144
0 0.26071428571428573 0.6352380952380953 0.015 0.0380952380952381
0 0.26142857142857145 0.5895238095238096 0.016428571428571428 0.04285714285714286
0 0.2914285714285714 0.4961904761904762 0.010714285714285714 0.03619047619047619
0 0.2978571428571429 0.4742857142857143 0.013571428571428571 0.039047619047619046
0 0.30642857142857144 0.4742857142857143 0.010714285714285714 0.035238095238095235
0 0.31357142857142856 0.45714285714285713 0.011428571428571429 0.039047619047619046
0 0.3028571428571429 0.4561904761904762 0.013571428571428571 0.035238095238095235
0 0.33214285714285713 0.4238095238095238 0.010714285714285714 0.04
0 0.33285714285714285 0.40190476190476193 0.010714285714285714 0.03333333333333333
0 0.36 0.36857142857142855 0.009285714285714286 0.02761904761904762
0 0.3485714285714286 0.35619047619047617 0.010714285714285714 0.029523809523809525
0 0.4735714285714286 0.3933333333333333 0.010714285714285714 0.029523809523809525
1 0.47214285714285714 0.4 0.011428571428571429 0.03142857142857143
0 0.37785714285714284 0.2838095238095238 0.007142857142857143 0.02857142857142857
0 0.38357142857142856 0.2838095238095238 0.0064285714285714285 0.02761904761904762
0 0.3985714285714286 0.2714285714285714 0.0064285714285714285 0.02666666666666667
0 0.4035714285714286 0.2723809523809524 0.005714285714285714 0.024761904761904763
0 0.4014285714285714 0.25142857142857145 0.007142857142857143 0.024761904761904763
0 0.40714285714285714 0.25142857142857145 0.0064285714285714285 0.022857142857142857
0 0.3792857142857143 0.24761904761904763 0.007857142857142858 0.02666666666666667
0 0.4328571428571429 0.2419047619047619 0.007142857142857143 0.017142857142857144
1 0.4328571428571429 0.24857142857142858 0.007142857142857143 0.021904761904761906
0 0.45357142857142857 0.2180952380952381 0.0064285714285714285 0.017142857142857144
1 0.4542857142857143 0.22666666666666666 0.007857142857142858 0.017142857142857144
0 0.37785714285714284 0.2342857142857143 0.0064285714285714285 0.02
0 0.37785714285714284 0.21428571428571427 0.007142857142857143 0.022857142857142857
0 0.3821428571428571 0.21428571428571427 0.0064285714285714285 0.02
0 0.3871428571428571 0.21523809523809523 0.005714285714285714 0.023809523809523808
0 0.40714285714285714 0.2276190476190476 0.005714285714285714 0.021904761904761906
0 0.41214285714285714 0.2276190476190476 0.0064285714285714285 0.022857142857142857
0 0.4135714285714286 0.21428571428571427 0.005 0.021904761904761906
0 0.37714285714285717 0.20285714285714285 0.005 0.01904761904761905
0 0.38142857142857145 0.19904761904761906 0.0064285714285714285 0.018095238095238095
0 0.3871428571428571 0.20095238095238097 0.005714285714285714 0.017142857142857144
0 0.37785714285714284 0.18666666666666668 0.0064285714285714285 0.02095238095238095
0 0.38357142857142856 0.18476190476190477 0.0064285714285714285 0.02
0 0.47285714285714286 0.1838095238095238 0.005 0.021904761904761906
0 0.46285714285714286 0.1838095238095238 0.004285714285714286 0.02095238095238095
0 0.45785714285714285 0.18285714285714286 0.005714285714285714 0.02095238095238095
0 0.45714285714285713 0.17714285714285713 0.005 0.02
0 0.46214285714285713 0.17523809523809525 0.0064285714285714285 0.018095238095238095
0 0.46785714285714286 0.17714285714285713 0.005714285714285714 0.021904761904761906
0 0.5078571428571429 0.17238095238095238 0.005 0.018095238095238095
0 0.5057142857142857 0.16857142857142857 0.0064285714285714285 0.02
0 0.55 0.16380952380952382 0.005 0.017142857142857144
0 0.5771428571428572 0.15523809523809523 0.0064285714285714285 0.018095238095238095
0 0.6 0.14761904761904762 0.005 0.01904761904761905
0 0.615 0.1438095238095238 0.0064285714285714285 0.018095238095238095
1 0.4328571428571429 0.09428571428571429 0.012857142857142857 0.015238095238095238
0 0.38785714285714284 0.06476190476190476 0.004285714285714286 0.012380952380952381
1 0.3792857142857143 0.040952380952380955 0.012857142857142857 0.010476190476190476
0 0.38357142857142856 0.05142857142857143 0.004285714285714286 0.01619047619047619
0 0.38785714285714284 0.05238095238095238 0.005 0.01619047619047619
0 0.39 0.045714285714285714 0.005714285714285714 0.01619047619047619
0 0.10142857142857142 0.03333333333333333 0.0064285714285714285 0.010476190476190476
0 0.11428571428571428 0.03238095238095238 0.007142857142857143 0.010476190476190476
