0 0.17785714285714285 0.17809523809523808 0.0064285714285714285 0.023809523809523808
0 0.17 0.17238095238095238 0.009285714285714286 0.035238095238095235
0 0.28714285714285714 0.1580952380952381 0.012142857142857143 0.030476190476190476
0 0.21214285714285713 0.27714285714285714 0.022857142857142857 0.0380952380952381
0 0.36714285714285716 0.23047619047619047 0.009285714285714286 0.037142857142857144
0 0.38857142857142857 0.18476190476190477 0.007857142857142858 0.03142857142857143
0 0.295 0.3171428571428571 0.012857142857142857 0.04380952380952381
0 0.30642857142857144 0.32285714285714284 0.011428571428571429 0.04
0 0.31857142857142856 0.32095238095238093 0.015 0.04285714285714286
0 0.37714285714285717 0.33714285714285713 0.014285714285714285 0.039047619047619046
0 0.06642857142857143 0.5723809523809524 0.032857142857142856 0.05238095238095238
0 0.05857142857142857 0.7742857142857142 0.03 0.05523809523809524
0 0.022857142857142857 0.7714285714285715 0.039285714285714285 0.05047619047619047
0 0.008571428571428572 0.5676190476190476 0.017857142857142856 0.049523809523809526
0 0.89 0.4123809523809524 0.013571428571428571 0.03333333333333333
0 0.5007142857142857 0.1838095238095238 0.009285714285714286 0.02857142857142857
0 0.5121428571428571 0.19047619047619047 0.01 0.030476190476190476
0 0.5292857142857142 0.19428571428571428 0.007142857142857143 0.03238095238095238
0 0.5407142857142857 0.19523809523809524 0.012142857142857143 0.030476190476190476
0 0.5421428571428571 0.16380952380952382 0.010714285714285714 0.0380952380952381
0 0.6914285714285714 0.17142857142857143 0.007857142857142858 0.03333333333333333
0 0.7364285714285714 0.17238095238095238 0.015 0.030476190476190476
0 0.8592857142857143 0.16952380952380952 0.012857142857142857 0.02761904761904762
0 0.9921428571428571 0.4523809523809524 0.014285714285714285 0.02857142857142857
