1 0.38 0.8591370558375635 0.02857142857142857 0.08375634517766498
1 0.4057142857142857 0.7753807106598984 0.04 0.07106598984771574
1 0.6385714285714286 0.7296954314720813 0.047857142857142855 0.044416243654822336
1 0.29214285714285715 0.350253807106599 0.017857142857142856 0.048223350253807105
1 0.2007142857142857 0.20304568527918782 0.014285714285714285 0.03299492385786802
1 0.21142857142857144 0.10913705583756345 0.012142857142857143 0.031725888324873094
1 0.165 0.06345177664974619 0.010714285714285714 0.031725888324873094
1 0.205 0.04949238578680203 0.013571428571428571 0.030456852791878174
1 0.20857142857142857 0.08121827411167512 0.010714285714285714 0.02918781725888325
1 0.5164285714285715 0.7918781725888325 0.05 0.046954314720812185
1 0.835 0.5761421319796954 0.04285714285714286 0.04187817258883249
1 0.8878571428571429 0.5444162436548223 0.04285714285714286 0.03680203045685279
1 0.7585714285714286 0.6598984771573604 0.04357142857142857 0.03934010152284264
1 0.6935714285714286 0.7449238578680203 0.04285714285714286 0.04187817258883249
1 0.6442857142857142 0.7741116751269036 0.045714285714285714 0.04568527918781726
1 0.9821428571428571 0.565989847715736 0.03571428571428571 0.044416243654822336
1 0.24571428571428572 0.011421319796954314 0.017142857142857144 0.024111675126903553
1 0.26857142857142857 0.28426395939086296 0.017857142857142856 0.0532994923857868
1 0.3107142857142857 0.29314720812182743 0.017142857142857144 0.046954314720812185
1 0.25142857142857145 0.19035532994923857 0.016428571428571428 0.04187817258883249
1 0.16857142857142857 0.10025380710659898 0.012142857142857143 0.03299492385786802
1 0.9285714285714286 0.5190355329949239 0.04214285714285714 0.04314720812182741
1 0.8628571428571429 0.5977157360406091 0.04428571428571428 0.048223350253807105
1 0.7778571428571428 0.6129441624365483 0.04285714285714286 0.044416243654822336
1 0.7464285714285714 0.7144670050761421 0.05071428571428571 0.048223350253807105
1 0.8414285714285714 0.6548223350253807 0.04 0.04187817258883249
1 0.9892857142857143 0.47588832487309646 0.02142857142857143 0.03934010152284264
1 0.1957142857142857 0.1548223350253807 0.012857142857142857 0.03299492385786802
1 0.1757142857142857 0.20939086294416243 0.012142857142857143 0.0266497461928934
1 0.19071428571428573 0.11040609137055837 0.011428571428571429 0.02918781725888325
1 0.36357142857142855 0.6218274111675127 0.023571428571428573 0.06345177664974619
1 0.3407142857142857 0.4631979695431472 0.02 0.05203045685279188
0 0.8514285714285714 0.9213197969543148 0.010714285714285714 0.03426395939086294
0 0.8042857142857143 0.8591370558375635 0.005714285714285714 0.02284263959390863
