1 0.18071428571428572 0.839047619047619 0.09214285714285714 0.17714285714285713
1 0.22 0.680952380952381 0.04928571428571429 0.1019047619047619
1 0.4042857142857143 0.8352380952380952 0.060714285714285714 0.1523809523809524
1 0.38142857142857145 0.38857142857142857 0.02857142857142857 0.06095238095238095
1 0.5142857142857142 0.4657142857142857 0.037142857142857144 0.05714285714285714
1 0.5078571428571429 0.38476190476190475 0.032857142857142856 0.04857142857142857
1 0.3314285714285714 0.2914285714285714 0.025714285714285714 0.037142857142857144
0 0.455 0.41523809523809524 0.011428571428571429 0.03619047619047619
0 0.465 0.4095238095238095 0.01 0.0380952380952381
0 0.4585714285714286 0.23714285714285716 0.0064285714285714285 0.023809523809523808
0 0.3607142857142857 0.2257142857142857 0.007142857142857143 0.021904761904761906
0 0.3535714285714286 0.22380952380952382 0.007857142857142858 0.021904761904761906
0 0.40714285714285714 0.11904761904761904 0.005714285714285714 0.017142857142857144
0 0.4692857142857143 0.2638095238095238 0.0064285714285714285 0.02666666666666667
0 0.4785714285714286 0.26095238095238094 0.0064285714285714285 0.023809523809523808
0 0.37714285714285717 0.11523809523809524 0.005 0.017142857142857144
0 0.37785714285714284 0.22952380952380952 0.007142857142857143 0.01619047619047619
1 0.37857142857142856 0.2342857142857143 0.0064285714285714285 0.021904761904761906
1 0.35642857142857143 0.2 0.017857142857142856 0.023809523809523808
1 0.365 0.15619047619047619 0.024285714285714285 0.025714285714285714
1 0.42714285714285716 0.10571428571428572 0.010714285714285714 0.02
1 0.4085714285714286 0.08761904761904762 0.009285714285714286 0.013333333333333334
1 0.4471428571428571 0.10857142857142857 0.012142857142857143 0.013333333333333334
1 0.46 0.10761904761904761 0.01 0.015238095238095238
1 0.445 0.0980952380952381 0.024285714285714285 0.015238095238095238
1 0.44857142857142857 0.08857142857142856 0.022857142857142857 0.013333333333333334
1 0.4421428571428571 0.06095238095238095 0.02 0.010476190476190476
1 0.48428571428571426 0.0380952380952381 0.016428571428571428 0.008571428571428572
1 0.44785714285714284 0.08761904761904762 0.022857142857142857 0.012380952380952381
1 0.4592857142857143 0.025714285714285714 0.007142857142857143 0.009523809523809525
1 0.5071428571428571 0.09523809523809523 0.022857142857142857 0.010476190476190476
0 0.4042857142857143 0.06571428571428571 0.005 0.012380952380952381
0 0.37714285714285717 0.09333333333333334 0.005 0.013333333333333334
0 0.37142857142857144 0.1019047619047619 0.004285714285714286 0.013333333333333334
1 0.5007142857142857 0.07238095238095238 0.02142857142857143 0.013333333333333334
1 0.5028571428571429 0.08285714285714285 0.02142857142857143 0.011428571428571429
0 0.46714285714285714 0.037142857142857144 0.0035714285714285713 0.010476190476190476
0 0.46214285714285713 0.037142857142857144 0.002857142857142857 0.008571428571428572
1 0.47785714285714287 0.21523809523809523 0.016428571428571428 0.024761904761904763
0 0.5064285714285715 0.5619047619047619 0.011428571428571429 0.03428571428571429
0 0.53 0.6342857142857142 0.015 0.03238095238095238
0 0.48428571428571426 0.4961904761904762 0.01 0.037142857142857144
1 0.505 0.5704761904761905 0.010714285714285714 0.039047619047619046
1 0.53 0.6428571428571429 0.013571428571428571 0.04666666666666667
1 0.4828571428571429 0.5047619047619047 0.013571428571428571 0.035238095238095235
1 0.6814285714285714 0.5323809523809524 0.03142857142857143 0.0419047619047619
1 0.6928571428571428 0.5561904761904762 0.02 0.035238095238095235
1 0.5907142857142857 0.5685714285714286 0.032857142857142856 0.03428571428571429
1 0.5942857142857143 0.5895238095238096 0.037142857142857144 0.03142857142857143
1 0.5957142857142858 0.6095238095238096 0.035 0.02761904761904762
