1 0.22642857142857142 0.08121827411167512 0.065 0.044416243654822336
1 0.19142857142857142 0.38578680203045684 0.027857142857142858 0.11421319796954314
1 0.22857142857142856 0.39086294416243655 0.027857142857142858 0.10913705583756345
1 0.26357142857142857 0.3819796954314721 0.02857142857142857 0.10279187817258884
1 0.3028571428571429 0.38451776649746194 0.027857142857142858 0.1065989847715736
1 0.34285714285714286 0.45558375634517767 0.027142857142857142 0.10913705583756345
1 0.3807142857142857 0.4530456852791878 0.027857142857142858 0.10279187817258884
1 0.4142857142857143 0.45685279187817257 0.022857142857142857 0.10786802030456853
1 0.4928571428571429 0.4720812182741117 0.025714285714285714 0.11548223350253807
1 0.5292857142857142 0.4784263959390863 0.02857142857142857 0.11294416243654823
1 0.525 0.5723350253807107 0.06928571428571428 0.050761421319796954
1 0.5135714285714286 0.6357868020304569 0.055714285714285716 0.046954314720812185
1 0.5157142857142857 0.6941624365482234 0.06285714285714286 0.046954314720812185
1 0.3607142857142857 0.6269035532994924 0.03 0.11421319796954314
1 0.4064285714285714 0.9073604060913706 0.035 0.11294416243654823
1 0.325 0.6230964467005076 0.02642857142857143 0.11548223350253807
1 0.2885714285714286 0.6345177664974619 0.03214285714285714 0.12055837563451777
1 0.2571428571428571 0.5824873096446701 0.03 0.11421319796954314
1 0.22142857142857142 0.6192893401015228 0.027142857142857142 0.10406091370558376
1 0.185 0.6269035532994924 0.030714285714285715 0.116751269035533
1 0.14285714285714285 0.631979695431472 0.030714285714285715 0.10406091370558376
1 0.10928571428571429 0.6078680203045685 0.029285714285714286 0.12055837563451777
1 0.07428571428571429 0.6104060913705583 0.03214285714285714 0.12055837563451777
1 0.03571428571428571 0.6129441624365483 0.032857142857142856 0.11040609137055837
1 0.009285714285714286 0.633248730964467 0.018571428571428572 0.1116751269035533
1 0.4585714285714286 0.48223350253807107 0.025714285714285714 0.09137055837563451
1 0.5685714285714286 0.4606598984771574 0.023571428571428573 0.10786802030456853
1 0.7935714285714286 0.5291878172588832 0.03214285714285714 0.09644670050761421
1 0.6907142857142857 0.45685279187817257 0.027857142857142858 0.10406091370558376
1 0.66 0.550761421319797 0.030714285714285715 0.09898477157360407
1 0.7121428571428572 0.2639593908629442 0.06142857142857143 0.05203045685279188
1 0.9092857142857143 0.18401015228426396 0.06357142857142857 0.048223350253807105
1 0.9192857142857143 0.4010152284263959 0.037142857142857144 0.11548223350253807
1 0.8728571428571429 0.39847715736040606 0.03357142857142857 0.11802030456852793
1 0.9121428571428571 0.6548223350253807 0.027142857142857142 0.10532994923857868
1 0.8735714285714286 0.6548223350253807 0.027857142857142858 0.1065989847715736
1 0.8285714285714286 0.6560913705583756 0.041428571428571426 0.10152284263959391
1 0.8342857142857143 0.5482233502538071 0.03 0.09644670050761421
1 0.9657142857142857 0.3934010152284264 0.035 0.1065989847715736
1 0.8407142857142857 0.39593908629441626 0.030714285714285715 0.11040609137055837
1 0.7392857142857143 0.4352791878172589 0.045 0.14720812182741116
1 0.795 0.37944162436548223 0.07214285714285715 0.16624365482233502
1 0.9557142857142857 0.2550761421319797 0.04285714285714286 0.031725888324873094
0 0.9571428571428572 0.32741116751269034 0.020714285714285713 0.01649746192893401
0 0.9578571428571429 0.315989847715736 0.017857142857142856 0.01903553299492386
0 0.13142857142857142 0.7817258883248731 0.011428571428571429 0.013959390862944163
0 0.13714285714285715 0.7601522842639594 0.016428571428571428 0.013959390862944163
0 0.32285714285714284 0.7855329949238579 0.009285714285714286 0.01903553299492386
0 0.3742857142857143 0.7626903553299492 0.008571428571428572 0.006345177664974619
0 0.425 0.817258883248731 0.007142857142857143 0.01649746192893401
0 0.44571428571428573 0.7982233502538071 0.010714285714285714 0.02030456852791878
0 0.45571428571428574 0.817258883248731 0.007857142857142858 0.021573604060913704
0 0.43785714285714283 0.8223350253807107 0.008571428571428572 0.01903553299492386
0 0.3792857142857143 0.7703045685279187 0.01 0.012690355329949238
0 0.5621428571428572 0.6370558375634517 0.0064285714285714285 0.012690355329949238
0 0.5807142857142857 0.6294416243654822 0.01 0.01903553299492386
0 0.6178571428571429 0.7563451776649747 0.009285714285714286 0.02030456852791878
0 0.6528571428571428 0.7106598984771574 0.01 0.01649746192893401
0 0.6114285714285714 0.8807106598984772 0.010714285714285714 0.027918781725888325
0 0.5942857142857143 0.9733502538071066 0.010714285714285714 0.02284263959390863
0 0.6735714285714286 0.7652284263959391 0.011428571428571429 0.01903553299492386
0 0.6821428571428572 0.7614213197969543 0.007142857142857143 0.017766497461928935
0 0.6864285714285714 0.7525380710659898 0.009285714285714286 0.017766497461928935
0 0.7164285714285714 0.7347715736040609 0.015714285714285715 0.02030456852791878
0 0.7328571428571429 0.7626903553299492 0.011428571428571429 0.02284263959390863
0 0.7535714285714286 0.7639593908629442 0.014285714285714285 0.01649746192893401
0 0.7457142857142857 0.7195431472081218 0.012857142857142857 0.013959390862944163
1 0.715 0.6637055837563451 0.024285714285714285 0.02284263959390863
0 0.6278571428571429 0.3756345177664975 0.01 0.013959390862944163
0 0.9435714285714286 0.682741116751269 0.007142857142857143 0.013959390862944163
1 0.9407142857142857 0.682741116751269 0.017142857142857144 0.008883248730964468
1 0.9085714285714286 0.8083756345177665 0.023571428571428573 0.01649746192893401
1 0.6428571428571429 0.7043147208121827 0.03428571428571429 0.07614213197969544
0 0.6935714285714286 0.7119289340101523 0.011428571428571429 0.01903553299492386
1 0.6842857142857143 0.6890862944162437 0.02214285714285714 0.06979695431472081
