1 0.42428571428571427 0.7742857142857142 0.02642857142857143 0.08
0 0.5892857142857143 0.6390476190476191 0.01 0.05714285714285714
0 0.6042857142857143 0.6514285714285715 0.015 0.06666666666666667
0 0.6164285714285714 0.660952380952381 0.012857142857142857 0.06380952380952382
0 0.635 0.6390476190476191 0.017857142857142856 0.06380952380952382
0 0.5835714285714285 0.5133333333333333 0.012857142857142857 0.04857142857142857
0 0.615 0.5285714285714286 0.014285714285714285 0.04857142857142857
0 0.5878571428571429 0.4704761904761905 0.013571428571428571 0.047619047619047616
0 0.5085714285714286 0.4380952380952381 0.010714285714285714 0.03619047619047619
0 0.6028571428571429 0.44571428571428573 0.010714285714285714 0.0419047619047619
1 0.49785714285714283 0.5047619047619047 0.018571428571428572 0.05333333333333334
1 0.23642857142857143 0.6733333333333333 0.12428571428571429 0.14761904761904762
1 0.22428571428571428 0.5342857142857143 0.08928571428571429 0.1
1 0.03428571428571429 0.6485714285714286 0.06642857142857143 0.10857142857142857
1 0.4585714285714286 0.40476190476190477 0.056428571428571425 0.05523809523809524
1 0.3892857142857143 0.4114285714285714 0.06 0.06095238095238095
1 0.22642857142857142 0.44857142857142857 0.075 0.06571428571428571
1 0.6485714285714286 0.6076190476190476 0.13142857142857142 0.08190476190476191
1 0.9235714285714286 0.8685714285714285 0.15285714285714286 0.11904761904761904
1 0.8835714285714286 0.6628571428571428 0.16357142857142856 0.08666666666666667
0 0.785 0.5352380952380953 0.016428571428571428 0.054285714285714284
0 0.7421428571428571 0.49523809523809526 0.012857142857142857 0.04380952380952381
0 0.17 0.42 0.014285714285714285 0.0380952380952381
1 0.32571428571428573 0.3028571428571429 0.05071428571428571 0.05047619047619047
1 0.36357142857142855 0.2819047619047619 0.03142857142857143 0.039047619047619046
1 0.3921428571428571 0.2695238095238095 0.02642857142857143 0.02761904761904762
1 0.4157142857142857 0.24952380952380954 0.011428571428571429 0.015238095238095238
1 0.43642857142857144 0.23142857142857143 0.025 0.02666666666666667
1 0.4542857142857143 0.21619047619047618 0.02142857142857143 0.025714285714285714
1 0.4685714285714286 0.20285714285714285 0.013571428571428571 0.023809523809523808
1 0.4714285714285714 0.31523809523809526 0.037142857142857144 0.045714285714285714
1 0.4992857142857143 0.20095238095238097 0.05 0.05523809523809524
1 0.525 0.3038095238095238 0.02642857142857143 0.04
1 0.55 0.22476190476190477 0.02 0.018095238095238095
1 0.5728571428571428 0.1657142857142857 0.017142857142857144 0.023809523809523808
1 0.53 0.17714285714285713 0.014285714285714285 0.018095238095238095
1 0.5435714285714286 0.16666666666666666 0.013571428571428571 0.01904761904761905
1 0.5442857142857143 0.15047619047619049 0.013571428571428571 0.014285714285714285
0 0.3985714285714286 0.22952380952380952 0.005714285714285714 0.023809523809523808
1 0.2785714285714286 0.38476190476190475 0.011428571428571429 0.025714285714285714
0 0.4992857142857143 0.4990476190476191 0.015714285714285715 0.0380952380952381
0 0.425 0.7695238095238095 0.024285714285714285 0.06285714285714286
0 0.4907142857142857 0.7790476190476191 0.025 0.0761904761904762
1 0.5014285714285714 0.7961904761904762 0.018571428571428572 0.07142857142857142
0 0.27785714285714286 0.37333333333333335 0.011428571428571429 0.02761904761904762
