1 0.36 0.8073333333333333 0.0845 0.13666666666666666
1 0.3045 0.6786666666666666 0.057 0.07933333333333334
1 0.4475 0.44266666666666665 0.0455 0.04733333333333333
1 0.41 0.4086666666666667 0.0435 0.042
1 0.38 0.38066666666666665 0.0355 0.035333333333333335
1 0.3465 0.35533333333333333 0.0305 0.032
1 0.326 0.33 0.028 0.03
1 0.305 0.31866666666666665 0.0255 0.028666666666666667
1 0.266 0.2833333333333333 0.023 0.022
1 0.255 0.272 0.0155 0.019333333333333334
1 0.249 0.26066666666666666 0.018 0.014
0 0.238 0.2693333333333333 0.004 0.016666666666666666
1 0.2385 0.2753333333333333 0.008 0.011333333333333334
1 0.237 0.25 0.019 0.016666666666666666
1 0.2275 0.23733333333333334 0.016 0.018666666666666668
1 0.218 0.22733333333333333 0.017 0.018666666666666668
1 0.2045 0.20866666666666667 0.012 0.016
1 0.2005 0.20333333333333334 0.012 0.015333333333333332
1 0.119 0.28733333333333333 0.0205 0.026
1 0.0585 0.31733333333333336 0.019 0.025333333333333333
1 0.062 0.2966666666666667 0.0315 0.023333333333333334
1 0.0615 0.2793333333333333 0.0355 0.018
1 0.047 0.268 0.0265 0.014
1 0.0475 0.25666666666666665 0.0205 0.015333333333333332
1 0.012 0.36133333333333334 0.0245 0.028
1 0.0045 0.334 0.009 0.023333333333333334
1 0.0555 0.22866666666666666 0.0185 0.018
1 0.054 0.218 0.016 0.008666666666666666
1 0.058 0.20066666666666666 0.014 0.016666666666666666
1 0.1235 0.13733333333333334 0.0105 0.009333333333333334
1 0.1945 0.19 0.013 0.012666666666666666
1 0.1915 0.176 0.013 0.013333333333333334
1 0.189 0.168 0.0115 0.011333333333333334
0 0.185 0.13933333333333334 0.0035 0.008666666666666666
0 0.171 0.152 0.003 0.006666666666666667
1 0.1715 0.15466666666666667 0.0045 0.006666666666666667
1 0.1345 0.124 0.0085 0.01
1 0.14 0.12266666666666666 0.0045 0.006666666666666667
1 0.216 0.09733333333333333 0.006 0.006
