1 0.007142857142857143 0.0980952380952381 0.014285714285714285 0.02
1 0.014285714285714285 0.1961904761904762 0.025714285714285714 0.02095238095238095
0 0.2885714285714286 0.21428571428571427 0.008571428571428572 0.01619047619047619
1 0.3028571428571429 0.2542857142857143 0.02642857142857143 0.030476190476190476
1 0.2342857142857143 0.2761904761904762 0.045 0.024761904761904763
1 0.2507142857142857 0.29523809523809524 0.03571428571428571 0.02666666666666667
1 0.25642857142857145 0.3028571428571429 0.04 0.030476190476190476
1 0.2714285714285714 0.3180952380952381 0.04214285714285714 0.02857142857142857
1 0.31214285714285717 0.37333333333333335 0.045714285714285714 0.0380952380952381
1 0.3407142857142857 0.38666666666666666 0.04071428571428572 0.03142857142857143
1 0.37142857142857144 0.42095238095238097 0.06 0.0380952380952381
1 0.41 0.4580952380952381 0.06 0.049523809523809526
1 0.1492857142857143 0.3047619047619048 0.04285714285714286 0.035238095238095235
1 0.16142857142857142 0.3171428571428571 0.052142857142857144 0.03142857142857143
1 0.17142857142857143 0.32476190476190475 0.05285714285714286 0.023809523809523808
1 0.17714285714285713 0.34 0.05714285714285714 0.03142857142857143
1 0.24285714285714285 0.44 0.06357142857142857 0.04476190476190476
1 0.25857142857142856 0.4561904761904762 0.06 0.04285714285714286
1 0.2735714285714286 0.48 0.06714285714285714 0.05142857142857143
1 0.28785714285714287 0.4980952380952381 0.06428571428571428 0.05047619047619047
1 0.3 0.5266666666666666 0.07071428571428572 0.05523809523809524
1 0.44857142857142857 0.4990476190476191 0.06642857142857143 0.049523809523809526
1 0.18642857142857142 0.35428571428571426 0.05071428571428571 0.03428571428571429
1 0.3171428571428571 0.5447619047619048 0.06714285714285714 0.058095238095238096
1 0.37357142857142855 0.5514285714285714 0.06142857142857143 0.058095238095238096
1 0.465 0.5228571428571429 0.06 0.054285714285714284
1 0.5121428571428571 0.5266666666666666 0.047857142857142855 0.039047619047619046
1 0.4514285714285714 0.38952380952380955 0.016428571428571428 0.01619047619047619
1 0.4257142857142857 0.3657142857142857 0.016428571428571428 0.024761904761904763
1 0.4407142857142857 0.37523809523809526 0.015714285714285715 0.025714285714285714
1 0.365 0.6733333333333333 0.07642857142857143 0.07523809523809524
1 0.06642857142857143 0.7104761904761905 0.10857142857142857 0.09523809523809523
1 0.07642857142857143 0.7495238095238095 0.10428571428571429 0.10476190476190476
1 0.72 0.7952380952380952 0.095 0.12
1 0.7992857142857143 0.6923809523809524 0.08071428571428571 0.08857142857142856
1 0.7785714285714286 0.7495238095238095 0.095 0.10761904761904761
1 0.7278571428571429 0.6171428571428571 0.060714285714285714 0.054285714285714284
1 0.7942857142857143 0.5676190476190476 0.05714285714285714 0.054285714285714284
1 0.9064285714285715 0.1657142857142857 0.018571428571428572 0.02666666666666667
1 0.7114285714285714 0.46 0.047142857142857146 0.045714285714285714
1 0.7628571428571429 0.4276190476190476 0.045 0.0380952380952381
1 0.9478571428571428 0.2571428571428571 0.04428571428571428 0.023809523809523808
1 0.9707142857142858 0.24666666666666667 0.041428571428571426 0.025714285714285714
1 0.9871428571428571 0.23809523809523808 0.025 0.01904761904761905
1 0.9678571428571429 0.4219047619047619 0.03642857142857143 0.03619047619047619
1 0.84 0.2419047619047619 0.025 0.024761904761904763
1 0.8528571428571429 0.19714285714285715 0.017857142857142856 0.02666666666666667
1 0.8978571428571429 0.43238095238095237 0.02142857142857143 0.023809523809523808
1 0.6942857142857143 0.5752380952380952 0.022857142857142857 0.023809523809523808
0 0.6985714285714286 0.5685714285714286 0.013571428571428571 0.018095238095238095
0 0.8964285714285715 0.43238095238095237 0.011428571428571429 0.02
0 0.9021428571428571 0.42857142857142855 0.0064285714285714285 0.018095238095238095
1 0.8857142857142857 0.4895238095238095 0.045 0.035238095238095235
1 0.8464285714285714 0.5238095238095238 0.04642857142857143 0.04
1 0.9421428571428572 0.6 0.018571428571428572 0.03238095238095238
1 0.9742857142857143 0.5980952380952381 0.014285714285714285 0.03619047619047619
1 0.8635714285714285 0.6361904761904762 0.019285714285714285 0.02761904761904762
1 0.9535714285714286 0.6676190476190477 0.06857142857142857 0.08
