1 0.5821428571428572 0.9495238095238095 0.18357142857142858 0.1
1 0.5757142857142857 0.8295238095238096 0.16714285714285715 0.11238095238095239
1 0.5492857142857143 0.5323809523809524 0.13214285714285715 0.09238095238095238
1 0.5392857142857143 0.44571428571428573 0.125 0.08285714285714285
1 0.54 0.3323809523809524 0.12142857142857143 0.07714285714285714
1 0.7835714285714286 0.09047619047619047 0.060714285714285714 0.09428571428571429
1 0.5285714285714286 0.18285714285714286 0.09928571428571428 0.06571428571428571
1 0.5428571428571428 0.2752380952380952 0.12428571428571429 0.06761904761904762
1 0.6585714285714286 0.17904761904761904 0.04928571428571429 0.08666666666666667
1 0.6342857142857142 0.06857142857142857 0.037142857142857144 0.06
1 0.5257142857142857 0.14285714285714285 0.08857142857142856 0.054285714285714284
1 0.52 0.10857142857142857 0.08714285714285715 0.05523809523809524
1 0.5092857142857142 0.022857142857142857 0.07642857142857143 0.045714285714285714
1 0.9492857142857143 0.5276190476190477 0.10071428571428571 0.17809523809523808
1 0.87 0.30095238095238097 0.07928571428571428 0.12095238095238095
1 0.20714285714285716 0.4504761904761905 0.13785714285714284 0.0838095238095238
0 0.3057142857142857 0.5114285714285715 0.02142857142857143 0.054285714285714284
1 0.12785714285714286 0.8228571428571428 0.2 0.11904761904761904
0 0.7671428571428571 0.7523809523809524 0.03142857142857143 0.054285714285714284
0 0.6514285714285715 0.7361904761904762 0.02142857142857143 0.05142857142857143
1 0.655 0.5571428571428572 0.03142857142857143 0.09238095238095238
0 0.41 0.11714285714285715 0.012857142857142857 0.0419047619047619
0 0.4607142857142857 0.14761904761904762 0.013571428571428571 0.05142857142857143
0 0.4035714285714286 0.18666666666666668 0.017142857142857144 0.04380952380952381
0 0.4057142857142857 0.17714285714285713 0.01 0.02095238095238095
0 0.6914285714285714 0.1180952380952381 0.015 0.03619047619047619
1 0.69 0.13142857142857142 0.014285714285714285 0.045714285714285714
1 0.19 0.14666666666666667 0.029285714285714286 0.025714285714285714
1 0.31 0.02857142857142857 0.08428571428571428 0.05047619047619047
