1 0.377 0.968 0.0625 0.05333333333333334
1 0.408 0.9106666666666666 0.059 0.05466666666666667
1 0.4515 0.848 0.063 0.046
1 0.471 0.798 0.0505 0.03666666666666667
1 0.498 0.748 0.062 0.046
1 0.5295 0.6846666666666666 0.0615 0.042
0 0.3415 0.748 0.01 0.015333333333333332
0 0.4245 0.654 0.0085 0.009333333333333334
0 0.4535 0.6453333333333333 0.007 0.009333333333333334
1 0.6025 0.658 0.0525 0.078
1 0.574 0.6026666666666667 0.0635 0.056666666666666664
1 0.6195 0.5193333333333333 0.0605 0.04733333333333333
1 0.653 0.4553333333333333 0.0595 0.06133333333333333
1 0.6885 0.392 0.061 0.05
1 0.7575 0.26 0.0545 0.08
1 0.807 0.186 0.071 0.04733333333333333
1 0.886 0.029333333333333333 0.053 0.058
1 0.979 0.18466666666666667 0.038 0.09133333333333334
1 0.9355 0.27 0.0475 0.08933333333333333
1 0.8765 0.38333333333333336 0.0615 0.04466666666666667
1 0.8425 0.434 0.056 0.036
0 0.8675 0.9873333333333333 0.0195 0.024666666666666667
1 0.9815 0.9166666666666666 0.0195 0.027333333333333334
0 0.9875 0.9173333333333333 0.0165 0.022
1 0.9775 0.8613333333333333 0.045 0.07866666666666666
0 0.8615 0.8306666666666667 0.017 0.018666666666666668
0 0.867 0.836 0.0175 0.018666666666666668
1 0.677 0.7653333333333333 0.053 0.07666666666666666
1 0.7285 0.6766666666666666 0.0495 0.07666666666666666
1 0.579 0.928 0.0655 0.068
1 0.9405 0.508 0.0535 0.06466666666666666
0 0.3995 0.198 0.008 0.018
0 0.4075 0.062 0.0105 0.024666666666666667
0 0.395 0.014666666666666666 0.011 0.023333333333333334
0 0.3945 0.014 0.011 0.023333333333333334
