1 0.06857142857142857 0.12944162436548223 0.041428571428571426 0.0799492385786802
1 0.09142857142857143 0.0850253807106599 0.029285714285714286 0.048223350253807105
1 0.36214285714285716 0.48350253807106597 0.13785714285714284 0.17893401015228427
1 0.4057142857142857 0.34390862944162437 0.10428571428571429 0.1484771573604061
1 0.7278571428571429 0.03680203045685279 0.09571428571428571 0.06725888324873096
1 0.8264285714285714 0.07360406091370558 0.10428571428571429 0.08121827411167512
1 0.7871428571428571 0.13705583756345177 0.11071428571428571 0.08248730964467005
1 0.7685714285714286 0.17893401015228427 0.10571428571428572 0.0799492385786802
1 0.7492857142857143 0.22081218274111675 0.12071428571428572 0.08756345177664974
1 0.7407142857142858 0.2715736040609137 0.11785714285714285 0.10025380710659898
1 0.8485714285714285 0.2969543147208122 0.09214285714285714 0.08756345177664974
1 0.6342857142857142 0.3362944162436548 0.11785714285714285 0.1281725888324873
1 0.7714285714285715 0.3883248730964467 0.12 0.11294416243654823
1 0.6578571428571428 0.41878172588832485 0.13714285714285715 0.1446700507614213
1 0.7357142857142858 0.5685279187817259 0.12142857142857143 0.12309644670050761
1 0.5785714285714286 0.5850253807106599 0.14 0.13705583756345177
1 0.5378571428571428 0.6560913705583756 0.14857142857142858 0.14974619289340102
0 0.2985714285714286 0.817258883248731 0.009285714285714286 0.030456852791878174
1 0.23 0.8261421319796954 0.025 0.02918781725888325
1 0.22428571428571428 0.8451776649746193 0.02857142857142857 0.03426395939086294
1 0.21571428571428572 0.866751269035533 0.03142857142857143 0.04060913705583756
1 0.20857142857142857 0.8921319796954315 0.02642857142857143 0.02918781725888325
1 0.2 0.9111675126903553 0.02642857142857143 0.030456852791878174
1 0.18928571428571428 0.9289340101522843 0.03357142857142857 0.03553299492385787
1 0.17714285714285713 0.9619289340101523 0.03357142857142857 0.04060913705583756
1 0.17285714285714285 0.9796954314720813 0.03214285714285714 0.030456852791878174
0 0.3585714285714286 0.766497461928934 0.01 0.024111675126903553
0 0.19642857142857142 0.46573604060913704 0.013571428571428571 0.027918781725888325
0 0.1742857142857143 0.42258883248730966 0.011428571428571429 0.02284263959390863
