1 0.44142857142857145 0.41523809523809524 0.010714285714285714 0.015238095238095238
1 0.4407142857142857 0.5123809523809524 0.03214285714285714 0.04857142857142857
1 0.5021428571428571 0.5238095238095238 0.022857142857142857 0.022857142857142857
1 0.49357142857142855 0.4857142857142857 0.019285714285714285 0.022857142857142857
1 0.5392857142857143 0.40285714285714286 0.012142857142857143 0.012380952380952381
1 0.4807142857142857 0.4257142857142857 0.012857142857142857 0.014285714285714285
1 0.4857142857142857 0.44285714285714284 0.012857142857142857 0.014285714285714285
1 0.48714285714285716 0.4561904761904762 0.016428571428571428 0.01904761904761905
1 0.495 0.4666666666666667 0.02 0.02
1 0.565 0.43238095238095237 0.020714285714285713 0.023809523809523808
1 0.5764285714285714 0.4552380952380952 0.023571428571428573 0.018095238095238095
1 0.5857142857142857 0.46476190476190476 0.02857142857142857 0.01619047619047619
1 0.605 0.4695238095238095 0.023571428571428573 0.018095238095238095
1 0.6307142857142857 0.4723809523809524 0.02214285714285714 0.018095238095238095
1 0.6507142857142857 0.4704761904761905 0.016428571428571428 0.018095238095238095
1 0.6564285714285715 0.5133333333333333 0.04 0.024761904761904763
1 0.6978571428571428 0.5047619047619047 0.04857142857142857 0.022857142857142857
1 0.6821428571428572 0.4742857142857143 0.022857142857142857 0.01904761904761905
1 0.7071428571428572 0.4704761904761905 0.02142857142857143 0.02
1 0.7471428571428571 0.4980952380952381 0.045 0.02095238095238095
1 0.6235714285714286 0.7771428571428571 0.060714285714285714 0.08761904761904762
1 0.5314285714285715 0.6190476190476191 0.03142857142857143 0.035238095238095235
1 0.6471428571428571 0.5457142857142857 0.03642857142857143 0.03142857142857143
1 0.6664285714285715 0.579047619047619 0.03785714285714286 0.03428571428571429
0 0.27071428571428574 0.621904761904762 0.012857142857142857 0.03333333333333333
