1 0.525 0.6733333333333333 0.095 0.076
1 0.548 0.572 0.065 0.06466666666666666
1 0.693 0.49266666666666664 0.0625 0.043333333333333335
1 0.3405 0.5586666666666666 0.032 0.04
1 0.618 0.45666666666666667 0.053 0.043333333333333335
1 0.5905 0.42933333333333334 0.035 0.032
1 0.54 0.392 0.031 0.037333333333333336
1 0.339 0.6733333333333333 0.2065 0.262
1 0.131 0.4026666666666667 0.0935 0.11666666666666667
1 0.9055 0.44733333333333336 0.0495 0.042666666666666665
1 0.0065 0.22066666666666668 0.0115 0.034666666666666665
1 0.378 0.262 0.04 0.025333333333333333
1 0.2835 0.24133333333333334 0.025 0.017333333333333333
1 0.2345 0.25133333333333335 0.0285 0.014
1 0.2555 0.262 0.033 0.016
1 0.2235 0.24133333333333334 0.0265 0.008666666666666666
1 0.2075 0.23 0.024 0.011333333333333334
1 0.204 0.20866666666666667 0.017 0.014
1 0.202 0.19066666666666668 0.015 0.012666666666666666
1 0.1975 0.18466666666666667 0.018 0.008
1 0.165 0.18133333333333335 0.0175 0.016
