1 0.35214285714285715 0.758095238095238 0.06714285714285714 0.08857142857142856
1 0.35 0.6695238095238095 0.047142857142857146 0.06666666666666667
1 0.3892857142857143 0.5828571428571429 0.02857142857142857 0.040952380952380955
1 0.46285714285714286 0.5152380952380953 0.02642857142857143 0.03333333333333333
1 0.41285714285714287 0.49714285714285716 0.02 0.02761904761904762
1 0.3757142857142857 0.4961904761904762 0.019285714285714285 0.029523809523809525
1 0.4092857142857143 0.4257142857142857 0.017142857142857144 0.023809523809523808
1 0.3821428571428571 0.4123809523809524 0.014285714285714285 0.022857142857142857
1 0.405 0.38857142857142857 0.013571428571428571 0.014285714285714285
1 0.38785714285714284 0.35904761904761906 0.011428571428571429 0.011428571428571429
1 0.40785714285714286 0.35428571428571426 0.01 0.015238095238095238
1 0.6178571428571429 0.6542857142857142 0.07928571428571428 0.04
1 0.5314285714285715 0.5552380952380952 0.03142857142857143 0.04476190476190476
1 0.6957142857142857 0.6209523809523809 0.047857142857142855 0.045714285714285714
1 0.8207142857142857 0.6428571428571429 0.07071428571428572 0.0419047619047619
1 0.6578571428571428 0.6038095238095238 0.06571428571428571 0.03428571428571429
1 0.6464285714285715 0.5866666666666667 0.06571428571428571 0.03428571428571429
1 0.605 0.5142857142857142 0.045714285714285714 0.024761904761904763
1 0.5957142857142858 0.5 0.04214285714285714 0.02857142857142857
1 0.5728571428571428 0.4657142857142857 0.04 0.023809523809523808
1 0.5071428571428571 0.5104761904761905 0.02642857142857143 0.03142857142857143
1 0.38857142857142857 0.9285714285714286 0.10857142857142857 0.12380952380952381
1 0.13642857142857143 0.6619047619047619 0.07428571428571429 0.06285714285714286
1 0.9642857142857143 0.7980952380952381 0.07142857142857142 0.05523809523809524
1 0.8028571428571428 0.6895238095238095 0.10642857142857143 0.05523809523809524
0 0.7314285714285714 0.6828571428571428 0.008571428571428572 0.039047619047619046
0 0.7407142857142858 0.6761904761904762 0.0064285714285714285 0.03238095238095238
0 0.7592857142857142 0.6752380952380952 0.016428571428571428 0.023809523809523808
0 0.7671428571428571 0.6771428571428572 0.013571428571428571 0.040952380952380955
0 0.5942857142857143 0.7295238095238096 0.015 0.029523809523809525
0 0.45714285714285713 0.6066666666666667 0.015714285714285715 0.02857142857142857
0 0.08214285714285714 0.6104761904761905 0.015714285714285715 0.039047619047619046
1 0.5957142857142858 0.7438095238095238 0.017857142857142856 0.03333333333333333
1 0.08214285714285714 0.621904761904762 0.016428571428571428 0.02761904761904762
1 0.45714285714285713 0.6133333333333333 0.018571428571428572 0.030476190476190476
0 0.3457142857142857 0.6085714285714285 0.015 0.03619047619047619
1 0.32285714285714284 0.3657142857142857 0.011428571428571429 0.014285714285714285
1 0.3892857142857143 0.34476190476190477 0.008571428571428572 0.012380952380952381
1 0.3914285714285714 0.32761904761904764 0.008571428571428572 0.009523809523809525
1 0.4057142857142857 0.3295238095238095 0.007857142857142858 0.009523809523809525
1 0.3707142857142857 0.31523809523809526 0.007857142857142858 0.009523809523809525
1 0.3585714285714286 0.3142857142857143 0.0064285714285714285 0.008571428571428572
1 0.39357142857142857 0.3019047619047619 0.005714285714285714 0.006666666666666667
1 0.395 0.2914285714285714 0.0064285714285714285 0.005714285714285714
1 0.36357142857142855 0.3038095238095238 0.005714285714285714 0.007619047619047619
1 0.42214285714285715 0.3342857142857143 0.007857142857142858 0.008571428571428572
1 0.42642857142857143 0.3476190476190476 0.008571428571428572 0.009523809523809525
1 0.43357142857142855 0.35904761904761906 0.009285714285714286 0.011428571428571429
1 0.57 0.4552380952380952 0.03428571428571429 0.01904761904761905
1 0.027857142857142858 0.5771428571428572 0.056428571428571425 0.0380952380952381
1 0.03642857142857143 0.5552380952380952 0.07071428571428572 0.035238095238095235
1 0.065 0.5428571428571428 0.065 0.02761904761904762
1 0.075 0.5276190476190477 0.055714285714285716 0.025714285714285714
1 0.08357142857142857 0.5171428571428571 0.06 0.02666666666666667
1 0.10214285714285715 0.5057142857142857 0.056428571428571425 0.02666666666666667
1 0.10785714285714286 0.49523809523809526 0.05142857142857143 0.022857142857142857
1 0.015714285714285715 0.539047619047619 0.03142857142857143 0.0419047619047619
1 0.14714285714285713 0.5638095238095238 0.055714285714285716 0.06476190476190476
0 0.15571428571428572 0.5923809523809523 0.012857142857142857 0.02857142857142857
0 0.11 0.6247619047619047 0.010714285714285714 0.03333333333333333
0 0.1457142857142857 0.5895238095238096 0.012142857142857143 0.03333333333333333
0 0.10571428571428572 0.638095238095238 0.013571428571428571 0.03428571428571429
1 0.11 0.6428571428571429 0.03571428571428571 0.02095238095238095
1 0.8971428571428571 0.6285714285714286 0.06285714285714286 0.04380952380952381
