1 0.40785714285714286 0.7752380952380953 0.07 0.05238095238095238
1 0.8321428571428572 0.24571428571428572 0.06142857142857143 0.06666666666666667
1 0.775 0.2571428571428571 0.07142857142857142 0.09904761904761905
0 0.6935714285714286 0.24857142857142858 0.008571428571428572 0.012380952380952381
1 0.6914285714285714 0.24666666666666667 0.020714285714285713 0.02666666666666667
1 0.6407142857142857 0.43142857142857144 0.04357142857142857 0.05619047619047619
1 0.6021428571428571 0.43047619047619046 0.037142857142857144 0.05523809523809524
1 0.5371428571428571 0.520952380952381 0.03357142857142857 0.04285714285714286
1 0.45285714285714285 0.6304761904761905 0.03642857142857143 0.039047619047619046
0 0.35714285714285715 0.6676190476190477 0.007142857142857143 0.011428571428571429
1 0.35928571428571426 0.6695238095238095 0.011428571428571429 0.012380952380952381
1 0.3514285714285714 0.6914285714285714 0.022857142857142857 0.030476190476190476
1 0.355 0.7028571428571428 0.025 0.0380952380952381
1 0.30357142857142855 0.7114285714285714 0.024285714285714285 0.03333333333333333
0 0.1742857142857143 0.8323809523809523 0.008571428571428572 0.011428571428571429
1 0.22785714285714287 0.7980952380952381 0.017142857142857144 0.029523809523809525
1 0.1992857142857143 0.8819047619047619 0.022857142857142857 0.023809523809523808
0 0.2785714285714286 0.8838095238095238 0.012857142857142857 0.015238095238095238
1 0.13142857142857142 0.9457142857142857 0.022857142857142857 0.024761904761904763
1 0.12571428571428572 0.9123809523809524 0.016428571428571428 0.021904761904761906
1 0.13857142857142857 0.8866666666666667 0.015 0.02
1 0.04642857142857143 0.9866666666666667 0.015 0.013333333333333334
1 0.5514285714285714 0.37047619047619046 0.015714285714285715 0.02857142857142857
1 0.5621428571428572 0.3314285714285714 0.012857142857142857 0.021904761904761906
1 0.6107142857142858 0.3361904761904762 0.015714285714285715 0.024761904761904763
1 0.6235714285714286 0.31333333333333335 0.019285714285714285 0.024761904761904763
1 0.6457142857142857 0.29333333333333333 0.017142857142857144 0.022857142857142857
1 0.66 0.2695238095238095 0.02214285714285714 0.02666666666666667
1 0.71 0.2219047619047619 0.023571428571428573 0.02761904761904762
1 0.6635714285714286 0.2342857142857143 0.017142857142857144 0.02095238095238095
1 0.6928571428571428 0.2123809523809524 0.02214285714285714 0.025714285714285714
1 0.6785714285714286 0.21047619047619048 0.017142857142857144 0.021904761904761906
1 0.6514285714285715 0.259047619047619 0.018571428571428572 0.021904761904761906
1 0.6342857142857142 0.28095238095238095 0.017857142857142856 0.023809523809523808
1 0.615 0.30095238095238097 0.013571428571428571 0.02095238095238095
1 0.6042857142857143 0.3219047619047619 0.014285714285714285 0.021904761904761906
1 0.5992857142857143 0.30666666666666664 0.015 0.017142857142857144
1 0.6085714285714285 0.2904761904761905 0.013571428571428571 0.02
1 0.6257142857142857 0.2733333333333333 0.013571428571428571 0.02095238095238095
1 0.64 0.25333333333333335 0.015 0.01904761904761905
1 0.6314285714285715 0.24666666666666667 0.012142857142857143 0.018095238095238095
1 0.625 0.24285714285714285 0.011428571428571429 0.017142857142857144
1 0.62 0.23523809523809525 0.009285714285714286 0.015238095238095238
1 0.6157142857142858 0.23238095238095238 0.01 0.01619047619047619
1 0.61 0.2276190476190476 0.011428571428571429 0.012380952380952381
1 0.6028571428571429 0.22380952380952382 0.009285714285714286 0.013333333333333334
1 0.6185714285714285 0.26666666666666666 0.012857142857142857 0.018095238095238095
1 0.6135714285714285 0.259047619047619 0.011428571428571429 0.017142857142857144
1 0.6085714285714285 0.25333333333333335 0.011428571428571429 0.014285714285714285
1 0.6042857142857143 0.24571428571428572 0.010714285714285714 0.010476190476190476
1 0.5985714285714285 0.24476190476190476 0.01 0.015238095238095238
1 0.5964285714285714 0.24095238095238095 0.007857142857142858 0.015238095238095238
1 0.5914285714285714 0.2361904761904762 0.009285714285714286 0.013333333333333334
1 0.5878571428571429 0.22952380952380952 0.0064285714285714285 0.010476190476190476
1 0.5857142857142857 0.22857142857142856 0.007142857142857143 0.013333333333333334
1 0.5785714285714286 0.22095238095238096 0.007857142857142858 0.009523809523809525
1 0.5892857142857143 0.21333333333333335 0.008571428571428572 0.012380952380952381
1 0.5807142857142857 0.2038095238095238 0.007857142857142858 0.010476190476190476
1 0.5728571428571428 0.21619047619047618 0.005 0.007619047619047619
1 0.5678571428571428 0.23238095238095238 0.0064285714285714285 0.009523809523809525
1 0.5742857142857143 0.23904761904761904 0.007857142857142858 0.011428571428571429
1 0.5814285714285714 0.25523809523809526 0.02 0.02761904761904762
1 0.5942857142857143 0.26666666666666666 0.011428571428571429 0.015238095238095238
1 0.5978571428571429 0.27714285714285714 0.010714285714285714 0.018095238095238095
1 0.6042857142857143 0.28285714285714286 0.011428571428571429 0.01619047619047619
1 0.5928571428571429 0.3 0.011428571428571429 0.017142857142857144
1 0.5885714285714285 0.29428571428571426 0.012857142857142857 0.01619047619047619
1 0.585 0.2866666666666667 0.01 0.014285714285714285
1 0.5607142857142857 0.2866666666666667 0.01 0.013333333333333334
1 0.5557142857142857 0.26761904761904765 0.009285714285714286 0.015238095238095238
1 0.56 0.2438095238095238 0.0064285714285714285 0.012380952380952381
1 0.5478571428571428 0.24476190476190476 0.007857142857142858 0.012380952380952381
1 0.5528571428571428 0.20761904761904762 0.004285714285714286 0.007619047619047619
1 0.56 0.19904761904761906 0.005 0.006666666666666667
1 0.5721428571428572 0.20285714285714285 0.0064285714285714285 0.007619047619047619
1 0.57 0.1961904761904762 0.005714285714285714 0.007619047619047619
1 0.5414285714285715 0.2038095238095238 0.008571428571428572 0.012380952380952381
1 0.6407142857142857 0.14857142857142858 0.008571428571428572 0.011428571428571429
1 0.63 0.14095238095238094 0.007142857142857143 0.009523809523809525
1 0.6221428571428571 0.12285714285714286 0.005714285714285714 0.006666666666666667
1 0.6178571428571429 0.13428571428571429 0.007857142857142858 0.011428571428571429
1 0.6064285714285714 0.14476190476190476 0.005714285714285714 0.007619047619047619
1 0.605 0.12857142857142856 0.005 0.005714285714285714
1 0.5921428571428572 0.14476190476190476 0.004285714285714286 0.005714285714285714
1 0.5842857142857143 0.13714285714285715 0.002142857142857143 0.004761904761904762
1 0.58 0.14285714285714285 0.004285714285714286 0.004761904761904762
1 0.5757142857142857 0.15047619047619049 0.0035714285714285713 0.004761904761904762
1 0.5728571428571428 0.15142857142857144 0.002142857142857143 0.0038095238095238095
1 0.5728571428571428 0.14857142857142858 0.0035714285714285713 0.0038095238095238095
1 0.57 0.14952380952380953 0.002142857142857143 0.0038095238095238095
1 0.5728571428571428 0.1419047619047619 0.002142857142857143 0.0038095238095238095
1 0.5671428571428572 0.1523809523809524 0.0035714285714285713 0.002857142857142857
1 0.5657142857142857 0.15714285714285714 0.002142857142857143 0.0038095238095238095
1 0.5607142857142857 0.16 0.002142857142857143 0.004761904761904762
