1 0.4421428571428571 0.30952380952380953 0.027142857142857142 0.013333333333333334
1 0.42857142857142855 0.32571428571428573 0.0064285714285714285 0.004761904761904762
0 0.4235714285714286 0.32285714285714284 0.002142857142857143 0.006666666666666667
0 0.41 0.3933333333333333 0.002142857142857143 0.010476190476190476
1 0.49714285714285716 0.49238095238095236 0.018571428571428572 0.035238095238095235
1 0.5271428571428571 0.43333333333333335 0.015 0.030476190476190476
0 0.4392857142857143 0.31142857142857144 0.002857142857142857 0.010476190476190476
1 0.5314285714285715 0.22285714285714286 0.008571428571428572 0.014285714285714285
1 0.45285714285714285 0.25523809523809526 0.03357142857142857 0.03238095238095238
1 0.5135714285714286 0.0838095238095238 0.0035714285714285713 0.005714285714285714
1 0.5107142857142857 0.07428571428571429 0.0035714285714285713 0.004761904761904762
1 0.5064285714285715 0.03142857142857143 0.0064285714285714285 0.007619047619047619
1 0.5057142857142857 0.023809523809523808 0.0035714285714285713 0.005714285714285714
1 0.57 0.37047619047619046 0.015714285714285715 0.02
1 0.9128571428571428 0.9685714285714285 0.03142857142857143 0.045714285714285714
1 0.9521428571428572 0.9561904761904761 0.02857142857142857 0.05142857142857143
1 0.9842857142857143 0.9514285714285714 0.03142857142857143 0.05619047619047619
