1 0.5792857142857143 0.8933333333333333 0.02857142857142857 0.07904761904761905
1 0.6207142857142857 0.8361904761904762 0.025 0.07428571428571429
1 0.6228571428571429 0.6857142857142857 0.023571428571428573 0.047619047619047616
1 0.5864285714285714 0.6495238095238095 0.02142857142857143 0.05238095238095238
1 0.6135714285714285 0.54 0.018571428571428572 0.0419047619047619
1 0.5907142857142857 0.46095238095238095 0.016428571428571428 0.03238095238095238
1 0.5392857142857143 0.49714285714285716 0.02 0.05333333333333334
1 0.6078571428571429 0.39904761904761904 0.014285714285714285 0.023809523809523808
0 0.35 0.6466666666666666 0.0064285714285714285 0.030476190476190476
0 0.3578571428571429 0.6447619047619048 0.005714285714285714 0.025714285714285714
1 0.36142857142857143 0.48095238095238096 0.05714285714285714 0.0380952380952381
1 0.5657142857142857 0.34 0.012142857142857143 0.029523809523809525
1 0.5764285714285714 0.259047619047619 0.010714285714285714 0.022857142857142857
1 0.5528571428571428 0.29333333333333333 0.011428571428571429 0.02761904761904762
1 0.5778571428571428 0.19333333333333333 0.009285714285714286 0.02
1 0.57 0.1419047619047619 0.014285714285714285 0.015238095238095238
1 0.5835714285714285 0.11619047619047619 0.007857142857142858 0.011428571428571429
1 0.5985714285714285 0.12666666666666668 0.014285714285714285 0.014285714285714285
1 0.6085714285714285 0.01904761904761905 0.008571428571428572 0.007619047619047619
1 0.5664285714285714 0.018095238095238095 0.004285714285714286 0.006666666666666667
1 0.5678571428571428 0.010476190476190476 0.004285714285714286 0.005714285714285714
1 0.5828571428571429 0.025714285714285714 0.002142857142857143 0.006666666666666667
1 0.5592857142857143 0.045714285714285714 0.005714285714285714 0.009523809523809525
1 0.5607142857142857 0.037142857142857144 0.007857142857142858 0.008571428571428572
1 0.5478571428571428 0.09904761904761905 0.007857142857142858 0.007619047619047619
1 0.5485714285714286 0.08952380952380952 0.0064285714285714285 0.007619047619047619
1 0.5571428571428572 0.06285714285714286 0.007142857142857143 0.010476190476190476
1 0.5228571428571429 0.18857142857142858 0.012857142857142857 0.013333333333333334
1 0.6714285714285714 0.40476190476190477 0.015714285714285715 0.02857142857142857
1 0.6685714285714286 0.37238095238095237 0.014285714285714285 0.02761904761904762
1 0.6528571428571428 0.43333333333333335 0.005 0.01904761904761905
0 0.72 0.47523809523809524 0.005 0.02
0 0.6607142857142857 0.3 0.005 0.011428571428571429
1 0.6328571428571429 0.014285714285714285 0.005714285714285714 0.008571428571428572
0 0.6321428571428571 0.08666666666666667 0.002142857142857143 0.008571428571428572
1 0.6364285714285715 0.05714285714285714 0.005 0.006666666666666667
1 0.6357142857142857 0.05047619047619047 0.0064285714285714285 0.006666666666666667
1 0.6235714285714286 0.0380952380952381 0.012142857142857143 0.007619047619047619
1 0.6278571428571429 0.05523809523809524 0.002142857142857143 0.006666666666666667
1 0.6314285714285715 0.06571428571428571 0.002142857142857143 0.007619047619047619
0 0.645 0.19238095238095237 0.0035714285714285713 0.011428571428571429
1 0.6657142857142857 0.02666666666666667 0.008571428571428572 0.007619047619047619
1 0.6657142857142857 0.03619047619047619 0.007857142857142858 0.007619047619047619
0 0.6285714285714286 0.054285714285714284 0.002142857142857143 0.0038095238095238095
0 0.6314285714285715 0.06380952380952382 0.002142857142857143 0.0038095238095238095
0 0.6521428571428571 0.4276190476190476 0.005 0.011428571428571429
