0 0.2957142857142857 0.11238095238095239 0.014285714285714285 0.05142857142857143
1 0.11714285714285715 0.1761904761904762 0.05 0.03619047619047619
0 0.10785714285714286 0.1657142857142857 0.02142857142857143 0.03238095238095238
0 0.265 0.2914285714285714 0.023571428571428573 0.0419047619047619
0 0.24785714285714286 0.3171428571428571 0.02214285714285714 0.05047619047619047
1 0.18857142857142858 0.46285714285714286 0.12785714285714286 0.17904761904761904
0 0.1357142857142857 0.6361904761904762 0.030714285714285715 0.02761904761904762
0 0.6235714285714286 0.5904761904761905 0.019285714285714285 0.040952380952380955
0 0.5735714285714286 0.48857142857142855 0.017142857142857144 0.040952380952380955
0 0.4992857142857143 0.47619047619047616 0.015 0.037142857142857144
0 0.555 0.4342857142857143 0.017142857142857144 0.04
0 0.44642857142857145 0.42 0.019285714285714285 0.04
0 0.5085714285714286 0.36666666666666664 0.015714285714285715 0.04
0 0.4164285714285714 0.35619047619047617 0.017857142857142856 0.040952380952380955
0 0.47 0.29904761904761906 0.017857142857142856 0.04476190476190476
0 0.5557142857142857 0.2876190476190476 0.014285714285714285 0.04666666666666667
0 0.5757142857142857 0.32285714285714284 0.018571428571428572 0.04380952380952381
0 0.6357142857142857 0.3819047619047619 0.017857142857142856 0.04
0 0.6514285714285715 0.2695238095238095 0.016428571428571428 0.04476190476190476
0 0.5342857142857143 0.24285714285714285 0.017142857142857144 0.04857142857142857
0 0.4392857142857143 0.2276190476190476 0.012857142857142857 0.04666666666666667
0 0.5178571428571429 0.2 0.015714285714285715 0.040952380952380955
1 0.5928571428571429 0.13523809523809524 0.039285714285714285 0.0419047619047619
1 0.6228571428571429 0.1961904761904762 0.030714285714285715 0.04380952380952381
1 0.6557142857142857 0.2123809523809524 0.019285714285714285 0.05333333333333334
0 0.7164285714285714 0.32285714285714284 0.024285714285714285 0.045714285714285714
0 0.7057142857142857 0.4247619047619048 0.023571428571428573 0.040952380952380955
0 0.6678571428571428 0.46 0.02214285714285714 0.0419047619047619
0 0.7078571428571429 0.5485714285714286 0.027857142857142858 0.039047619047619046
1 0.9342857142857143 0.9228571428571428 0.13142857142857142 0.11714285714285715
1 0.9057142857142857 0.7323809523809524 0.16642857142857143 0.14
