0 0.041428571428571426 0.09517766497461928 0.0035714285714285713 0.008883248730964468
0 0.039285714285714285 0.09898477157360407 0.004285714285714286 0.007614213197969543
0 0.03642857142857143 0.09644670050761421 0.002857142857142857 0.007614213197969543
1 0.07214285714285715 0.07233502538071065 0.017857142857142856 0.02284263959390863
1 0.075 0.05456852791878172 0.017857142857142856 0.02030456852791878
1 0.07571428571428572 0.03299492385786802 0.015 0.015228426395939087
1 0.016428571428571428 0.06472081218274112 0.017857142857142856 0.017766497461928935
1 0.015714285714285715 0.05456852791878172 0.017857142857142856 0.017766497461928935
1 0.013571428571428571 0.044416243654822336 0.018571428571428572 0.012690355329949238
1 0.07285714285714286 0.01903553299492386 0.015 0.015228426395939087
1 0.07428571428571429 0.01015228426395939 0.017857142857142856 0.015228426395939087
1 0.012857142857142857 0.03299492385786802 0.017142857142857144 0.013959390862944163
1 0.011428571428571429 0.025380710659898477 0.015714285714285715 0.015228426395939087
1 0.016428571428571428 0.07868020304568528 0.016428571428571428 0.015228426395939087
1 0.21928571428571428 0.25380710659898476 0.010714285714285714 0.030456852791878174
1 0.2257142857142857 0.22081218274111675 0.014285714285714285 0.03680203045685279
1 0.24357142857142858 0.6751269035532995 0.020714285714285713 0.017766497461928935
1 0.10357142857142858 0.7208121827411168 0.025714285714285714 0.02030456852791878
1 0.15 0.9137055837563451 0.024285714285714285 0.025380710659898477
1 0.3078571428571429 0.9390862944162437 0.02214285714285714 0.0266497461928934
1 0.38785714285714284 0.799492385786802 0.023571428571428573 0.025380710659898477
1 0.37 0.8375634517766497 0.037142857142857144 0.03680203045685279
1 0.45571428571428574 0.6116751269035533 0.018571428571428572 0.01649746192893401
1 0.4592857142857143 0.7284263959390863 0.02142857142857143 0.021573604060913704
1 0.45285714285714285 0.7017766497461929 0.02214285714285714 0.01903553299492386
1 0.5921428571428572 0.5977157360406091 0.022857142857142857 0.02030456852791878
1 0.5278571428571428 0.7360406091370558 0.023571428571428573 0.0266497461928934
1 0.4807142857142857 0.631979695431472 0.02 0.017766497461928935
1 0.48857142857142855 0.7817258883248731 0.039285714285714285 0.03680203045685279
1 0.6078571428571429 0.9314720812182741 0.019285714285714285 0.017766497461928935
1 0.6064285714285714 0.9517766497461929 0.02214285714285714 0.02030456852791878
1 0.6078571428571429 0.9733502538071066 0.02142857142857143 0.02030456852791878
1 0.635 0.8946700507614214 0.02142857142857143 0.017766497461928935
1 0.6342857142857142 0.9137055837563451 0.02214285714285714 0.017766497461928935
1 0.6357142857142857 0.9352791878172588 0.020714285714285713 0.017766497461928935
1 0.635 0.9606598984771574 0.02142857142857143 0.017766497461928935
1 0.6335714285714286 0.9796954314720813 0.022857142857142857 0.01903553299492386
1 0.6964285714285714 0.9898477157360406 0.024285714285714285 0.01649746192893401
1 0.6964285714285714 0.9263959390862944 0.022857142857142857 0.02030456852791878
1 0.6942857142857143 0.9048223350253807 0.02214285714285714 0.02030456852791878
1 0.6978571428571428 0.8807106598984772 0.019285714285714285 0.015228426395939087
1 0.6957142857142857 0.8629441624365483 0.022857142857142857 0.01903553299492386
1 0.6914285714285714 0.8375634517766497 0.01 0.007614213197969543
1 0.6607142857142857 0.5748730964467005 0.02214285714285714 0.01903553299492386
1 0.6792857142857143 0.682741116751269 0.024285714285714285 0.024111675126903553
1 0.76 0.5482233502538071 0.020714285714285713 0.017766497461928935
1 0.7114285714285714 0.6015228426395939 0.03428571428571429 0.02918781725888325
1 0.8178571428571428 0.6383248730964467 0.032857142857142856 0.02918781725888325
1 0.8264285714285714 0.6878172588832487 0.05785714285714286 0.03426395939086294
1 0.7221428571428572 0.8489847715736041 0.009285714285714286 0.007614213197969543
1 0.7242857142857143 0.868020304568528 0.02214285714285714 0.01649746192893401
1 0.7242857142857143 0.8908629441624365 0.017142857142857144 0.017766497461928935
1 0.7221428571428572 0.9098984771573604 0.022857142857142857 0.02284263959390863
1 0.7535714285714286 0.9213197969543148 0.019285714285714285 0.03934010152284264
1 0.7242857142857143 0.9936548223350253 0.022857142857142857 0.01015228426395939
1 0.7614285714285715 0.8058375634517766 0.007857142857142858 0.005076142131979695
1 0.7921428571428571 0.7969543147208121 0.011428571428571429 0.006345177664974619
1 0.9771428571428571 0.5152284263959391 0.023571428571428573 0.015228426395939087
1 0.9221428571428572 0.6713197969543148 0.02142857142857143 0.01903553299492386
1 0.9185714285714286 0.6446700507614214 0.045 0.0266497461928934
1 0.9464285714285714 0.6142131979695431 0.03785714285714286 0.0266497461928934
1 0.8485714285714285 0.4987309644670051 0.04642857142857143 0.03680203045685279
