0 0.5944676409185804 0.37940630797773656 0.005741127348643006 0.015769944341372914
0 0.644572025052192 0.36641929499072357 0.003131524008350731 0.0074211502782931356
0 0.6497912317327766 0.39888682745825604 0.005219206680584551 0.00927643784786642
0 0.5981210855949896 0.33116883116883117 0.0036534446764091857 0.01020408163265306
0 0.5996868475991649 0.3302411873840445 0.0026096033402922755 0.008348794063079777
1 0.6116910229645094 0.33302411873840443 0.005741127348643006 0.016697588126159554
1 0.598643006263048 0.33302411873840443 0.007828810020876827 0.01855287569573284
1 0.5845511482254697 0.5278293135435993 0.016179540709812108 0.04267161410018553
1 0.5621085594989561 0.4452690166975881 0.013048016701461378 0.029684601113172542
1 0.5516701461377871 0.549165120593692 0.03288100208768267 0.02411873840445269
1 0.5636743215031316 0.5166975881261595 0.008350730688935281 0.021335807050092765
1 0.5542797494780793 0.5222634508348795 0.007828810020876827 0.013914656771799629
1 0.5542797494780793 0.5194805194805194 0.007828810020876827 0.012059369202226345
1 0.5469728601252609 0.5705009276437848 0.016179540709812108 0.01948051948051948
1 0.5652400835073069 0.5909090909090909 0.017745302713987474 0.022263450834879406
0 0.5370563674321504 0.5927643784786641 0.005219206680584551 0.011131725417439703
1 0.5480167014613778 0.5890538033395176 0.013048016701461378 0.01855287569573284
1 0.5506263048016702 0.5575139146567718 0.019832985386221295 0.022263450834879406
1 0.5302713987473904 0.6975881261595547 0.006263048016701462 0.017625231910946195
1 0.5365344467640919 0.7717996289424861 0.044363256784968684 0.039888682745825604
0 0.6424843423799582 0.862708719851577 0.007828810020876827 0.01948051948051948
0 0.6430062630480167 0.87569573283859 0.006784968684759917 0.015769944341372914
1 0.6430062630480167 0.87291280148423 0.009916492693110648 0.03339517625231911
1 0.5882045929018789 0.323747680890538 0.012526096033402923 0.0287569573283859
1 0.5099164926931107 0.24025974025974026 0.011482254697286013 0.015769944341372914
0 0.6028183716075156 0.2541743970315399 0.0026096033402922755 0.013914656771799629
0 0.5991649269311065 0.25510204081632654 0.0036534446764091857 0.00927643784786642
1 0.6012526096033403 0.2588126159554731 0.008872651356993737 0.02040816326530612
0 0.5594989561586639 0.22263450834879406 0.003131524008350731 0.011131725417439703
0 0.5861169102296451 0.16048237476808905 0.0020876826722338203 0.0074211502782931356
1 0.5866388308977035 0.16233766233766234 0.0026096033402922755 0.006493506493506494
0 0.5908141962421712 0.08441558441558442 0.0015657620041753654 0.0074211502782931356
1 0.5840292275574113 0.07142857142857142 0.005219206680584551 0.012059369202226345
1 0.5694154488517745 0.16419294990723562 0.003131524008350731 0.006493506493506494
