1 0.49214285714285716 0.9704761904761905 0.02214285714285714 0.05333333333333334
1 0.6121428571428571 0.98 0.025 0.04
1 0.6028571428571429 0.8028571428571428 0.02 0.05333333333333334
1 0.5721428571428572 0.3219047619047619 0.012142857142857143 0.015238095238095238
1 0.5764285714285714 0.2895238095238095 0.010714285714285714 0.010476190476190476
1 0.5792857142857143 0.26571428571428574 0.01 0.012380952380952381
1 0.5914285714285714 0.2180952380952381 0.008571428571428572 0.009523809523809525
1 0.59 0.18571428571428572 0.009285714285714286 0.011428571428571429
1 0.59 0.1523809523809524 0.009285714285714286 0.02
1 0.6035714285714285 0.7438095238095238 0.017142857142857144 0.04380952380952381
1 0.6014285714285714 0.6895238095238095 0.015 0.039047619047619046
1 0.5985714285714285 0.5438095238095239 0.012142857142857143 0.02666666666666667
1 0.5435714285714286 0.47523809523809524 0.012142857142857143 0.02095238095238095
1 0.5992857142857143 0.4942857142857143 0.017857142857142856 0.07047619047619047
1 0.7007142857142857 0.4095238095238095 0.020714285714285713 0.014285714285714285
0 0.5285714285714286 0.5514285714285714 0.007857142857142858 0.01619047619047619
1 0.5578571428571428 0.6780952380952381 0.007857142857142858 0.021904761904761906
1 0.5457142857142857 0.6628571428571428 0.007142857142857143 0.02
1 0.5485714285714286 0.6009523809523809 0.0064285714285714285 0.01619047619047619
1 0.5728571428571428 0.5971428571428572 0.007142857142857143 0.018095238095238095
1 0.56 0.5838095238095238 0.007142857142857143 0.014285714285714285
1 0.5457142857142857 0.5552380952380952 0.007142857142857143 0.01619047619047619
1 0.5642857142857143 0.5314285714285715 0.007142857142857143 0.014285714285714285
1 0.5714285714285714 0.43714285714285717 0.007857142857142858 0.017142857142857144
1 0.4607142857142857 0.8485714285714285 0.02 0.01619047619047619
1 0.4257142857142857 0.8514285714285714 0.017857142857142856 0.012380952380952381
1 0.425 0.9 0.06857142857142857 0.05047619047619047
1 0.6078571428571429 0.8857142857142857 0.023571428571428573 0.08
1 0.5092857142857142 0.78 0.017142857142857144 0.0380952380952381
0 0.49214285714285716 0.7866666666666666 0.008571428571428572 0.018095238095238095
1 0.5142857142857142 0.7342857142857143 0.013571428571428571 0.012380952380952381
1 0.5171428571428571 0.72 0.015 0.01619047619047619
1 0.5392857142857143 0.7666666666666667 0.007142857142857143 0.022857142857142857
1 0.5978571428571429 0.6066666666666667 0.016428571428571428 0.03238095238095238
1 0.5985714285714285 0.5780952380952381 0.015 0.024761904761904763
1 0.8878571428571429 0.4219047619047619 0.029285714285714286 0.01904761904761905
1 0.9207142857142857 0.4238095238095238 0.029285714285714286 0.015238095238095238
1 0.9571428571428572 0.4257142857142857 0.030714285714285715 0.013333333333333334
1 0.8085714285714286 0.41904761904761906 0.03 0.014285714285714285
1 0.9885714285714285 0.4266666666666667 0.022857142857142857 0.01619047619047619
1 0.7292857142857143 0.41333333333333333 0.025 0.015238095238095238
1 0.7657142857142857 0.41619047619047617 0.025 0.012380952380952381
