1 0.5407142857142857 0.7457142857142857 0.013571428571428571 0.047619047619047616
0 0.5135714285714286 0.6133333333333333 0.013571428571428571 0.029523809523809525
0 0.47928571428571426 0.42095238095238097 0.012857142857142857 0.02761904761904762
0 0.4928571428571429 0.3742857142857143 0.012142857142857143 0.03428571428571429
1 0.4942857142857143 0.25523809523809526 0.039285714285714285 0.08952380952380952
0 0.46 0.16095238095238096 0.012142857142857143 0.0380952380952381
0 0.43642857142857144 0.09142857142857143 0.013571428571428571 0.04285714285714286
0 0.4764285714285714 0.07238095238095238 0.012142857142857143 0.039047619047619046
0 0.44285714285714284 0.03142857142857143 0.014285714285714285 0.0419047619047619
