1 0.15928571428571428 0.08248730964467005 0.010714285714285714 0.027918781725888325
1 0.1392857142857143 0.08629441624365482 0.007857142857142858 0.021573604060913704
1 0.3578571428571429 0.050761421319796954 0.004285714285714286 0.011421319796954314
1 0.35285714285714287 0.05203045685279188 0.0035714285714285713 0.01015228426395939
1 0.3607142857142857 0.050761421319796954 0.002142857142857143 0.007614213197969543
0 0.3078571428571429 0.4479695431472081 0.002857142857142857 0.007614213197969543
0 0.30714285714285716 0.4416243654822335 0.002857142857142857 0.008883248730964468
0 0.16285714285714287 0.5634517766497462 0.004285714285714286 0.007614213197969543
0 0.165 0.5710659898477157 0.004285714285714286 0.01015228426395939
0 0.17 0.6040609137055838 0.0035714285714285713 0.008883248730964468
0 0.155 0.5710659898477157 0.005714285714285714 0.01015228426395939
0 0.18142857142857144 0.5418781725888325 0.0014285714285714286 0.006345177664974619
0 0.17214285714285715 0.5748730964467005 0.005 0.008883248730964468
0 0.18714285714285714 0.5786802030456852 0.004285714285714286 0.01015228426395939
0 0.15428571428571428 0.7538071065989848 0.0035714285714285713 0.008883248730964468
1 0.285 0.9467005076142132 0.027142857142857142 0.048223350253807105
1 0.30357142857142855 0.949238578680203 0.025 0.04568527918781726
1 0.31214285714285717 0.9708121827411168 0.025714285714285714 0.046954314720812185
0 0.4114285714285714 0.0850253807106599 0.002142857142857143 0.011421319796954314
1 0.4592857142857143 0.015228426395939087 0.007142857142857143 0.021573604060913704
1 0.5064285714285715 0.03680203045685279 0.012142857142857143 0.06725888324873096
1 0.4592857142857143 0.2398477157360406 0.009285714285714286 0.031725888324873094
1 0.4742857142857143 0.3604060913705584 0.009285714285714286 0.031725888324873094
1 0.4957142857142857 0.399746192893401 0.009285714285714286 0.044416243654822336
1 0.4957142857142857 0.2398477157360406 0.009285714285714286 0.03680203045685279
1 0.4592857142857143 0.10786802030456853 0.008571428571428572 0.025380710659898477
1 0.4757142857142857 0.13705583756345177 0.007857142857142858 0.0266497461928934
1 0.49142857142857144 0.01015228426395939 0.007857142857142858 0.021573604060913704
1 0.515 0.4606598984771574 0.012857142857142857 0.06725888324873096
1 0.49642857142857144 0.5279187817258884 0.01 0.04060913705583756
1 0.515 0.5850253807106599 0.01 0.04187817258883249
1 0.45571428571428574 0.5342639593908629 0.014285714285714285 0.09517766497461928
1 0.4714285714285714 0.7474619289340102 0.01 0.04060913705583756
1 0.5185714285714286 0.7385786802030457 0.009285714285714286 0.03680203045685279
1 0.47 0.9530456852791879 0.010714285714285714 0.048223350253807105
1 0.4492857142857143 0.8565989847715736 0.012142857142857143 0.04949238578680203
1 0.46714285714285714 0.6560913705583756 0.010714285714285714 0.04187817258883249
1 0.49714285714285716 0.6434010152284264 0.010714285714285714 0.046954314720812185
1 0.495 0.8946700507614214 0.017857142857142856 0.19289340101522842
1 0.5178571428571429 0.9822335025380711 0.017857142857142856 0.031725888324873094
1 0.44357142857142856 0.9784263959390863 0.017857142857142856 0.04060913705583756
1 0.475 0.5241116751269036 0.0035714285714285713 0.02030456852791878
1 0.47285714285714286 0.46446700507614214 0.0035714285714285713 0.017766497461928935
1 0.4592857142857143 0.3096446700507614 0.004285714285714286 0.012690355329949238
0 0.4592857142857143 0.3083756345177665 0.004285714285714286 0.007614213197969543
0 0.47285714285714286 0.4631979695431472 0.002857142857142857 0.01015228426395939
0 0.475 0.5215736040609137 0.0035714285714285713 0.007614213197969543
