1 0.2042857142857143 0.07238095238095238 0.005714285714285714 0.006666666666666667
1 0.26285714285714284 0.14 0.007142857142857143 0.008571428571428572
0 0.2507142857142857 0.11142857142857143 0.002142857142857143 0.007619047619047619
1 0.26357142857142857 0.11428571428571428 0.01 0.008571428571428572
1 0.25 0.07047619047619047 0.007142857142857143 0.008571428571428572
1 0.26071428571428573 0.08571428571428572 0.005 0.006666666666666667
1 0.15285714285714286 0.3838095238095238 0.030714285714285715 0.01904761904761905
1 0.155 0.39904761904761904 0.03214285714285714 0.017142857142857144
1 0.28785714285714287 0.9895238095238095 0.01 0.02
0 0.22285714285714286 0.7333333333333333 0.01 0.02666666666666667
0 0.22642857142857142 0.6361904761904762 0.007857142857142858 0.02095238095238095
1 0.26 0.4 0.020714285714285713 0.029523809523809525
1 0.25357142857142856 0.3676190476190476 0.017142857142857144 0.030476190476190476
1 0.2764285714285714 0.3838095238095238 0.004285714285714286 0.014285714285714285
0 0.2764285714285714 0.38095238095238093 0.004285714285714286 0.007619047619047619
1 0.18285714285714286 0.34476190476190477 0.04071428571428572 0.02095238095238095
1 0.17714285714285713 0.32285714285714284 0.03214285714285714 0.02095238095238095
1 0.17785714285714285 0.31333333333333335 0.032857142857142856 0.01904761904761905
0 0.20357142857142857 0.15428571428571428 0.002142857142857143 0.005714285714285714
1 0.2642857142857143 0.09142857142857143 0.0035714285714285713 0.006666666666666667
1 0.2671428571428571 0.09619047619047619 0.0035714285714285713 0.005714285714285714
1 0.27071428571428574 0.1019047619047619 0.005714285714285714 0.006666666666666667
1 0.2742857142857143 0.10761904761904761 0.0035714285714285713 0.004761904761904762
1 0.27785714285714286 0.11333333333333333 0.005 0.006666666666666667
1 0.2864285714285714 0.11904761904761904 0.008571428571428572 0.007619047619047619
1 0.2957142857142857 0.13238095238095238 0.009285714285714286 0.008571428571428572
0 0.2764285714285714 0.1 0.002142857142857143 0.0038095238095238095
0 0.32857142857142857 0.5666666666666667 0.007857142857142858 0.02666666666666667
1 0.31 0.15619047619047619 0.009285714285714286 0.009523809523809525
1 0.315 0.1619047619047619 0.005 0.007619047619047619
1 0.3221428571428571 0.17333333333333334 0.01 0.009523809523809525
1 0.3271428571428571 0.18 0.008571428571428572 0.009523809523809525
1 0.3314285714285714 0.18666666666666668 0.007857142857142858 0.009523809523809525
0 0.33785714285714286 0.16952380952380952 0.0014285714285714286 0.009523809523809525
1 0.3607142857142857 0.22380952380952382 0.012857142857142857 0.01619047619047619
1 0.3242857142857143 0.31523809523809526 0.019285714285714285 0.02666666666666667
1 0.37 0.32285714285714284 0.017857142857142856 0.02
1 0.3507142857142857 0.38952380952380955 0.020714285714285713 0.029523809523809525
1 0.36357142857142855 0.41523809523809524 0.017857142857142856 0.02666666666666667
1 0.375 0.38571428571428573 0.02142857142857143 0.02761904761904762
1 0.375 0.4419047619047619 0.023571428571428573 0.03428571428571429
1 0.44357142857142856 0.9171428571428571 0.017142857142857144 0.047619047619047616
1 0.4014285714285714 0.8676190476190476 0.016428571428571428 0.04666666666666667
1 0.3821428571428571 0.21904761904761905 0.019285714285714285 0.011428571428571429
1 0.4142857142857143 0.29904761904761906 0.02 0.02095238095238095
1 0.425 0.3161904761904762 0.017857142857142856 0.018095238095238095
1 0.46285714285714286 0.3657142857142857 0.02 0.023809523809523808
1 0.4521428571428571 0.47333333333333333 0.027142857142857142 0.03333333333333333
1 0.39 0.47523809523809524 0.025 0.039047619047619046
1 0.41214285714285714 0.5266666666666666 0.03 0.04476190476190476
1 0.4342857142857143 0.5733333333333334 0.032857142857142856 0.05047619047619047
1 0.4585714285714286 0.6285714285714286 0.03642857142857143 0.054285714285714284
1 0.5364285714285715 0.8047619047619048 0.04928571428571429 0.08190476190476191
1 0.48642857142857143 0.7019047619047619 0.04357142857142857 0.06952380952380953
1 0.5135714285714286 0.5914285714285714 0.01 0.01619047619047619
1 0.565 0.7638095238095238 0.04642857142857143 0.06666666666666667
0 0.5128571428571429 0.5866666666666667 0.01 0.011428571428571429
0 0.40214285714285714 0.8552380952380952 0.012142857142857143 0.023809523809523808
0 0.44357142857142856 0.9085714285714286 0.015714285714285715 0.023809523809523808
