1 0.2664285714285714 0.5482233502538071 0.02 0.044416243654822336
1 0.5107142857142857 0.29949238578680204 0.015714285714285715 0.03934010152284264
1 0.5657142857142857 0.40609137055837563 0.02214285714285714 0.05456852791878172
1 0.2621428571428571 0.1751269035532995 0.010714285714285714 0.02284263959390863
1 0.21642857142857144 0.1751269035532995 0.012142857142857143 0.01903553299492386
1 0.2257142857142857 0.1548223350253807 0.013571428571428571 0.02284263959390863
1 0.44357142857142856 0.17893401015228427 0.011428571428571429 0.031725888324873094
1 0.5321428571428571 0.06979695431472081 0.011428571428571429 0.031725888324873094
1 0.5278571428571428 0.031725888324873094 0.010714285714285714 0.027918781725888325
1 0.5542857142857143 0.07487309644670051 0.017857142857142856 0.05203045685279188
1 0.6028571428571429 0.7880710659898477 0.03571428571428571 0.11548223350253807
1 0.4157142857142857 0.3210659898477157 0.017857142857142856 0.06218274111675127
1 0.08642857142857142 0.35786802030456855 0.03357142857142857 0.031725888324873094
1 0.2057142857142857 0.2563451776649746 0.023571428571428573 0.0266497461928934
1 0.1757142857142857 0.2880710659898477 0.02642857142857143 0.027918781725888325
1 0.135 0.3236040609137056 0.027857142857142858 0.025380710659898477
1 0.03857142857142857 0.3895939086294416 0.035 0.031725888324873094
1 0.2357142857142857 0.16878172588832488 0.01 0.015228426395939087
1 0.225 0.08248730964467005 0.012142857142857143 0.017766497461928935
1 0.21357142857142858 0.08248730964467005 0.010714285714285714 0.01649746192893401
1 0.18285714285714286 0.1281725888324873 0.015714285714285715 0.017766497461928935
1 0.18142857142857144 0.14086294416243655 0.016428571428571428 0.017766497461928935
1 0.20714285714285716 0.14213197969543148 0.018571428571428572 0.017766497461928935
1 0.20285714285714285 0.15355329949238578 0.016428571428571428 0.02284263959390863
1 0.23142857142857143 0.21954314720812182 0.023571428571428573 0.04187817258883249
1 0.23857142857142857 0.18527918781725888 0.016428571428571428 0.03680203045685279
0 0.9242857142857143 0.2982233502538071 0.005714285714285714 0.02030456852791878
