1 0.2978571428571429 0.8286802030456852 0.052142857142857144 0.09137055837563451
1 0.2757142857142857 0.7868020304568528 0.045714285714285714 0.06979695431472081
1 0.25857142857142856 0.751269035532995 0.05357142857142857 0.06979695431472081
1 0.2557142857142857 0.7068527918781726 0.05714285714285714 0.0583756345177665
1 0.29714285714285715 0.6040609137055838 0.032857142857142856 0.06979695431472081
1 0.32357142857142857 0.5812182741116751 0.03571428571428571 0.07741116751269035
1 0.3492857142857143 0.5609137055837563 0.035 0.07360406091370558
1 0.375 0.8045685279187818 0.045 0.07487309644670051
1 0.3992857142857143 0.7284263959390863 0.03 0.07487309644670051
1 0.37857142857142856 0.5482233502538071 0.032857142857142856 0.06852791878172589
1 0.3985714285714286 0.5317258883248731 0.03214285714285714 0.06598984771573604
1 0.4207142857142857 0.516497461928934 0.037142857142857144 0.06598984771573604
1 0.4607142857142857 0.49238578680203043 0.037142857142857144 0.06979695431472081
1 0.47928571428571426 0.47715736040609136 0.035 0.06218274111675127
1 0.49714285714285716 0.467005076142132 0.03857142857142857 0.06345177664974619
1 0.47214285714285714 0.6472081218274112 0.037142857142857144 0.07233502538071065
1 0.5007142857142857 0.6269035532994924 0.047142857142857146 0.07741116751269035
1 0.5257142857142857 0.6027918781725888 0.03857142857142857 0.06472081218274112
1 0.5464285714285714 0.5862944162436549 0.04 0.06598984771573604
1 0.5671428571428572 0.5685279187817259 0.04214285714285714 0.06472081218274112
1 0.59 0.5571065989847716 0.03857142857142857 0.06218274111675127
1 0.6235714285714286 0.5228426395939086 0.03642857142857143 0.05456852791878172
1 0.5314285714285715 0.434010152284264 0.035 0.06852791878172589
1 0.5485714285714286 0.42385786802030456 0.03357142857142857 0.06345177664974619
1 0.5685714285714286 0.4137055837563452 0.032857142857142856 0.0583756345177665
1 0.5871428571428572 0.40482233502538073 0.03214285714285714 0.05583756345177665
1 0.6157142857142858 0.3769035532994924 0.03642857142857143 0.05710659898477157
1 0.6335714285714286 0.3629441624365482 0.037142857142857144 0.06218274111675127
1 0.65 0.3565989847715736 0.03214285714285714 0.05583756345177665
1 0.6935714285714286 0.3236040609137056 0.04071428571428572 0.05583756345177665
1 0.7071428571428572 0.3096446700507614 0.03142857142857143 0.05203045685279188
1 0.7207142857142858 0.30076142131979694 0.030714285714285715 0.05583756345177665
1 0.7478571428571429 0.28553299492385786 0.03428571428571429 0.048223350253807105
1 0.7621428571428571 0.27284263959390864 0.029285714285714286 0.048223350253807105
1 0.69 0.434010152284264 0.041428571428571426 0.044416243654822336
1 0.7292857142857143 0.3870558375634518 0.03642857142857143 0.05203045685279188
1 0.16642857142857143 0.29441624365482233 0.02 0.03934010152284264
1 0.21428571428571427 0.315989847715736 0.025714285714285714 0.08121827411167512
1 0.21 0.26903553299492383 0.019285714285714285 0.025380710659898477
1 0.22428571428571428 0.26015228426395937 0.020714285714285713 0.03680203045685279
1 0.9507142857142857 0.03299492385786802 0.03214285714285714 0.04314720812182741
1 0.9578571428571429 0.021573604060913704 0.027142857142857142 0.03680203045685279
1 0.9678571428571429 0.02030456852791878 0.03 0.04060913705583756
1 0.9771428571428571 0.017766497461928935 0.02642857142857143 0.03299492385786802
1 0.8685714285714285 0.24619289340101522 0.025714285714285714 0.03553299492385787
