1 0.043 0.5006666666666667 0.0535 0.037333333333333336
1 0.084 0.476 0.046 0.038
1 0.1045 0.4846666666666667 0.0435 0.034666666666666665
1 0.1175 0.46 0.0355 0.02666666666666667
1 0.115 0.496 0.04 0.04133333333333333
1 0.083 0.5133333333333333 0.0515 0.036
0 0.1535 0.45066666666666666 0.008 0.02
0 0.1635 0.44733333333333336 0.0075 0.020666666666666667
0 0.0595 0.43866666666666665 0.008 0.024
0 0.093 0.43333333333333335 0.008 0.022
0 0.104 0.444 0.0085 0.011333333333333334
1 0.0805 0.7046666666666667 0.0945 0.06733333333333333
1 0.145 0.6426666666666667 0.084 0.06266666666666666
0 0.1825 0.63 0.0095 0.035333333333333335
0 0.2125 0.6166666666666667 0.0115 0.03266666666666666
0 0.21 0.61 0.0055 0.016
1 0.2365 0.5793333333333334 0.049 0.052
1 0.133 0.8013333333333333 0.0215 0.05266666666666667
1 0.3465 0.708 0.0215 0.04
1 0.389 0.6473333333333333 0.021 0.027333333333333334
1 0.438 0.6666666666666666 0.075 0.07466666666666667
1 0.4865 0.634 0.069 0.058666666666666666
0 0.5415 0.7026666666666667 0.012 0.029333333333333333
0 0.5525 0.698 0.011 0.024
0 0.5525 0.684 0.011 0.014
0 0.541 0.6826666666666666 0.0105 0.015333333333333332
1 0.5525 0.654 0.0145 0.035333333333333335
1 0.5695 0.6586666666666666 0.015 0.034
1 0.6125 0.6626666666666666 0.0555 0.04066666666666666
0 0.9785 0.6426666666666667 0.0145 0.028
0 0.839 0.6346666666666667 0.01 0.03266666666666666
0 0.8775 0.6186666666666667 0.0125 0.036
1 0.921 0.606 0.086 0.04733333333333333
1 0.822 0.5866666666666667 0.082 0.052
0 0.727 0.574 0.0105 0.030666666666666665
0 0.7235 0.568 0.0105 0.028
0 0.7135 0.574 0.007 0.028
0 0.7135 0.562 0.0105 0.028666666666666667
0 0.685 0.56 0.0115 0.018
1 0.6535 0.5673333333333334 0.0215 0.016
0 0.651 0.564 0.0095 0.016
0 0.6565 0.5433333333333333 0.0075 0.028
0 0.6455 0.5413333333333333 0.005 0.030666666666666665
0 0.639 0.53 0.007 0.03133333333333333
0 0.621 0.5413333333333333 0.0125 0.022
1 0.5955 0.5286666666666666 0.0195 0.023333333333333334
1 0.609 0.5153333333333333 0.019 0.025333333333333333
1 0.622 0.5006666666666667 0.0195 0.016
0 0.5805 0.522 0.0055 0.018
0 0.5705 0.5333333333333333 0.0065 0.028
0 0.5675 0.5286666666666666 0.004 0.024
0 0.533 0.5253333333333333 0.0055 0.025333333333333333
0 0.525 0.528 0.006 0.016666666666666666
0 0.4325 0.494 0.0075 0.024666666666666667
1 0.4325 0.49666666666666665 0.0105 0.018666666666666668
0 0.4985 0.5106666666666667 0.007 0.02266666666666667
0 0.4425 0.492 0.005 0.024666666666666667
1 0.508 0.4 0.0315 0.027333333333333334
1 0.537 0.38466666666666666 0.025 0.024
1 0.538 0.354 0.025 0.025333333333333333
0 0.531 0.37133333333333335 0.006 0.014
0 0.524 0.37733333333333335 0.0035 0.016666666666666666
0 0.508 0.378 0.005 0.016
0 0.467 0.44066666666666665 0.005 0.009333333333333334
0 0.489 0.422 0.0045 0.013333333333333334
0 0.4335 0.412 0.005 0.02
0 0.444 0.414 0.0055 0.019333333333333334
0 0.457 0.41733333333333333 0.006 0.021333333333333333
0 0.462 0.4266666666666667 0.0045 0.02
0 0.4455 0.44133333333333336 0.005 0.022
0 0.421 0.4553333333333333 0.0075 0.022
0 0.4155 0.46 0.005 0.014666666666666666
0 0.4275 0.4766666666666667 0.0045 0.022
0 0.44 0.4673333333333333 0.006 0.021333333333333333
0 0.4 0.48333333333333334 0.008 0.023333333333333334
0 0.4175 0.48 0.006 0.022
0 0.3765 0.48333333333333334 0.006 0.025333333333333333
0 0.301 0.5193333333333333 0.0055 0.025333333333333333
1 0.4115 0.44533333333333336 0.0085 0.018666666666666668
0 0.4085 0.468 0.0075 0.021333333333333333
0 0.402 0.4593333333333333 0.008 0.018666666666666668
0 0.356 0.48533333333333334 0.0095 0.02
0 0.336 0.5126666666666667 0.01 0.021333333333333333
0 0.308 0.5273333333333333 0.0085 0.016666666666666666
0 0.386 0.468 0.0095 0.024666666666666667
0 0.396 0.462 0.0045 0.016666666666666666
0 0.391 0.462 0.0065 0.020666666666666667
0 0.395 0.47933333333333333 0.004 0.022
0 0.386 0.45066666666666666 0.005 0.018
0 0.381 0.45866666666666667 0.005 0.018666666666666668
0 0.375 0.44866666666666666 0.01 0.021333333333333333
0 0.3335 0.492 0.008 0.024
1 0.331 0.498 0.005 0.016666666666666666
0 0.318 0.506 0.009 0.025333333333333333
0 0.309 0.49733333333333335 0.008 0.019333333333333334
1 0.3115 0.5006666666666667 0.016 0.012
0 0.284 0.49 0.0075 0.021333333333333333
1 0.394 0.43466666666666665 0.0155 0.013333333333333334
1 0.48 0.39 0.009 0.010666666666666666
1 0.487 0.382 0.0085 0.01
1 0.516 0.37466666666666665 0.0085 0.014
0 0.48 0.38666666666666666 0.005 0.014666666666666666
0 0.4725 0.3893333333333333 0.005 0.015333333333333332
1 0.4085 0.4226666666666667 0.018 0.017333333333333333
1 0.3685 0.4646666666666667 0.0165 0.015333333333333332
1 0.3395 0.7486666666666667 0.015 0.04
1 0.421 0.6033333333333334 0.0195 0.024
1 0.688 0.6826666666666666 0.061 0.03933333333333333
1 0.781 0.5493333333333333 0.0255 0.02666666666666667
1 0.818 0.5606666666666666 0.0095 0.026
1 0.8845 0.5746666666666667 0.0115 0.027333333333333334
1 0.8935 0.5813333333333334 0.0105 0.03
