0 0.3964285714285714 0.5371428571428571 0.014285714285714285 0.047619047619047616
0 0.17285714285714285 0.6885714285714286 0.024285714285714285 0.054285714285714284
0 0.15428571428571428 0.7114285714285714 0.025714285714285714 0.05904761904761905
0 0.2307142857142857 0.20476190476190476 0.013571428571428571 0.03428571428571429
0 0.29 0.1657142857142857 0.01 0.030476190476190476
0 0.21928571428571428 0.17047619047619048 0.008571428571428572 0.024761904761904763
0 0.2307142857142857 0.16666666666666666 0.007857142857142858 0.01904761904761905
0 0.25 0.17047619047619048 0.013571428571428571 0.03238095238095238
0 0.425 0.054285714285714284 0.005 0.023809523809523808
0 0.4421428571428571 0.054285714285714284 0.011428571428571429 0.021904761904761906
0 0.4742857142857143 0.05714285714285714 0.0064285714285714285 0.017142857142857144
0 0.48642857142857143 0.047619047619047616 0.005 0.01619047619047619
0 0.5235714285714286 0.2704761904761905 0.01 0.037142857142857144
0 0.4692857142857143 0.2361904761904762 0.010714285714285714 0.03142857142857143
0 0.5921428571428572 0.29904761904761906 0.01 0.04285714285714286
0 0.7014285714285714 0.29619047619047617 0.011428571428571429 0.03619047619047619
0 0.6685714285714286 0.2638095238095238 0.008571428571428572 0.029523809523809525
0 0.7092857142857143 0.21047619047619048 0.005714285714285714 0.025714285714285714
0 0.7042857142857143 0.18857142857142858 0.012142857142857143 0.025714285714285714
0 0.4278571428571429 0.16666666666666666 0.005714285714285714 0.022857142857142857
0 0.4235714285714286 0.16952380952380952 0.005714285714285714 0.025714285714285714
0 0.42214285714285715 0.15904761904761905 0.0064285714285714285 0.02
0 0.44285714285714284 0.16 0.008571428571428572 0.02
0 0.45 0.1438095238095238 0.011428571428571429 0.025714285714285714
0 0.47285714285714286 0.14666666666666667 0.0064285714285714285 0.018095238095238095
0 0.46714285714285714 0.14095238095238094 0.004285714285714286 0.02761904761904762
0 0.4807142857142857 0.11619047619047619 0.0064285714285714285 0.022857142857142857
0 0.49357142857142855 0.12380952380952381 0.0064285714285714285 0.02761904761904762
0 0.5271428571428571 0.12095238095238095 0.010714285714285714 0.02857142857142857
0 0.5357142857142857 0.12285714285714286 0.004285714285714286 0.024761904761904763
0 0.5128571428571429 0.08571428571428572 0.012142857142857143 0.02761904761904762
0 0.5457142857142857 0.1 0.010714285714285714 0.025714285714285714
0 0.5335714285714286 0.09904761904761905 0.0064285714285714285 0.02095238095238095
0 0.54 0.05619047619047619 0.005714285714285714 0.02095238095238095
0 0.5507142857142857 0.05619047619047619 0.007857142857142858 0.018095238095238095
0 0.5985714285714285 0.1019047619047619 0.007142857142857143 0.021904761904761906
0 0.6171428571428571 0.0838095238095238 0.012142857142857143 0.02095238095238095
0 0.5885714285714285 0.08 0.0064285714285714285 0.009523809523809525
0 0.5564285714285714 0.04476190476190476 0.004285714285714286 0.014285714285714285
0 0.5507142857142857 0.04285714285714286 0.004285714285714286 0.013333333333333334
0 0.6192857142857143 0.030476190476190476 0.009285714285714286 0.017142857142857144
0 0.6007142857142858 0.02857142857142857 0.0064285714285714285 0.015238095238095238
0 0.6585714285714286 0.040952380952380955 0.0064285714285714285 0.018095238095238095
0 0.6857142857142857 0.04666666666666667 0.007142857142857143 0.021904761904761906
0 0.6814285714285714 0.02857142857142857 0.007857142857142858 0.015238095238095238
0 0.7435714285714285 0.045714285714285714 0.0064285714285714285 0.01619047619047619
0 0.78 0.07714285714285714 0.0064285714285714285 0.011428571428571429
0 0.8628571428571429 0.10285714285714286 0.0064285714285714285 0.01619047619047619
0 0.9 0.09333333333333334 0.007142857142857143 0.02
0 0.8207142857142857 0.039047619047619046 0.01 0.02095238095238095
0 0.7907142857142857 0.2714285714285714 0.012142857142857143 0.0380952380952381
0 0.7735714285714286 0.3419047619047619 0.015714285714285715 0.040952380952380955
0 0.8578571428571429 0.31047619047619046 0.013571428571428571 0.037142857142857144
0 0.8892857142857142 0.3314285714285714 0.015714285714285715 0.04
0 0.9735714285714285 0.3047619047619048 0.014285714285714285 0.04285714285714286
0 0.79 0.40285714285714286 0.01 0.01904761904761905
0 0.7642857142857142 0.4523809523809524 0.02 0.047619047619047616
