1 0.025714285714285714 0.7466666666666667 0.052142857142857144 0.040952380952380955
1 0.04214285714285714 0.6914285714285714 0.05928571428571429 0.030476190476190476
1 0.7464285714285714 0.9476190476190476 0.07071428571428572 0.06380952380952382
1 0.5971428571428572 0.7371428571428571 0.029285714285714286 0.06952380952380953
1 0.7492857142857143 0.7390476190476191 0.032857142857142856 0.06571428571428571
1 0.6385714285714286 0.6476190476190476 0.047857142857142855 0.02857142857142857
1 0.6414285714285715 0.6761904761904762 0.04857142857142857 0.030476190476190476
1 0.6357142857142857 0.7361904761904762 0.03214285714285714 0.07523809523809524
1 0.5571428571428572 0.44761904761904764 0.03642857142857143 0.024761904761904763
1 0.5621428571428572 0.4247619047619048 0.03785714285714286 0.021904761904761906
1 0.6778571428571428 0.5323809523809524 0.047142857142857146 0.029523809523809525
1 0.5464285714285714 0.26476190476190475 0.029285714285714286 0.023809523809523808
1 0.6142857142857143 0.259047619047619 0.02214285714285714 0.01904761904761905
1 0.42428571428571427 0.40285714285714286 0.018571428571428572 0.03333333333333333
1 0.5021428571428571 0.16095238095238096 0.012857142857142857 0.022857142857142857
1 0.23285714285714285 0.1676190476190476 0.025 0.015238095238095238
1 0.29285714285714287 0.17809523809523808 0.025 0.015238095238095238
1 0.29714285714285715 0.16952380952380952 0.02642857142857143 0.013333333333333334
1 0.31285714285714283 0.14857142857142858 0.02214285714285714 0.01619047619047619
1 0.20285714285714285 0.21142857142857144 0.029285714285714286 0.017142857142857144
1 0.21285714285714286 0.19428571428571428 0.027142857142857142 0.017142857142857144
1 0.18571428571428572 0.25047619047619046 0.045 0.023809523809523808
1 0.21071428571428572 0.3 0.027142857142857142 0.01904761904761905
1 0.11285714285714285 0.3314285714285714 0.03214285714285714 0.025714285714285714
1 0.21071428571428572 0.3361904761904762 0.02857142857142857 0.01619047619047619
0 0.2057142857142857 0.43714285714285717 0.008571428571428572 0.01904761904761905
1 0.5071428571428571 0.3476190476190476 0.020714285714285713 0.02
1 0.4407142857142857 0.3171428571428571 0.007142857142857143 0.01619047619047619
1 0.4614285714285714 0.30095238095238097 0.0064285714285714285 0.017142857142857144
1 0.6914285714285714 0.621904761904762 0.02 0.01619047619047619
1 0.71 0.6209523809523809 0.020714285714285713 0.01619047619047619
1 0.6921428571428572 0.5971428571428572 0.03785714285714286 0.024761904761904763
1 0.6978571428571428 0.5771428571428572 0.017142857142857144 0.015238095238095238
1 0.7078571428571429 0.5666666666666667 0.016428571428571428 0.017142857142857144
1 0.725 0.6714285714285714 0.009285714285714286 0.023809523809523808
1 0.7485714285714286 0.6942857142857143 0.020714285714285713 0.015238095238095238
1 0.7635714285714286 0.7123809523809523 0.011428571428571429 0.02666666666666667
1 0.7757142857142857 0.7142857142857143 0.014285714285714285 0.030476190476190476
0 0.7707142857142857 0.9114285714285715 0.015 0.014285714285714285
0 0.44 0.3142857142857143 0.005 0.010476190476190476
0 0.46214285714285713 0.2980952380952381 0.005 0.009523809523809525
1 0.3092857142857143 0.12857142857142856 0.02 0.018095238095238095
1 0.5064285714285715 0.09714285714285714 0.004285714285714286 0.013333333333333334
1 0.5121428571428571 0.06380952380952382 0.005 0.013333333333333334
0 0.6357142857142857 0.3628571428571429 0.005 0.017142857142857144
1 0.625 0.3047619047619048 0.01 0.015238095238095238
1 0.6307142857142857 0.3057142857142857 0.007857142857142858 0.014285714285714285
1 0.6235714285714286 0.37523809523809526 0.014285714285714285 0.013333333333333334
0 0.6121428571428571 0.3580952380952381 0.007142857142857143 0.014285714285714285
1 0.6221428571428571 0.35619047619047617 0.013571428571428571 0.012380952380952381
