1 0.5107142857142857 0.9666666666666667 0.032857142857142856 0.06571428571428571
1 0.375 0.9171428571428571 0.07857142857142857 0.06666666666666667
1 0.295 0.8647619047619047 0.09071428571428572 0.058095238095238096
1 0.345 0.7933333333333333 0.08142857142857143 0.047619047619047616
1 0.365 0.7123809523809523 0.09571428571428571 0.05142857142857143
1 0.35928571428571426 0.6504761904761904 0.08571428571428572 0.049523809523809526
1 0.36357142857142855 0.5819047619047619 0.07642857142857143 0.05333333333333334
1 0.3442857142857143 0.4552380952380952 0.10428571428571429 0.07333333333333333
1 0.42214285714285715 0.27904761904761904 0.03357142857142857 0.025714285714285714
0 0.42142857142857143 0.28 0.014285714285714285 0.02095238095238095
1 0.49642857142857144 0.35523809523809524 0.032857142857142856 0.1019047619047619
1 0.7964285714285714 0.9752380952380952 0.06785714285714285 0.04857142857142857
1 0.7835714285714286 0.9161904761904762 0.07642857142857143 0.07238095238095238
1 0.7721428571428571 0.8590476190476191 0.06785714285714285 0.04857142857142857
1 0.79 0.8 0.08785714285714286 0.05714285714285714
1 0.8907142857142857 0.8323809523809523 0.05285714285714286 0.11142857142857143
1 0.965 0.9180952380952381 0.03428571428571429 0.03142857142857143
1 0.9478571428571428 0.8285714285714286 0.03 0.037142857142857144
1 0.9271428571428572 0.7552380952380953 0.03642857142857143 0.022857142857142857
1 0.8842857142857142 0.7209523809523809 0.03357142857142857 0.02095238095238095
1 0.9014285714285715 0.6980952380952381 0.030714285714285715 0.022857142857142857
1 0.9007142857142857 0.6561904761904762 0.03642857142857143 0.021904761904761906
1 0.8342857142857143 0.5028571428571429 0.03357142857142857 0.017142857142857144
0 0.8807142857142857 0.4828571428571429 0.016428571428571428 0.014285714285714285
0 0.8657142857142858 0.4666666666666667 0.010714285714285714 0.01904761904761905
0 0.8864285714285715 0.46095238095238095 0.014285714285714285 0.013333333333333334
0 0.895 0.3942857142857143 0.012857142857142857 0.012380952380952381
0 0.8407142857142857 0.37333333333333335 0.010714285714285714 0.013333333333333334
0 0.8307142857142857 0.3504761904761905 0.011428571428571429 0.014285714285714285
0 0.8414285714285714 0.33714285714285713 0.013571428571428571 0.01904761904761905
0 0.7914285714285715 0.3457142857142857 0.010714285714285714 0.015238095238095238
0 0.8021428571428572 0.3485714285714286 0.012857142857142857 0.014285714285714285
0 0.81 0.3580952380952381 0.012142857142857143 0.01619047619047619
0 0.81 0.37238095238095237 0.010714285714285714 0.010476190476190476
0 0.8071428571428572 0.38666666666666666 0.012142857142857143 0.014285714285714285
0 0.7964285714285714 0.38857142857142857 0.009285714285714286 0.013333333333333334
0 0.7857142857142857 0.38285714285714284 0.010714285714285714 0.013333333333333334
0 0.7778571428571428 0.36952380952380953 0.012142857142857143 0.015238095238095238
0 0.7828571428571428 0.35333333333333333 0.008571428571428572 0.014285714285714285
0 0.8628571428571429 0.3923809523809524 0.017857142857142856 0.01619047619047619
1 0.6628571428571428 0.379047619047619 0.015 0.0419047619047619
1 0.6442857142857142 0.3761904761904762 0.013571428571428571 0.039047619047619046
1 0.6685714285714286 0.29523809523809524 0.027857142857142858 0.02857142857142857
1 0.7535714285714286 0.28 0.020714285714285713 0.037142857142857144
1 0.7957142857142857 0.2695238095238095 0.029285714285714286 0.018095238095238095
1 0.82 0.2723809523809524 0.02857142857142857 0.03333333333333333
1 0.5735714285714286 0.2866666666666667 0.012142857142857143 0.040952380952380955
0 0.5735714285714286 0.28095238095238095 0.012142857142857143 0.014285714285714285
0 0.575 0.29333333333333333 0.011428571428571429 0.014285714285714285
0 0.6335714285714286 0.2923809523809524 0.014285714285714285 0.018095238095238095
0 0.63 0.2695238095238095 0.012142857142857143 0.02095238095238095
0 0.6635714285714286 0.24476190476190476 0.015714285714285715 0.01904761904761905
1 0.6771428571428572 0.5047619047619047 0.020714285714285713 0.0419047619047619
1 0.6457142857142857 0.48095238095238096 0.03857142857142857 0.1019047619047619
0 0.40714285714285714 0.10095238095238095 0.01 0.024761904761904763
1 0.4878571428571429 0.040952380952380955 0.03214285714285714 0.08190476190476191
0 0.5492857142857143 0.09333333333333334 0.01 0.023809523809523808
0 0.5585714285714286 0.08952380952380952 0.008571428571428572 0.023809523809523808
1 0.5914285714285714 0.03333333333333333 0.03571428571428571 0.06761904761904762
1 0.71 0.01904761904761905 0.03357142857142857 0.039047619047619046
