1 0.3242857142857143 0.30952380952380953 0.08928571428571429 0.06095238095238095
1 0.15285714285714286 0.6495238095238095 0.09928571428571428 0.05714285714285714
1 0.08142857142857143 0.8304761904761905 0.10357142857142858 0.06285714285714286
1 0.5814285714285714 0.7904761904761904 0.11428571428571428 0.07142857142857142
1 0.8457142857142858 0.9247619047619048 0.11214285714285714 0.07523809523809524
1 0.6207142857142857 0.7038095238095238 0.095 0.05904761904761905
1 0.5414285714285715 0.3580952380952381 0.09214285714285714 0.05238095238095238
1 0.49785714285714283 0.44095238095238093 0.10214285714285715 0.05904761904761905
1 0.11857142857142858 0.3580952380952381 0.09071428571428572 0.05047619047619047
1 0.3171428571428571 0.5066666666666667 0.095 0.05142857142857143
1 0.9764285714285714 0.42 0.04642857142857143 0.054285714285714284
1 0.03 0.2819047619047619 0.060714285714285714 0.05523809523809524
1 0.018571428571428572 0.4866666666666667 0.037142857142857144 0.049523809523809526
1 0.9614285714285714 0.8257142857142857 0.07428571428571429 0.05619047619047619
0 0.07357142857142857 0.19714285714285715 0.011428571428571429 0.02
0 0.395 0.20952380952380953 0.012142857142857143 0.03333333333333333
0 0.6057142857142858 0.26761904761904765 0.011428571428571429 0.024761904761904763
0 0.395 0.14857142857142858 0.014285714285714285 0.02761904761904762
1 0.39357142857142857 0.16 0.030714285714285715 0.02761904761904762
1 0.6057142857142858 0.2695238095238095 0.030714285714285715 0.018095238095238095
1 0.07928571428571428 0.2019047619047619 0.032857142857142856 0.029523809523809525
1 0.39357142857142857 0.21333333333333335 0.025 0.02
0 0.33214285714285713 0.09904761904761905 0.015714285714285715 0.037142857142857144
0 0.3107142857142857 0.08 0.017142857142857144 0.03428571428571429
0 0.4657142857142857 0.08285714285714285 0.010714285714285714 0.03428571428571429
0 0.6335714285714286 0.11238095238095239 0.007857142857142858 0.018095238095238095
0 0.6364285714285715 0.06571428571428571 0.015 0.03142857142857143
0 0.6721428571428572 0.05142857142857143 0.007142857142857143 0.02
0 0.6214285714285714 0.07142857142857142 0.009285714285714286 0.017142857142857144
0 0.6378571428571429 0.10476190476190476 0.010714285714285714 0.030476190476190476
0 0.6771428571428572 0.03619047619047619 0.007857142857142858 0.02761904761904762
