1 0.9485714285714286 0.6628571428571428 0.07571428571428572 0.06571428571428571
1 0.8135714285714286 0.6009523809523809 0.030714285714285715 0.02666666666666667
1 0.8857142857142857 0.6714285714285714 0.035 0.03142857142857143
1 0.7592857142857142 0.5428571428571428 0.029285714285714286 0.023809523809523808
1 0.6992857142857143 0.5466666666666666 0.05285714285714286 0.05238095238095238
1 0.5742857142857143 0.4580952380952381 0.04 0.049523809523809526
1 0.5121428571428571 0.38952380952380955 0.047142857142857146 0.047619047619047616
1 0.37642857142857145 0.30857142857142855 0.047857142857142855 0.04666666666666667
1 0.21214285714285713 0.19333333333333333 0.13214285714285715 0.13714285714285715
1 0.33 0.13142857142857142 0.04928571428571429 0.02666666666666667
1 0.37642857142857145 0.14285714285714285 0.04214285714285714 0.04666666666666667
1 0.4235714285714286 0.17904761904761904 0.04071428571428572 0.0419047619047619
1 0.4742857142857143 0.21428571428571427 0.04 0.040952380952380955
1 0.5742857142857143 0.2761904761904762 0.04857142857142857 0.045714285714285714
1 0.5257142857142857 0.24 0.04214285714285714 0.0419047619047619
1 0.6778571428571428 0.259047619047619 0.04857142857142857 0.045714285714285714
1 0.6171428571428571 0.22285714285714286 0.04642857142857143 0.045714285714285714
1 0.45571428571428574 0.12571428571428572 0.04642857142857143 0.0419047619047619
1 0.38285714285714284 0.06285714285714286 0.04 0.0380952380952381
1 0.4492857142857143 0.04666666666666667 0.012142857142857143 0.02
1 0.6607142857142857 0.17904761904761904 0.017857142857142856 0.017142857142857144
1 0.6792857142857143 0.19333333333333333 0.010714285714285714 0.024761904761904763
1 0.8835714285714286 0.45904761904761904 0.055 0.05238095238095238
1 0.7985714285714286 0.4066666666666667 0.04928571428571429 0.06666666666666667
1 0.97 0.38095238095238093 0.039285714285714285 0.06476190476190476
