0 0.43785714285714283 0.4104761904761905 0.019285714285714285 0.06
0 0.6478571428571429 0.5161904761904762 0.017142857142857144 0.06666666666666667
0 0.3157142857142857 0.21714285714285714 0.017142857142857144 0.05904761904761905
0 0.03642857142857143 0.4228571428571429 0.032857142857142856 0.06285714285714286
0 0.015714285714285715 0.4066666666666667 0.03142857142857143 0.06285714285714286
0 0.010714285714285714 0.44285714285714284 0.02142857142857143 0.04380952380952381
0 0.13142857142857142 0.1657142857142857 0.020714285714285713 0.04380952380952381
1 0.03214285714285714 0.8885714285714286 0.065 0.22285714285714286
1 0.08714285714285715 0.9323809523809524 0.12714285714285714 0.13523809523809524
1 0.7757142857142857 0.8590476190476191 0.13642857142857143 0.2714285714285714
1 0.26785714285714285 0.8495238095238096 0.11214285714285714 0.2914285714285714
1 0.14857142857142858 0.7152380952380952 0.14214285714285715 0.2438095238095238
1 0.7171428571428572 0.6085714285714285 0.09857142857142857 0.16476190476190475
1 0.5478571428571428 0.5638095238095238 0.07357142857142857 0.17523809523809525
1 0.3585714285714286 0.5419047619047619 0.10142857142857142 0.19523809523809524
1 0.15 0.3923809523809524 0.13357142857142856 0.12095238095238095
0 0.22857142857142856 0.38476190476190475 0.025714285714285714 0.04857142857142857
1 0.12785714285714286 0.35428571428571426 0.1442857142857143 0.10857142857142857
1 0.09571428571428571 0.31238095238095237 0.13428571428571429 0.09142857142857143
1 0.06785714285714285 0.2780952380952381 0.09642857142857143 0.08761904761904762
1 0.32857142857142857 0.35428571428571426 0.06142857142857143 0.12666666666666668
1 0.5935714285714285 0.3361904761904762 0.06571428571428571 0.10476190476190476
1 0.6828571428571428 0.34476190476190477 0.06928571428571428 0.10952380952380952
1 0.7978571428571428 0.3647619047619048 0.06357142857142857 0.11619047619047619
1 0.9571428571428572 0.3361904761904762 0.08571428571428572 0.11523809523809524
1 0.9742857142857143 0.29523809523809524 0.05142857142857143 0.07333333333333333
1 0.9028571428571428 0.2219047619047619 0.12285714285714286 0.08571428571428572
1 0.6978571428571428 0.0761904761904762 0.11857142857142858 0.08476190476190476
1 0.5621428571428572 0.08095238095238096 0.07357142857142857 0.05904761904761905
1 0.2357142857142857 0.08285714285714285 0.09642857142857143 0.06095238095238095
1 0.9685714285714285 0.10095238095238095 0.06285714285714286 0.047619047619047616
1 0.8821428571428571 0.10095238095238095 0.09357142857142857 0.05142857142857143
1 0.4657142857142857 0.08571428571428572 0.08 0.049523809523809526
1 0.36 0.0838095238095238 0.08357142857142857 0.04857142857142857
1 0.13857142857142857 0.07904761904761905 0.08357142857142857 0.05047619047619047
1 0.7864285714285715 0.24666666666666667 0.08857142857142856 0.06666666666666667
1 0.8871428571428571 0.14285714285714285 0.13428571428571429 0.06761904761904762
0 0.91 0.11238095238095239 0.011428571428571429 0.037142857142857144
0 0.9142857142857143 0.1180952380952381 0.012142857142857143 0.04476190476190476
