1 0.4328571428571429 0.9809523809523809 0.04928571428571429 0.0380952380952381
1 0.5657142857142857 0.9580952380952381 0.029285714285714286 0.08285714285714285
1 0.6185714285714285 0.7 0.03642857142857143 0.18
1 0.7242857142857143 0.8180952380952381 0.07285714285714286 0.17714285714285713
1 0.6885714285714286 0.679047619047619 0.03357142857142857 0.07142857142857142
1 0.6492857142857142 0.5695238095238095 0.025714285714285714 0.05523809523809524
1 0.61 0.5066666666666667 0.027857142857142858 0.07047619047619047
1 0.6414285714285715 0.4819047619047619 0.02857142857142857 0.05238095238095238
1 0.615 0.3942857142857143 0.029285714285714286 0.05904761904761905
1 0.58 0.3676190476190476 0.025 0.05333333333333334
1 0.63 0.32476190476190475 0.030714285714285715 0.05047619047619047
1 0.5807142857142857 0.30857142857142855 0.011428571428571429 0.03238095238095238
1 0.56 0.2580952380952381 0.02214285714285714 0.05047619047619047
1 0.6028571428571429 0.22380952380952382 0.024285714285714285 0.04285714285714286
1 0.5771428571428572 0.1523809523809524 0.02142857142857143 0.04285714285714286
1 0.5342857142857143 0.1742857142857143 0.023571428571428573 0.05523809523809524
1 0.5571428571428572 0.07333333333333333 0.025714285714285714 0.054285714285714284
1 0.5407142857142857 0.025714285714285714 0.017857142857142856 0.03333333333333333
1 0.8028571428571428 0.11523809523809524 0.03857142857142857 0.030476190476190476
1 0.7857142857142857 0.1019047619047619 0.032857142857142856 0.029523809523809525
1 0.7707142857142857 0.08761904761904762 0.035 0.029523809523809525
1 0.7528571428571429 0.07333333333333333 0.032857142857142856 0.025714285714285714
1 0.7357142857142858 0.049523809523809526 0.032857142857142856 0.03238095238095238
1 0.7264285714285714 0.03142857142857143 0.03142857142857143 0.03142857142857143
1 0.8514285714285714 0.1438095238095238 0.015714285714285715 0.01619047619047619
1 0.5078571428571429 0.579047619047619 0.027142857142857142 0.05523809523809524
1 0.49142857142857144 0.5123809523809524 0.025714285714285714 0.05523809523809524
1 0.49142857142857144 0.4542857142857143 0.025 0.05238095238095238
1 0.4835714285714286 0.38857142857142857 0.024285714285714285 0.05047619047619047
1 0.475 0.32666666666666666 0.022857142857142857 0.04476190476190476
1 0.47 0.28 0.020714285714285713 0.04476190476190476
1 0.46285714285714286 0.22952380952380952 0.02142857142857143 0.047619047619047616
1 0.4592857142857143 0.18857142857142858 0.022857142857142857 0.037142857142857144
1 0.415 0.19523809523809524 0.023571428571428573 0.04476190476190476
0 0.4228571428571429 0.3 0.009285714285714286 0.02
0 0.4357142857142857 0.1980952380952381 0.007857142857142858 0.02095238095238095
1 0.38571428571428573 0.12285714285714286 0.041428571428571426 0.0419047619047619
1 0.42928571428571427 0.01904761904761905 0.019285714285714285 0.035238095238095235
1 0.355 0.022857142857142857 0.030714285714285715 0.02666666666666667
1 0.39357142857142857 0.4942857142857143 0.052142857142857144 0.035238095238095235
1 0.30642857142857144 0.5780952380952381 0.03571428571428571 0.05238095238095238
