1 0.6873695198329853 0.9573283858998145 0.03444676409185804 0.08256029684601113
1 0.7927974947807933 0.8905380333951762 0.042275574112734866 0.10482374768089053
1 0.8053235908141962 0.9721706864564007 0.042275574112734866 0.05287569573283859
1 0.9765135699373695 0.8209647495361782 0.04592901878914405 0.0686456400742115
0 0.9342379958246346 0.8701298701298701 0.010960334029227558 0.039888682745825604
1 0.9321503131524008 0.7903525046382189 0.05167014613778706 0.06307977736549165
1 0.8966597077244259 0.7523191094619666 0.061064718162839246 0.05473098330241188
1 0.8637787056367432 0.7207792207792207 0.06002087682672234 0.04916512059369202
1 0.8298538622129437 0.6892393320964749 0.05793319415448852 0.04730983302411874
1 0.808455114822547 0.6539888682745826 0.04749478079331942 0.04638218923933209
1 0.7593945720250522 0.5667903525046383 0.04175365344467641 0.045454545454545456
1 0.7411273486430062 0.5426716141001855 0.04123173277661795 0.039888682745825604
1 0.732776617954071 0.5092764378478665 0.04018789144050104 0.045454545454545456
1 0.7312108559498957 0.4805194805194805 0.04018789144050104 0.03525046382189239
1 0.7275574112734864 0.4452690166975881 0.032359081419624215 0.03710575139146568
1 0.714509394572025 0.42207792207792205 0.031315240083507306 0.03339517625231911
1 0.697286012526096 0.3979591836734694 0.03444676409185804 0.032467532467532464
1 0.6936325678496869 0.37569573283859 0.03653444676409186 0.0287569573283859
1 0.6873695198329853 0.3079777365491651 0.030793319415448852 0.02504638218923933
1 0.6336116910229646 0.5482374768089053 0.04697286012526096 0.04452690166975881
1 0.6403966597077244 0.525974025974026 0.04645093945720251 0.039888682745825604
1 0.6278705636743215 0.48144712430426717 0.04175365344467641 0.03339517625231911
1 0.6268267223382046 0.45918367346938777 0.0407098121085595 0.0287569573283859
1 0.6315240083507306 0.4230055658627087 0.038100208768267224 0.03153988868274583
1 0.627348643006263 0.3404452690166976 0.033402922755741124 0.0287569573283859
1 0.627348643006263 0.30241187384044527 0.026096033402922755 0.027829313543599257
0 0.6252609603340292 0.3747680890538033 0.004697286012526096 0.022263450834879406
1 0.6184759916492694 0.37569573283859 0.012526096033402923 0.012059369202226345
0 0.662839248434238 0.35064935064935066 0.005741127348643006 0.022263450834879406
1 0.7129436325678496 0.349721706864564 0.010438413361169102 0.017625231910946195
1 0.7025052192066806 0.2690166975881262 0.026096033402922755 0.026901669758812616
1 0.6299582463465553 0.2792207792207792 0.031315240083507306 0.02504638218923933
1 0.5208768267223383 0.39332096474953615 0.01722338204592902 0.03432282003710575
1 0.5516701461377871 0.3172541743970315 0.013569937369519834 0.03339517625231911
0 0.5224425887265136 0.15398886827458255 0.0041753653444676405 0.01948051948051948
1 0.5146137787056367 0.21985157699443414 0.030793319415448852 0.09647495361781076
0 0.5485386221294363 0.09090909090909091 0.0020876826722338203 0.008348794063079777
0 0.5594989561586639 0.05009276437847866 0.0020876826722338203 0.00927643784786642
1 0.5485386221294363 0.09647495361781076 0.007828810020876827 0.00927643784786642
1 0.5594989561586639 0.05287569573283859 0.005219206680584551 0.00927643784786642
0 0.5694154488517745 0.05473098330241188 0.0026096033402922755 0.013914656771799629
1 0.5918580375782881 0.06029684601113173 0.007306889352818371 0.014842300556586271
1 0.6096033402922756 0.07792207792207792 0.016701461377870562 0.015769944341372914
