1 0.5942857142857143 0.9758883248730964 0.045714285714285714 0.044416243654822336
1 0.37785714285714284 0.9111675126903553 0.037142857142857144 0.05456852791878172
1 0.45714285714285713 0.7918781725888325 0.03357142857142857 0.07741116751269035
1 0.2857142857142857 0.8324873096446701 0.03785714285714286 0.03807106598984772
1 0.305 0.7944162436548223 0.04285714285714286 0.03553299492385787
1 0.2507142857142857 0.7829949238578681 0.04214285714285714 0.03807106598984772
1 0.17785714285714285 0.8121827411167513 0.04857142857142857 0.03553299492385787
1 0.18857142857142858 0.7652284263959391 0.04428571428571428 0.03680203045685279
1 0.18571428571428572 0.6725888324873096 0.04928571428571429 0.03934010152284264
1 0.1392857142857143 0.7055837563451777 0.05071428571428571 0.03934010152284264
1 0.2764285714285714 0.7411167512690355 0.11071428571428571 0.06472081218274112
1 0.2785714285714286 0.6890862944162437 0.11142857142857143 0.06725888324873096
1 0.43214285714285716 0.5532994923857868 0.022857142857142857 0.06725888324873096
0 0.31642857142857145 0.4949238578680203 0.0064285714285714285 0.013959390862944163
0 0.32357142857142857 0.44289340101522845 0.0064285714285714285 0.017766497461928935
0 0.3292857142857143 0.44416243654822335 0.007142857142857143 0.012690355329949238
0 0.335 0.4581218274111675 0.007142857142857143 0.015228426395939087
0 0.37214285714285716 0.4200507614213198 0.01 0.01903553299492386
1 0.4957142857142857 0.5875634517766497 0.02214285714285714 0.07233502538071065
1 0.5335714285714286 0.49619289340101524 0.02857142857142857 0.09263959390862944
1 0.4664285714285714 0.3147208121827411 0.025 0.06091370558375635
1 0.5821428571428572 0.2563451776649746 0.016428571428571428 0.06725888324873096
0 0.6085714285714285 0.3083756345177665 0.005714285714285714 0.017766497461928935
0 0.6135714285714285 0.30583756345177665 0.005714285714285714 0.013959390862944163
0 0.6107142857142858 0.2614213197969543 0.0064285714285714285 0.02030456852791878
0 0.6064285714285714 0.25253807106598986 0.0064285714285714285 0.01903553299492386
0 0.6135714285714285 0.2233502538071066 0.005714285714285714 0.017766497461928935
0 0.61 0.22208121827411167 0.005 0.01649746192893401
0 0.6207142857142857 0.1484771573604061 0.0064285714285714285 0.017766497461928935
1 0.5935714285714285 0.05583756345177665 0.03214285714285714 0.1116751269035533
