1 0.24785714285714286 0.6771428571428572 0.020714285714285713 0.04476190476190476
0 0.23785714285714285 0.7961904761904762 0.027857142857142858 0.06857142857142857
0 0.21571428571428572 0.8095238095238095 0.02214285714285714 0.06190476190476191
0 0.7957142857142857 0.6819047619047619 0.017857142857142856 0.05047619047619047
0 0.7771428571428571 0.66 0.018571428571428572 0.05238095238095238
0 0.7585714285714286 0.6638095238095238 0.011428571428571429 0.05047619047619047
0 0.24428571428571427 0.6628571428571428 0.017857142857142856 0.047619047619047616
1 0.3942857142857143 0.31142857142857144 0.03571428571428571 0.02857142857142857
1 0.23714285714285716 0.2123809523809524 0.017857142857142856 0.02095238095238095
1 0.20785714285714285 0.21333333333333335 0.017857142857142856 0.018095238095238095
1 0.27 0.2123809523809524 0.019285714285714285 0.017142857142857144
1 0.19785714285714287 0.17142857142857143 0.015 0.01904761904761905
1 0.1792857142857143 0.1742857142857143 0.012142857142857143 0.013333333333333334
1 0.165 0.16 0.012142857142857143 0.012380952380952381
1 0.1357142857142857 0.1295238095238095 0.009285714285714286 0.012380952380952381
1 0.9121428571428571 0.4876190476190476 0.06357142857142857 0.058095238095238096
1 0.9578571428571429 0.5190476190476191 0.07428571428571429 0.06285714285714286
1 0.8621428571428571 0.38476190476190475 0.06 0.04285714285714286
1 0.8242857142857143 0.44095238095238093 0.060714285714285714 0.04666666666666667
1 0.7914285714285715 0.5371428571428571 0.08857142857142856 0.07047619047619047
1 0.6064285714285714 0.41904761904761906 0.056428571428571425 0.05142857142857143
1 0.5592857142857143 0.38 0.052142857142857144 0.0419047619047619
1 0.49642857142857144 0.34095238095238095 0.04428571428571428 0.03619047619047619
1 0.4607142857142857 0.3161904761904762 0.04214285714285714 0.03142857142857143
1 0.43714285714285717 0.29619047619047617 0.03428571428571429 0.03333333333333333
1 0.4007142857142857 0.2819047619047619 0.03785714285714286 0.029523809523809525
1 0.3914285714285714 0.2695238095238095 0.02642857142857143 0.02666666666666667
1 0.3464285714285714 0.23238095238095238 0.024285714285714285 0.02666666666666667
1 0.67 0.2923809523809524 0.03428571428571429 0.03238095238095238
1 0.64 0.2866666666666667 0.04285714285714286 0.03142857142857143
1 0.9664285714285714 0.42 0.06 0.045714285714285714
1 0.985 0.5628571428571428 0.029285714285714286 0.05904761904761905
1 0.08142857142857143 0.9133333333333333 0.16285714285714287 0.13142857142857142
1 0.10714285714285714 0.12571428571428572 0.008571428571428572 0.009523809523809525
1 0.10357142857142858 0.11904761904761904 0.007142857142857143 0.009523809523809525
1 0.10071428571428571 0.11142857142857143 0.0064285714285714285 0.006666666666666667
1 0.10642857142857143 0.10952380952380952 0.0064285714285714285 0.006666666666666667
1 0.09428571428571429 0.10666666666666667 0.005714285714285714 0.007619047619047619
1 0.15142857142857144 0.11904761904761904 0.011428571428571429 0.008571428571428572
1 0.20857142857142857 0.1580952380952381 0.010714285714285714 0.010476190476190476
1 0.19714285714285715 0.14952380952380953 0.010714285714285714 0.010476190476190476
1 0.18857142857142858 0.14476190476190476 0.01 0.010476190476190476
1 0.1692857142857143 0.12666666666666668 0.01 0.010476190476190476
1 0.16214285714285714 0.12095238095238095 0.007857142857142858 0.007619047619047619
1 0.14142857142857143 0.1180952380952381 0.005714285714285714 0.008571428571428572
1 0.12571428571428572 0.11523809523809524 0.015 0.01619047619047619
1 0.08857142857142856 0.08952380952380952 0.008571428571428572 0.012380952380952381
1 0.10642857142857143 0.10476190476190476 0.005714285714285714 0.005714285714285714
1 0.105 0.10095238095238095 0.005714285714285714 0.007619047619047619
1 0.10071428571428571 0.0980952380952381 0.004285714285714286 0.005714285714285714
1 0.09714285714285714 0.09523809523809523 0.0035714285714285713 0.005714285714285714
1 0.09714285714285714 0.08952380952380952 0.004285714285714286 0.004761904761904762
1 0.09642857142857143 0.08285714285714285 0.004285714285714286 0.005714285714285714
1 0.08285714285714285 0.0761904761904762 0.004285714285714286 0.005714285714285714
1 0.08571428571428572 0.07428571428571429 0.0035714285714285713 0.004761904761904762
1 0.10928571428571429 0.09047619047619047 0.004285714285714286 0.006666666666666667
1 0.11214285714285714 0.08666666666666667 0.0035714285714285713 0.005714285714285714
1 0.10857142857142857 0.08190476190476191 0.004285714285714286 0.005714285714285714
1 0.15785714285714286 0.11619047619047619 0.007857142857142858 0.007619047619047619
0 0.1707142857142857 0.1380952380952381 0.002857142857142857 0.010476190476190476
0 0.17285714285714285 0.1380952380952381 0.002857142857142857 0.008571428571428572
1 0.17785714285714285 0.21523809523809523 0.03642857142857143 0.04666666666666667
1 0.2864285714285714 0.2542857142857143 0.054285714285714284 0.06
1 0.165 0.2438095238095238 0.020714285714285713 0.024761904761904763
1 0.11857142857142858 0.24285714285714285 0.019285714285714285 0.029523809523809525
1 0.04428571428571428 0.2123809523809524 0.027857142857142858 0.01904761904761905
1 0.05928571428571429 0.22380952380952382 0.029285714285714286 0.02095238095238095
1 0.062142857142857146 0.23238095238095238 0.03142857142857143 0.01619047619047619
1 0.05857142857142857 0.24666666666666667 0.03214285714285714 0.01904761904761905
1 0.06 0.2561904761904762 0.032857142857142856 0.02
1 0.07357142857142857 0.26285714285714284 0.037142857142857144 0.02095238095238095
1 0.060714285714285714 0.29428571428571426 0.03214285714285714 0.02095238095238095
1 0.06571428571428571 0.30666666666666664 0.03571428571428571 0.021904761904761906
1 0.05928571428571429 0.3171428571428571 0.03642857142857143 0.02
1 0.06142857142857143 0.33904761904761904 0.052142857142857144 0.02857142857142857
1 0.05714285714285714 0.3742857142857143 0.06285714285714286 0.03428571428571429
1 0.06642857142857143 0.3914285714285714 0.075 0.0419047619047619
1 0.06142857142857143 0.43047619047619046 0.07071428571428572 0.045714285714285714
1 0.05714285714285714 0.4695238095238095 0.075 0.0419047619047619
1 0.06285714285714286 0.4866666666666667 0.07571428571428572 0.0380952380952381
1 0.06428571428571428 0.5104761904761905 0.08785714285714286 0.045714285714285714
1 0.062142857142857146 0.5419047619047619 0.09357142857142857 0.05523809523809524
1 0.047142857142857146 0.68 0.09428571428571429 0.09142857142857143
1 0.06285714285714286 0.6009523809523809 0.095 0.07047619047619047
0 0.03857142857142857 0.2866666666666667 0.01 0.022857142857142857
0 0.1392857142857143 0.2876190476190476 0.008571428571428572 0.022857142857142857
1 0.31357142857142856 0.2123809523809524 0.018571428571428572 0.01619047619047619
1 0.29928571428571427 0.20285714285714285 0.017142857142857144 0.018095238095238095
1 0.2885714285714286 0.1961904761904762 0.015 0.01619047619047619
1 0.2735714285714286 0.18761904761904763 0.014285714285714285 0.013333333333333334
1 0.43 0.25047619047619046 0.03857142857142857 0.022857142857142857
1 0.5671428571428572 0.31238095238095237 0.045 0.029523809523809525
1 0.59 0.3180952380952381 0.05 0.03619047619047619
1 0.5992857142857143 0.3333333333333333 0.055714285714285716 0.040952380952380955
1 0.6328571428571429 0.35428571428571426 0.062142857142857146 0.045714285714285714
1 0.6621428571428571 0.3619047619047619 0.04642857142857143 0.03142857142857143
1 0.675 0.38095238095238093 0.052142857142857144 0.0419047619047619
1 0.78 0.4219047619047619 0.05928571428571429 0.058095238095238096
1 0.7371428571428571 0.4142857142857143 0.05928571428571429 0.06
1 0.7078571428571429 0.3933333333333333 0.055 0.04857142857142857
0 0.8621428571428571 0.41904761904761906 0.012142857142857143 0.04
1 0.695 0.4723809523809524 0.07928571428571428 0.07238095238095238
1 0.18928571428571428 0.981904761904762 0.05714285714285714 0.035238095238095235
