1 0.46785714285714286 0.5393401015228426 0.019285714285714285 0.06852791878172589
1 0.425 0.4885786802030457 0.02 0.06725888324873096
1 0.5128571428571429 0.42258883248730966 0.019285714285714285 0.06218274111675127
1 0.2742857142857143 0.41751269035532995 0.022857142857142857 0.06345177664974619
1 0.40714285714285714 0.8807106598984772 0.023571428571428573 0.10025380710659898
1 0.36214285714285716 0.6713197969543148 0.04857142857142857 0.04060913705583756
1 0.18 0.5 0.04928571428571429 0.04060913705583756
1 0.16357142857142856 0.6129441624365483 0.060714285714285714 0.04187817258883249
1 0.16 0.6586294416243654 0.06142857142857143 0.04568527918781726
1 0.285 0.6725888324873096 0.06428571428571428 0.05203045685279188
1 0.21571428571428572 0.7436548223350253 0.029285714285714286 0.07360406091370558
1 0.5928571428571429 0.6687817258883249 0.05285714285714286 0.04949238578680203
1 0.5942857142857143 0.6243654822335025 0.05 0.048223350253807105
1 0.5942857142857143 0.5761421319796954 0.05357142857142857 0.048223350253807105
1 0.5842857142857143 0.5291878172588832 0.04428571428571428 0.03934010152284264
1 0.59 0.4885786802030457 0.037142857142857144 0.04314720812182741
1 0.5878571428571429 0.4517766497461929 0.04428571428571428 0.044416243654822336
1 0.5835714285714285 0.41624365482233505 0.04357142857142857 0.04060913705583756
1 0.5864285714285714 0.38071065989847713 0.047857142857142855 0.04568527918781726
1 0.5871428571428572 0.3426395939086294 0.04428571428571428 0.04314720812182741
1 0.5885714285714285 0.19923857868020303 0.03785714285714286 0.03299492385786802
1 0.5278571428571428 0.8705583756345178 0.06 0.050761421319796954
1 0.5271428571428571 0.9213197969543148 0.06357142857142857 0.0532994923857868
1 0.6342857142857142 0.1649746192893401 0.019285714285714285 0.05583756345177665
1 0.6792857142857143 0.1802030456852792 0.032857142857142856 0.048223350253807105
1 0.6664285714285715 0.14720812182741116 0.03 0.04060913705583756
1 0.7042857142857143 0.2068527918781726 0.02857142857142857 0.04314720812182741
1 0.725 0.22588832487309646 0.03 0.044416243654822336
1 0.6578571428571428 0.08248730964467005 0.017142857142857144 0.03934010152284264
1 0.6521428571428571 0.03807106598984772 0.015714285714285715 0.04187817258883249
1 0.5821428571428572 0.1700507614213198 0.035 0.031725888324873094
1 0.5742857142857143 0.07741116751269035 0.029285714285714286 0.03680203045685279
1 0.58 0.06218274111675127 0.03 0.03299492385786802
1 0.5757142857142857 0.03807106598984772 0.024285714285714285 0.01903553299492386
1 0.6692857142857143 0.2868020304568528 0.02 0.0532994923857868
1 0.5678571428571428 0.017766497461928935 0.02857142857142857 0.03553299492385787
1 0.34214285714285714 0.9746192893401016 0.05357142857142857 0.048223350253807105
0 0.27071428571428574 0.9187817258883249 0.010714285714285714 0.021573604060913704
0 0.2714285714285714 0.8959390862944162 0.01 0.01903553299492386
0 0.26857142857142857 0.8857868020304569 0.009285714285714286 0.021573604060913704
0 0.1792857142857143 0.3629441624365482 0.013571428571428571 0.024111675126903553
0 0.3107142857142857 0.14213197969543148 0.0064285714285714285 0.030456852791878174
0 0.5171428571428571 0.2614213197969543 0.007142857142857143 0.02284263959390863
0 0.19214285714285714 0.2182741116751269 0.007857142857142858 0.027918781725888325
0 0.195 0.21192893401015228 0.01 0.027918781725888325
0 0.24428571428571427 0.2893401015228426 0.009285714285714286 0.02918781725888325
0 0.25285714285714284 0.2956852791878173 0.007142857142857143 0.02284263959390863
0 0.2571428571428571 0.2918781725888325 0.01 0.02030456852791878
1 0.105 0.06472081218274112 0.041428571428571426 0.031725888324873094
0 0.4307142857142857 0.881979695431472 0.007142857142857143 0.025380710659898477
1 0.5464285714285714 0.1383248730964467 0.017857142857142856 0.02284263959390863
0 0.71 0.9403553299492385 0.008571428571428572 0.017766497461928935
1 0.7085714285714285 0.9428934010152284 0.008571428571428572 0.04187817258883249
1 0.5192857142857142 0.9758883248730964 0.06357142857142857 0.04568527918781726
1 0.11071428571428571 0.02918781725888325 0.03571428571428571 0.04314720812182741
