1 0.007857142857142858 0.05456852791878172 0.015714285714285715 0.03553299492385787
1 0.009285714285714286 0.1548223350253807 0.018571428571428572 0.03299492385786802
1 0.05 0.11928934010152284 0.1 0.08756345177664974
1 0.05785714285714286 0.07868020304568528 0.045 0.03553299492385787
1 0.08285714285714285 0.19289340101522842 0.04428571428571428 0.03807106598984772
1 0.15357142857142858 0.17258883248730963 0.047142857142857146 0.04314720812182741
1 0.15642857142857142 0.11802030456852793 0.11142857142857143 0.07868020304568528
1 0.31857142857142856 0.18781725888324874 0.10785714285714286 0.08248730964467005
1 0.2935714285714286 0.23604060913705585 0.06857142857142857 0.06345177664974619
0 0.36 0.10279187817258884 0.0064285714285714285 0.012690355329949238
1 0.41714285714285715 0.28426395939086296 0.03142857142857143 0.031725888324873094
0 0.5378571428571428 0.1916243654822335 0.005 0.01015228426395939
1 0.5207142857142857 0.2906091370558376 0.03857142857142857 0.04060913705583756
1 0.5071428571428571 0.3286802030456853 0.054285714285714284 0.05456852791878172
1 0.47285714285714286 0.5532994923857868 0.041428571428571426 0.048223350253807105
1 0.5992857142857143 0.4479695431472081 0.04285714285714286 0.046954314720812185
1 0.5928571428571429 0.3883248730964467 0.04 0.04187817258883249
1 0.6442857142857142 0.4098984771573604 0.04214285714285714 0.044416243654822336
1 0.685 0.3769035532994924 0.04214285714285714 0.04568527918781726
1 0.7071428571428572 0.46573604060913704 0.041428571428571426 0.04949238578680203
1 0.7771428571428571 0.43274111675126903 0.03857142857142857 0.044416243654822336
1 0.7935714285714286 0.5 0.06428571428571428 0.06852791878172589
1 0.8164285714285714 0.5850253807106599 0.05928571428571429 0.06345177664974619
1 0.8528571428571429 0.48984771573604063 0.041428571428571426 0.046954314720812185
1 0.9171428571428571 0.5444162436548223 0.045714285714285714 0.050761421319796954
1 0.8814285714285715 0.5875634517766497 0.04214285714285714 0.05203045685279188
1 0.9507142857142857 0.6015228426395939 0.04071428571428572 0.04060913705583756
1 0.9164285714285715 0.8540609137055838 0.056428571428571425 0.06598984771573604
1 0.98 0.6573604060913706 0.039285714285714285 0.046954314720812185
1 0.6828571428571428 0.6890862944162437 0.04357142857142857 0.04568527918781726
0 0.8828571428571429 0.26903553299492383 0.007857142857142858 0.01015228426395939
0 0.7985714285714286 0.3477157360406091 0.004285714285714286 0.012690355329949238
0 0.6857142857142857 0.2563451776649746 0.005714285714285714 0.0038071065989847717
0 0.6842857142857143 0.24873096446700507 0.0064285714285714285 0.006345177664974619
0 0.5664285714285714 0.8388324873096447 0.004285714285714286 0.012690355329949238
