1 0.48 0.916243654822335 0.02214285714285714 0.06725888324873096
1 0.38142857142857145 0.7918781725888325 0.02142857142857143 0.04060913705583756
1 0.38571428571428573 0.7131979695431472 0.015 0.03299492385786802
1 0.4085714285714286 0.6611675126903553 0.013571428571428571 0.03807106598984772
1 0.4007142857142857 0.618020304568528 0.012142857142857143 0.027918781725888325
1 0.3914285714285714 0.5774111675126904 0.009285714285714286 0.021573604060913704
1 0.4707142857142857 0.47715736040609136 0.008571428571428572 0.02030456852791878
1 0.5021428571428571 0.4682741116751269 0.01 0.02284263959390863
1 0.4135714285714286 0.44289340101522845 0.013571428571428571 0.013959390862944163
1 0.42714285714285716 0.3616751269035533 0.005 0.012690355329949238
1 0.4185714285714286 0.3604060913705584 0.005 0.008883248730964468
1 0.4342857142857143 0.3210659898477157 0.0035714285714285713 0.007614213197969543
1 0.42214285714285715 0.3350253807106599 0.005 0.01015228426395939
1 0.49 0.2703045685279188 0.004285714285714286 0.007614213197969543
1 0.485 0.27284263959390864 0.004285714285714286 0.011421319796954314
1 0.45071428571428573 0.25761421319796957 0.005 0.007614213197969543
1 0.45357142857142857 0.2436548223350254 0.004285714285714286 0.006345177664974619
1 0.4592857142857143 0.24111675126903553 0.004285714285714286 0.007614213197969543
1 0.4585714285714286 0.23477157360406092 0.002857142857142857 0.008883248730964468
1 0.4735714285714286 0.2436548223350254 0.004285714285714286 0.007614213197969543
1 0.4735714285714286 0.2296954314720812 0.004285714285714286 0.006345177664974619
1 0.46785714285714286 0.23096446700507614 0.004285714285714286 0.01015228426395939
1 0.46714285714285714 0.22461928934010153 0.0035714285714285713 0.005076142131979695
1 0.45785714285714285 0.22081218274111675 0.0035714285714285713 0.005076142131979695
1 0.47 0.20812182741116753 0.0035714285714285713 0.008883248730964468
1 0.46714285714285714 0.2017766497461929 0.002857142857142857 0.0038071065989847717
1 0.4592857142857143 0.20431472081218274 0.0035714285714285713 0.007614213197969543
1 0.4707142857142857 0.19416243654822335 0.002857142857142857 0.0038071065989847717
1 0.4657142857142857 0.1916243654822335 0.002857142857142857 0.006345177664974619
1 0.46 0.19035532994923857 0.004285714285714286 0.0038071065989847717
1 0.45571428571428574 0.1967005076142132 0.002857142857142857 0.007614213197969543
1 0.45285714285714285 0.18401015228426396 0.0064285714285714285 0.012690355329949238
1 0.44785714285714284 0.17385786802030456 0.0035714285714285713 0.006345177664974619
1 0.4835714285714286 0.25 0.0064285714285714285 0.017766497461928935
1 0.48214285714285715 0.23223350253807107 0.0035714285714285713 0.007614213197969543
1 0.48 0.217005076142132 0.002857142857142857 0.007614213197969543
1 0.48 0.22715736040609136 0.005 0.013959390862944163
1 0.5178571428571429 0.9581218274111675 0.02214285714285714 0.0799492385786802
1 0.5107142857142857 0.6154822335025381 0.010714285714285714 0.04060913705583756
1 0.44285714285714284 0.5609137055837563 0.012142857142857143 0.03426395939086294
