1 0.8107142857142857 0.9682741116751269 0.055 0.05964467005076142
1 0.825 0.9238578680203046 0.047857142857142855 0.06345177664974619
1 0.8242857142857143 0.8604060913705583 0.07571428571428572 0.0901015228426396
1 0.9085714285714286 0.9289340101522843 0.06142857142857143 0.06979695431472081
1 0.98 0.8870558375634517 0.04 0.06091370558375635
1 0.7785714285714286 0.6434010152284264 0.04 0.06345177664974619
1 0.7857142857142857 0.18908629441624367 0.025714285714285714 0.06852791878172589
1 0.7257142857142858 0.22715736040609136 0.029285714285714286 0.06852791878172589
1 0.7478571428571429 0.1484771573604061 0.02 0.03680203045685279
1 0.8328571428571429 0.013959390862944163 0.015 0.02918781725888325
1 0.4735714285714286 0.5329949238578681 0.041428571428571426 0.048223350253807105
1 0.4828571428571429 0.5050761421319797 0.04285714285714286 0.04568527918781726
1 0.5228571428571429 0.4873096446700508 0.019285714285714285 0.0266497461928934
0 0.5221428571428571 0.48223350253807107 0.01 0.021573604060913704
1 0.515 0.44923857868020306 0.04285714285714286 0.050761421319796954
1 0.43357142857142855 0.4682741116751269 0.04071428571428572 0.04949238578680203
1 0.39785714285714285 0.4352791878172589 0.032857142857142856 0.04314720812182741
1 0.4542857142857143 0.4276649746192893 0.095 0.1218274111675127
1 0.41714285714285715 0.3629441624365482 0.06428571428571428 0.07487309644670051
1 0.33785714285714286 0.3870558375634518 0.06 0.07487309644670051
1 0.375 0.38071065989847713 0.039285714285714285 0.0532994923857868
1 0.3107142857142857 0.31725888324873097 0.08714285714285715 0.1116751269035533
1 0.31285714285714283 0.5875634517766497 0.04071428571428572 0.050761421319796954
