1 0.605 0.5628571428571428 0.047857142857142855 0.08952380952380952
1 0.5335714285714286 0.37523809523809526 0.037142857142857144 0.07523809523809524
1 0.585 0.03428571428571429 0.02857142857142857 0.05904761904761905
1 0.3414285714285714 0.5371428571428571 0.04642857142857143 0.09619047619047619
1 0.35285714285714287 0.6971428571428572 0.047857142857142855 0.12380952380952381
1 0.26071428571428573 0.058095238095238096 0.045 0.11333333333333333
0 0.15928571428571428 0.0419047619047619 0.0064285714285714285 0.02666666666666667
1 0.18428571428571427 0.5076190476190476 0.03357142857142857 0.09619047619047619
0 0.21 0.6647619047619048 0.012857142857142857 0.047619047619047616
1 0.18142857142857144 0.8980952380952381 0.027142857142857142 0.06095238095238095
0 0.4114285714285714 0.7180952380952381 0.015714285714285715 0.06857142857142857
