1 0.21242171189979123 0.23098330241187384 0.05793319415448852 0.08998144712430427
1 0.3235908141962422 0.2662337662337662 0.027139874739039668 0.05473098330241188
1 0.34394572025052195 0.30890538033395176 0.019311064718162838 0.025974025974025976
1 0.4326722338204593 0.7179962894248608 0.06210855949895616 0.1790352504638219
1 0.5093945720250522 0.5556586270871985 0.020876826722338204 0.075139146567718
0 0.5328810020876826 0.564935064935065 0.010960334029227558 0.04267161410018553
1 0.5631524008350731 0.12059369202226346 0.012526096033402923 0.026901669758812616
1 0.5334029227557411 0.036178107606679034 0.009394572025052192 0.015769944341372914
1 0.6096033402922756 0.5593692022263451 0.031837160751565764 0.10111317254174397
0 0.6231732776617954 0.7597402597402597 0.014091858037578288 0.05102040816326531
0 0.6383089770354906 0.8868274582560297 0.011482254697286013 0.04267161410018553
1 0.6310020876826722 0.8905380333951762 0.042275574112734866 0.08163265306122448
1 0.75 0.6131725417439703 0.06263048016701461 0.05380333951762523
1 0.6842379958246346 0.48794063079777367 0.028183716075156576 0.041743970315398886
1 0.6617954070981211 0.18181818181818182 0.020876826722338204 0.02411873840445269
1 0.6654488517745303 0.5454545454545454 0.009916492693110648 0.04267161410018553
0 0.5401878914405011 0.01855287569573284 0.004697286012526096 0.012059369202226345
0 0.5474947807933194 0.01020408163265306 0.0015657620041753654 0.00927643784786642
1 0.5485386221294363 0.014842300556586271 0.0041753653444676405 0.008348794063079777
0 0.4848643006263048 0.6428571428571429 0.008350730688935281 0.038033395176252316
1 0.4848643006263048 0.6512059369202227 0.010960334029227558 0.04359925788497217
