1 0.3821428571428571 0.9361904761904762 0.047857142857142855 0.12761904761904763
1 0.395 0.8066666666666666 0.03142857142857143 0.06761904761904762
1 0.4042857142857143 0.5933333333333334 0.022857142857142857 0.049523809523809526
1 0.21857142857142858 0.8161904761904762 0.04642857142857143 0.03619047619047619
1 0.5921428571428572 0.7885714285714286 0.05142857142857143 0.039047619047619046
1 0.43 0.24666666666666667 0.008571428571428572 0.017142857142857144
1 0.36357142857142855 0.2733333333333333 0.007857142857142858 0.012380952380952381
1 0.44357142857142856 0.16 0.007857142857142858 0.01619047619047619
