1 0.05142857142857143 0.379047619047619 0.10285714285714286 0.07809523809523809
0 0.24 0.37142857142857144 0.017142857142857144 0.047619047619047616
0 0.2571428571428571 0.37238095238095237 0.020714285714285713 0.04666666666666667
0 0.44857142857142857 0.3342857142857143 0.015714285714285715 0.037142857142857144
0 0.5292857142857142 0.3323809523809524 0.010714285714285714 0.039047619047619046
0 0.6485714285714286 0.32285714285714284 0.008571428571428572 0.0380952380952381
0 0.7928571428571428 0.3047619047619048 0.018571428571428572 0.035238095238095235
0 0.8564285714285714 0.3019047619047619 0.01 0.03238095238095238
0 0.8914285714285715 0.3057142857142857 0.012142857142857143 0.029523809523809525
0 0.47214285714285714 0.32095238095238093 0.012857142857142857 0.02761904761904762
1 0.44142857142857145 0.26571428571428574 0.029285714285714286 0.021904761904761906
0 0.7564285714285715 0.30095238095238097 0.01 0.021904761904761906
0 0.8507142857142858 0.29714285714285715 0.007142857142857143 0.030476190476190476
0 0.8871428571428571 0.3028571428571429 0.009285714285714286 0.029523809523809525
1 0.5878571428571429 0.2123809523809524 0.02857142857142857 0.01904761904761905
1 0.13785714285714284 0.24476190476190476 0.029285714285714286 0.022857142857142857
1 0.15 0.24 0.035 0.02
0 0.032857142857142856 0.2561904761904762 0.013571428571428571 0.030476190476190476
1 0.34714285714285714 0.5161904761904762 0.03642857142857143 0.047619047619047616
1 0.30214285714285716 0.5314285714285715 0.03 0.05238095238095238
0 0.29714285714285715 0.5685714285714286 0.02857142857142857 0.07142857142857142
0 0.3914285714285714 0.7485714285714286 0.03428571428571429 0.1219047619047619
0 0.49214285714285716 0.7161904761904762 0.04428571428571428 0.12285714285714286
0 0.5714285714285714 0.6857142857142857 0.03 0.0980952380952381
0 0.6507142857142857 0.6561904761904762 0.027857142857142858 0.09714285714285714
0 0.6214285714285714 0.6295238095238095 0.03142857142857143 0.08571428571428572
0 0.5342857142857143 0.6295238095238095 0.029285714285714286 0.09238095238095238
0 0.56 0.5752380952380952 0.027142857142857142 0.07047619047619047
0 0.525 0.5380952380952381 0.023571428571428573 0.07523809523809524
0 0.3335714285714286 0.6 0.029285714285714286 0.08761904761904762
0 0.3507142857142857 0.638095238095238 0.027857142857142858 0.10952380952380952
0 0.37214285714285716 0.6942857142857143 0.03214285714285714 0.10761904761904761
0 0.45 0.6666666666666666 0.03214285714285714 0.09428571428571429
0 0.49357142857142855 0.5866666666666667 0.02142857142857143 0.09428571428571429
0 0.4685714285714286 0.5561904761904762 0.022857142857142857 0.08
0 0.4228571428571429 0.6171428571428571 0.027857142857142858 0.08761904761904762
0 0.39714285714285713 0.5752380952380952 0.02857142857142857 0.09333333333333334
0 0.46785714285714286 0.4857142857142857 0.02642857142857143 0.06761904761904762
