1 0.7195 0.898 0.275 0.18666666666666668
1 0.583 0.634 0.183 0.18933333333333333
1 0.526 0.4886666666666667 0.1725 0.16333333333333333
1 0.94 0.546 0.1195 0.17666666666666667
1 0.844 0.31666666666666665 0.167 0.15933333333333333
1 0.7815 0.252 0.147 0.12933333333333333
1 0.712 0.16 0.142 0.13733333333333334
1 0.66 0.07266666666666667 0.121 0.11133333333333334
1 0.874 0.04733333333333333 0.0705 0.09533333333333334
1 0.9615 0.13733333333333334 0.077 0.11933333333333333
1 0.604 0.03866666666666667 0.1375 0.078
1 0.321 0.43133333333333335 0.04 0.05733333333333333
1 0.389 0.2906666666666667 0.06 0.04666666666666667
1 0.389 0.17333333333333334 0.051 0.086
1 0.3005 0.106 0.057 0.048666666666666664
1 0.219 0.11133333333333334 0.05 0.04466666666666667
1 0.2875 0.2966666666666667 0.0405 0.056
1 0.265 0.23 0.047 0.03
1 0.2645 0.21 0.05 0.029333333333333333
1 0.3625 0.33666666666666667 0.0535 0.05466666666666667
