1 0.3942857142857143 0.05904761904761905 0.03857142857142857 0.09428571428571429
1 0.4114285714285714 0.1742857142857143 0.04357142857142857 0.11047619047619048
1 0.49357142857142855 0.16285714285714287 0.039285714285714285 0.11523809523809524
1 0.5735714285714286 0.2257142857142857 0.041428571428571426 0.10285714285714286
0 0.7864285714285715 0.013333333333333334 0.015714285714285715 0.02666666666666667
0 0.6242857142857143 0.1980952380952381 0.007857142857142858 0.022857142857142857
0 0.6457142857142857 0.23809523809523808 0.012142857142857143 0.017142857142857144
1 0.45785714285714285 0.43523809523809526 0.03857142857142857 0.0980952380952381
1 0.6135714285714285 0.4419047619047619 0.045714285714285714 0.09523809523809523
1 0.6285714285714286 0.5628571428571428 0.04642857142857143 0.10857142857142857
1 0.6485714285714286 0.6952380952380952 0.04428571428571428 0.1180952380952381
1 0.54 0.9285714285714286 0.045 0.10857142857142857
1 0.6778571428571428 0.819047619047619 0.045 0.11142857142857143
1 0.7107142857142857 0.9638095238095238 0.04357142857142857 0.06952380952380953
1 0.8535714285714285 0.8714285714285714 0.032857142857142856 0.021904761904761906
1 0.8507142857142858 0.8419047619047619 0.02857142857142857 0.023809523809523808
1 0.8971428571428571 0.8733333333333333 0.022857142857142857 0.01904761904761905
1 0.8357142857142857 0.7876190476190477 0.030714285714285715 0.02666666666666667
1 0.835 0.7704761904761904 0.02857142857142857 0.02
1 0.8192857142857143 0.7219047619047619 0.03214285714285714 0.02
1 0.8178571428571428 0.6923809523809524 0.03 0.02
0 0.8792857142857143 0.6847619047619048 0.02 0.015238095238095238
0 0.7478571428571429 0.6095238095238096 0.017142857142857144 0.011428571428571429
1 0.6835714285714286 0.5257142857142857 0.012142857142857143 0.04
0 0.805 0.4828571428571429 0.016428571428571428 0.010476190476190476
0 0.7985714285714286 0.4552380952380952 0.018571428571428572 0.017142857142857144
0 0.8192857142857143 0.4638095238095238 0.016428571428571428 0.014285714285714285
1 0.8114285714285714 0.638095238095238 0.024285714285714285 0.021904761904761906
