1 0.5557142857142857 0.618020304568528 0.016428571428571428 0.05583756345177665
1 0.5107142857142857 0.565989847715736 0.017142857142857144 0.04949238578680203
1 0.48214285714285715 0.42385786802030456 0.012142857142857143 0.027918781725888325
1 0.4707142857142857 0.34390862944162437 0.01 0.027918781725888325
1 0.4907142857142857 0.30456852791878175 0.011428571428571429 0.02284263959390863
1 0.52 0.3083756345177665 0.013571428571428571 0.02918781725888325
1 0.5585714285714286 0.3489847715736041 0.011428571428571429 0.030456852791878174
1 0.555 0.1814720812182741 0.008571428571428572 0.02030456852791878
1 0.5128571428571429 0.04568527918781726 0.009285714285714286 0.01649746192893401
1 0.5407142857142857 0.025380710659898477 0.007142857142857143 0.015228426395939087
1 0.5342857142857143 0.44923857868020306 0.012857142857142857 0.046954314720812185
1 0.5542857142857143 0.1484771573604061 0.008571428571428572 0.030456852791878174
1 0.5528571428571428 0.11294416243654823 0.005714285714285714 0.02284263959390863
1 0.5528571428571428 0.03553299492385787 0.007142857142857143 0.021573604060913704
1 0.5278571428571428 0.06091370558375635 0.0064285714285714285 0.01649746192893401
1 0.54 0.33375634517766495 0.004285714285714286 0.01649746192893401
0 0.54 0.33121827411167515 0.002857142857142857 0.012690355329949238
0 0.45285714285714285 0.9898477157360406 0.008571428571428572 0.01649746192893401
0 0.2835714285714286 0.9796954314720813 0.008571428571428572 0.027918781725888325
1 0.5571428571428572 0.24746192893401014 0.017142857142857144 0.0850253807106599
1 0.45714285714285713 0.28426395939086296 0.022857142857142857 0.08375634517766498
