1 0.7614285714285715 0.1523809523809524 0.08428571428571428 0.16
1 0.94 0.62 0.05071428571428571 0.035238095238095235
1 0.055 0.5676190476190476 0.11 0.05047619047619047
1 0.09 0.46190476190476193 0.06285714285714286 0.035238095238095235
1 0.4685714285714286 0.6304761904761905 0.025 0.015238095238095238
1 0.615 0.7342857142857143 0.02214285714285714 0.024761904761904763
1 0.9585714285714285 0.5133333333333333 0.03142857142857143 0.017142857142857144
1 0.8271428571428572 0.6666666666666666 0.02214285714285714 0.017142857142857144
0 0.2814285714285714 0.3780952380952381 0.015 0.012380952380952381
0 0.395 0.21619047619047618 0.011428571428571429 0.018095238095238095
1 0.44357142857142856 0.014285714285714285 0.012142857142857143 0.029523809523809525
0 0.4442857142857143 0.008571428571428572 0.007857142857142858 0.017142857142857144
0 0.47214285714285714 0.6304761904761905 0.01 0.010476190476190476
0 0.6185714285714285 0.7352380952380952 0.012857142857142857 0.014285714285714285
0 0.8271428571428572 0.6666666666666666 0.012142857142857143 0.014285714285714285
0 0.9628571428571429 0.5142857142857142 0.017857142857142856 0.010476190476190476
0 0.5028571428571429 0.6847619047619048 0.014285714285714285 0.01904761904761905
