0 0.3977035490605428 0.3654916512059369 0.005219206680584551 0.013914656771799629
0 0.5495824634655533 0.2569573283858998 0.0036534446764091857 0.012987012987012988
0 0.5621085594989561 0.24304267161410018 0.0041753653444676405 0.012987012987012988
0 0.574634655532359 0.2680890538033395 0.005741127348643006 0.013914656771799629
0 0.5934237995824635 0.43042671614100186 0.006263048016701462 0.017625231910946195
0 0.5480167014613778 0.12152133580705009 0.0041753653444676405 0.00927643784786642
0 0.44832985386221297 0.10853432282003711 0.0020876826722338203 0.00927643784786642
1 0.39718162839248433 0.3747680890538033 0.004697286012526096 0.013914656771799629
1 0.592901878914405 0.4387755102040816 0.0041753653444676405 0.022263450834879406
0 0.6325678496868476 0.712430426716141 0.008872651356993737 0.02040816326530612
0 0.6633611691022965 0.8571428571428571 0.009394572025052192 0.02504638218923933
0 0.6612734864300627 0.8089053803339518 0.008872651356993737 0.02411873840445269
1 0.6591858037578288 0.8172541743970315 0.007828810020876827 0.04267161410018553
1 0.6623173277661796 0.8664192949907236 0.011482254697286013 0.04267161410018553
1 0.6315240083507306 0.7207792207792207 0.007306889352818371 0.0287569573283859
1 0.5490605427974948 0.2653061224489796 0.004697286012526096 0.013914656771799629
1 0.574634655532359 0.2755102040816326 0.005219206680584551 0.012987012987012988
1 0.5615866388308977 0.24860853432282004 0.004697286012526096 0.013914656771799629
1 0.5480167014613778 0.12430426716141002 0.003131524008350731 0.011131725417439703
1 0.5213987473903967 0.04916512059369202 0.007828810020876827 0.012987012987012988
1 0.4744258872651357 0.026901669758812616 0.007306889352818371 0.012059369202226345
1 0.4859081419624217 0.02504638218923933 0.007306889352818371 0.012987012987012988
1 0.5120041753653445 0.029684601113172542 0.007306889352818371 0.013914656771799629
1 0.5083507306889353 0.008348794063079777 0.006263048016701462 0.008348794063079777
1 0.5177453027139874 0.006493506493506494 0.006784968684759917 0.00927643784786642
0 0.4514613778705637 0.0686456400742115 0.0026096033402922755 0.0055658627087198514
0 0.4545929018789144 0.05102040816326531 0.0020876826722338203 0.0074211502782931356
1 0.45407098121085593 0.055658627087198514 0.0026096033402922755 0.00927643784786642
1 0.4514613778705637 0.07328385899814471 0.0026096033402922755 0.011131725417439703
1 0.44832985386221297 0.11317254174397032 0.0041753653444676405 0.008348794063079777
1 0.6951983298538622 0.14192949907235622 0.04488517745302714 0.025974025974025976
1 0.6957202505219207 0.11873840445269017 0.03444676409185804 0.017625231910946195
1 0.7249478079331941 0.2189239332096475 0.017745302713987474 0.015769944341372914
1 0.32150313152400833 0.1437847866419295 0.02348643006263048 0.015769944341372914
1 0.45668058455114824 0.34415584415584416 0.015657620041753653 0.04267161410018553
