1 0.3442857142857143 0.8314285714285714 0.11428571428571428 0.12666666666666668
1 0.18785714285714286 0.7657142857142857 0.14214285714285715 0.09047619047619047
1 0.85 0.42857142857142855 0.03357142857142857 0.035238095238095235
1 0.9428571428571428 0.43047619047619046 0.03857142857142857 0.03333333333333333
1 0.9142857142857143 0.4076190476190476 0.02857142857142857 0.02666666666666667
1 0.7507142857142857 0.4123809523809524 0.025 0.029523809523809525
1 0.7021428571428572 0.29523809523809524 0.014285714285714285 0.014285714285714285
1 0.695 0.2733333333333333 0.010714285714285714 0.012380952380952381
1 0.8942857142857142 0.38571428571428573 0.025 0.025714285714285714
1 0.8785714285714286 0.36952380952380953 0.027142857142857142 0.023809523809523808
1 0.865 0.35714285714285715 0.023571428571428573 0.023809523809523808
1 0.8521428571428571 0.34095238095238095 0.018571428571428572 0.024761904761904763
1 0.8328571428571429 0.32476190476190475 0.019285714285714285 0.01904761904761905
1 0.8235714285714286 0.31523809523809526 0.019285714285714285 0.018095238095238095
1 0.8157142857142857 0.30857142857142855 0.017142857142857144 0.01904761904761905
1 0.785 0.2838095238095238 0.011428571428571429 0.017142857142857144
1 0.7378571428571429 0.38952380952380955 0.019285714285714285 0.03333333333333333
1 0.7342857142857143 0.37047619047619046 0.019285714285714285 0.022857142857142857
1 0.7235714285714285 0.35619047619047617 0.017142857142857144 0.02
1 0.7214285714285714 0.3419047619047619 0.017142857142857144 0.022857142857142857
0 0.5621428571428572 0.5819047619047619 0.017857142857142856 0.040952380952380955
0 0.6735714285714286 0.39714285714285713 0.008571428571428572 0.024761904761904763
0 0.6842857142857143 0.38761904761904764 0.008571428571428572 0.02666666666666667
0 0.6992857142857143 0.32 0.007857142857142858 0.02
0 0.5628571428571428 0.4638095238095238 0.009285714285714286 0.03333333333333333
1 0.5342857142857143 0.44285714285714284 0.06428571428571428 0.04666666666666667
0 0.3385714285714286 0.3952380952380952 0.008571428571428572 0.03142857142857143
1 0.48642857142857143 0.22095238095238096 0.017857142857142856 0.021904761904761906
1 0.5585714285714286 0.22095238095238096 0.024285714285714285 0.02
1 0.5364285714285715 0.24666666666666667 0.018571428571428572 0.02666666666666667
1 0.5492857142857143 0.259047619047619 0.011428571428571429 0.018095238095238095
0 0.5557142857142857 0.36952380952380953 0.008571428571428572 0.022857142857142857
1 0.8257142857142857 0.2876190476190476 0.03785714285714286 0.02761904761904762
1 0.8714285714285714 0.3361904761904762 0.023571428571428573 0.01619047619047619
1 0.8964285714285715 0.35333333333333333 0.02642857142857143 0.01619047619047619
1 0.9121428571428571 0.36 0.032857142857142856 0.01619047619047619
1 0.93 0.37238095238095237 0.03214285714285714 0.023809523809523808
1 0.9471428571428572 0.38571428571428573 0.03428571428571429 0.022857142857142857
1 0.9685714285714285 0.40095238095238095 0.05 0.029523809523809525
