1 0.45714285714285713 0.8733333333333333 0.07 0.13333333333333333
1 0.4585714285714286 0.5685714285714286 0.05785714285714286 0.06476190476190476
1 0.5121428571428571 0.520952380952381 0.05 0.05142857142857143
1 0.5621428571428572 0.4704761904761905 0.04857142857142857 0.04857142857142857
1 0.61 0.42 0.035 0.04285714285714286
1 0.6314285714285715 0.44761904761904764 0.04357142857142857 0.04666666666666667
1 0.675 0.40190476190476193 0.03642857142857143 0.04285714285714286
1 0.7092857142857143 0.36857142857142855 0.032857142857142856 0.039047619047619046
1 0.6914285714285714 0.3504761904761905 0.032857142857142856 0.037142857142857144
1 0.7464285714285714 0.3323809523809524 0.03 0.03142857142857143
1 0.77 0.3038095238095238 0.024285714285714285 0.02761904761904762
1 0.8021428571428572 0.2714285714285714 0.025714285714285714 0.029523809523809525
1 0.8171428571428572 0.22857142857142856 0.020714285714285713 0.025714285714285714
1 0.6507142857142857 0.38761904761904764 0.037142857142857144 0.045714285714285714
1 0.37357142857142855 0.6390476190476191 0.06857142857142857 0.07238095238095238
1 0.28714285714285714 0.7361904761904762 0.08071428571428571 0.08571428571428572
1 0.16785714285714284 0.8485714285714285 0.09714285714285714 0.11333333333333333
1 0.2557142857142857 0.8333333333333334 0.09285714285714286 0.11142857142857143
1 0.3507142857142857 0.7257142857142858 0.07214285714285715 0.09142857142857143
1 0.4392857142857143 0.6466666666666666 0.06928571428571428 0.08
1 0.5285714285714286 0.559047619047619 0.047857142857142855 0.06095238095238095
1 0.5771428571428572 0.5019047619047619 0.04357142857142857 0.05142857142857143
0 0.505 0.37333333333333335 0.011428571428571429 0.030476190476190476
0 0.45 0.4361904761904762 0.011428571428571429 0.02666666666666667
1 0.45071428571428573 0.44095238095238093 0.020714285714285713 0.02761904761904762
1 0.30428571428571427 0.6009523809523809 0.02214285714285714 0.02666666666666667
0 0.3028571428571429 0.5952380952380952 0.013571428571428571 0.023809523809523808
