1 0.18785714285714286 0.74 0.21071428571428572 0.3314285714285714
1 0.4692857142857143 0.5019047619047619 0.19142857142857142 0.21714285714285714
1 0.58 0.4114285714285714 0.19142857142857142 0.17809523809523808
1 0.6614285714285715 0.3238095238095238 0.17285714285714285 0.16
1 0.7314285714285714 0.26 0.1757142857142857 0.15428571428571428
1 0.8371428571428572 0.16 0.1707142857142857 0.11238095238095239
