0 0.25 0.5355329949238579 0.014285714285714285 0.030456852791878174
0 0.34785714285714286 0.46446700507614214 0.008571428571428572 0.02918781725888325
0 0.42428571428571427 0.38071065989847713 0.005714285714285714 0.02284263959390863
0 0.6285714285714286 0.5406091370558376 0.009285714285714286 0.02918781725888325
0 0.6471428571428571 0.633248730964467 0.008571428571428572 0.02284263959390863
0 0.16857142857142857 0.011421319796954314 0.012142857142857143 0.024111675126903553
