0 0.414 0.6866666666666666 0.03 0.10133333333333333
0 0.7735 0.7613333333333333 0.05 0.11866666666666667
1 0.487 0.6353333333333333 0.1095 0.218
0 0.6445 0.44133333333333336 0.0215 0.07
0 0.6285 0.43866666666666665 0.015 0.06
1 0.691 0.434 0.0495 0.054
1 0.6495 0.36 0.059 0.08133333333333333
0 0.5645 0.38666666666666666 0.0195 0.04066666666666666
1 0.4535 0.41133333333333333 0.043 0.07666666666666666
0 0.4605 0.38466666666666666 0.023 0.03666666666666667
0 0.34 0.36 0.03 0.06466666666666666
1 0.314 0.3526666666666667 0.095 0.11466666666666667
1 0.582 0.25466666666666665 0.1015 0.07133333333333333
0 0.526 0.25066666666666665 0.01 0.04066666666666666
1 0.5425 0.21933333333333332 0.037 0.048666666666666664
1 0.493 0.242 0.0435 0.051333333333333335
1 0.447 0.18266666666666667 0.0385 0.052
1 0.603 0.17933333333333334 0.07 0.04133333333333333
1 0.5975 0.168 0.0515 0.032
1 0.4935 0.15666666666666668 0.0085 0.025333333333333333
0 0.494 0.14733333333333334 0.008 0.025333333333333333
1 0.4855 0.15333333333333332 0.015 0.02266666666666667
0 0.4855 0.144 0.0105 0.024
0 0.4905 0.134 0.0095 0.019333333333333334
1 0.4765 0.12666666666666668 0.0215 0.03666666666666667
1 0.4635 0.108 0.0545 0.04666666666666667
0 0.52 0.12866666666666668 0.0085 0.027333333333333334
1 0.5035 0.08933333333333333 0.02 0.028
1 0.5165 0.10533333333333333 0.009 0.020666666666666667
0 0.517 0.102 0.0075 0.024666666666666667
1 0.5565 0.12 0.026 0.03866666666666667
1 0.6045 0.07533333333333334 0.0275 0.054
1 0.5055 0.076 0.0345 0.02
1 0.522 0.058666666666666666 0.0125 0.018
1 0.5285 0.054 0.012 0.015333333333333332
1 0.5295 0.048 0.0125 0.014666666666666666
