1 0.262 0.7946666666666666 0.0675 0.042666666666666665
1 0.3355 0.9033333333333333 0.074 0.04066666666666666
1 0.34 0.7273333333333334 0.027 0.06266666666666666
1 0.345 0.6426666666666667 0.0275 0.068
1 0.3255 0.5606666666666666 0.0405 0.034666666666666665
1 0.424 0.5166666666666667 0.0475 0.027333333333333334
1 0.454 0.782 0.062 0.04133333333333333
1 0.4765 0.9366666666666666 0.0375 0.11266666666666666
1 0.5245 0.7906666666666666 0.06 0.037333333333333336
1 0.593 0.78 0.0605 0.04466666666666667
1 0.9735 0.7386666666666667 0.0525 0.042666666666666665
