1 0.5078288100208769 0.349721706864564 0.015657620041753653 0.05473098330241188
0 0.5073068893528184 0.34786641929499074 0.008872651356993737 0.026901669758812616
1 0.42849686847599167 0.6029684601113172 0.022964509394572025 0.0862708719851577
0 0.3747390396659708 0.7161410018552876 0.014091858037578288 0.030612244897959183
1 0.23695198329853862 0.7782931354359925 0.013569937369519834 0.05102040816326531
1 0.5762004175365344 0.7578849721706865 0.12526096033402923 0.10667903525046382
1 0.5495824634655533 0.87569573283859 0.0861169102296451 0.08998144712430427
1 0.5610647181628392 0.9526901669758813 0.07150313152400835 0.07977736549165121
1 0.6002087682672234 0.9499072356215214 0.013048016701461378 0.0686456400742115
1 0.6617954070981211 0.7560296846011132 0.03288100208768267 0.02411873840445269
1 0.6873695198329853 0.6929499072356216 0.027139874739039668 0.025974025974025976
1 0.7124217118997912 0.7903525046382189 0.032359081419624215 0.027829313543599257
1 0.744258872651357 0.7458256029684601 0.02870563674321503 0.10111317254174397
1 0.7348643006263048 0.9072356215213359 0.04175365344467641 0.09461966604823747
1 0.7176409185803758 0.9833024118738405 0.02348643006263048 0.0287569573283859
1 0.7948851774530271 0.7987012987012987 0.0255741127348643 0.07050092764378478
0 0.5485386221294363 0.5825602968460112 0.009916492693110648 0.029684601113172542
1 0.5908141962421712 0.5964749536178108 0.07359081419624217 0.075139146567718
1 0.6116910229645094 0.5269016697588126 0.07306889352818371 0.07792207792207792
1 0.6163883089770354 0.45454545454545453 0.0720250521920668 0.06771799628942486
1 0.6221294363256785 0.349721706864564 0.06941544885177453 0.05473098330241188
1 0.6242171189979123 0.28014842300556586 0.06576200417536535 0.06771799628942486
1 0.6831941544885177 0.37105751391465674 0.020876826722338204 0.023191094619666047
0 0.7604384133611691 0.5306122448979592 0.010960334029227558 0.030612244897959183
1 0.7969728601252609 0.5231910946196661 0.038100208768267224 0.14656771799628943
1 0.7630480167014614 0.10853432282003711 0.027661795407098122 0.11224489795918367
1 0.7567849686847599 0.02411873840445269 0.027661795407098122 0.04823747680890538
1 0.8178496868475992 0.03432282003710575 0.031837160751565764 0.0686456400742115
1 0.8549060542797495 0.04452690166975881 0.030793319415448852 0.08905380333951762
1 0.6529227557411273 0.016697588126159554 0.061064718162839246 0.03339517625231911
