1 0.38785714285714284 0.04476190476190476 0.016428571428571428 0.08952380952380952
1 0.36714285714285716 0.25142857142857145 0.025714285714285714 0.018095238095238095
1 0.6164285714285714 0.31142857142857144 0.012142857142857143 0.03142857142857143
1 0.62 0.5038095238095238 0.009285714285714286 0.03619047619047619
1 0.5192857142857142 0.6942857142857143 0.018571428571428572 0.11047619047619048
1 0.6285714285714286 0.7847619047619048 0.015714285714285715 0.08095238095238096
1 0.5592857142857143 0.940952380952381 0.012142857142857143 0.04285714285714286
1 0.47285714285714286 0.9333333333333333 0.02214285714285714 0.014285714285714285
1 0.8714285714285714 0.9257142857142857 0.015714285714285715 0.03238095238095238
1 0.88 0.9923809523809524 0.024285714285714285 0.015238095238095238
1 0.7842857142857143 0.06 0.017857142857142856 0.07047619047619047
1 0.3942857142857143 0.319047619047619 0.015714285714285715 0.0419047619047619
