0 0.16357142857142856 0.008571428571428572 0.005714285714285714 0.011428571428571429
0 0.255 0.004761904761904762 0.0064285714285714285 0.006666666666666667
0 0.03857142857142857 0.08285714285714285 0.009285714285714286 0.007619047619047619
1 0.08285714285714285 0.05714285714285714 0.03 0.022857142857142857
1 0.16142857142857142 0.18571428571428572 0.03 0.02857142857142857
1 0.18142857142857144 0.2038095238095238 0.03142857142857143 0.02857142857142857
1 0.3221428571428571 0.14095238095238094 0.03 0.02857142857142857
1 0.07428571428571429 0.28 0.03142857142857143 0.037142857142857144
1 0.30214285714285716 0.28476190476190477 0.024285714285714285 0.039047619047619046
1 0.2935714285714286 0.3438095238095238 0.019285714285714285 0.0380952380952381
1 0.2814285714285714 0.4238095238095238 0.015714285714285715 0.040952380952380955
1 0.018571428571428572 0.33714285714285713 0.025 0.035238095238095235
1 0.26785714285714285 0.10380952380952381 0.009285714285714286 0.008571428571428572
1 0.2507142857142857 0.12761904761904763 0.010714285714285714 0.009523809523809525
1 0.23 0.39714285714285713 0.0064285714285714285 0.015238095238095238
1 0.29642857142857143 0.7409523809523809 0.007857142857142858 0.013333333333333334
1 0.9107142857142857 0.4838095238095238 0.008571428571428572 0.011428571428571429
1 0.9885714285714285 0.8171428571428572 0.008571428571428572 0.012380952380952381
0 0.12285714285714286 0.19714285714285715 0.010714285714285714 0.006666666666666667
1 0.285 0.6190476190476191 0.05285714285714286 0.0980952380952381
1 0.4064285714285714 0.11238095238095239 0.03 0.018095238095238095
1 0.45 0.08952380952380952 0.030714285714285715 0.021904761904761906
1 0.5285714285714286 0.015238095238095238 0.035 0.02666666666666667
1 0.5978571428571429 0.009523809523809525 0.029285714285714286 0.01904761904761905
1 0.7807142857142857 0.11047619047619048 0.015 0.04380952380952381
1 0.7828571428571428 0.26666666666666666 0.017142857142857144 0.0419047619047619
1 0.7442857142857143 0.31142857142857144 0.024285714285714285 0.03619047619047619
1 0.8771428571428571 0.86 0.014285714285714285 0.039047619047619046
1 0.8828571428571429 0.7885714285714286 0.013571428571428571 0.0419047619047619
1 0.8292857142857143 0.9895238095238095 0.02 0.02
1 0.8642857142857143 0.6457142857142857 0.012142857142857143 0.03333333333333333
1 0.8578571428571429 0.5857142857142857 0.018571428571428572 0.03619047619047619
1 0.8678571428571429 0.035238095238095235 0.029285714285714286 0.02666666666666667
1 0.87 0.05714285714285714 0.02857142857142857 0.023809523809523808
1 0.8664285714285714 0.07523809523809524 0.03 0.021904761904761906
1 0.8607142857142858 0.09714285714285714 0.02857142857142857 0.02095238095238095
1 0.86 0.11904761904761904 0.029285714285714286 0.021904761904761906
1 0.8578571428571429 0.14095238095238094 0.02857142857142857 0.02095238095238095
1 0.8585714285714285 0.16380952380952382 0.030714285714285715 0.022857142857142857
1 0.8571428571428571 0.1819047619047619 0.029285714285714286 0.02
1 0.8664285714285714 0.2057142857142857 0.029285714285714286 0.01904761904761905
1 0.8692857142857143 0.2342857142857143 0.03214285714285714 0.02095238095238095
1 0.8685714285714285 0.2542857142857143 0.03214285714285714 0.02
1 0.8757142857142857 0.27714285714285714 0.032857142857142856 0.024761904761904763
1 0.875 0.29619047619047617 0.032857142857142856 0.021904761904761906
1 0.8778571428571429 0.3171428571428571 0.029285714285714286 0.01904761904761905
1 0.8935714285714286 0.3419047619047619 0.03142857142857143 0.01619047619047619
1 0.8914285714285715 0.3638095238095238 0.03142857142857143 0.018095238095238095
1 0.9014285714285715 0.38571428571428573 0.03142857142857143 0.02
1 0.9092857142857143 0.4095238095238095 0.030714285714285715 0.018095238095238095
1 0.92 0.43142857142857144 0.02857142857142857 0.018095238095238095
1 0.9278571428571428 0.4533333333333333 0.029285714285714286 0.01904761904761905
1 0.9457142857142857 0.47333333333333333 0.03 0.01904761904761905
1 0.9578571428571429 0.4942857142857143 0.030714285714285715 0.02
1 0.9657142857142857 0.5123809523809524 0.027857142857142858 0.01904761904761905
1 0.975 0.5314285714285715 0.03142857142857143 0.018095238095238095
1 0.965 0.02666666666666667 0.027857142857142858 0.02857142857142857
1 0.9614285714285714 0.049523809523809526 0.027857142857142858 0.02857142857142857
1 0.945 0.08666666666666667 0.02642857142857143 0.02857142857142857
1 0.9385714285714286 0.10380952380952381 0.02857142857142857 0.02857142857142857
1 0.9257142857142857 0.12095238095238095 0.03 0.018095238095238095
1 0.9307142857142857 0.1419047619047619 0.02857142857142857 0.02
1 0.935 0.16285714285714287 0.03 0.022857142857142857
1 0.9392857142857143 0.18476190476190477 0.027857142857142858 0.025714285714285714
1 0.945 0.20476190476190476 0.03214285714285714 0.023809523809523808
1 0.9528571428571428 0.2257142857142857 0.03428571428571429 0.025714285714285714
1 0.955 0.24761904761904763 0.024285714285714285 0.01619047619047619
1 0.9657142857142857 0.2695238095238095 0.025714285714285714 0.02
1 0.9714285714285714 0.29714285714285715 0.025714285714285714 0.023809523809523808
1 0.9792857142857143 0.3180952380952381 0.03 0.022857142857142857
1 0.9835714285714285 0.3419047619047619 0.02857142857142857 0.024761904761904763
0 0.9092857142857143 0.1457142857142857 0.007142857142857143 0.009523809523809525
1 0.9757142857142858 0.013333333333333334 0.027857142857142858 0.02666666666666667
0 0.9421428571428572 0.2780952380952381 0.007857142857142858 0.008571428571428572
0 0.9485714285714286 0.28095238095238095 0.005714285714285714 0.005714285714285714
0 0.9264285714285714 0.3342857142857143 0.0064285714285714285 0.005714285714285714
0 0.9271428571428572 0.3438095238095238 0.0064285714285714285 0.004761904761904762
0 0.9192857142857143 0.34285714285714286 0.007142857142857143 0.005714285714285714
0 0.9492857142857143 0.44952380952380955 0.007857142857142858 0.007619047619047619
1 0.9857142857142858 0.37238095238095237 0.027142857142857142 0.025714285714285714
1 0.9907142857142858 0.4 0.018571428571428572 0.01904761904761905
1 0.9914285714285714 0.4219047619047619 0.017142857142857144 0.01904761904761905
1 0.9871428571428571 0.5571428571428572 0.025714285714285714 0.025714285714285714
1 0.9928571428571429 0.5780952380952381 0.013571428571428571 0.02095238095238095
0 0.9878571428571429 0.8152380952380952 0.005714285714285714 0.006666666666666667
0 0.9107142857142857 0.4828571428571429 0.002857142857142857 0.008571428571428572
0 0.9371428571428572 0.5914285714285714 0.01 0.011428571428571429
0 0.2664285714285714 0.1019047619047619 0.008571428571428572 0.009523809523809525
0 0.25142857142857145 0.12666666666666668 0.007142857142857143 0.007619047619047619
0 0.23 0.3952380952380952 0.007142857142857143 0.009523809523809525
0 0.29642857142857143 0.74 0.005714285714285714 0.014285714285714285
