1 0.14142857142857143 0.7923809523809524 0.16785714285714284 0.10857142857142857
1 0.22285714285714286 0.7228571428571429 0.185 0.1219047619047619
1 0.27214285714285713 0.6457142857142857 0.19714285714285715 0.12285714285714286
1 0.295 0.6190476190476191 0.135 0.09523809523809523
1 0.3271428571428571 0.5980952380952381 0.13 0.08
1 0.3414285714285714 0.5676190476190476 0.11142857142857143 0.06190476190476191
1 0.38 0.5457142857142857 0.10142857142857142 0.06476190476190476
1 0.3892857142857143 0.5114285714285715 0.09142857142857143 0.05714285714285714
1 0.42142857142857143 0.49142857142857144 0.08 0.05523809523809524
1 0.43 0.4780952380952381 0.06857142857142857 0.035238095238095235
1 0.4407142857142857 0.4657142857142857 0.07357142857142857 0.04380952380952381
1 0.5742857142857143 0.4514285714285714 0.04642857142857143 0.04666666666666667
1 0.5278571428571428 0.42952380952380953 0.03428571428571429 0.040952380952380955
0 0.655 0.3952380952380952 0.011428571428571429 0.030476190476190476
1 0.5392857142857143 0.3419047619047619 0.010714285714285714 0.015238095238095238
1 0.5428571428571428 0.34 0.014285714285714285 0.013333333333333334
1 0.5521428571428572 0.32666666666666666 0.019285714285714285 0.013333333333333334
1 0.6185714285714285 0.34095238095238095 0.027142857142857142 0.018095238095238095
1 0.6257142857142857 0.32761904761904764 0.025 0.017142857142857144
0 0.655 0.38285714285714284 0.007857142857142858 0.021904761904761906
0 0.6642857142857143 0.3933333333333333 0.008571428571428572 0.02095238095238095
0 0.5657142857142857 0.44952380952380955 0.014285714285714285 0.030476190476190476
1 0.9685714285714285 0.6352380952380953 0.029285714285714286 0.05904761904761905
1 0.815 0.6342857142857142 0.029285714285714286 0.06095238095238095
1 0.8464285714285714 0.6314285714285715 0.03 0.05619047619047619
1 0.8628571428571429 0.6323809523809524 0.029285714285714286 0.04857142857142857
1 0.075 0.8866666666666667 0.15 0.19333333333333333
