1 0.10125260960334029 0.7133580705009277 0.009394572025052192 0.014842300556586271
1 0.10594989561586639 0.7105751391465677 0.009916492693110648 0.011131725417439703
1 0.28444676409185804 0.5769944341372912 0.009394572025052192 0.017625231910946195
1 0.2927974947807933 0.5528756957328386 0.011482254697286013 0.012987012987012988
1 0.3757828810020877 0.487012987012987 0.009394572025052192 0.011131725417439703
1 0.40501043841336115 0.4601113172541744 0.011482254697286013 0.0074211502782931356
1 0.418580375782881 0.44805194805194803 0.010438413361169102 0.01020408163265306
1 0.4352818371607516 0.4267161410018553 0.007306889352818371 0.006493506493506494
1 0.4384133611691023 0.4267161410018553 0.005741127348643006 0.0055658627087198514
1 0.4639874739039666 0.48515769944341375 0.004697286012526096 0.01020408163265306
0 0.4639874739039666 0.48515769944341375 0.0026096033402922755 0.0074211502782931356
1 0.5594989561586639 0.37940630797773656 0.005219206680584551 0.01020408163265306
1 0.5709812108559499 0.3821892393320965 0.005219206680584551 0.012059369202226345
1 0.5631524008350731 0.3803339517625232 0.0036534446764091857 0.0074211502782931356
1 0.5756784968684759 0.39888682745825604 0.006784968684759917 0.00463821892393321
1 0.5673277661795407 0.3877551020408163 0.0020876826722338203 0.0037105751391465678
1 0.5662839248434238 0.3914656771799629 0.0015657620041753654 0.0027829313543599257
1 0.5772442588726514 0.42578849721706863 0.010438413361169102 0.015769944341372914
1 0.5704592901878914 0.42764378478664195 0.007306889352818371 0.012987012987012988
1 0.5819415448851775 0.4424860853432282 0.01826722338204593 0.015769944341372914
1 0.5610647181628392 0.40630797773654914 0.003131524008350731 0.0055658627087198514
1 0.5553235908141962 0.4165120593692022 0.007306889352818371 0.0074211502782931356
0 0.5548016701461378 0.41187384044526903 0.0026096033402922755 0.0055658627087198514
1 0.5548016701461378 0.41187384044526903 0.0026096033402922755 0.00463821892393321
1 0.5621085594989561 0.44063079777365494 0.006263048016701462 0.012059369202226345
1 0.5516701461377871 0.44063079777365494 0.007828810020876827 0.02040816326530612
1 0.5548016701461378 0.43413729128014844 0.004697286012526096 0.008348794063079777
1 0.5563674321503131 0.4313543599257885 0.0020876826722338203 0.0037105751391465678
0 0.5563674321503131 0.4294990723562152 0.0015657620041753654 0.00463821892393321
1 0.5694154488517745 0.437847866419295 0.006263048016701462 0.013914656771799629
1 0.569937369519833 0.4554730983302412 0.008350730688935281 0.029684601113172542
1 0.5448851774530271 0.47588126159554733 0.006263048016701462 0.011131725417439703
1 0.5427974947807933 0.5120593692022264 0.014091858037578288 0.012059369202226345
1 0.5417536534446764 0.5 0.005219206680584551 0.012987012987012988
1 0.5501043841336117 0.5 0.0041753653444676405 0.0074211502782931356
0 0.534446764091858 0.5194805194805194 0.003131524008350731 0.012059369202226345
0 0.5391440501043842 0.5213358070500927 0.0026096033402922755 0.00927643784786642
1 0.5401878914405011 0.5222634508348795 0.005219206680584551 0.006493506493506494
0 0.5506263048016702 0.5380333951762524 0.0026096033402922755 0.0074211502782931356
1 0.5506263048016702 0.5408163265306123 0.0041753653444676405 0.00927643784786642
1 0.5370563674321504 0.5408163265306123 0.013569937369519834 0.012987012987012988
1 0.5375782881002088 0.536178107606679 0.013048016701461378 0.011131725417439703
1 0.5678496868475992 0.5686456400742115 0.010438413361169102 0.02040816326530612
1 0.5229645093945721 0.6159554730983302 0.012004175365344467 0.01855287569573284
1 0.5266179540709812 0.6113172541743971 0.016701461377870562 0.017625231910946195
0 0.5396659707724426 0.6289424860853432 0.0041753653444676405 0.012987012987012988
1 0.5396659707724426 0.6317254174397031 0.004697286012526096 0.012059369202226345
1 0.5589770354906054 0.6753246753246753 0.017745302713987474 0.075139146567718
1 0.5762004175365344 0.7476808905380334 0.011482254697286013 0.0287569573283859
1 0.5391440501043842 0.7179962894248608 0.006263048016701462 0.017625231910946195
0 0.5391440501043842 0.7142857142857143 0.004697286012526096 0.01855287569573284
0 0.4890396659707724 0.7884972170686456 0.006784968684759917 0.025974025974025976
0 0.4979123173277662 0.8079777365491652 0.005741127348643006 0.02504638218923933
0 0.5088726513569938 0.813543599257885 0.005219206680584551 0.02411873840445269
1 0.5020876826722338 0.7949907235621522 0.026096033402922755 0.03525046382189239
1 0.47964509394572025 0.9582560296846011 0.037578288100208766 0.05380333951762523
1 0.6414405010438413 0.7578849721706865 0.005741127348643006 0.01948051948051948
0 0.6409185803757829 0.7532467532467533 0.004697286012526096 0.01855287569573284
0 0.6758872651356994 0.6975881261595547 0.0036534446764091857 0.01855287569573284
0 0.6236951983298539 0.6382189239332097 0.0041753653444676405 0.013914656771799629
1 0.6236951983298539 0.6410018552875696 0.0036534446764091857 0.012987012987012988
0 0.6200417536534447 0.6521335807050093 0.0041753653444676405 0.01948051948051948
0 0.6289144050104384 0.6159554730983302 0.0041753653444676405 0.017625231910946195
1 0.6346555323590815 0.4619666048237477 0.005741127348643006 0.012059369202226345
1 0.6263048016701461 0.47309833024118736 0.009916492693110648 0.023191094619666047
1 0.622651356993737 0.474025974025974 0.012004175365344467 0.00927643784786642
1 0.6816283924843424 0.5083487940630798 0.059498956158663886 0.026901669758812616
1 0.7056367432150313 0.48608534322820035 0.044363256784968684 0.02411873840445269
1 0.7301670146137788 0.4907235621521336 0.031315240083507306 0.017625231910946195
1 0.732776617954071 0.49814471243042674 0.03653444676409186 0.022263450834879406
1 0.7562630480167014 0.48794063079777367 0.03653444676409186 0.022263450834879406
1 0.7693110647181628 0.49165120593692024 0.04279749478079332 0.021335807050092765
1 0.7760960334029228 0.49536178107606677 0.049582463465553235 0.01855287569573284
1 0.7828810020876826 0.5027829313543599 0.043319415448851775 0.02040816326530612
1 0.7901878914405011 0.5055658627087198 0.04488517745302714 0.02040816326530612
1 0.7954070981210856 0.5111317254174397 0.043319415448851775 0.023191094619666047
1 0.7620041753653445 0.5306122448979592 0.029749478079331943 0.03432282003710575
1 0.7776617954070981 0.5315398886827458 0.028183716075156576 0.03153988868274583
1 0.7881002087682673 0.549165120593692 0.019832985386221295 0.012987012987012988
1 0.15553235908141963 0.8098330241187384 0.075678496868476 0.10667903525046382
1 0.6304801670146137 0.6901669758812616 0.009394572025052192 0.01855287569573284
1 0.9749478079331941 0.4962894248608534 0.048538622129436326 0.032467532467532464
1 0.8648225469728601 0.5009276437847866 0.027139874739039668 0.02411873840445269
1 0.8956158663883089 0.49907235621521334 0.03653444676409186 0.022263450834879406
