1 0.3464285714285714 0.5542857142857143 0.05142857142857143 0.07238095238095238
1 0.26142857142857145 0.44952380952380955 0.04928571428571429 0.05333333333333334
1 0.35928571428571426 0.3580952380952381 0.039285714285714285 0.05238095238095238
1 0.10357142857142858 0.46 0.052142857142857144 0.05904761904761905
0 0.2592857142857143 0.24761904761904763 0.005 0.018095238095238095
1 0.48714285714285716 0.8276190476190476 0.055714285714285716 0.11714285714285715
1 0.46 0.9333333333333333 0.06785714285714285 0.1180952380952381
1 0.5421428571428571 0.8038095238095239 0.07214285714285715 0.16285714285714287
1 0.5228571428571429 0.6866666666666666 0.045714285714285714 0.09523809523809523
1 0.55 0.5895238095238096 0.052142857142857144 0.11142857142857143
1 0.5178571428571429 0.4057142857142857 0.04928571428571429 0.030476190476190476
1 0.525 0.38285714285714284 0.047857142857142855 0.03428571428571429
1 0.5307142857142857 0.35714285714285715 0.04 0.02761904761904762
1 0.5328571428571428 0.3466666666666667 0.032857142857142856 0.024761904761904763
1 0.5392857142857143 0.33904761904761904 0.039285714285714285 0.024761904761904763
1 0.5414285714285715 0.32571428571428573 0.045 0.023809523809523808
1 0.5478571428571428 0.31047619047619046 0.047142857142857146 0.025714285714285714
1 0.5707142857142857 0.26666666666666666 0.04357142857142857 0.030476190476190476
1 0.5607142857142857 0.28 0.039285714285714285 0.03142857142857143
1 0.6014285714285714 0.36952380952380953 0.025 0.040952380952380955
1 0.37714285714285717 0.29428571428571426 0.032857142857142856 0.037142857142857144
1 0.4014285714285714 0.15333333333333332 0.020714285714285713 0.024761904761904763
1 0.4942857142857143 0.18857142857142858 0.018571428571428572 0.023809523809523808
1 0.4907142857142857 0.1619047619047619 0.017142857142857144 0.01904761904761905
1 0.5028571428571429 0.1180952380952381 0.018571428571428572 0.01904761904761905
1 0.5278571428571428 0.10952380952380952 0.018571428571428572 0.02
1 0.54 0.1180952380952381 0.016428571428571428 0.01619047619047619
1 0.5628571428571428 0.06 0.014285714285714285 0.012380952380952381
1 0.5642857142857143 0.08190476190476191 0.013571428571428571 0.018095238095238095
1 0.47928571428571426 0.25047619047619046 0.020714285714285713 0.040952380952380955
1 0.37 0.18571428571428572 0.020714285714285713 0.025714285714285714
1 0.5978571428571429 0.29523809523809524 0.0064285714285714285 0.014285714285714285
0 0.5978571428571429 0.2885714285714286 0.004285714285714286 0.010476190476190476
1 0.5507142857142857 0.17238095238095238 0.014285714285714285 0.02666666666666667
0 0.5014285714285714 0.06666666666666667 0.0035714285714285713 0.017142857142857144
1 0.6014285714285714 0.02666666666666667 0.012142857142857143 0.012380952380952381
1 0.5835714285714285 0.013333333333333334 0.018571428571428572 0.024761904761904763
0 0.5635714285714286 0.03142857142857143 0.002857142857142857 0.010476190476190476
0 0.5521428571428572 0.030476190476190476 0.002142857142857143 0.013333333333333334
0 0.53 0.039047619047619046 0.004285714285714286 0.010476190476190476
1 0.6221428571428571 0.29714285714285715 0.019285714285714285 0.02761904761904762
1 0.6314285714285715 0.26095238095238094 0.02214285714285714 0.03142857142857143
1 0.6378571428571429 0.22857142857142856 0.017857142857142856 0.02857142857142857
1 0.6478571428571429 0.18857142857142858 0.015 0.02761904761904762
1 0.615 0.2123809523809524 0.005 0.01619047619047619
1 0.6235714285714286 0.21333333333333335 0.004285714285714286 0.01904761904761905
0 0.6157142857142858 0.20761904761904762 0.004285714285714286 0.007619047619047619
0 0.6242857142857143 0.20857142857142857 0.004285714285714286 0.009523809523809525
1 0.6178571428571429 0.03619047619047619 0.008571428571428572 0.011428571428571429
1 0.6357142857142857 0.023809523809523808 0.017857142857142856 0.02761904761904762
1 0.6835714285714286 0.01904761904761905 0.011428571428571429 0.014285714285714285
1 0.685 0.047619047619047616 0.010714285714285714 0.012380952380952381
0 0.66 0.04380952380952381 0.004285714285714286 0.013333333333333334
0 0.6692857142857143 0.049523809523809526 0.004285714285714286 0.014285714285714285
0 0.6935714285714286 0.2866666666666667 0.004285714285714286 0.015238095238095238
0 0.6778571428571428 0.3923809523809524 0.005714285714285714 0.01904761904761905
0 0.67 0.38761904761904764 0.005714285714285714 0.01619047619047619
0 0.9171428571428571 0.22857142857142856 0.004285714285714286 0.014285714285714285
0 0.9107142857142857 0.2 0.005 0.015238095238095238
0 0.9071428571428571 0.18285714285714286 0.004285714285714286 0.015238095238095238
0 0.8714285714285714 0.17523809523809525 0.005714285714285714 0.02095238095238095
0 0.885 0.22095238095238096 0.007857142857142858 0.021904761904761906
0 0.9742857142857143 0.2523809523809524 0.004285714285714286 0.01904761904761905
0 0.9878571428571429 0.1838095238095238 0.005 0.018095238095238095
0 0.9528571428571428 0.16380952380952382 0.0035714285714285713 0.014285714285714285
0 0.9564285714285714 0.17333333333333334 0.0035714285714285713 0.012380952380952381
0 0.9621428571428572 0.1819047619047619 0.002857142857142857 0.013333333333333334
0 0.9664285714285714 0.19142857142857142 0.002857142857142857 0.015238095238095238
0 0.9707142857142858 0.2038095238095238 0.005 0.015238095238095238
0 0.975 0.21714285714285714 0.0035714285714285713 0.017142857142857144
0 0.98 0.22666666666666666 0.002142857142857143 0.011428571428571429
0 0.9842857142857143 0.23047619047619047 0.0035714285714285713 0.014285714285714285
0 0.99 0.23904761904761904 0.002857142857142857 0.011428571428571429
0 0.9957142857142857 0.24761904761904763 0.005 0.017142857142857144
0 0.9971428571428571 0.19142857142857142 0.004285714285714286 0.014285714285714285
0 0.92 0.15714285714285714 0.004285714285714286 0.013333333333333334
0 0.9264285714285714 0.17142857142857143 0.0035714285714285713 0.017142857142857144
0 0.9328571428571428 0.18095238095238095 0.0035714285714285713 0.013333333333333334
0 0.9414285714285714 0.19714285714285715 0.005714285714285714 0.017142857142857144
0 0.9528571428571428 0.21523809523809523 0.004285714285714286 0.017142857142857144
0 0.9607142857142857 0.2361904761904762 0.004285714285714286 0.017142857142857144
0 0.9685714285714285 0.24285714285714285 0.005714285714285714 0.01619047619047619
0 0.9571428571428572 0.22666666666666666 0.004285714285714286 0.014285714285714285
0 0.9028571428571428 0.16380952380952382 0.004285714285714286 0.01619047619047619
0 0.925 0.5190476190476191 0.0064285714285714285 0.025714285714285714
