1 0.24 0.10786802030456853 0.019285714285714285 0.03299492385786802
1 0.3385714285714286 0.3604060913705584 0.02142857142857143 0.06472081218274112
1 0.32857142857142857 0.5203045685279187 0.025714285714285714 0.07487309644670051
1 0.11642857142857142 0.7246192893401016 0.047142857142857146 0.09898477157360407
1 0.2507142857142857 0.8489847715736041 0.04357142857142857 0.12055837563451777
1 0.15785714285714286 0.36548223350253806 0.027857142857142858 0.05203045685279188
1 0.19285714285714287 0.20050761421319796 0.02142857142857143 0.03680203045685279
1 0.34785714285714286 0.09517766497461928 0.025714285714285714 0.12944162436548223
1 0.325 0.08629441624365482 0.013571428571428571 0.05456852791878172
1 0.31642857142857145 0.2017766497461929 0.02214285714285714 0.05203045685279188
0 0.38642857142857145 0.4035532994923858 0.010714285714285714 0.031725888324873094
0 0.395 0.4010152284263959 0.010714285714285714 0.031725888324873094
1 0.7721428571428571 0.08883248730964467 0.05357142857142857 0.04568527918781726
