1 0.5342857142857143 0.7409523809523809 0.05142857142857143 0.09333333333333334
1 0.4407142857142857 0.7304761904761905 0.07285714285714286 0.09238095238095238
1 0.3078571428571429 0.7038095238095238 0.05285714285714286 0.09333333333333334
1 0.26285714285714284 0.6942857142857143 0.07642857142857143 0.08
1 0.20357142857142857 0.6742857142857143 0.09 0.08857142857142856
1 0.155 0.6752380952380952 0.07857142857142857 0.08285714285714285
1 0.44357142857142856 0.52 0.04071428571428572 0.04666666666666667
0 0.43142857142857144 0.4942857142857143 0.007142857142857143 0.030476190476190476
0 0.39785714285714285 0.5114285714285715 0.05 0.04476190476190476
0 0.39785714285714285 0.4866666666666667 0.007857142857142858 0.024761904761904763
1 0.3585714285714286 0.5057142857142857 0.04071428571428572 0.047619047619047616
1 0.3264285714285714 0.5028571428571429 0.04642857142857143 0.04285714285714286
1 0.29285714285714287 0.4895238095238095 0.04642857142857143 0.040952380952380955
0 0.2621428571428571 0.4838095238095238 0.04 0.03333333333333333
1 0.21642857142857144 0.5190476190476191 0.06142857142857143 0.04285714285714286
1 0.1742857142857143 0.5114285714285715 0.06285714285714286 0.054285714285714284
1 0.07571428571428572 0.5019047619047619 0.07 0.04285714285714286
1 0.047857142857142855 0.49333333333333335 0.07142857142857142 0.039047619047619046
1 0.03 0.4847619047619048 0.05857142857142857 0.039047619047619046
0 0.054285714285714284 0.4095238095238095 0.007142857142857143 0.018095238095238095
1 0.09642857142857143 0.41619047619047617 0.022857142857142857 0.018095238095238095
1 0.135 0.4085714285714286 0.014285714285714285 0.021904761904761906
1 0.15071428571428572 0.4676190476190476 0.05928571428571429 0.0419047619047619
1 0.6071428571428571 0.5419047619047619 0.05071428571428571 0.045714285714285714
0 0.6764285714285714 0.5476190476190477 0.010714285714285714 0.039047619047619046
1 0.7092857142857143 0.5333333333333333 0.06857142857142857 0.04666666666666667
1 0.7457142857142857 0.5171428571428571 0.04857142857142857 0.04380952380952381
1 0.7807142857142857 0.5095238095238095 0.05357142857142857 0.0380952380952381
1 0.6657142857142857 0.4580952380952381 0.015714285714285715 0.01904761904761905
0 0.6985714285714286 0.46 0.007857142857142858 0.023809523809523808
0 0.7064285714285714 0.44666666666666666 0.0064285714285714285 0.02666666666666667
0 0.7121428571428572 0.44 0.005 0.023809523809523808
0 0.735 0.4380952380952381 0.005714285714285714 0.024761904761904763
0 0.695 0.4114285714285714 0.005714285714285714 0.022857142857142857
1 0.7792857142857142 0.5933333333333334 0.027857142857142858 0.025714285714285714
1 0.815 0.5752380952380952 0.03 0.03428571428571429
1 0.8607142857142858 0.6114285714285714 0.03357142857142857 0.023809523809523808
1 0.8535714285714285 0.5514285714285714 0.017857142857142856 0.022857142857142857
1 0.8821428571428571 0.5323809523809524 0.022857142857142857 0.025714285714285714
1 0.8892857142857142 0.5942857142857143 0.022857142857142857 0.02095238095238095
1 0.8085714285714286 0.4 0.02 0.021904761904761906
1 0.8928571428571429 0.3914285714285714 0.05 0.021904761904761906
1 0.885 0.3819047619047619 0.041428571428571426 0.018095238095238095
1 0.9242857142857143 0.3819047619047619 0.041428571428571426 0.025714285714285714
1 0.9057142857142857 0.37523809523809526 0.032857142857142856 0.01904761904761905
1 0.8714285714285714 0.37714285714285717 0.03571428571428571 0.018095238095238095
1 0.8657142857142858 0.36857142857142855 0.035 0.018095238095238095
1 0.8607142857142858 0.3628571428571429 0.032857142857142856 0.01619047619047619
1 0.8535714285714285 0.3580952380952381 0.03214285714285714 0.01619047619047619
1 0.8485714285714285 0.3523809523809524 0.03214285714285714 0.01619047619047619
0 0.7385714285714285 0.3914285714285714 0.005714285714285714 0.02
1 0.8857142857142857 0.3523809523809524 0.032857142857142856 0.01904761904761905
1 0.8857142857142857 0.3476190476190476 0.037142857142857144 0.017142857142857144
1 0.8428571428571429 0.3476190476190476 0.03357142857142857 0.014285714285714285
1 0.8457142857142858 0.3419047619047619 0.037142857142857144 0.014285714285714285
1 0.8378571428571429 0.34 0.03214285714285714 0.017142857142857144
1 0.8364285714285714 0.32857142857142857 0.03357142857142857 0.025714285714285714
1 0.8614285714285714 0.3295238095238095 0.02642857142857143 0.01904761904761905
1 0.8271428571428572 0.32666666666666666 0.03571428571428571 0.01619047619047619
1 0.8192857142857143 0.32095238095238093 0.02857142857142857 0.015238095238095238
1 0.8521428571428571 0.32095238095238093 0.02857142857142857 0.01619047619047619
1 0.85 0.31523809523809526 0.023571428571428573 0.013333333333333334
1 0.8257142857142857 0.3076190476190476 0.02142857142857143 0.011428571428571429
1 0.8257142857142857 0.2980952380952381 0.02142857142857143 0.015238095238095238
1 0.855 0.29714285714285715 0.010714285714285714 0.014285714285714285
0 0.9392857142857143 0.35333333333333333 0.0035714285714285713 0.015238095238095238
1 0.985 0.37142857142857144 0.03 0.02
1 0.975 0.36 0.04 0.018095238095238095
1 0.9607142857142857 0.35523809523809524 0.027857142857142858 0.014285714285714285
1 0.9492857142857143 0.3466666666666667 0.03428571428571429 0.02
1 0.9371428571428572 0.34095238095238095 0.030714285714285715 0.012380952380952381
1 0.9235714285714286 0.3295238095238095 0.030714285714285715 0.015238095238095238
1 0.9178571428571428 0.3238095238095238 0.03142857142857143 0.01619047619047619
