1 0.3385714285714286 0.42258883248730966 0.014285714285714285 0.03426395939086294
1 0.3157142857142857 0.4593908629441624 0.015714285714285715 0.03680203045685279
1 0.31214285714285717 0.616751269035533 0.020714285714285713 0.05203045685279188
1 0.31 0.6890862944162437 0.02142857142857143 0.06091370558375635
1 0.3757142857142857 0.9619289340101523 0.024285714285714285 0.07233502538071065
1 0.32785714285714285 0.11928934010152284 0.007142857142857143 0.01649746192893401
1 0.32142857142857145 0.20431472081218274 0.008571428571428572 0.01903553299492386
1 0.33785714285714286 0.1446700507614213 0.009285714285714286 0.01649746192893401
1 0.35428571428571426 0.37055837563451777 0.011428571428571429 0.030456852791878174
1 0.35714285714285715 0.40482233502538073 0.013571428571428571 0.031725888324873094
1 0.33785714285714286 0.3032994923857868 0.01 0.024111675126903553
1 0.3171428571428571 0.4010152284263959 0.014285714285714285 0.031725888324873094
1 0.31785714285714284 0.3756345177664975 0.013571428571428571 0.02918781725888325
1 0.32071428571428573 0.25380710659898476 0.012142857142857143 0.02284263959390863
1 0.345 0.0583756345177665 0.015714285714285715 0.012690355329949238
1 0.36357142857142855 0.0532994923857868 0.016428571428571428 0.011421319796954314
1 0.35285714285714287 0.3223350253807107 0.010714285714285714 0.025380710659898477
1 0.35428571428571426 0.3426395939086294 0.012142857142857143 0.02284263959390863
1 0.3585714285714286 0.4606598984771574 0.014285714285714285 0.04187817258883249
1 0.36214285714285716 0.5469543147208121 0.017142857142857144 0.044416243654822336
1 0.36357142857142855 0.5951776649746193 0.017142857142857144 0.04187817258883249
1 0.365 0.6446700507614214 0.02 0.04568527918781726
1 0.36642857142857144 0.7119289340101523 0.020714285714285713 0.05583756345177665
1 0.3678571428571429 0.7829949238578681 0.025 0.07614213197969544
1 0.3507142857142857 0.27918781725888325 0.009285714285714286 0.031725888324873094
1 0.31857142857142856 0.08375634517766498 0.011428571428571429 0.013959390862944163
1 0.32 0.30583756345177665 0.012857142857142857 0.027918781725888325
1 0.3192857142857143 0.34390862944162437 0.012142857142857143 0.027918781725888325
1 0.36 0.49619289340101524 0.015 0.04060913705583756
1 0.31357142857142856 0.4949238578680203 0.015714285714285715 0.03807106598984772
1 0.31214285714285717 0.565989847715736 0.019285714285714285 0.04949238578680203
1 0.31 0.7766497461928934 0.023571428571428573 0.07360406091370558
1 0.3407142857142857 0.7385786802030457 0.020714285714285713 0.06091370558375635
1 0.37285714285714283 0.8769035532994924 0.02642857142857143 0.08248730964467005
1 0.3364285714285714 0.25761421319796957 0.01 0.03807106598984772
1 0.34 0.16243654822335024 0.01 0.024111675126903553
0 0.5442857142857143 0.4682741116751269 0.007142857142857143 0.027918781725888325
0 0.5614285714285714 0.4416243654822335 0.0064285714285714285 0.0266497461928934
0 0.5085714285714286 0.43147208121827413 0.005 0.011421319796954314
0 0.5464285714285714 0.4352791878172589 0.004285714285714286 0.012690355329949238
0 0.5771428571428572 0.4403553299492386 0.004285714285714286 0.017766497461928935
0 0.5685714285714286 0.43274111675126903 0.004285714285714286 0.017766497461928935
0 0.5814285714285714 0.4365482233502538 0.0035714285714285713 0.015228426395939087
0 0.5721428571428572 0.43147208121827413 0.0035714285714285713 0.015228426395939087
0 0.5864285714285714 0.4213197969543147 0.0035714285714285713 0.02284263959390863
0 0.5628571428571428 0.37817258883248733 0.005714285714285714 0.02030456852791878
0 0.6407142857142857 0.36548223350253806 0.005 0.013959390862944163
0 0.5628571428571428 0.4263959390862944 0.004285714285714286 0.01649746192893401
0 0.5685714285714286 0.4251269035532995 0.002857142857142857 0.015228426395939087
0 0.575 0.4302030456852792 0.0035714285714285713 0.013959390862944163
0 0.5807142857142857 0.42258883248730966 0.004285714285714286 0.012690355329949238
0 0.585 0.41624365482233505 0.004285714285714286 0.017766497461928935
0 0.5278571428571428 0.7030456852791879 0.0064285714285714285 0.02030456852791878
0 0.6935714285714286 0.7982233502538071 0.007857142857142858 0.03680203045685279
0 0.7035714285714286 0.7956852791878173 0.007857142857142858 0.03553299492385787
0 0.83 0.7829949238578681 0.007142857142857143 0.02284263959390863
0 0.8728571428571429 0.6763959390862944 0.007857142857142858 0.030456852791878174
0 0.7628571428571429 0.6205583756345178 0.007142857142857143 0.031725888324873094
0 0.7707142857142857 0.6294416243654822 0.004285714285714286 0.015228426395939087
0 0.75 0.5342639593908629 0.007857142857142858 0.027918781725888325
0 0.7321428571428571 0.5317258883248731 0.005 0.01649746192893401
0 0.84 0.616751269035533 0.007142857142857143 0.02918781725888325
0 0.7685714285714286 0.5291878172588832 0.0064285714285714285 0.02918781725888325
0 0.7457142857142857 0.4936548223350254 0.007142857142857143 0.024111675126903553
0 0.7342857142857143 0.4619289340101523 0.0064285714285714285 0.02284263959390863
0 0.7421428571428571 0.4606598984771574 0.007142857142857143 0.024111675126903553
0 0.7271428571428571 0.4467005076142132 0.004285714285714286 0.01903553299492386
0 0.7214285714285714 0.43274111675126903 0.005 0.02030456852791878
0 0.6971428571428572 0.38451776649746194 0.005714285714285714 0.024111675126903553
0 0.7657142857142857 0.5 0.005 0.0266497461928934
0 0.7828571428571428 0.5279187817258884 0.007142857142857143 0.025380710659898477
0 0.8 0.5558375634517766 0.005714285714285714 0.025380710659898477
0 0.8292857142857143 0.5901015228426396 0.0064285714285714285 0.0266497461928934
0 0.7942857142857143 0.5355329949238579 0.005714285714285714 0.02284263959390863
0 0.775 0.501269035532995 0.007857142857142858 0.021573604060913704
0 0.7764285714285715 0.4746192893401015 0.0064285714285714285 0.0266497461928934
0 0.8471428571428572 0.5824873096446701 0.0064285714285714285 0.02918781725888325
0 0.8714285714285714 0.6192893401015228 0.007857142857142858 0.030456852791878174
0 0.8757142857142857 0.6256345177664975 0.005 0.017766497461928935
0 0.8771428571428571 0.6370558375634517 0.009285714285714286 0.01649746192893401
0 0.9278571428571428 0.7093908629441624 0.010714285714285714 0.02918781725888325
0 0.8128571428571428 0.5736040609137056 0.0064285714285714285 0.02284263959390863
0 0.8107142857142857 0.5596446700507615 0.005714285714285714 0.021573604060913704
0 0.8085714285714286 0.5469543147208121 0.004285714285714286 0.02030456852791878
0 0.7585714285714286 0.4733502538071066 0.0064285714285714285 0.02030456852791878
0 0.7578571428571429 0.45558375634517767 0.0035714285714285713 0.01649746192893401
0 0.7614285714285715 0.4517766497461929 0.005 0.01903553299492386
0 0.7692857142857142 0.45685279187817257 0.0064285714285714285 0.024111675126903553
0 0.7892857142857143 0.48350253807106597 0.005 0.021573604060913704
0 0.7821428571428571 0.4784263959390863 0.0064285714285714285 0.0266497461928934
1 0.8307142857142857 0.5647208121827412 0.005714285714285714 0.025380710659898477
