1 0.5078571428571429 0.9123809523809524 0.10214285714285715 0.17523809523809525
1 0.9092857142857143 0.6123809523809524 0.16714285714285715 0.0980952380952381
1 0.5457142857142857 0.6152380952380953 0.10857142857142857 0.12666666666666668
1 0.5285714285714286 0.5076190476190476 0.060714285714285714 0.10095238095238095
0 0.4342857142857143 0.680952380952381 0.025714285714285714 0.0838095238095238
0 0.40714285714285714 0.6695238095238095 0.03 0.07809523809523809
0 0.38 0.6771428571428572 0.03571428571428571 0.08095238095238096
1 0.8657142857142858 0.54 0.15928571428571428 0.08857142857142856
1 0.8492857142857143 0.4780952380952381 0.15 0.0761904761904762
1 0.8592857142857143 0.44952380952380955 0.11 0.06380952380952382
1 0.8935714285714286 0.41714285714285715 0.13 0.07333333333333333
1 0.9228571428571428 0.36 0.10928571428571429 0.06761904761904762
1 0.7871428571428571 0.3028571428571429 0.05071428571428571 0.06476190476190476
1 0.7378571428571429 0.2885714285714286 0.060714285714285714 0.05523809523809524
1 0.4757142857142857 0.42857142857142855 0.11357142857142857 0.0838095238095238
1 0.4492857142857143 0.32666666666666666 0.09857142857142857 0.06
1 0.5328571428571428 0.29428571428571426 0.04428571428571428 0.06285714285714286
1 0.5307142857142857 0.2542857142857143 0.03785714285714286 0.05047619047619047
1 0.5307142857142857 0.2180952380952381 0.03785714285714286 0.0380952380952381
1 0.5264285714285715 0.18285714285714286 0.060714285714285714 0.04666666666666667
1 0.5171428571428571 0.16857142857142857 0.027142857142857142 0.02761904761904762
1 0.52 0.14952380952380953 0.02642857142857143 0.03619047619047619
1 0.5064285714285715 0.13714285714285715 0.022857142857142857 0.030476190476190476
1 0.5042857142857143 0.1180952380952381 0.019285714285714285 0.02
1 0.5128571428571429 0.09047619047619047 0.02214285714285714 0.02857142857142857
1 0.47928571428571426 0.02 0.015714285714285715 0.02
1 0.5028571428571429 0.030476190476190476 0.017142857142857144 0.01904761904761905
1 0.53 0.045714285714285714 0.017857142857142856 0.02095238095238095
1 0.5585714285714286 0.06095238095238095 0.027857142857142858 0.03428571428571429
1 0.6007142857142858 0.22666666666666666 0.03785714285714286 0.06571428571428571
1 0.6064285714285714 0.09714285714285714 0.023571428571428573 0.025714285714285714
1 0.6142857142857143 0.11619047619047619 0.03214285714285714 0.02857142857142857
1 0.6371428571428571 0.13428571428571429 0.02857142857142857 0.03333333333333333
1 0.6485714285714286 0.14761904761904762 0.029285714285714286 0.02761904761904762
1 0.6592857142857143 0.16857142857142857 0.03357142857142857 0.035238095238095235
1 0.68 0.19142857142857142 0.035 0.035238095238095235
1 0.6992857142857143 0.21714285714285714 0.039285714285714285 0.047619047619047616
1 0.7157142857142857 0.24761904761904763 0.045714285714285714 0.04380952380952381
1 0.5 0.10761904761904761 0.020714285714285713 0.02095238095238095
1 0.18642857142857142 0.24571428571428572 0.07071428571428572 0.04380952380952381
1 0.9464285714285714 0.7857142857142857 0.10714285714285714 0.12
