1 0.42928571428571427 0.04285714285714286 0.012142857142857143 0.025714285714285714
1 0.4957142857142857 0.08952380952380952 0.013571428571428571 0.029523809523809525
1 0.49214285714285716 0.2904761904761905 0.017142857142857144 0.0380952380952381
1 0.49 0.38952380952380955 0.017857142857142856 0.04666666666666667
1 0.51 0.4742857142857143 0.019285714285714285 0.05238095238095238
1 0.4828571428571429 0.6695238095238095 0.024285714285714285 0.06571428571428571
1 0.5078571428571429 0.7428571428571429 0.023571428571428573 0.06952380952380953
1 0.7464285714285714 0.9542857142857143 0.062142857142857146 0.04285714285714286
1 0.49857142857142855 0.9771428571428571 0.025 0.04476190476190476
1 0.4642857142857143 0.9866666666666667 0.023571428571428573 0.02666666666666667
1 0.4942857142857143 0.1819047619047619 0.013571428571428571 0.03238095238095238
1 0.9735714285714285 0.9619047619047619 0.05285714285714286 0.04285714285714286
1 0.8907142857142857 0.9561904761904761 0.12571428571428572 0.06190476190476191
1 0.4228571428571429 0.0980952380952381 0.013571428571428571 0.02857142857142857
1 0.4521428571428571 0.12761904761904763 0.012857142857142857 0.03333333333333333
1 0.14857142857142858 0.9761904761904762 0.020714285714285713 0.017142857142857144
1 0.5385714285714286 0.38476190476190475 0.007142857142857143 0.018095238095238095
1 0.48 0.17714285714285713 0.005 0.017142857142857144
1 0.48 0.20285714285714285 0.004285714285714286 0.017142857142857144
1 0.4714285714285714 0.36666666666666664 0.007142857142857143 0.01904761904761905
1 0.48642857142857143 0.5066666666666667 0.008571428571428572 0.02666666666666667
1 0.65 0.9761904761904762 0.025 0.022857142857142857
1 0.5985714285714285 0.9895238095238095 0.04214285714285714 0.02095238095238095
1 0.4828571428571429 0.12380952380952381 0.005 0.01619047619047619
1 0.5121428571428571 0.3057142857142857 0.009285714285714286 0.02761904761904762
0 0.425 0.5142857142857142 0.0064285714285714285 0.017142857142857144
0 0.4585714285714286 0.05333333333333334 0.004285714285714286 0.014285714285714285
0 0.4357142857142857 0.10857142857142857 0.004285714285714286 0.013333333333333334
0 0.4392857142857143 0.10857142857142857 0.004285714285714286 0.017142857142857144
0 0.4007142857142857 0.7438095238095238 0.007142857142857143 0.013333333333333334
0 0.40714285714285714 0.7380952380952381 0.01 0.018095238095238095
0 0.4164285714285714 0.7361904761904762 0.005714285714285714 0.013333333333333334
0 0.41714285714285715 0.7257142857142858 0.007142857142857143 0.012380952380952381
0 0.42428571428571427 0.7285714285714285 0.007142857142857143 0.015238095238095238
0 0.765 0.8980952380952381 0.016428571428571428 0.012380952380952381
0 0.47214285714285714 0.3638095238095238 0.005714285714285714 0.012380952380952381
0 0.4857142857142857 0.5038095238095238 0.0064285714285714285 0.010476190476190476
0 0.48714285714285716 0.5 0.005 0.012380952380952381
0 0.5921428571428572 0.9876190476190476 0.010714285714285714 0.011428571428571429
0 0.6535714285714286 0.9761904761904762 0.011428571428571429 0.022857142857142857
0 0.48 0.2 0.0035714285714285713 0.009523809523809525
0 0.48 0.17333333333333334 0.0035714285714285713 0.010476190476190476
0 0.4828571428571429 0.12095238095238095 0.0035714285714285713 0.009523809523809525
0 0.5378571428571428 0.38285714285714284 0.0064285714285714285 0.010476190476190476
