0 0.6442857142857142 0.7766497461928934 0.004285714285714286 0.01903553299492386
0 0.6071428571428571 0.8642131979695431 0.005 0.017766497461928935
0 0.5657142857142857 0.7220812182741116 0.004285714285714286 0.015228426395939087
1 0.5028571428571429 0.8870558375634517 0.014285714285714285 0.030456852791878174
1 0.48142857142857143 0.75 0.013571428571428571 0.031725888324873094
1 0.5442857142857143 0.7436548223350253 0.027857142857142858 0.08121827411167512
1 0.47714285714285715 0.7030456852791879 0.012142857142857143 0.02284263959390863
1 0.4614285714285714 0.7043147208121827 0.011428571428571429 0.024111675126903553
1 0.46714285714285714 0.6535532994923858 0.010714285714285714 0.02284263959390863
1 0.4521428571428571 0.6383248730964467 0.009285714285714286 0.01649746192893401
1 0.5185714285714286 0.6243654822335025 0.010714285714285714 0.021573604060913704
1 0.5021428571428571 0.6015228426395939 0.014285714285714285 0.04314720812182741
1 0.455 0.5697969543147208 0.01 0.021573604060913704
1 0.4664285714285714 0.5609137055837563 0.011428571428571429 0.021573604060913704
1 0.5042857142857143 0.5545685279187818 0.009285714285714286 0.02030456852791878
1 0.495 0.5126903553299492 0.008571428571428572 0.017766497461928935
1 0.43714285714285717 0.5038071065989848 0.008571428571428572 0.017766497461928935
1 0.4442857142857143 0.4873096446700508 0.007857142857142858 0.017766497461928935
1 0.47928571428571426 0.48350253807106597 0.008571428571428572 0.02030456852791878
1 0.4421428571428571 0.47081218274111675 0.007142857142857143 0.013959390862944163
1 0.43857142857142856 0.44543147208121825 0.0064285714285714285 0.013959390862944163
1 0.42857142857142855 0.45050761421319796 0.007142857142857143 0.015228426395939087
1 0.4114285714285714 0.39213197969543145 0.007857142857142858 0.012690355329949238
1 0.42142857142857143 0.383248730964467 0.0064285714285714285 0.013959390862944163
1 0.4514285714285714 0.3895939086294416 0.007857142857142858 0.013959390862944163
1 0.45357142857142857 0.3616751269035533 0.0064285714285714285 0.013959390862944163
1 0.41928571428571426 0.3604060913705584 0.005714285714285714 0.011421319796954314
1 0.4185714285714286 0.35152284263959394 0.007142857142857143 0.01015228426395939
1 0.41714285714285715 0.3413705583756345 0.005714285714285714 0.01015228426395939
1 0.42428571428571427 0.3426395939086294 0.0035714285714285713 0.008883248730964468
1 0.44 0.3210659898477157 0.005714285714285714 0.013959390862944163
1 0.445 0.30583756345177665 0.01 0.025380710659898477
1 0.4907142857142857 0.3134517766497462 0.032857142857142856 0.025380710659898477
1 0.5164285714285715 0.31091370558375636 0.015 0.015228426395939087
1 0.4807142857142857 0.3210659898477157 0.008571428571428572 0.008883248730964468
1 0.475 0.3096446700507614 0.015 0.015228426395939087
1 0.4757142857142857 0.3020304568527919 0.015714285714285715 0.012690355329949238
1 0.5014285714285714 0.3032994923857868 0.02642857142857143 0.01649746192893401
1 0.42428571428571427 0.3083756345177665 0.007142857142857143 0.011421319796954314
1 0.42928571428571427 0.29949238578680204 0.005 0.011421319796954314
1 0.4357142857142857 0.29314720812182743 0.005714285714285714 0.012690355329949238
1 0.4407142857142857 0.28426395939086296 0.005 0.011421319796954314
1 0.4342857142857143 0.2817258883248731 0.005714285714285714 0.01015228426395939
1 0.44571428571428573 0.28045685279187815 0.005 0.01015228426395939
1 0.4392857142857143 0.27411167512690354 0.005714285714285714 0.011421319796954314
1 0.43214285714285716 0.26776649746192893 0.005714285714285714 0.008883248730964468
1 0.43785714285714283 0.26776649746192893 0.005 0.011421319796954314
1 0.43642857142857144 0.25761421319796957 0.0064285714285714285 0.013959390862944163
1 0.43 0.2550761421319797 0.005714285714285714 0.01015228426395939
1 0.42857142857142855 0.24873096446700507 0.0064285714285714285 0.011421319796954314
1 0.4278571428571429 0.24238578680203046 0.0064285714285714285 0.013959390862944163
1 0.42642857142857143 0.22842639593908629 0.005 0.008883248730964468
1 0.40714285714285714 0.282994923857868 0.005 0.01015228426395939
1 0.38 0.3248730964467005 0.012142857142857143 0.01015228426395939
1 0.38 0.3147208121827411 0.011428571428571429 0.008883248730964468
1 0.38 0.3096446700507614 0.011428571428571429 0.007614213197969543
1 0.36214285714285716 0.31852791878172587 0.009285714285714286 0.011421319796954314
1 0.36714285714285716 0.315989847715736 0.009285714285714286 0.011421319796954314
1 0.3628571428571429 0.31218274111675126 0.010714285714285714 0.01015228426395939
1 0.3535714285714286 0.3083756345177665 0.009285714285714286 0.01015228426395939
1 0.4007142857142857 0.22588832487309646 0.005 0.007614213197969543
1 0.3992857142857143 0.21065989847715735 0.005 0.013959390862944163
1 0.40785714285714286 0.19416243654822335 0.004285714285714286 0.008883248730964468
1 0.3985714285714286 0.1916243654822335 0.004285714285714286 0.007614213197969543
1 0.4064285714285714 0.18401015228426396 0.0035714285714285713 0.007614213197969543
1 0.39714285714285713 0.18274111675126903 0.004285714285714286 0.007614213197969543
1 0.39571428571428574 0.17258883248730963 0.005 0.013959390862944163
