1 0.5257142857142857 0.039047619047619046 0.05071428571428571 0.07809523809523809
1 0.6464285714285715 0.13047619047619047 0.08428571428571428 0.26095238095238094
1 0.495 0.39904761904761904 0.04428571428571428 0.1438095238095238
1 0.17714285714285713 0.9028571428571428 0.04857142857142857 0.15047619047619049
1 0.8514285714285714 0.27904761904761904 0.047142857142857146 0.14476190476190476
1 0.8364285714285714 0.47714285714285715 0.05142857142857143 0.12571428571428572
1 0.9235714285714286 0.12761904761904763 0.08428571428571428 0.05238095238095238
1 0.21785714285714286 0.11047619047619048 0.03214285714285714 0.058095238095238096
1 0.325 0.04476190476190476 0.04071428571428572 0.030476190476190476
1 0.17285714285714285 0.04380952380952381 0.05142857142857143 0.03619047619047619
1 0.1707142857142857 0.07904761904761905 0.052142857142857144 0.030476190476190476
1 0.16642857142857143 0.18761904761904763 0.04642857142857143 0.030476190476190476
1 0.21571428571428572 0.19523809523809524 0.04357142857142857 0.01904761904761905
1 0.21928571428571428 0.23333333333333334 0.04 0.02666666666666667
1 0.04642857142857143 0.05333333333333334 0.055714285714285716 0.02666666666666667
1 0.04285714285714286 0.07904761904761905 0.041428571428571426 0.024761904761904763
1 0.04285714285714286 0.10476190476190476 0.041428571428571426 0.024761904761904763
1 0.04357142857142857 0.16666666666666666 0.041428571428571426 0.022857142857142857
1 0.04285714285714286 0.19047619047619047 0.041428571428571426 0.025714285714285714
1 0.10142857142857142 0.16380952380952382 0.054285714285714284 0.02666666666666667
1 0.10142857142857142 0.2019047619047619 0.055 0.02666666666666667
1 0.16214285714285714 0.22476190476190477 0.05285714285714286 0.025714285714285714
1 0.15857142857142856 0.2580952380952381 0.055 0.024761904761904763
1 0.08428571428571428 0.25142857142857145 0.02642857142857143 0.05333333333333334
1 0.10071428571428571 0.29714285714285715 0.05071428571428571 0.021904761904761906
1 0.09785714285714285 0.32857142857142857 0.047857142857142855 0.021904761904761906
1 0.09214285714285714 0.35714285714285715 0.05857142857142857 0.02666666666666667
1 0.035 0.2923809523809524 0.04285714285714286 0.02095238095238095
1 0.032857142857142856 0.3171428571428571 0.04357142857142857 0.017142857142857144
1 0.03428571428571429 0.3380952380952381 0.04428571428571428 0.017142857142857144
1 0.030714285714285715 0.35904761904761906 0.045714285714285714 0.01904761904761905
1 0.15857142857142856 0.3676190476190476 0.04857142857142857 0.022857142857142857
1 0.2057142857142857 0.37238095238095237 0.03428571428571429 0.04380952380952381
1 0.15928571428571428 0.34476190476190477 0.04642857142857143 0.021904761904761906
1 0.16071428571428573 0.32285714285714284 0.047857142857142855 0.024761904761904763
1 0.19428571428571428 0.5676190476190476 0.04 0.022857142857142857
1 0.13285714285714287 0.660952380952381 0.054285714285714284 0.02761904761904762
1 0.13285714285714287 0.6895238095238095 0.05285714285714286 0.021904761904761906
1 0.13214285714285715 0.7123809523809523 0.056428571428571425 0.023809523809523808
1 0.13 0.7361904761904762 0.055714285714285716 0.02095238095238095
1 0.17714285714285713 0.7704761904761904 0.05071428571428571 0.03428571428571429
1 0.062142857142857146 0.7114285714285714 0.05357142857142857 0.017142857142857144
1 0.06285714285714286 0.6866666666666666 0.05142857142857143 0.01904761904761905
1 0.060714285714285714 0.7333333333333333 0.05 0.01904761904761905
1 0.013571428571428571 0.6885714285714286 0.027142857142857142 0.015238095238095238
1 0.012857142857142857 0.7152380952380952 0.02642857142857143 0.01619047619047619
1 0.012142857142857143 0.7390476190476191 0.025 0.013333333333333334
1 0.11 0.8914285714285715 0.05 0.02666666666666667
1 0.11 0.9542857142857143 0.04642857142857143 0.024761904761904763
1 0.11 0.9838095238095238 0.05857142857142857 0.023809523809523808
0 0.22857142857142856 0.8714285714285714 0.015714285714285715 0.029523809523809525
1 0.42 0.9038095238095238 0.017857142857142856 0.06380952380952382
1 0.4064285714285714 0.7333333333333333 0.017142857142857144 0.05523809523809524
1 0.5757142857142857 0.7790476190476191 0.016428571428571428 0.06285714285714286
1 0.8571428571428571 0.878095238095238 0.03571428571428571 0.025714285714285714
1 0.8557142857142858 0.9047619047619048 0.03214285714285714 0.01904761904761905
1 0.8707142857142857 0.7057142857142857 0.035 0.022857142857142857
1 0.8721428571428571 0.6885714285714286 0.03785714285714286 0.023809523809523808
1 0.8757142857142857 0.6714285714285714 0.04 0.02
1 0.8771428571428571 0.6438095238095238 0.032857142857142856 0.02666666666666667
1 0.8757142857142857 0.6180952380952381 0.037142857142857144 0.021904761904761906
1 0.8864285714285715 0.5266666666666666 0.04928571428571429 0.03142857142857143
0 0.8935714285714286 0.5228571428571429 0.02142857142857143 0.025714285714285714
1 0.905 0.30857142857142855 0.04857142857142857 0.02761904761904762
1 0.9171428571428571 0.23333333333333334 0.04 0.03142857142857143
1 0.8592857142857143 0.17523809523809525 0.045 0.03142857142857143
0 0.42857142857142855 0.39904761904761904 0.012142857142857143 0.02761904761904762
1 0.43 0.39904761904761904 0.012857142857142857 0.06
0 0.4057142857142857 0.7342857142857143 0.017142857142857144 0.025714285714285714
0 0.5771428571428572 0.7742857142857142 0.015 0.03428571428571429
0 0.4185714285714286 0.9133333333333333 0.019285714285714285 0.023809523809523808
