1 0.2914285714285714 0.014285714285714285 0.03571428571428571 0.02666666666666667
1 0.3657142857142857 0.015238095238095238 0.023571428571428573 0.03142857142857143
1 0.405 0.012380952380952381 0.027142857142857142 0.025714285714285714
1 0.4592857142857143 0.023809523809523808 0.03142857142857143 0.047619047619047616
1 0.35714285714285715 0.05142857142857143 0.030714285714285715 0.05333333333333334
1 0.26785714285714285 0.0419047619047619 0.06142857142857143 0.039047619047619046
1 0.22857142857142856 0.06857142857142857 0.065 0.040952380952380955
1 0.39714285714285713 0.0419047619047619 0.025714285714285714 0.047619047619047616
1 0.3442857142857143 0.09904761904761905 0.03214285714285714 0.04857142857142857
1 0.3892857142857143 0.08 0.03 0.06095238095238095
1 0.175 0.23714285714285716 0.07142857142857142 0.04857142857142857
1 0.11857142857142858 0.4247619047619048 0.07357142857142857 0.11238095238095239
1 0.1407142857142857 0.29904761904761906 0.027142857142857142 0.03619047619047619
1 0.29285714285714287 0.24095238095238095 0.027857142857142858 0.06857142857142857
1 0.335 0.24571428571428572 0.045714285714285714 0.07904761904761905
1 0.37857142857142856 0.23809523809523808 0.032857142857142856 0.08285714285714285
1 0.44642857142857145 0.25142857142857145 0.03142857142857143 0.08571428571428572
1 0.24785714285714286 0.379047619047619 0.05357142857142857 0.0980952380952381
0 0.4042857142857143 0.22857142857142856 0.015 0.04380952380952381
0 0.36714285714285716 0.4142857142857143 0.014285714285714285 0.04666666666666667
1 0.35 0.3514285714285714 0.04642857142857143 0.1019047619047619
1 0.31142857142857144 0.5276190476190477 0.06 0.13714285714285715
1 0.21071428571428572 0.520952380952381 0.06 0.12571428571428572
1 0.15285714285714286 0.7219047619047619 0.10357142857142858 0.20761904761904762
1 0.2792857142857143 0.6914285714285714 0.065 0.14285714285714285
1 0.3357142857142857 0.78 0.06571428571428571 0.19904761904761906
1 0.24785714285714286 0.8895238095238095 0.08571428571428572 0.2123809523809524
1 0.11785714285714285 0.9419047619047619 0.08714285714285715 0.11428571428571428
1 0.515 0.4095238095238095 0.06714285714285714 0.22476190476190477
1 0.6057142857142858 0.18666666666666668 0.03428571428571429 0.06476190476190476
1 0.67 0.2819047619047619 0.025714285714285714 0.06
0 0.5957142857142858 0.012380952380952381 0.009285714285714286 0.024761904761904763
0 0.6078571428571429 0.017142857142857144 0.007142857142857143 0.035238095238095235
0 0.6178571428571429 0.02095238095238095 0.007857142857142858 0.037142857142857144
1 0.6707142857142857 0.06380952380952382 0.04928571428571429 0.058095238095238096
1 0.675 0.11333333333333333 0.03571428571428571 0.05238095238095238
1 0.6921428571428572 0.18 0.03857142857142857 0.06571428571428571
1 0.7092857142857143 0.2571428571428571 0.05 0.07714285714285714
1 0.7328571428571429 0.33714285714285713 0.04928571428571429 0.0838095238095238
1 0.77 0.4542857142857143 0.05857142857142857 0.10285714285714286
1 0.8071428571428572 0.5876190476190476 0.07642857142857143 0.12571428571428572
1 0.8564285714285714 0.78 0.10214285714285715 0.1895238095238095
1 0.9128571428571428 0.9561904761904761 0.09357142857142857 0.08285714285714285
