0 0.17142857142857143 0.9682741116751269 0.020714285714285713 0.027918781725888325
0 0.16785714285714284 0.9530456852791879 0.02 0.021573604060913704
0 0.29428571428571426 0.7233502538071066 0.015714285714285715 0.03553299492385787
0 0.31857142857142856 0.7233502538071066 0.020714285714285713 0.027918781725888325
0 0.32285714285714284 0.6890862944162437 0.014285714285714285 0.024111675126903553
0 0.31 0.6421319796954315 0.011428571428571429 0.030456852791878174
0 0.36714285714285716 0.684010152284264 0.016428571428571428 0.02918781725888325
0 0.3457142857142857 0.6015228426395939 0.011428571428571429 0.030456852791878174
0 0.4714285714285714 0.5939086294416244 0.010714285714285714 0.025380710659898477
0 0.555 0.6078680203045685 0.01 0.02284263959390863
0 0.5792857142857143 0.6522842639593909 0.014285714285714285 0.025380710659898477
0 0.5992857142857143 0.6776649746192893 0.014285714285714285 0.03426395939086294
0 0.6071428571428571 0.6548223350253807 0.015714285714285715 0.031725888324873094
0 0.6428571428571429 0.6802030456852792 0.015714285714285715 0.02918781725888325
0 0.6335714285714286 0.6459390862944162 0.010714285714285714 0.025380710659898477
0 0.645 0.6484771573604061 0.008571428571428572 0.025380710659898477
0 0.6614285714285715 0.6624365482233503 0.015714285714285715 0.03680203045685279
0 0.67 0.6814720812182741 0.012857142857142857 0.031725888324873094
0 0.2621428571428571 0.4784263959390863 0.012857142857142857 0.03426395939086294
0 0.2814285714285714 0.46954314720812185 0.012142857142857143 0.03807106598984772
0 0.4421428571428571 0.17639593908629442 0.008571428571428572 0.03680203045685279
