1 0.11444921316165951 0.6297709923664122 0.11945636623748211 0.13263358778625955
0 0.14091559370529327 0.9112595419847328 0.03648068669527897 0.03721374045801527
0 0.1888412017167382 0.683206106870229 0.02575107296137339 0.04484732824427481
0 0.20529327610872675 0.5639312977099237 0.019313304721030045 0.03721374045801527
0 0.33476394849785407 0.4866412213740458 0.012875536480686695 0.03721374045801527
0 0.5643776824034334 0.45038167938931295 0.012875536480686695 0.03244274809160305
0 0.5686695278969958 0.44179389312977096 0.011444921316165951 0.03244274809160305
0 0.5779685264663805 0.5916030534351145 0.01430615164520744 0.042938931297709926
1 0.2396280400572246 0.8444656488549618 0.1351931330472103 0.12786259541984732
1 0.28183118741058655 0.7633587786259542 0.12947067238912732 0.12022900763358779
1 0.3168812589413448 0.6774809160305344 0.12017167381974249 0.10400763358778627
1 0.3583690987124464 0.6173664122137404 0.10801144492131616 0.0982824427480916
1 0.37625178826895567 0.5524809160305344 0.10085836909871244 0.08015267175572519
1 0.7381974248927039 0.4265267175572519 0.05436337625178827 0.11068702290076336
1 0.8404864091559371 0.26908396946564883 0.045779685264663805 0.10114503816793893
1 0.7575107296137339 0.2452290076335878 0.0407725321888412 0.08874045801526717
1 0.9549356223175965 0.6765267175572519 0.060085836909871244 0.15553435114503816
1 0.9484978540772532 0.1431297709923664 0.02503576537911302 0.05820610687022901
1 0.7939914163090128 0.07538167938931298 0.024320457796852647 0.060114503816793896
0 0.8032904148783977 0.33110687022900764 0.015021459227467811 0.02099236641221374
1 0.7989985693848355 0.34923664122137404 0.015736766809728183 0.03816793893129771
0 0.30686695278969955 0.44751908396946566 0.015021459227467811 0.046755725190839696
0 0.35550786838340487 0.3988549618320611 0.012875536480686695 0.03816793893129771
0 0.24105865522174535 0.4169847328244275 0.012875536480686695 0.03625954198473282
0 0.32331902718168815 0.43702290076335876 0.01072961373390558 0.025763358778625955
0 0.33047210300429186 0.4150763358778626 0.0178826895565093 0.03244274809160305
0 0.43705293276108725 0.37786259541984735 0.012875536480686695 0.03625954198473282
0 0.42131616595135907 0.4532442748091603 0.02074391988555079 0.03435114503816794
0 0.36123032904148783 0.37404580152671757 0.015736766809728183 0.03816793893129771
0 0.28469241773962806 0.3797709923664122 0.0178826895565093 0.03816793893129771
0 0.271101573676681 0.3893129770992366 0.022889842632331903 0.029580152671755726
1 0.2832618025751073 0.37309160305343514 0.032188841201716736 0.026717557251908396
1 0.315450643776824 0.3998091603053435 0.01430615164520744 0.04484732824427481
1 0.3376251788268956 0.37404580152671757 0.015736766809728183 0.04198473282442748
1 0.3605150214592275 0.37213740458015265 0.026466380543633764 0.030534351145038167
1 0.38197424892703863 0.4847328244274809 0.03791130185979971 0.029580152671755726
1 0.4041487839771102 0.48854961832061067 0.029327610872675252 0.03625954198473282
1 0.48569384835479257 0.5095419847328244 0.02575107296137339 0.04484732824427481
1 0.6030042918454935 0.6020992366412213 0.045779685264663805 0.026717557251908396
1 0.44420600858369097 0.5324427480916031 0.0357653791130186 0.03816793893129771
0 0.4670958512160229 0.4169847328244275 0.012875536480686695 0.04484732824427481
0 0.6294706723891274 0.4637404580152672 0.017167381974248927 0.04389312977099236
0 0.5951359084406295 0.5486641221374046 0.015021459227467811 0.039122137404580155
0 0.5894134477825465 0.517175572519084 0.013590844062947067 0.03816793893129771
0 0.5908440629470673 0.48854961832061067 0.013590844062947067 0.04007633587786259
0 0.5493562231759657 0.5734732824427481 0.015021459227467811 0.04484732824427481
0 0.37124463519313305 0.21278625954198474 0.010014306151645207 0.03816793893129771
1 0.3497854077253219 0.33396946564885494 0.026466380543633764 0.02767175572519084
0 0.4284692417739628 0.39122137404580154 0.012875536480686695 0.042938931297709926
0 0.4470672389127325 0.38072519083969464 0.01072961373390558 0.03721374045801527
0 0.43490701001430615 0.44179389312977096 0.012160228898426323 0.033396946564885496
1 0.41702432045779686 0.4713740458015267 0.02861230329041488 0.025763358778625955
1 0.45493562231759654 0.4770992366412214 0.03648068669527897 0.02480916030534351
1 0.4563662374821173 0.4532442748091603 0.027896995708154508 0.03435114503816794
1 0.43490701001430615 0.45610687022900764 0.035050071530758224 0.05248091603053435
1 0.5085836909871244 0.48091603053435117 0.034334763948497854 0.020038167938931296
1 0.550071530758226 0.49236641221374045 0.03862660944206009 0.03244274809160305
1 0.5543633762517882 0.4847328244274809 0.032188841201716736 0.03148854961832061
1 0.4978540772532189 0.4637404580152672 0.03934191702432046 0.025763358778625955
1 0.5157367668097281 0.44656488549618323 0.03862660944206009 0.030534351145038167
1 0.5586552217453505 0.5486641221374046 0.016452074391988557 0.04103053435114504
1 0.5722460658082976 0.5591603053435115 0.015021459227467811 0.029580152671755726
1 0.617310443490701 0.5744274809160306 0.04291845493562232 0.02862595419847328
0 0.5758226037195995 0.5391221374045801 0.011444921316165951 0.04103053435114504
1 0.5450643776824035 0.5791984732824428 0.03791130185979971 0.04103053435114504
0 0.42775393419170243 0.37309160305343514 0.010014306151645207 0.02862595419847328
0 0.43919885550786836 0.3520992366412214 0.009298998569384835 0.03148854961832061
0 0.44849785407725323 0.3530534351145038 0.012875536480686695 0.03816793893129771
0 0.45064377682403434 0.34064885496183206 0.013590844062947067 0.03816793893129771
0 0.47854077253218885 0.383587786259542 0.012160228898426323 0.04103053435114504
0 0.4613733905579399 0.40553435114503816 0.01072961373390558 0.02862595419847328
0 0.4949928469241774 0.4026717557251908 0.011444921316165951 0.04198473282442748
0 0.5028612303290415 0.4208015267175573 0.012160228898426323 0.04389312977099236
0 0.6809728183118741 0.7767175572519084 0.01430615164520744 0.035305343511450385
0 0.6666666666666666 0.7748091603053435 0.016452074391988557 0.03625954198473282
1 0.5314735336194564 0.625 0.022889842632331903 0.042938931297709926
1 0.49141630901287553 0.7080152671755725 0.016452074391988557 0.05057251908396947
1 0.5300429184549357 0.601145038167939 0.022889842632331903 0.04389312977099236
1 0.5450643776824035 0.6192748091603053 0.012875536480686695 0.03435114503816794
1 0.6781115879828327 0.3845419847328244 0.01859799713876967 0.035305343511450385
1 0.6809728183118741 0.35782442748091603 0.030758226037195996 0.02099236641221374
0 0.4728183118741059 0.36450381679389315 0.01072961373390558 0.03435114503816794
0 0.4799713876967096 0.3530534351145038 0.009298998569384835 0.030534351145038167
0 0.4899856938483548 0.35877862595419846 0.012160228898426323 0.029580152671755726
0 0.49427753934191704 0.35400763358778625 0.011444921316165951 0.022900763358778626
0 0.4742489270386266 0.3501908396946565 0.011444921316165951 0.026717557251908396
0 0.5257510729613734 0.383587786259542 0.011444921316165951 0.02862595419847328
0 0.5293276108726752 0.37309160305343514 0.008583690987124463 0.03244274809160305
0 0.5815450643776824 0.38263358778625955 0.00715307582260372 0.03435114503816794
0 0.6022889842632332 0.3998091603053435 0.012160228898426323 0.02862595419847328
0 0.5572246065808297 0.3969465648854962 0.01072961373390558 0.039122137404580155
0 0.5708154506437768 0.39408396946564883 0.011444921316165951 0.039122137404580155
0 0.5364806866952789 0.3291984732824427 0.015736766809728183 0.02767175572519084
0 0.550071530758226 0.3797709923664122 0.013590844062947067 0.029580152671755726
0 0.5593705293276109 0.37690839694656486 0.01072961373390558 0.035305343511450385
0 0.5665236051502146 0.36927480916030536 0.007868383404864092 0.02385496183206107
0 0.5722460658082976 0.37595419847328243 0.008583690987124463 0.02194656488549618
0 0.6123032904148784 0.39122137404580154 0.009298998569384835 0.026717557251908396
0 0.6316165951359084 0.37786259541984735 0.007868383404864092 0.03148854961832061
0 0.648068669527897 0.35877862595419846 0.008583690987124463 0.04007633587786259
0 0.642346208869814 0.35591603053435117 0.00715307582260372 0.03816793893129771
0 0.5951359084406295 0.3902671755725191 0.01072961373390558 0.033396946564885496
0 0.605865522174535 0.3845419847328244 0.007868383404864092 0.022900763358778626
0 0.6151645207439199 0.37309160305343514 0.009298998569384835 0.026717557251908396
0 0.6180257510729614 0.3683206106870229 0.012875536480686695 0.035305343511450385
0 0.6251788268955651 0.36736641221374045 0.009298998569384835 0.033396946564885496
0 0.628755364806867 0.3616412213740458 0.010014306151645207 0.03148854961832061
0 0.6251788268955651 0.3482824427480916 0.010014306151645207 0.026717557251908396
0 0.6373390557939914 0.3425572519083969 0.009298998569384835 0.03721374045801527
0 0.642346208869814 0.3291984732824427 0.007868383404864092 0.030534351145038167
0 0.6459227467811158 0.3187022900763359 0.006437768240343348 0.02480916030534351
0 0.6595135908440629 0.31297709923664124 0.011444921316165951 0.03625954198473282
0 0.6509298998569385 0.3101145038167939 0.007868383404864092 0.035305343511450385
0 0.6502145922746781 0.2967557251908397 0.011444921316165951 0.033396946564885496
0 0.6666666666666666 0.3005725190839695 0.00715307582260372 0.02862595419847328
0 0.6602288984263234 0.2958015267175573 0.009298998569384835 0.02767175572519084
0 0.6437768240343348 0.2595419847328244 0.012160228898426323 0.03625954198473282
0 0.6502145922746781 0.2538167938931298 0.006437768240343348 0.02862595419847328
0 0.6695278969957081 0.24713740458015268 0.008583690987124463 0.04198473282442748
0 0.6623748211731044 0.27576335877862596 0.01072961373390558 0.025763358778625955
0 0.6773962804005722 0.2452290076335878 0.006437768240343348 0.03721374045801527
0 0.67310443490701 0.22900763358778625 0.01072961373390558 0.035305343511450385
0 0.6566523605150214 0.26622137404580154 0.008583690987124463 0.02862595419847328
0 0.6087267525035766 0.3473282442748092 0.00715307582260372 0.029580152671755726
1 0.6652360515021459 0.2099236641221374 0.013590844062947067 0.02767175572519084
1 0.7110157367668097 0.25 0.009298998569384835 0.02767175572519084
1 0.7195994277539342 0.24045801526717558 0.015021459227467811 0.030534351145038167
0 0.4799713876967096 0.2643129770992366 0.008583690987124463 0.02480916030534351
0 0.4613733905579399 0.2700381679389313 0.011444921316165951 0.026717557251908396
0 0.4799713876967096 0.24045801526717558 0.009298998569384835 0.03148854961832061
0 0.48783977110157367 0.23950381679389313 0.01430615164520744 0.03435114503816794
0 0.5257510729613734 0.15839694656488548 0.010014306151645207 0.025763358778625955
0 0.5321888412017167 0.14408396946564886 0.009298998569384835 0.02385496183206107
0 0.5178826895565093 0.15648854961832062 0.007868383404864092 0.02194656488549618
0 0.4949928469241774 0.15171755725190839 0.006437768240343348 0.02480916030534351
0 0.4685264663805436 0.17270992366412213 0.012875536480686695 0.02767175572519084
0 0.42131616595135907 0.1650763358778626 0.009298998569384835 0.019083969465648856
0 0.4184549356223176 0.1650763358778626 0.010014306151645207 0.022900763358778626
0 0.402002861230329 0.17748091603053434 0.010014306151645207 0.020038167938931296
0 0.41416309012875535 0.1717557251908397 0.010014306151645207 0.02194656488549618
0 0.4334763948497854 0.15839694656488548 0.009298998569384835 0.03148854961832061
0 0.438483547925608 0.15076335877862596 0.010014306151645207 0.029580152671755726
0 0.43204577968526464 0.1364503816793893 0.01072961373390558 0.02385496183206107
0 0.438483547925608 0.1269083969465649 0.008583690987124463 0.03244274809160305
0 0.5085836909871244 0.15076335877862596 0.00715307582260372 0.019083969465648856
0 0.5200286123032904 0.12881679389312978 0.008583690987124463 0.025763358778625955
0 0.5300429184549357 0.11164122137404581 0.006437768240343348 0.026717557251908396
0 0.5443490701001431 0.1269083969465649 0.010014306151645207 0.026717557251908396
0 0.530758226037196 0.08874045801526717 0.006437768240343348 0.02480916030534351
0 0.4899856938483548 0.04484732824427481 0.006437768240343348 0.03435114503816794
0 0.5150214592274678 0.01431297709923664 0.00715307582260372 0.02480916030534351
0 0.4678111587982833 0.11450381679389313 0.007868383404864092 0.02862595419847328
0 0.6752503576537912 0.07061068702290077 0.007868383404864092 0.03148854961832061
0 0.4592274678111588 0.11354961832061068 0.01072961373390558 0.022900763358778626
0 0.488555078683834 0.15648854961832062 0.00715307582260372 0.019083969465648856
0 0.5064377682403434 0.11545801526717557 0.007868383404864092 0.019083969465648856
1 0.5114449213161659 0.016221374045801526 0.022889842632331903 0.01812977099236641
0 0.6409155937052933 0.09541984732824428 0.005722460658082976 0.020038167938931296
1 0.670958512160229 0.13931297709923665 0.022174535050071532 0.02480916030534351
1 0.7081545064377682 0.10687022900763359 0.06437768240343347 0.04389312977099236
1 0.6402002861230329 0.11450381679389313 0.060801144492131615 0.04103053435114504
1 0.5822603719599427 0.025763358778625955 0.030042918454935622 0.04007633587786259
1 0.4814020028612303 0.03625954198473282 0.030758226037195996 0.03148854961832061
1 0.567238912732475 0.08396946564885496 0.07010014306151645 0.07347328244274809
1 0.6459227467811158 0.06393129770992366 0.05007153075822604 0.04103053435114504
