0 0.5695 0.028 0.0185 0.056666666666666664
0 0.5565 0.088 0.019 0.07933333333333334
0 0.5515 0.20666666666666667 0.019 0.06733333333333333
0 0.35 0.38 0.034 0.07066666666666667
0 0.6045 0.4686666666666667 0.0285 0.06866666666666667
0 0.572 0.6326666666666667 0.03 0.051333333333333335
0 0.592 0.614 0.0205 0.036
0 0.6365 0.6573333333333333 0.032 0.048
0 0.625 0.5973333333333334 0.028 0.04533333333333334
0 0.6735 0.47933333333333333 0.032 0.06133333333333333
0 0.684 0.5486666666666666 0.037 0.06
0 0.7765 0.574 0.0275 0.07466666666666667
0 0.734 0.592 0.0445 0.052
0 0.4515 0.522 0.0335 0.058666666666666666
0 0.46 0.31333333333333335 0.03 0.062
0 0.434 0.11933333333333333 0.025 0.052
0 0.4415 0.106 0.0185 0.03933333333333333
0 0.405 0.39666666666666667 0.028 0.05
1 0.408 0.404 0.03 0.09466666666666666
1 0.466 0.338 0.02 0.076
1 0.4545 0.5393333333333333 0.025 0.09
1 0.617 0.5453333333333333 0.0405 0.094
1 0.436 0.14333333333333334 0.02 0.088
0 0.626 0.13533333333333333 0.0235 0.08466666666666667
0 0.6275 0.11666666666666667 0.032 0.078
0 0.621 0.059333333333333335 0.035 0.052
0 0.6205 0.037333333333333336 0.037 0.054
0 0.698 0.15 0.022 0.084
0 0.7035 0.17133333333333334 0.022 0.062
0 0.731 0.17066666666666666 0.02 0.06133333333333333
0 0.6535 0.44066666666666665 0.0285 0.05733333333333333
0 0.7185 0.81 0.0535 0.04533333333333334
0 0.5505 0.8713333333333333 0.0195 0.028
0 0.581 0.7313333333333333 0.036 0.056666666666666664
0 0.5465 0.86 0.034 0.06533333333333333
0 0.6965 0.89 0.0345 0.04066666666666666
0 0.713 0.9466666666666667 0.0445 0.042
0 0.8165 0.8526666666666667 0.0545 0.06466666666666666
1 0.5845 0.7393333333333333 0.0465 0.10933333333333334
0 0.341 0.8313333333333334 0.0435 0.046
0 0.4175 0.8633333333333333 0.0395 0.06133333333333333
1 0.4135 0.8573333333333333 0.0255 0.12733333333333333
1 0.296 0.966 0.0705 0.058666666666666666
1 0.309 0.38266666666666665 0.055 0.14866666666666667
1 0.1505 0.3953333333333333 0.0885 0.11266666666666666
1 0.136 0.23666666666666666 0.1005 0.06933333333333333
1 0.2305 0.23866666666666667 0.061 0.04533333333333334
1 0.066 0.388 0.0685 0.05266666666666667
