1 0.5292857142857142 0.9175126903553299 0.032857142857142856 0.09771573604060914
1 0.555 0.5139593908629442 0.019285714285714285 0.0583756345177665
1 0.5621428571428572 0.45050761421319796 0.019285714285714285 0.046954314720812185
1 0.5735714285714286 0.4010152284263959 0.017857142857142856 0.04314720812182741
1 0.5764285714285714 0.34517766497461927 0.019285714285714285 0.048223350253807105
1 0.59 0.30583756345177665 0.014285714285714285 0.04314720812182741
1 0.6 0.26649746192893403 0.016428571428571428 0.04060913705583756
1 0.5814285714285714 0.7855329949238579 0.023571428571428573 0.0799492385786802
1 0.565 0.6510152284263959 0.027142857142857142 0.07614213197969544
1 0.4257142857142857 0.8058375634517766 0.03857142857142857 0.10279187817258884
1 0.6071428571428571 0.06218274111675127 0.012857142857142857 0.031725888324873094
1 0.7142857142857143 0.7030456852791879 0.029285714285714286 0.0901015228426396
1 0.6392857142857142 0.09263959390862944 0.012142857142857143 0.02918781725888325
1 0.6164285714285714 0.013959390862944163 0.012857142857142857 0.02918781725888325
0 0.16428571428571428 0.7284263959390863 0.01 0.02918781725888325
0 0.12785714285714286 0.7423857868020305 0.009285714285714286 0.021573604060913704
0 0.1357142857142857 0.9289340101522843 0.008571428571428572 0.027918781725888325
0 0.3335714285714286 0.6218274111675127 0.007857142857142858 0.02284263959390863
0 0.3264285714285714 0.631979695431472 0.008571428571428572 0.024111675126903553
1 0.7814285714285715 0.8908629441624365 0.025 0.10152284263959391
1 0.49714285714285716 0.14086294416243655 0.008571428571428572 0.02284263959390863
