0 0.0064285714285714285 0.5279187817258884 0.009285714285714286 0.01649746192893401
0 0.052142857142857144 0.434010152284264 0.005714285714285714 0.01649746192893401
0 0.05 0.4352791878172589 0.005714285714285714 0.013959390862944163
0 0.06642857142857143 0.41751269035532995 0.005714285714285714 0.01649746192893401
0 0.07 0.4200507614213198 0.0035714285714285713 0.013959390862944163
0 0.075 0.40609137055837563 0.004285714285714286 0.017766497461928935
0 0.08285714285714285 0.41116751269035534 0.007142857142857143 0.021573604060913704
0 0.08928571428571429 0.4073604060913706 0.005 0.01903553299492386
0 0.09357142857142857 0.40609137055837563 0.004285714285714286 0.01649746192893401
0 0.12071428571428572 0.37944162436548223 0.005 0.011421319796954314
0 0.10285714285714286 0.3730964467005076 0.005714285714285714 0.01903553299492386
0 0.105 0.3756345177664975 0.0035714285714285713 0.011421319796954314
0 0.11142857142857143 0.3743654822335025 0.002857142857142857 0.007614213197969543
0 0.13071428571428573 0.350253807106599 0.005714285714285714 0.01649746192893401
0 0.11 0.36421319796954316 0.004285714285714286 0.013959390862944163
0 0.11142857142857143 0.3629441624365482 0.002857142857142857 0.012690355329949238
0 0.12 0.35279187817258884 0.005 0.01649746192893401
0 0.155 0.31091370558375636 0.004285714285714286 0.015228426395939087
0 0.17714285714285713 0.3020304568527919 0.002142857142857143 0.013959390862944163
0 0.18 0.30456852791878175 0.0035714285714285713 0.015228426395939087
0 0.2 0.30583756345177665 0.0035714285714285713 0.01015228426395939
1 0.10214285714285715 0.9758883248730964 0.04857142857142857 0.04568527918781726
1 0.17142857142857143 0.9593908629441624 0.05142857142857143 0.07741116751269035
1 0.15357142857142858 0.6687817258883249 0.047857142857142855 0.08756345177664974
1 0.23785714285714285 0.4619289340101523 0.02642857142857143 0.044416243654822336
1 0.22071428571428572 0.3197969543147208 0.016428571428571428 0.02284263959390863
1 0.25285714285714284 0.2715736040609137 0.011428571428571429 0.01649746192893401
1 0.25642857142857145 0.24619289340101522 0.013571428571428571 0.02030456852791878
1 0.26857142857142857 0.2182741116751269 0.01 0.01649746192893401
1 0.32571428571428573 0.2131979695431472 0.009285714285714286 0.017766497461928935
1 0.3414285714285714 0.18527918781725888 0.007857142857142858 0.013959390862944163
1 0.33071428571428574 0.17385786802030456 0.007857142857142858 0.01649746192893401
1 0.3142857142857143 0.1649746192893401 0.007142857142857143 0.01649746192893401
1 0.35642857142857143 0.1598984771573604 0.007142857142857143 0.013959390862944163
1 0.345 0.1548223350253807 0.0064285714285714285 0.012690355329949238
1 0.335 0.15101522842639595 0.007142857142857143 0.012690355329949238
1 0.35714285714285715 0.14593908629441624 0.005714285714285714 0.01015228426395939
1 0.3414285714285714 0.12944162436548223 0.005714285714285714 0.011421319796954314
1 0.3514285714285714 0.11802030456852793 0.005714285714285714 0.011421319796954314
1 0.305 0.13705583756345177 0.007142857142857143 0.01015228426395939
1 0.31642857142857145 0.1319796954314721 0.0064285714285714285 0.011421319796954314
1 0.32571428571428573 0.12944162436548223 0.005714285714285714 0.011421319796954314
1 0.31285714285714283 0.11802030456852793 0.005 0.011421319796954314
1 0.32357142857142857 0.11421319796954314 0.005 0.011421319796954314
1 0.3342857142857143 0.1065989847715736 0.005 0.01015228426395939
1 0.3407142857142857 0.08756345177664974 0.005 0.008883248730964468
1 0.13785714285714284 0.434010152284264 0.052142857142857144 0.07741116751269035
1 0.2857142857142857 0.16878172588832488 0.013571428571428571 0.024111675126903553
1 0.31785714285714284 0.10279187817258884 0.0064285714285714285 0.015228426395939087
1 0.305 0.1548223350253807 0.011428571428571429 0.0266497461928934
1 0.2985714285714286 0.17639593908629442 0.012142857142857143 0.027918781725888325
1 0.35 0.21954314720812182 0.013571428571428571 0.048223350253807105
1 0.35642857142857143 0.08629441624365482 0.005714285714285714 0.01649746192893401
1 0.36428571428571427 0.08248730964467005 0.005714285714285714 0.011421319796954314
1 0.3507142857142857 0.08629441624365482 0.004285714285714286 0.008883248730964468
1 0.6271428571428571 0.9352791878172588 0.03642857142857143 0.1065989847715736
1 0.51 0.6611675126903553 0.019285714285714285 0.04568527918781726
1 0.6164285714285714 0.7106598984771574 0.024285714285714285 0.0532994923857868
1 0.5428571428571428 0.6586294416243654 0.029285714285714286 0.08883248730964467
1 0.4992857142857143 0.501269035532995 0.014285714285714285 0.027918781725888325
1 0.5921428571428572 0.5076142131979695 0.02642857142857143 0.03680203045685279
1 0.5957142857142858 0.43147208121827413 0.022857142857142857 0.021573604060913704
1 0.5321428571428571 0.35152284263959394 0.01 0.01903553299492386
1 0.5407142857142857 0.3616751269035533 0.02 0.02030456852791878
1 0.5435714285714286 0.3743654822335025 0.012857142857142857 0.024111675126903553
1 0.5257142857142857 0.3426395939086294 0.011428571428571429 0.02284263959390863
1 0.5028571428571429 0.3020304568527919 0.009285714285714286 0.02284263959390863
1 0.49857142857142855 0.2956852791878173 0.007857142857142858 0.013959390862944163
1 0.49357142857142855 0.2880710659898477 0.010714285714285714 0.02030456852791878
1 0.4942857142857143 0.41878172588832485 0.015714285714285715 0.04314720812182741
1 0.52 0.46446700507614214 0.014285714285714285 0.024111675126903553
1 0.5135714285714286 0.4022842639593909 0.018571428571428572 0.04314720812182741
0 0.31 0.7093908629441624 0.007857142857142858 0.031725888324873094
0 0.35642857142857143 0.5266497461928934 0.005714285714285714 0.02284263959390863
0 0.36214285714285716 0.5241116751269036 0.005714285714285714 0.021573604060913704
0 0.34785714285714286 0.49619289340101524 0.005714285714285714 0.025380710659898477
0 0.4942857142857143 0.5253807106598984 0.004285714285714286 0.02284263959390863
0 0.49857142857142855 0.5215736040609137 0.005 0.02030456852791878
1 0.52 0.36928934010152287 0.015714285714285715 0.024111675126903553
1 0.5178571428571429 0.34517766497461927 0.011428571428571429 0.01903553299492386
1 0.5485714285714286 0.3870558375634518 0.010714285714285714 0.02284263959390863
1 0.48 0.2626903553299492 0.008571428571428572 0.02030456852791878
1 0.4592857142857143 0.27284263959390864 0.015 0.030456852791878174
1 0.4592857142857143 0.22842639593908629 0.007857142857142858 0.017766497461928935
1 0.4685714285714286 0.2436548223350254 0.007857142857142858 0.015228426395939087
1 0.4685714285714286 0.25 0.005714285714285714 0.01649746192893401
1 0.43714285714285717 0.23096446700507614 0.005 0.01015228426395939
1 0.4257142857142857 0.20812182741116753 0.012857142857142857 0.027918781725888325
1 0.415 0.19289340101522842 0.005714285714285714 0.011421319796954314
1 0.4057142857142857 0.17258883248730963 0.007142857142857143 0.012690355329949238
1 0.41 0.18274111675126903 0.005714285714285714 0.011421319796954314
1 0.4042857142857143 0.16116751269035534 0.005714285714285714 0.01649746192893401
1 0.44571428571428573 0.2068527918781726 0.005714285714285714 0.015228426395939087
1 0.4542857142857143 0.22081218274111675 0.007142857142857143 0.01649746192893401
1 0.4492857142857143 0.22461928934010153 0.007857142857142858 0.015228426395939087
0 0.06285714285714286 0.4606598984771574 0.0064285714285714285 0.013959390862944163
0 0.065 0.4581218274111675 0.008571428571428572 0.02030456852791878
