1 0.27609603340292277 0.7903525046382189 0.03549060542797495 0.07792207792207792
1 0.4921711899791232 0.7115027829313544 0.04697286012526096 0.05658627087198516
1 0.5469728601252609 0.6576994434137291 0.044363256784968684 0.05194805194805195
1 0.634133611691023 0.8330241187384044 0.0255741127348643 0.08070500927643785
1 0.41701461377870563 0.950834879406308 0.024530271398747392 0.09647495361781076
1 0.6132567849686847 0.575139146567718 0.038622129436325675 0.03896103896103896
1 0.16231732776617955 0.5705009276437848 0.02661795407098121 0.04916512059369202
1 0.19154488517745302 0.5769944341372912 0.024008350730688934 0.04823747680890538
1 0.14352818371607515 0.5371057513914657 0.02244258872651357 0.04452690166975881
1 0.12839248434237996 0.4897959183673469 0.020876826722338204 0.036178107606679034
1 0.16701461377870563 0.5157699443413729 0.027661795407098122 0.05658627087198516
1 0.15187891440501045 0.46938775510204084 0.024530271398747392 0.05194805194805195
1 0.1649269311064718 0.4387755102040816 0.021920668058455117 0.03432282003710575
1 0.11325678496868476 0.4536178107606679 0.02139874739039666 0.036178107606679034
1 0.081419624217119 0.3719851576994434 0.02035490605427975 0.03432282003710575
1 0.09498956158663883 0.3395176252319109 0.016701461377870562 0.027829313543599257
1 0.07776617954070981 0.2949907235621521 0.016179540709812108 0.027829313543599257
1 0.05636743215031315 0.29962894248608535 0.014613778705636743 0.025974025974025976
1 0.08402922755741127 0.2680890538033395 0.015135699373695199 0.02411873840445269
1 0.037578288100208766 0.22912801484230055 0.014091858037578288 0.02411873840445269
1 0.05167014613778706 0.2012987012987013 0.014091858037578288 0.023191094619666047
1 0.031837160751565764 0.18274582560296845 0.009394572025052192 0.016697588126159554
1 0.013048016701461378 0.17161410018552875 0.010960334029227558 0.016697588126159554
1 0.0036534446764091857 0.1326530612244898 0.007828810020876827 0.016697588126159554
1 0.8992693110647182 0.3423005565862709 0.022964509394572025 0.025974025974025976
1 0.9217118997912317 0.3450834879406308 0.02244258872651357 0.030612244897959183
1 0.824634655532359 0.1326530612244898 0.010960334029227558 0.022263450834879406
0 0.34498956158663885 0.8423005565862709 0.007306889352818371 0.026901669758812616
0 0.3731732776617954 0.699443413729128 0.0036534446764091857 0.022263450834879406
0 0.40187891440501045 0.7374768089053804 0.005741127348643006 0.01855287569573284
0 0.054801670146137786 0.699443413729128 0.007306889352818371 0.015769944341372914
0 0.05845511482254697 0.6326530612244898 0.008350730688935281 0.021335807050092765
0 0.9170146137787056 0.2560296846011132 0.0036534446764091857 0.006493506493506494
1 0.06002087682672234 0.6456400742115028 0.009394572025052192 0.017625231910946195
1 0.054801670146137786 0.7115027829313544 0.007306889352818371 0.02040816326530612
1 0.3721294363256785 0.7077922077922078 0.010438413361169102 0.023191094619666047
1 0.401356993736952 0.75139146567718 0.008350730688935281 0.021335807050092765
1 0.342901878914405 0.8552875695732839 0.006263048016701462 0.027829313543599257
1 0.6852818371607515 0.41465677179962895 0.005219206680584551 0.011131725417439703
1 0.9159707724425887 0.26437847866419295 0.005741127348643006 0.0074211502782931356
0 0.8935281837160751 0.27736549165120594 0.003131524008350731 0.01020408163265306
1 0.8935281837160751 0.28385899814471244 0.007306889352818371 0.0074211502782931356
0 0.6863256784968684 0.40630797773654914 0.0036534446764091857 0.00927643784786642
