0 0.181 0.019333333333333334 0.0125 0.022
0 0.1945 0.015333333333333332 0.0175 0.02266666666666667
0 0.208 0.03666666666666667 0.0185 0.018666666666666668
1 0.358 0.19 0.032 0.08133333333333333
1 0.4085 0.012 0.0565 0.024666666666666667
1 0.4155 0.04066666666666666 0.052 0.046
1 0.421 0.08266666666666667 0.049 0.042
1 0.418 0.11666666666666667 0.063 0.056666666666666664
0 0.476 0.12066666666666667 0.0075 0.021333333333333333
1 0.4605 0.08266666666666667 0.0265 0.08466666666666667
1 0.422 0.184 0.053 0.042
1 0.5495 0.12133333333333333 0.0275 0.08066666666666666
1 0.5505 0.21133333333333335 0.0435 0.07733333333333334
1 0.4235 0.244 0.0575 0.04533333333333334
1 0.431 0.30133333333333334 0.056 0.038
1 0.5485 0.28733333333333333 0.044 0.07533333333333334
0 0.523 0.3453333333333333 0.007 0.017333333333333333
0 0.528 0.346 0.0055 0.01
1 0.551 0.398 0.027 0.07533333333333334
1 0.5765 0.404 0.0325 0.07266666666666667
0 0.4775 0.45866666666666667 0.007 0.008666666666666666
1 0.447 0.446 0.0655 0.037333333333333336
0 0.4555 0.49533333333333335 0.01 0.010666666666666666
1 0.4205 0.5833333333333334 0.052 0.030666666666666665
0 0.3915 0.6126666666666667 0.0095 0.01
0 0.4975 0.5473333333333333 0.005 0.01
0 0.525 0.4666666666666667 0.0095 0.010666666666666666
1 0.538 0.020666666666666667 0.0285 0.04133333333333333
1 0.627 0.16733333333333333 0.07 0.058666666666666666
0 0.6905 0.42333333333333334 0.0115 0.009333333333333334
0 0.69 0.432 0.011 0.008
0 0.7105 0.41333333333333333 0.006 0.013333333333333334
0 0.731 0.38 0.019 0.013333333333333334
0 0.7525 0.412 0.012 0.012
1 0.758 0.452 0.02 0.021333333333333333
0 0.717 0.436 0.0115 0.008
0 0.7045 0.442 0.0115 0.008
1 0.6805 0.4493333333333333 0.015 0.013333333333333334
1 0.6085 0.5293333333333333 0.052 0.028666666666666667
1 0.583 0.5726666666666667 0.055 0.035333333333333335
0 0.619 0.6006666666666667 0.0105 0.011333333333333334
0 0.6505 0.596 0.0105 0.011333333333333334
0 0.728 0.5993333333333334 0.0135 0.011333333333333334
0 0.773 0.62 0.0105 0.012666666666666666
1 0.658 0.5706666666666667 0.0545 0.03333333333333333
1 0.69 0.616 0.058 0.034
1 0.7485 0.5766666666666667 0.0555 0.030666666666666665
1 0.796 0.5586666666666666 0.0315 0.07133333333333333
1 0.843 0.548 0.0105 0.024666666666666667
0 0.831 0.5913333333333334 0.0135 0.012666666666666666
0 0.833 0.6126666666666667 0.0075 0.005333333333333333
0 0.8505 0.622 0.011 0.012666666666666666
0 0.829 0.6333333333333333 0.013 0.011333333333333334
1 0.749 0.6553333333333333 0.0545 0.036
1 0.8115 0.6926666666666667 0.012 0.028
0 0.8115 0.694 0.0135 0.016666666666666666
1 0.7595 0.694 0.0795 0.03266666666666666
1 0.7075 0.6953333333333334 0.0315 0.08266666666666667
1 0.738 0.7606666666666667 0.011 0.03
0 0.8365 0.8526666666666667 0.0185 0.017333333333333333
1 0.8625 0.8393333333333334 0.014 0.03333333333333333
1 0.84 0.7806666666666666 0.013 0.03866666666666667
0 0.8395 0.782 0.016 0.018
1 0.853 0.7213333333333334 0.0095 0.03266666666666666
1 0.658 0.6646666666666666 0.0145 0.010666666666666666
1 0.663 0.6926666666666667 0.018 0.042666666666666665
1 0.6525 0.7473333333333333 0.053 0.038
1 0.654 0.8666666666666667 0.0405 0.076
1 0.699 0.8673333333333333 0.0305 0.07866666666666666
0 0.6765 0.86 0.006 0.008
1 0.733 0.8633333333333333 0.0275 0.096
0 0.476 0.5626666666666666 0.005 0.008666666666666666
0 0.479 0.5353333333333333 0.005 0.010666666666666666
1 0.516 0.7033333333333334 0.008 0.030666666666666665
0 0.5155 0.7073333333333334 0.0095 0.014
1 0.5055 0.8306666666666667 0.012 0.046
0 0.562 0.8846666666666667 0.0075 0.02266666666666667
0 0.5965 0.932 0.0075 0.016666666666666666
0 0.534 0.936 0.008 0.023333333333333334
0 0.8435 0.9333333333333333 0.012 0.022
0 0.835 0.9306666666666666 0.014 0.015333333333333332
1 0.878 0.9593333333333334 0.023 0.023333333333333334
0 0.8795 0.9613333333333334 0.0155 0.020666666666666667
0 0.915 0.9886666666666667 0.015 0.022
0 0.837 0.9586666666666667 0.013 0.016666666666666666
0 0.8415 0.9873333333333333 0.0095 0.007333333333333333
0 0.8335 0.992 0.006 0.01
0 0.8395 0.98 0.012 0.013333333333333334
0 0.5145 0.9373333333333334 0.009 0.012666666666666666
1 0.4795 0.9333333333333333 0.0655 0.042666666666666665
1 0.4175 0.936 0.0555 0.046
1 0.39 0.8973333333333333 0.038 0.02666666666666667
1 0.3775 0.9566666666666667 0.0335 0.08666666666666667
1 0.3515 0.966 0.029 0.068
1 0.397 0.8146666666666667 0.009 0.03333333333333333
1 0.385 0.826 0.0115 0.034666666666666665
1 0.364 0.8126666666666666 0.008 0.028666666666666667
1 0.351 0.8206666666666667 0.0085 0.028
1 0.341 0.82 0.0095 0.030666666666666665
1 0.329 0.8166666666666667 0.009 0.03866666666666667
1 0.3215 0.8166666666666667 0.0105 0.035333333333333335
1 0.3095 0.8266666666666667 0.006 0.028
1 0.3055 0.7666666666666667 0.012 0.03133333333333333
1 0.2915 0.786 0.0065 0.026
1 0.279 0.7846666666666666 0.014 0.024666666666666667
1 0.3195 0.7633333333333333 0.02 0.052
1 0.2975 0.8433333333333334 0.013 0.028
1 0.2815 0.8533333333333334 0.018 0.019333333333333334
1 0.282 0.7606666666666667 0.0305 0.022
1 0.2455 0.8053333333333333 0.019 0.013333333333333334
1 0.2555 0.7873333333333333 0.011 0.017333333333333333
1 0.257 0.7653333333333333 0.0325 0.027333333333333334
0 0.2155 0.8466666666666667 0.0065 0.009333333333333334
1 0.2445 0.8486666666666667 0.033 0.044
0 0.3155 0.944 0.011 0.024666666666666667
0 0.3095 0.9566666666666667 0.013 0.027333333333333334
0 0.3075 0.9853333333333333 0.0175 0.024
