0 0.25357142857142856 0.559047619047619 0.02142857142857143 0.04380952380952381
0 0.26357142857142857 0.5619047619047619 0.02214285714285714 0.040952380952380955
0 0.17357142857142857 0.4990476190476191 0.015714285714285715 0.03619047619047619
0 0.16428571428571428 0.5171428571428571 0.015 0.029523809523809525
0 0.14357142857142857 0.5047619047619047 0.012857142857142857 0.03333333333333333
0 0.15142857142857144 0.5104761904761905 0.019285714285714285 0.030476190476190476
0 0.8035714285714286 0.7142857142857143 0.03142857142857143 0.05523809523809524
0 0.735 0.7 0.024285714285714285 0.05142857142857143
0 0.755 0.660952380952381 0.016428571428571428 0.037142857142857144
0 0.6557142857142857 0.6038095238095238 0.019285714285714285 0.03619047619047619
0 0.6557142857142857 0.6266666666666667 0.025 0.039047619047619046
0 0.675 0.6352380952380953 0.018571428571428572 0.035238095238095235
0 0.7 0.6552380952380953 0.025714285714285714 0.047619047619047616
0 0.6721428571428572 0.6676190476190477 0.015714285714285715 0.058095238095238096
0 0.655 0.66 0.015714285714285715 0.05142857142857143
0 0.9835714285714285 0.6019047619047619 0.029285714285714286 0.047619047619047616
0 0.9314285714285714 0.5923809523809523 0.017857142857142856 0.05238095238095238
0 0.9492857142857143 0.5980952380952381 0.024285714285714285 0.05333333333333334
0 0.8142857142857143 0.5352380952380953 0.025714285714285714 0.04666666666666667
0 0.835 0.5419047619047619 0.02142857142857143 0.03333333333333333
0 0.8485714285714285 0.5323809523809524 0.018571428571428572 0.03333333333333333
0 0.8721428571428571 0.5685714285714286 0.023571428571428573 0.045714285714285714
0 0.8964285714285715 0.5761904761904761 0.03 0.05619047619047619
0 0.915 0.5704761904761905 0.02 0.0380952380952381
0 0.8821428571428571 0.5714285714285714 0.027142857142857142 0.05333333333333334
0 0.745 0.40285714285714286 0.015 0.02857142857142857
0 0.7707142857142857 0.41523809523809524 0.017857142857142856 0.0380952380952381
0 0.7592857142857142 0.40285714285714286 0.017857142857142856 0.035238095238095235
