1 0.40083507306889354 0.6910946196660482 0.061586638830897704 0.16233766233766234
0 0.40501043841336115 0.7068645640074211 0.007306889352818371 0.03896103896103896
1 0.3815240083507307 0.5575139146567718 0.042275574112734866 0.09369202226345083
1 0.4744258872651357 0.34786641929499074 0.0255741127348643 0.04081632653061224
1 0.534446764091858 0.24211502782931354 0.016179540709812108 0.03432282003710575
1 0.5407098121085595 0.17532467532467533 0.011482254697286013 0.02040816326530612
1 0.5819415448851775 0.09554730983302412 0.013048016701461378 0.032467532467532464
1 0.49373695198329853 0.21985157699443414 0.0041753653444676405 0.012987012987012988
1 0.6127348643006263 0.039888682745825604 0.004697286012526096 0.014842300556586271
0 0.49373695198329853 0.21335807050092764 0.0041753653444676405 0.015769944341372914
1 0.5297494780793319 0.1456400742115028 0.0041753653444676405 0.012987012987012988
