1 0.4642857142857143 0.4073604060913706 0.011428571428571429 0.031725888324873094
1 0.43714285714285717 0.6116751269035533 0.015714285714285715 0.046954314720812185
1 0.4107142857142857 0.565989847715736 0.016428571428571428 0.03299492385786802
1 0.4642857142857143 0.6345177664974619 0.017142857142857144 0.048223350253807105
1 0.43 0.7157360406091371 0.017857142857142856 0.05203045685279188
1 0.47 0.2626903553299492 0.009285714285714286 0.024111675126903553
1 0.425 0.21192893401015228 0.007857142857142858 0.01649746192893401
1 0.44 0.19416243654822335 0.007142857142857143 0.015228426395939087
1 0.4235714285714286 0.17385786802030456 0.007857142857142858 0.017766497461928935
1 0.4757142857142857 0.2233502538071066 0.008571428571428572 0.01903553299492386
1 0.42 0.25888324873096447 0.009285714285714286 0.01903553299492386
1 0.4107142857142857 0.350253807106599 0.012857142857142857 0.044416243654822336
1 0.39071428571428574 0.5152284263959391 0.03 0.116751269035533
1 0.46785714285714286 0.5050761421319797 0.015 0.06091370558375635
1 0.3742857142857143 0.6459390862944162 0.02214285714285714 0.0532994923857868
1 0.34214285714285714 0.8756345177664975 0.047857142857142855 0.05456852791878172
0 0.255 0.9530456852791879 0.0064285714285714285 0.025380710659898477
0 0.24857142857142858 0.9530456852791879 0.007142857142857143 0.0266497461928934
0 0.29214285714285715 0.7842639593908629 0.007142857142857143 0.027918781725888325
0 0.3 0.6928934010152284 0.005 0.021573604060913704
0 0.32357142857142857 0.748730964467005 0.005714285714285714 0.02284263959390863
0 0.36357142857142855 0.4720812182741117 0.004285714285714286 0.01649746192893401
0 0.35928571428571426 0.4733502538071066 0.0035714285714285713 0.01903553299492386
0 0.37214285714285716 0.47588832487309646 0.004285714285714286 0.01903553299492386
0 0.3657142857142857 0.467005076142132 0.005 0.01903553299492386
0 0.4942857142857143 0.35406091370558374 0.004285714285714286 0.01649746192893401
1 0.8385714285714285 0.6421319796954315 0.018571428571428572 0.03553299492385787
0 0.5057142857142857 0.1814720812182741 0.0035714285714285713 0.012690355329949238
