1 0.05688935281837161 0.37940630797773656 0.0652400835073069 0.08812615955473098
1 0.3977035490605428 0.2680890538033395 0.06367432150313153 0.06679035250463822
1 0.3940501043841336 0.3404452690166976 0.06471816283924843 0.05287569573283859
1 0.5448851774530271 0.7903525046382189 0.06419624217118998 0.10482374768089053
1 0.5334029227557411 0.6038961038961039 0.05897703549060543 0.08812615955473098
1 0.605427974947808 0.5723562152133581 0.05741127348643006 0.11038961038961038
1 0.5516701461377871 0.1790352504638219 0.04697286012526096 0.08163265306122448
1 0.5730688935281837 0.22077922077922077 0.04697286012526096 0.09183673469387756
1 0.6002087682672234 0.24860853432282004 0.0511482254697286 0.08719851576994433
1 0.7954070981210856 0.5157699443413729 0.049060542797494784 0.1038961038961039
