1 0.9556367432150313 0.5964749536178108 0.044363256784968684 0.06307977736549165
1 0.9801670146137788 0.44712430426716143 0.038622129436325675 0.0686456400742115
1 0.7724425887265136 0.3942486085343228 0.031837160751565764 0.04452690166975881
1 0.9650313152400835 0.20593692022263452 0.0360125260960334 0.04823747680890538
1 0.9806889352818372 0.20037105751391465 0.029749478079331943 0.04359925788497217
1 0.9911273486430062 0.19294990723562153 0.016701461377870562 0.03710575139146568
1 0.541231732776618 0.6669758812615956 0.04697286012526096 0.06957328385899815
1 0.5083507306889353 0.5844155844155844 0.024530271398747392 0.032467532467532464
1 0.41910229645093944 0.5918367346938775 0.012004175365344467 0.025974025974025976
0 0.418580375782881 0.5816326530612245 0.005741127348643006 0.01855287569573284
1 0.4410229645093946 0.4601113172541744 0.018789144050104383 0.017625231910946195
1 0.3987473903966597 0.39053803339517623 0.01826722338204593 0.023191094619666047
1 0.3736951983298539 0.3320964749536178 0.038100208768267224 0.04916512059369202
1 0.36116910229645094 0.310760667903525 0.03914405010438413 0.04638218923933209
1 0.331419624217119 0.2523191094619666 0.037578288100208766 0.04359925788497217
1 0.32411273486430064 0.23469387755102042 0.03549060542797495 0.03432282003710575
1 0.3079331941544885 0.1326530612244898 0.032359081419624215 0.03339517625231911
1 0.28653444676409184 0.03710575139146568 0.030793319415448852 0.029684601113172542
0 0.24843423799582465 0.07792207792207792 0.006784968684759917 0.02040816326530612
1 0.2280793319415449 0.06493506493506493 0.017745302713987474 0.03896103896103896
1 0.21189979123173278 0.10575139146567718 0.037056367432150315 0.045454545454545456
1 0.19206680584551147 0.10946196660482375 0.029749478079331943 0.036178107606679034
1 0.10542797494780794 0.8441558441558441 0.054801670146137786 0.05380333951762523
1 0.12369519832985386 0.8961038961038961 0.061586638830897704 0.05473098330241188
1 0.07985386221294363 0.7003710575139147 0.03966597077244259 0.038033395176252316
1 0.07724425887265135 0.6688311688311688 0.0511482254697286 0.039888682745825604
1 0.05845511482254697 0.5964749536178108 0.04018789144050104 0.045454545454545456
1 0.04645093945720251 0.5306122448979592 0.04175365344467641 0.03525046382189239
