1 0.421 0.005333333333333333 0.01 0.011333333333333334
1 0.412 0.025333333333333333 0.024 0.046
0 0.4075 0.05733333333333333 0.008 0.023333333333333334
1 0.3485 0.013333333333333334 0.021 0.027333333333333334
0 0.376 0.05266666666666667 0.0095 0.014666666666666666
1 0.3765 0.06133333333333333 0.0095 0.03
1 0.342 0.07066666666666667 0.021 0.046
1 0.344 0.11933333333333333 0.022 0.04533333333333334
0 0.3575 0.09866666666666667 0.008 0.027333333333333334
1 0.187 0.13866666666666666 0.0585 0.03933333333333333
1 0.1815 0.17533333333333334 0.0555 0.03333333333333333
1 0.1195 0.2833333333333333 0.0525 0.038
1 0.335 0.23133333333333334 0.0345 0.058
1 0.326 0.30733333333333335 0.027 0.066
1 0.4095 0.288 0.0285 0.064
1 0.3225 0.4046666666666667 0.034 0.08066666666666666
0 0.3925 0.3486666666666667 0.0115 0.022
1 0.3925 0.354 0.0105 0.03266666666666666
1 0.393 0.4786666666666667 0.0375 0.08466666666666667
0 0.3415 0.446 0.0135 0.02
0 0.3415 0.468 0.01 0.015333333333333332
1 0.2305 0.3353333333333333 0.033 0.06933333333333333
1 0.4955 0.252 0.038 0.102
1 0.5095 0.3426666666666667 0.038 0.06866666666666667
1 0.55 0.23266666666666666 0.022 0.022
1 0.591 0.31333333333333335 0.022 0.020666666666666667
1 0.5205 0.4786666666666667 0.0355 0.08266666666666667
1 0.632 0.52 0.05 0.102
1 0.5315 0.5826666666666667 0.044 0.116
1 0.033 0.846 0.0665 0.07733333333333334
1 0.3435 0.9386666666666666 0.059 0.11933333333333333
1 0.4435 0.8793333333333333 0.0465 0.16133333333333333
1 0.5785 0.9533333333333334 0.0575 0.09266666666666666
