0 0.48142857142857143 0.5047619047619047 0.015714285714285715 0.05047619047619047
0 0.635 0.4228571428571429 0.009285714285714286 0.037142857142857144
0 0.3342857142857143 0.6142857142857143 0.02642857142857143 0.06857142857142857
0 0.21428571428571427 0.6104761904761905 0.024285714285714285 0.06571428571428571
1 0.2092857142857143 0.6152380952380953 0.06571428571428571 0.05333333333333334
1 0.3342857142857143 0.6209523809523809 0.05071428571428571 0.0419047619047619
1 0.2057142857142857 0.5028571428571429 0.10142857142857142 0.05714285714285714
0 0.225 0.38 0.007857142857142858 0.015238095238095238
0 0.18357142857142858 0.38761904761904764 0.008571428571428572 0.01904761904761905
0 0.27285714285714285 0.38952380952380955 0.008571428571428572 0.017142857142857144
0 0.2785714285714286 0.34476190476190477 0.004285714285714286 0.008571428571428572
0 0.14 0.4038095238095238 0.007857142857142858 0.023809523809523808
1 0.1392857142857143 0.4057142857142857 0.009285714285714286 0.014285714285714285
1 0.18285714285714286 0.3904761904761905 0.018571428571428572 0.014285714285714285
1 0.22642857142857142 0.3838095238095238 0.009285714285714286 0.014285714285714285
1 0.2735714285714286 0.3914285714285714 0.012142857142857143 0.017142857142857144
1 0.30857142857142855 0.40190476190476193 0.02857142857142857 0.02761904761904762
1 0.2785714285714286 0.37333333333333335 0.022857142857142857 0.01904761904761905
1 0.2835714285714286 0.3676190476190476 0.019285714285714285 0.017142857142857144
1 0.3292857142857143 0.3742857142857143 0.03571428571428571 0.0419047619047619
1 0.24 0.37142857142857144 0.02 0.01619047619047619
1 0.22428571428571428 0.37333333333333335 0.022857142857142857 0.02666666666666667
1 0.21285714285714286 0.36857142857142855 0.017142857142857144 0.02095238095238095
1 0.145 0.37333333333333335 0.030714285714285715 0.024761904761904763
1 0.115 0.3780952380952381 0.025 0.02857142857142857
1 0.1657142857142857 0.3657142857142857 0.02214285714285714 0.02857142857142857
1 0.9442857142857143 0.660952380952381 0.11142857142857143 0.09714285714285714
1 0.9385714285714286 0.6028571428571429 0.12142857142857143 0.06476190476190476
1 0.6978571428571428 0.5466666666666666 0.10857142857142857 0.0761904761904762
0 0.6214285714285714 0.43142857142857144 0.01 0.030476190476190476
0 0.6278571428571429 0.4361904761904762 0.012142857142857143 0.025714285714285714
0 0.67 0.4676190476190476 0.015 0.029523809523809525
1 0.6185714285714285 0.43523809523809526 0.017142857142857144 0.017142857142857144
1 0.6292857142857143 0.4438095238095238 0.024285714285714285 0.022857142857142857
1 0.6364285714285715 0.4276190476190476 0.017142857142857144 0.018095238095238095
1 0.6714285714285714 0.47904761904761906 0.016428571428571428 0.02666666666666667
0 0.7142857142857143 0.43047619047619046 0.01 0.02857142857142857
1 0.5314285714285715 0.4238095238095238 0.041428571428571426 0.03238095238095238
1 0.46785714285714286 0.3961904761904762 0.04 0.021904761904761906
1 0.4492857142857143 0.3819047619047619 0.03642857142857143 0.02
0 0.4392857142857143 0.37333333333333335 0.005714285714285714 0.01619047619047619
1 0.6528571428571428 0.37238095238095237 0.02642857142857143 0.02095238095238095
1 0.6221428571428571 0.3742857142857143 0.02857142857142857 0.014285714285714285
1 0.625 0.37238095238095237 0.027857142857142858 0.01904761904761905
1 0.5871428571428572 0.38095238095238093 0.03357142857142857 0.021904761904761906
1 0.5907142857142857 0.37714285714285717 0.03 0.022857142857142857
1 0.55 0.3819047619047619 0.035 0.025714285714285714
1 0.5621428571428572 0.3742857142857143 0.027857142857142858 0.01904761904761905
1 0.5192857142857142 0.3838095238095238 0.03857142857142857 0.01904761904761905
1 0.5192857142857142 0.36952380952380953 0.047857142857142855 0.03428571428571429
1 0.5214285714285715 0.3647619047619048 0.08142857142857143 0.0419047619047619
0 0.6014285714285714 0.35619047619047617 0.0035714285714285713 0.013333333333333334
0 0.6107142857142858 0.3580952380952381 0.005 0.011428571428571429
0 0.6192857142857143 0.3580952380952381 0.004285714285714286 0.009523809523809525
0 0.6485714285714286 0.35714285714285715 0.004285714285714286 0.010476190476190476
1 0.6235714285714286 0.3580952380952381 0.01 0.006666666666666667
1 0.6485714285714286 0.36 0.009285714285714286 0.008571428571428572
1 0.3992857142857143 0.37523809523809526 0.055714285714285716 0.024761904761904763
0 0.4085714285714286 0.37523809523809526 0.005714285714285714 0.02095238095238095
0 0.4042857142857143 0.3742857142857143 0.0064285714285714285 0.02095238095238095
0 0.4 0.3761904761904762 0.008571428571428572 0.018095238095238095
0 0.3985714285714286 0.37238095238095237 0.008571428571428572 0.022857142857142857
0 0.27285714285714285 0.3504761904761905 0.005 0.012380952380952381
1 0.24857142857142858 0.35428571428571426 0.014285714285714285 0.01619047619047619
1 0.22785714285714287 0.3495238095238095 0.015 0.013333333333333334
1 0.23357142857142857 0.3619047619047619 0.024285714285714285 0.023809523809523808
1 0.22357142857142856 0.3476190476190476 0.02214285714285714 0.02
1 0.20714285714285716 0.3380952380952381 0.016428571428571428 0.018095238095238095
1 0.21285714285714286 0.35523809523809524 0.017142857142857144 0.011428571428571429
1 0.205 0.3514285714285714 0.011428571428571429 0.012380952380952381
1 0.2057142857142857 0.3485714285714286 0.01 0.013333333333333334
1 0.1992857142857143 0.3495238095238095 0.012857142857142857 0.012380952380952381
1 0.20357142857142857 0.36666666666666664 0.013571428571428571 0.015238095238095238
1 0.2007142857142857 0.3638095238095238 0.015 0.01619047619047619
1 0.19428571428571428 0.35904761904761906 0.015 0.013333333333333334
1 0.18857142857142858 0.35428571428571426 0.011428571428571429 0.014285714285714285
1 0.14 0.3676190476190476 0.024285714285714285 0.024761904761904763
1 0.13 0.35333333333333333 0.012142857142857143 0.017142857142857144
1 0.11428571428571428 0.3485714285714286 0.011428571428571429 0.013333333333333334
