1 0.565 0.47588832487309646 0.06785714285714285 0.08756345177664974
1 0.46785714285714286 0.565989847715736 0.08357142857142857 0.10279187817258884
1 0.32571428571428573 0.699238578680203 0.14714285714285713 0.19416243654822335
1 0.14642857142857144 0.8730964467005076 0.14642857142857144 0.17766497461928935
1 0.6964285714285714 0.34517766497461927 0.06857142857142857 0.09137055837563451
1 0.7928571428571428 0.2652284263959391 0.056428571428571425 0.07741116751269035
1 0.7585714285714286 0.30710659898477155 0.02 0.02918781725888325
1 0.7371428571428571 0.3236040609137056 0.02142857142857143 0.024111675126903553
1 0.26071428571428573 0.43908629441624364 0.020714285714285713 0.04314720812182741
1 0.21142857142857144 0.3096446700507614 0.02 0.030456852791878174
1 0.24714285714285714 0.3553299492385787 0.017857142857142856 0.044416243654822336
1 0.23357142857142857 0.32741116751269034 0.02 0.03807106598984772
1 0.18142857142857144 0.26776649746192893 0.03 0.024111675126903553
1 0.13785714285714284 0.5875634517766497 0.02642857142857143 0.05710659898477157
1 0.16285714285714287 0.7385786802030457 0.03 0.06725888324873096
0 0.3157142857142857 0.5939086294416244 0.010714285714285714 0.017766497461928935
0 0.32142857142857145 0.6091370558375635 0.011428571428571429 0.021573604060913704
0 0.24142857142857144 0.2906091370558376 0.005 0.01649746192893401
0 0.2357142857142857 0.30583756345177665 0.005 0.02030456852791878
0 0.23357142857142857 0.2956852791878173 0.0035714285714285713 0.015228426395939087
0 0.14857142857142858 0.20812182741116753 0.004285714285714286 0.015228426395939087
1 0.13285714285714287 0.217005076142132 0.02642857142857143 0.04187817258883249
1 0.15571428571428572 0.2436548223350254 0.025714285714285714 0.04314720812182741
0 0.007142857142857143 0.13705583756345177 0.0035714285714285713 0.011421319796954314
1 0.007142857142857143 0.14086294416243655 0.007857142857142858 0.011421319796954314
0 0.02642857142857143 0.41243654822335024 0.005714285714285714 0.01903553299492386
0 0.027142857142857142 0.44543147208121825 0.0064285714285714285 0.02284263959390863
0 0.052142857142857144 0.6510152284263959 0.01 0.0266497461928934
0 0.035 0.7817258883248731 0.008571428571428572 0.031725888324873094
0 0.045 0.5685279187817259 0.0064285714285714285 0.021573604060913704
0 0.02214285714285714 0.40609137055837563 0.0064285714285714285 0.01903553299492386
0 0.037142857142857144 0.6878172588832487 0.01 0.030456852791878174
0 0.06785714285714285 0.700507614213198 0.009285714285714286 0.03934010152284264
0 0.38857142857142857 0.9073604060913706 0.010714285714285714 0.04314720812182741
0 0.6771428571428572 0.5456852791878173 0.009285714285714286 0.03299492385786802
0 0.735 0.5520304568527918 0.0064285714285714285 0.03807106598984772
0 0.7392857142857143 0.48350253807106597 0.01 0.03426395939086294
0 0.4992857142857143 0.4860406091370558 0.007142857142857143 0.03299492385786802
0 0.6142857142857143 0.40609137055837563 0.005 0.0266497461928934
0 0.6207142857142857 0.40482233502538073 0.0064285714285714285 0.027918781725888325
0 0.595 0.36421319796954316 0.005 0.02284263959390863
0 0.5814285714285714 0.366751269035533 0.005714285714285714 0.02284263959390863
0 0.8157142857142857 0.36928934010152287 0.004285714285714286 0.02284263959390863
0 0.8121428571428572 0.366751269035533 0.007142857142857143 0.027918781725888325
0 0.8271428571428572 0.37182741116751267 0.0064285714285714285 0.024111675126903553
0 0.8285714285714286 0.36548223350253806 0.005714285714285714 0.030456852791878174
0 0.7414285714285714 0.29949238578680204 0.002857142857142857 0.02284263959390863
0 0.5371428571428571 0.7284263959390863 0.011428571428571429 0.044416243654822336
1 0.4835714285714286 0.9225888324873096 0.02214285714285714 0.05583756345177665
0 0.48142857142857143 0.9619289340101523 0.007857142857142858 0.04187817258883249
0 0.4714285714285714 0.9809644670050761 0.01 0.03553299492385787
0 0.4642857142857143 0.9860406091370558 0.008571428571428572 0.025380710659898477
0 0.4878571428571429 0.9898477157360406 0.007857142857142858 0.017766497461928935
