1 0.39714285714285713 0.7055837563451777 0.03571428571428571 0.10279187817258884
1 0.4642857142857143 0.5609137055837563 0.02857142857142857 0.09390862944162437
1 0.5742857142857143 0.3870558375634518 0.022857142857142857 0.08375634517766498
1 0.465 0.1865482233502538 0.02642857142857143 0.06725888324873096
1 0.6078571428571429 0.10913705583756345 0.02642857142857143 0.0799492385786802
0 0.15928571428571428 0.616751269035533 0.012142857142857143 0.021573604060913704
0 0.16071428571428573 0.5926395939086294 0.013571428571428571 0.0266497461928934
1 0.5521428571428572 0.8477157360406091 0.04 0.20939086294416243
1 0.6107142857142858 0.6421319796954315 0.032857142857142856 0.17639593908629442
