1 0.5807142857142857 0.4704761904761905 0.06428571428571428 0.12666666666666668
1 0.47714285714285715 0.37238095238095237 0.06357142857142857 0.12095238095238095
1 0.4357142857142857 0.41619047619047617 0.06 0.11714285714285715
1 0.6171428571428571 0.7838095238095238 0.047857142857142855 0.13523809523809524
1 0.285 0.025714285714285714 0.054285714285714284 0.05238095238095238
0 0.22 0.5819047619047619 0.020714285714285713 0.017142857142857144
1 0.5157142857142857 0.2876190476190476 0.05857142857142857 0.10666666666666667
0 0.7771428571428571 0.03238095238095238 0.02142857142857143 0.02761904761904762
0 0.7307142857142858 0.2638095238095238 0.013571428571428571 0.022857142857142857
0 0.745 0.2638095238095238 0.011428571428571429 0.022857142857142857
0 0.63 0.2742857142857143 0.0064285714285714285 0.01904761904761905
0 0.6342857142857142 0.27714285714285714 0.0064285714285714285 0.017142857142857144
0 0.7657142857142857 0.8809523809523809 0.010714285714285714 0.025714285714285714
0 0.7264285714285714 0.66 0.007857142857142858 0.021904761904761906
1 0.7242857142857143 0.6619047619047619 0.017857142857142856 0.040952380952380955
1 0.7635714285714286 0.8838095238095238 0.018571428571428572 0.06190476190476191
0 0.8692857142857143 0.08666666666666667 0.015714285714285715 0.030476190476190476
1 0.9185714285714286 0.047619047619047616 0.07785714285714286 0.09619047619047619
1 0.9678571428571429 0.04380952380952381 0.062142857142857146 0.08761904761904762
