1 0.46214285714285713 0.017142857142857144 0.007857142857142858 0.02095238095238095
1 0.47214285714285714 0.09714285714285714 0.010714285714285714 0.029523809523809525
1 0.5092857142857142 0.34 0.017857142857142856 0.05904761904761905
1 0.6921428571428572 0.6028571428571429 0.011428571428571429 0.030476190476190476
1 0.37857142857142856 0.8380952380952381 0.025 0.02761904761904762
1 0.3757142857142857 0.861904761904762 0.022857142857142857 0.023809523809523808
1 0.3678571428571429 0.8933333333333333 0.027142857142857142 0.021904761904761906
1 0.365 0.9152380952380952 0.024285714285714285 0.02095238095238095
1 0.35714285714285715 0.9714285714285714 0.025 0.02
1 0.35428571428571426 0.9914285714285714 0.02857142857142857 0.01619047619047619
1 0.41214285714285714 0.9352380952380952 0.012857142857142857 0.04
1 0.425 0.9876190476190476 0.010714285714285714 0.024761904761904763
1 0.3921428571428571 0.7561904761904762 0.015714285714285715 0.049523809523809526
1 0.5757142857142857 0.9914285714285714 0.01 0.01619047619047619
1 0.7857142857142857 0.4257142857142857 0.02 0.014285714285714285
1 0.8421428571428572 0.5333333333333333 0.022857142857142857 0.013333333333333334
1 0.8414285714285714 0.5161904761904762 0.019285714285714285 0.014285714285714285
1 0.8385714285714285 0.5047619047619047 0.02 0.015238095238095238
1 0.8328571428571429 0.46476190476190476 0.022857142857142857 0.01619047619047619
1 0.8314285714285714 0.4504761904761905 0.02 0.014285714285714285
1 0.81 0.4361904761904762 0.017142857142857144 0.017142857142857144
1 0.8685714285714285 0.2638095238095238 0.016428571428571428 0.014285714285714285
1 0.8764285714285714 0.2761904761904762 0.016428571428571428 0.015238095238095238
