1 0.59 0.966 0.2535 0.06333333333333334
1 0.6415 0.7046666666666667 0.2155 0.17933333333333334
1 0.619 0.598 0.219 0.112
1 0.598 0.5073333333333333 0.164 0.09066666666666667
1 0.591 0.43466666666666665 0.153 0.08933333333333333
1 0.6115 0.37466666666666665 0.1435 0.08266666666666667
1 0.6165 0.24066666666666667 0.1025 0.064
1 0.529 0.2 0.0345 0.024666666666666667
1 0.5225 0.22666666666666666 0.0285 0.021333333333333333
1 0.551 0.23333333333333334 0.025 0.030666666666666665
1 0.599 0.206 0.0985 0.054
1 0.5975 0.13933333333333334 0.0775 0.04133333333333333
1 0.6035 0.12466666666666666 0.076 0.037333333333333336
1 0.601 0.10333333333333333 0.077 0.042666666666666665
1 0.6675 0.08333333333333333 0.0295 0.03666666666666667
1 0.595 0.048666666666666664 0.064 0.035333333333333335
1 0.593 0.032 0.049 0.024666666666666667
1 0.5985 0.024 0.049 0.021333333333333333
1 0.593 0.010666666666666666 0.043 0.022
1 0.7045 0.029333333333333333 0.0255 0.03
1 0.6425 0.044 0.0075 0.017333333333333333
0 0.6425 0.036 0.0065 0.02
0 0.8205 0.3873333333333333 0.027 0.07333333333333333
0 0.815 0.368 0.031 0.06666666666666667
1 0.949 0.35 0.036 0.05533333333333333
1 0.9285 0.3233333333333333 0.045 0.044
1 0.904 0.30866666666666664 0.0785 0.054
1 0.7885 0.21733333333333332 0.0435 0.07466666666666667
1 0.809 0.176 0.0295 0.026
1 0.748 0.10533333333333333 0.0655 0.038
1 0.748 0.08333333333333333 0.0705 0.03133333333333333
1 0.769 0.07533333333333334 0.0635 0.03
1 0.792 0.07133333333333333 0.057 0.026
1 0.787 0.06 0.054 0.022
