1 0.6585714285714286 0.6752380952380952 0.10642857142857143 0.13238095238095238
1 0.5664285714285714 0.5361904761904762 0.08285714285714285 0.09523809523809523
1 0.46285714285714286 0.52 0.07785714285714286 0.09047619047619047
1 0.4114285714285714 0.6438095238095238 0.11928571428571429 0.10571428571428572
1 0.43857142857142856 0.8142857142857143 0.15285714285714286 0.1361904761904762
1 0.47785714285714287 0.9171428571428571 0.15642857142857142 0.15904761904761905
1 0.8778571428571429 0.7466666666666667 0.12357142857142857 0.12476190476190477
1 0.7464285714285714 0.6171428571428571 0.10357142857142858 0.09142857142857143
1 0.6921428571428572 0.5638095238095238 0.10428571428571429 0.08761904761904762
1 0.7092857142857143 0.38761904761904764 0.08071428571428571 0.07047619047619047
1 0.815 0.18285714285714286 0.06357142857142857 0.039047619047619046
1 0.665 0.5095238095238095 0.1 0.0761904761904762
1 0.6235714285714286 0.47523809523809524 0.07714285714285714 0.06285714285714286
1 0.59 0.44 0.08714285714285715 0.06571428571428571
1 0.5585714285714286 0.4057142857142857 0.07785714285714286 0.054285714285714284
1 0.5264285714285715 0.3742857142857143 0.08571428571428572 0.054285714285714284
1 0.5014285714285714 0.3466666666666667 0.05785714285714286 0.04476190476190476
1 0.47285714285714286 0.3295238095238095 0.07714285714285714 0.058095238095238096
1 0.4635714285714286 0.30952380952380953 0.06857142857142857 0.05619047619047619
1 0.44857142857142857 0.2876190476190476 0.06642857142857143 0.047619047619047616
1 0.43357142857142855 0.26857142857142857 0.06642857142857143 0.04380952380952381
1 0.39357142857142857 0.22857142857142856 0.055714285714285716 0.04380952380952381
1 0.41 0.12857142857142856 0.03785714285714286 0.039047619047619046
1 0.37857142857142856 0.11047619047619048 0.027857142857142858 0.02761904761904762
1 0.38571428571428573 0.08190476190476191 0.027142857142857142 0.02857142857142857
1 0.5735714285714286 0.2704761904761905 0.047142857142857146 0.05904761904761905
1 0.6892857142857143 0.1742857142857143 0.05285714285714286 0.039047619047619046
1 0.5292857142857142 0.08857142857142856 0.035 0.030476190476190476
1 0.4907142857142857 0.054285714285714284 0.02857142857142857 0.023809523809523808
1 0.44 0.040952380952380955 0.02642857142857143 0.02095238095238095
1 0.5292857142857142 0.03142857142857143 0.023571428571428573 0.023809523809523808
1 0.8878571428571429 0.17523809523809525 0.05785714285714286 0.0419047619047619
1 0.9642857142857143 0.24761904761904763 0.07071428571428572 0.049523809523809526
1 0.8721428571428571 0.49523809523809526 0.13785714285714284 0.12095238095238095
0 0.9021428571428571 0.5638095238095238 0.016428571428571428 0.039047619047619046
0 0.9014285714285715 0.6009523809523809 0.023571428571428573 0.049523809523809526
0 0.9821428571428571 0.6504761904761904 0.03214285714285714 0.040952380952380955
1 0.6128571428571429 0.22476190476190477 0.05857142857142857 0.05619047619047619
0 0.57 0.23523809523809525 0.01 0.0419047619047619
0 0.45285714285714285 0.17333333333333334 0.010714285714285714 0.03428571428571429
1 0.385 0.014285714285714285 0.020714285714285713 0.017142857142857144
1 0.40214285714285714 0.013333333333333334 0.02214285714285714 0.017142857142857144
0 0.4992857142857143 0.02761904761904762 0.005714285714285714 0.017142857142857144
0 0.6207142857142857 0.0761904761904762 0.0064285714285714285 0.02095238095238095
0 0.6492857142857142 0.08666666666666667 0.0064285714285714285 0.025714285714285714
0 0.61 0.07238095238095238 0.005 0.023809523809523808
0 0.5957142857142858 0.06380952380952382 0.005 0.02
0 0.5992857142857143 0.06952380952380953 0.004285714285714286 0.022857142857142857
0 0.5878571428571429 0.06666666666666667 0.0064285714285714285 0.02095238095238095
0 0.5857142857142857 0.06190476190476191 0.005 0.02
0 0.6035714285714285 0.06095238095238095 0.005 0.02095238095238095
1 0.5814285714285714 0.05047619047619047 0.022857142857142857 0.025714285714285714
0 0.5392857142857143 0.04666666666666667 0.005714285714285714 0.02
0 0.47928571428571426 0.029523809523809525 0.0064285714285714285 0.014285714285714285
1 0.47928571428571426 0.035238095238095235 0.01 0.014285714285714285
1 0.6292857142857143 0.030476190476190476 0.037142857142857144 0.02666666666666667
1 0.6 0.023809523809523808 0.030714285714285715 0.021904761904761906
1 0.5871428571428572 0.02 0.03214285714285714 0.02095238095238095
1 0.6128571428571429 0.02666666666666667 0.032857142857142856 0.023809523809523808
1 0.5021428571428571 0.007619047619047619 0.019285714285714285 0.01619047619047619
1 0.4107142857142857 0.004761904761904762 0.018571428571428572 0.009523809523809525
1 0.5228571428571429 0.004761904761904762 0.012857142857142857 0.010476190476190476
1 0.5214285714285715 0.24476190476190476 0.022857142857142857 0.029523809523809525
1 0.3107142857142857 0.94 0.10571428571428572 0.12
1 0.20357142857142857 0.94 0.09571428571428571 0.11904761904761904
1 0.6692857142857143 0.1219047619047619 0.08285714285714285 0.06571428571428571
