1 0.069 0.8633333333333333 0.127 0.09
1 0.0345 0.9666666666666667 0.068 0.064
1 0.28 0.4533333333333333 0.0455 0.05333333333333334
0 0.3065 0.424 0.007 0.020666666666666667
0 0.315 0.41933333333333334 0.01 0.022
0 0.3095 0.4146666666666667 0.0065 0.02266666666666667
1 0.348 0.4186666666666667 0.052 0.028
0 0.3555 0.4613333333333333 0.0095 0.020666666666666667
1 0.486 0.3973333333333333 0.0245 0.03333333333333333
1 0.3875 0.8926666666666667 0.0725 0.15066666666666667
1 0.422 0.744 0.055 0.104
0 0.694 0.8546666666666667 0.0255 0.04466666666666667
0 0.7835 0.756 0.018 0.05333333333333334
0 0.748 0.7253333333333334 0.0115 0.037333333333333336
1 0.7065 0.5753333333333334 0.0355 0.07666666666666666
0 0.7555 0.53 0.0105 0.032
0 0.7415 0.55 0.01 0.028666666666666667
0 0.7345 0.5473333333333333 0.0075 0.019333333333333334
1 0.737 0.556 0.016 0.03333333333333333
1 0.7385 0.5346666666666666 0.013 0.018666666666666668
0 0.742 0.4633333333333333 0.0115 0.025333333333333333
0 0.7585 0.472 0.0115 0.027333333333333334
0 0.751 0.43266666666666664 0.009 0.025333333333333333
0 0.6935 0.42533333333333334 0.009 0.023333333333333334
1 0.756 0.41733333333333333 0.0285 0.020666666666666667
1 0.756 0.4 0.0095 0.018666666666666668
0 0.74 0.4066666666666667 0.008 0.022
0 0.7305 0.4053333333333333 0.009 0.025333333333333333
1 0.72 0.3913333333333333 0.015 0.024666666666666667
0 0.716 0.3953333333333333 0.0095 0.024
0 0.7455 0.36866666666666664 0.0075 0.024
0 0.7435 0.346 0.007 0.018666666666666668
0 0.734 0.3293333333333333 0.006 0.02
0 0.7375 0.3313333333333333 0.0055 0.014
0 0.742 0.312 0.0065 0.016666666666666666
1 0.75 0.332 0.0195 0.02266666666666667
1 0.761 0.31733333333333336 0.018 0.02666666666666667
0 0.768 0.31 0.0055 0.018
0 0.7735 0.30933333333333335 0.005 0.018
0 0.774 0.31733333333333336 0.007 0.024
1 0.741 0.4706666666666667 0.0215 0.022
0 0.673 0.42733333333333334 0.0075 0.023333333333333334
0 0.6615 0.4246666666666667 0.0075 0.020666666666666667
0 0.66 0.41733333333333333 0.0075 0.020666666666666667
1 0.5635 0.718 0.045 0.11
1 0.569 0.612 0.017 0.03666666666666667
1 0.587 0.6133333333333333 0.0185 0.038
1 0.5795 0.5653333333333334 0.032 0.06533333333333333
1 0.466 0.606 0.0395 0.06466666666666666
1 0.5355 0.574 0.0355 0.05533333333333333
1 0.576 0.5113333333333333 0.0295 0.04533333333333334
0 0.554 0.514 0.0095 0.029333333333333333
1 0.554 0.5173333333333333 0.01 0.028
0 0.553 0.49133333333333334 0.009 0.026
1 0.589 0.4766666666666667 0.047 0.042
1 0.5915 0.4573333333333333 0.046 0.03133333333333333
0 0.6315 0.436 0.006 0.022
0 0.614 0.43333333333333335 0.009 0.024666666666666667
0 0.6015 0.442 0.01 0.021333333333333333
1 0.601 0.446 0.0235 0.017333333333333333
0 0.49 0.5506666666666666 0.012 0.03133333333333333
0 0.5035 0.552 0.0075 0.015333333333333332
0 0.505 0.5393333333333333 0.0075 0.016666666666666666
0 0.509 0.5366666666666666 0.012 0.024666666666666667
0 0.5065 0.526 0.0075 0.02
1 0.51 0.5093333333333333 0.01 0.021333333333333333
1 0.4815 0.5253333333333333 0.034 0.064
0 0.5075 0.494 0.0095 0.025333333333333333
0 0.4995 0.5 0.0085 0.019333333333333334
0 0.491 0.49066666666666664 0.0075 0.023333333333333334
1 0.534 0.44266666666666665 0.027 0.036
0 0.554 0.44066666666666665 0.006 0.024
0 0.5615 0.44 0.006 0.023333333333333334
0 0.569 0.444 0.006 0.025333333333333333
0 0.5895 0.42533333333333334 0.009 0.018666666666666668
0 0.564 0.4026666666666667 0.0085 0.022
1 0.586 0.4066666666666667 0.02 0.02666666666666667
1 0.5895 0.38266666666666665 0.035 0.022
0 0.6055 0.36333333333333334 0.008 0.017333333333333333
1 0.602 0.366 0.01 0.013333333333333334
1 0.592 0.3606666666666667 0.008 0.016
1 0.526 0.4013333333333333 0.0255 0.027333333333333334
1 0.5335 0.38333333333333336 0.0225 0.02666666666666667
1 0.5345 0.35933333333333334 0.0165 0.024
1 0.538 0.3313333333333333 0.016 0.024666666666666667
1 0.468 0.32466666666666666 0.024 0.02
1 0.5435 0.318 0.013 0.02
1 0.547 0.31066666666666665 0.0165 0.015333333333333332
0 0.605 0.3506666666666667 0.006 0.015333333333333332
1 0.586 0.336 0.0145 0.019333333333333334
1 0.601 0.33866666666666667 0.008 0.016
0 0.6005 0.3373333333333333 0.008 0.017333333333333333
1 0.5885 0.32066666666666666 0.015 0.023333333333333334
1 0.5875 0.31 0.0135 0.015333333333333332
1 0.5875 0.294 0.0125 0.017333333333333333
1 0.571 0.296 0.0125 0.017333333333333333
1 0.549 0.29933333333333334 0.0135 0.012666666666666666
1 0.5505 0.288 0.0105 0.014666666666666666
1 0.553 0.2826666666666667 0.0125 0.013333333333333334
