1 0.5842857142857143 0.7523809523809524 0.03 0.09523809523809523
1 0.6585714285714286 0.8609523809523809 0.02857142857142857 0.09619047619047619
1 0.17785714285714285 0.33904761904761904 0.03428571428571429 0.025714285714285714
1 0.135 0.32571428571428573 0.032857142857142856 0.023809523809523808
1 0.1407142857142857 0.3647619047619048 0.024285714285714285 0.035238095238095235
1 0.23857142857142857 0.3904761904761905 0.032857142857142856 0.03428571428571429
1 0.415 0.9380952380952381 0.05 0.11333333333333333
1 0.5535714285714286 0.9104761904761904 0.04428571428571428 0.12761904761904763
1 0.4942857142857143 0.6771428571428572 0.035 0.0761904761904762
1 0.5335714285714286 0.42952380952380953 0.01 0.025714285714285714
0 0.4542857142857143 0.40476190476190477 0.002142857142857143 0.011428571428571429
0 0.4514285714285714 0.4038095238095238 0.002857142857142857 0.013333333333333334
0 0.44785714285714284 0.40476190476190477 0.002857142857142857 0.012380952380952381
0 0.4442857142857143 0.4076190476190476 0.004285714285714286 0.010476190476190476
1 0.7464285714285714 0.12380952380952381 0.01 0.015238095238095238
1 0.7478571428571429 0.14952380952380953 0.009285714285714286 0.013333333333333334
1 0.7507142857142857 0.19523809523809524 0.011428571428571429 0.022857142857142857
1 0.735 0.1980952380952381 0.02 0.014285714285714285
1 0.6978571428571428 0.16952380952380952 0.02214285714285714 0.05142857142857143
1 0.09928571428571428 0.33714285714285713 0.018571428571428572 0.025714285714285714
1 0.11571428571428571 0.34095238095238095 0.015714285714285715 0.023809523809523808
1 0.24642857142857144 0.35619047619047617 0.023571428571428573 0.01619047619047619
1 0.2857142857142857 0.36952380952380953 0.024285714285714285 0.018095238095238095
1 0.5992857142857143 0.3057142857142857 0.005714285714285714 0.017142857142857144
1 0.6242857142857143 0.29619047619047617 0.005 0.018095238095238095
0 0.6235714285714286 0.44857142857142857 0.005714285714285714 0.02
1 0.6707142857142857 0.7704761904761904 0.027857142857142858 0.08285714285714285
1 0.6785714285714286 0.6961904761904761 0.024285714285714285 0.07904761904761905
1 0.6557142857142857 0.6095238095238096 0.022857142857142857 0.06
1 0.6621428571428571 0.5523809523809524 0.018571428571428572 0.05333333333333334
1 0.6621428571428571 0.47619047619047616 0.007142857142857143 0.023809523809523808
1 0.6535714285714286 0.17238095238095238 0.011428571428571429 0.012380952380952381
1 0.6614285714285715 0.14666666666666667 0.011428571428571429 0.01904761904761905
1 0.6685714285714286 0.12380952380952381 0.008571428571428572 0.01904761904761905
1 0.6921428571428572 0.05523809523809524 0.007142857142857143 0.010476190476190476
1 0.705 0.01619047619047619 0.005714285714285714 0.008571428571428572
1 0.7 0.02761904761904762 0.0064285714285714285 0.011428571428571429
1 0.6828571428571428 0.07904761904761905 0.008571428571428572 0.012380952380952381
1 0.7621428571428571 0.10095238095238095 0.008571428571428572 0.012380952380952381
1 0.74 0.29714285714285715 0.019285714285714285 0.023809523809523808
1 0.7535714285714286 0.3476190476190476 0.022857142857142857 0.02857142857142857
1 0.6978571428571428 0.2866666666666667 0.012857142857142857 0.029523809523809525
1 0.6971428571428572 0.3342857142857143 0.009285714285714286 0.011428571428571429
1 0.6792857142857143 0.41619047619047617 0.05285714285714286 0.03619047619047619
1 0.6914285714285714 0.560952380952381 0.02 0.058095238095238096
1 0.685 0.6247619047619047 0.02142857142857143 0.05714285714285714
1 0.7378571428571429 0.6361904761904762 0.008571428571428572 0.02
1 0.7071428571428572 0.6266666666666667 0.007142857142857143 0.018095238095238095
1 0.8242857142857143 0.8047619047619048 0.02857142857142857 0.08190476190476191
1 0.805 0.6828571428571428 0.012857142857142857 0.03619047619047619
1 0.7942857142857143 0.6295238095238095 0.007857142857142858 0.029523809523809525
1 0.78 0.5866666666666667 0.007142857142857143 0.03142857142857143
1 0.7821428571428571 0.560952380952381 0.01 0.022857142857142857
1 0.7992857142857143 0.5514285714285714 0.011428571428571429 0.024761904761904763
0 0.7671428571428571 0.4342857142857143 0.005 0.01904761904761905
1 0.8214285714285714 0.44476190476190475 0.05142857142857143 0.035238095238095235
1 0.7964285714285714 0.021904761904761906 0.011428571428571429 0.007619047619047619
1 0.7921428571428571 0.007619047619047619 0.010714285714285714 0.006666666666666667
1 0.7978571428571428 0.11904761904761904 0.009285714285714286 0.008571428571428572
1 0.8 0.1361904761904762 0.011428571428571429 0.009523809523809525
1 0.8 0.16095238095238096 0.008571428571428572 0.013333333333333334
1 0.8 0.18 0.008571428571428572 0.014285714285714285
1 0.8 0.20476190476190476 0.007142857142857143 0.011428571428571429
1 0.8171428571428572 0.0019047619047619048 0.008571428571428572 0.004761904761904762
1 0.8171428571428572 0.006666666666666667 0.01 0.004761904761904762
1 0.8164285714285714 0.013333333333333334 0.010714285714285714 0.004761904761904762
1 0.8192857142857143 0.018095238095238095 0.013571428571428571 0.005714285714285714
1 0.82 0.02095238095238095 0.011428571428571429 0.005714285714285714
1 0.8207142857142857 0.02761904761904762 0.013571428571428571 0.007619047619047619
1 0.82 0.03238095238095238 0.012142857142857143 0.006666666666666667
1 0.8214285714285714 0.040952380952380955 0.010714285714285714 0.005714285714285714
1 0.8235714285714286 0.045714285714285714 0.010714285714285714 0.005714285714285714
1 0.8264285714285714 0.05333333333333334 0.012142857142857143 0.005714285714285714
1 0.8257142857142857 0.05714285714285714 0.013571428571428571 0.008571428571428572
1 0.8242857142857143 0.06476190476190476 0.011428571428571429 0.007619047619047619
1 0.8235714285714286 0.07714285714285714 0.02 0.008571428571428572
1 0.8264285714285714 0.0838095238095238 0.013571428571428571 0.006666666666666667
1 0.8285714285714286 0.09047619047619047 0.009285714285714286 0.006666666666666667
1 0.83 0.09619047619047619 0.017142857142857144 0.006666666666666667
1 0.8314285714285714 0.10285714285714286 0.017142857142857144 0.008571428571428572
1 0.8314285714285714 0.11333333333333333 0.017857142857142856 0.010476190476190476
1 0.8321428571428572 0.11904761904761904 0.015714285714285715 0.007619047619047619
1 0.835 0.12761904761904763 0.016428571428571428 0.009523809523809525
1 0.8314285714285714 0.1361904761904762 0.017142857142857144 0.009523809523809525
1 0.83 0.14095238095238094 0.014285714285714285 0.007619047619047619
1 0.8335714285714285 0.14952380952380953 0.017142857142857144 0.009523809523809525
1 0.8407142857142857 0.16952380952380952 0.025 0.012380952380952381
0 0.8307142857142857 0.025714285714285714 0.002142857142857143 0.007619047619047619
0 0.8364285714285714 0.025714285714285714 0.002142857142857143 0.005714285714285714
1 0.8385714285714285 0.05238095238095238 0.004285714285714286 0.010476190476190476
1 0.84 0.9438095238095238 0.05785714285714286 0.11047619047619048
1 0.8742857142857143 0.3638095238095238 0.02642857142857143 0.03333333333333333
1 0.8771428571428571 0.3380952380952381 0.032857142857142856 0.021904761904761906
1 0.8635714285714285 0.32095238095238093 0.035 0.02095238095238095
1 0.8585714285714285 0.30095238095238097 0.03214285714285714 0.024761904761904763
1 0.8435714285714285 0.25047619047619046 0.024285714285714285 0.015238095238095238
1 0.8442857142857143 0.23904761904761904 0.024285714285714285 0.013333333333333334
1 0.8428571428571429 0.23142857142857143 0.02642857142857143 0.013333333333333334
1 0.845 0.21428571428571427 0.027857142857142858 0.012380952380952381
1 0.8457142857142858 0.20476190476190476 0.025714285714285714 0.010476190476190476
1 0.8442857142857143 0.19904761904761906 0.02642857142857143 0.01619047619047619
1 0.8428571428571429 0.1895238095238095 0.022857142857142857 0.012380952380952381
1 0.8435714285714285 0.18285714285714286 0.024285714285714285 0.013333333333333334
0 0.8514285714285714 0.1019047619047619 0.002857142857142857 0.007619047619047619
0 0.8635714285714285 0.19238095238095237 0.002857142857142857 0.010476190476190476
0 0.8578571428571429 0.19238095238095237 0.002857142857142857 0.009523809523809525
0 0.8707142857142857 0.20666666666666667 0.005 0.014285714285714285
0 0.8721428571428571 0.24 0.005714285714285714 0.011428571428571429
0 0.8635714285714285 0.24 0.005714285714285714 0.012380952380952381
1 0.9221428571428572 0.2885714285714286 0.030714285714285715 0.02
1 0.9021428571428571 0.36666666666666664 0.017857142857142856 0.03238095238095238
1 0.9271428571428572 0.36666666666666664 0.017142857142857144 0.035238095238095235
1 0.9092857142857143 0.4685714285714286 0.05357142857142857 0.02857142857142857
1 0.9507142857142857 0.3780952380952381 0.023571428571428573 0.04
1 0.9842857142857143 0.38476190476190475 0.027142857142857142 0.04285714285714286
0 0.6978571428571428 0.3304761904761905 0.007142857142857143 0.006666666666666667
0 0.6614285714285715 0.4723809523809524 0.005714285714285714 0.012380952380952381
0 0.7985714285714286 0.5447619047619048 0.0064285714285714285 0.012380952380952381
0 0.7821428571428571 0.5561904761904762 0.005714285714285714 0.011428571428571429
0 0.78 0.580952380952381 0.007142857142857143 0.011428571428571429
0 0.7385714285714285 0.6333333333333333 0.007142857142857143 0.011428571428571429
0 0.7071428571428572 0.6238095238095238 0.0064285714285714285 0.007619047619047619
0 0.7942857142857143 0.6228571428571429 0.005 0.014285714285714285
0 0.8035714285714286 0.6723809523809524 0.007857142857142858 0.015238095238095238
0 0.5335714285714286 0.4238095238095238 0.007857142857142858 0.017142857142857144
0 0.6242857142857143 0.2923809523809524 0.0035714285714285713 0.010476190476190476
0 0.5978571428571429 0.3019047619047619 0.005 0.012380952380952381
