1 0.23857142857142857 0.5514285714285714 0.16142857142857142 0.09523809523809523
1 0.9192857142857143 0.919047619047619 0.16071428571428573 0.15619047619047619
1 0.8878571428571429 0.7114285714285714 0.11 0.22285714285714286
0 0.12642857142857142 0.3047619047619048 0.02142857142857143 0.045714285714285714
0 0.12142857142857143 0.4180952380952381 0.03 0.05142857142857143
0 0.19714285714285715 0.3295238095238095 0.020714285714285713 0.04666666666666667
0 0.21642857142857144 0.32761904761904764 0.018571428571428572 0.04666666666666667
0 0.19142857142857142 0.31142857142857144 0.011428571428571429 0.022857142857142857
1 0.2735714285714286 0.33904761904761904 0.08357142857142857 0.11142857142857143
1 0.36214285714285716 0.35714285714285715 0.07428571428571429 0.09714285714285714
1 0.43214285714285716 0.4142857142857143 0.06785714285714285 0.04857142857142857
0 0.4007142857142857 0.4657142857142857 0.02142857142857143 0.035238095238095235
1 0.54 0.36095238095238097 0.10357142857142858 0.08857142857142856
1 0.9564285714285714 0.48 0.075 0.13238095238095238
1 0.8235714285714286 0.3914285714285714 0.06571428571428571 0.09904761904761905
1 0.8571428571428571 0.5266666666666666 0.08857142857142856 0.13714285714285715
1 0.915 0.3628571428571429 0.07142857142857142 0.10666666666666667
1 0.8914285714285715 0.2438095238095238 0.04285714285714286 0.08190476190476191
1 0.8014285714285714 0.29428571428571426 0.05357142857142857 0.0761904761904762
1 0.7928571428571428 0.22857142857142856 0.045714285714285714 0.06285714285714286
1 0.7357142857142858 0.1819047619047619 0.05 0.054285714285714284
1 0.7835714285714286 0.17238095238095238 0.03857142857142857 0.05333333333333334
0 0.7285714285714285 0.17047619047619048 0.012857142857142857 0.02
1 0.7771428571428571 0.12380952380952381 0.032857142857142856 0.04285714285714286
1 0.9785714285714285 0.14095238095238094 0.02857142857142857 0.03428571428571429
1 0.9678571428571429 0.12666666666666668 0.027857142857142858 0.030476190476190476
1 0.965 0.0980952380952381 0.02 0.02095238095238095
1 0.9257142857142857 0.04380952380952381 0.015714285714285715 0.02095238095238095
0 0.9242857142857143 0.07714285714285714 0.014285714285714285 0.03428571428571429
0 0.9057142857142857 0.07333333333333333 0.012857142857142857 0.03428571428571429
1 0.73 0.08952380952380952 0.03142857142857143 0.04285714285714286
1 0.7657142857142857 0.0761904761904762 0.03214285714285714 0.04666666666666667
1 0.7614285714285715 0.02 0.025714285714285714 0.0380952380952381
1 0.7621428571428571 0.049523809523809526 0.027857142857142858 0.03619047619047619
1 0.6242857142857143 0.10761904761904761 0.035 0.047619047619047616
1 0.5478571428571428 0.2714285714285714 0.05 0.07904761904761905
1 0.5664285714285714 0.18666666666666668 0.03571428571428571 0.07714285714285714
1 0.32285714285714284 0.20285714285714285 0.02642857142857143 0.04
1 0.3507142857142857 0.16952380952380952 0.014285714285714285 0.030476190476190476
1 0.42714285714285716 0.10095238095238095 0.009285714285714286 0.025714285714285714
0 0.4521428571428571 0.07333333333333333 0.012142857142857143 0.03238095238095238
0 0.4707142857142857 0.06761904761904762 0.009285714285714286 0.037142857142857144
0 0.465 0.06476190476190476 0.008571428571428572 0.03333333333333333
1 0.4785714285714286 0.11714285714285715 0.03857142857142857 0.058095238095238096
1 0.5078571428571429 0.06857142857142857 0.03214285714285714 0.037142857142857144
1 0.585 0.1380952380952381 0.03428571428571429 0.04857142857142857
1 0.5928571428571429 0.09523809523809523 0.032857142857142856 0.039047619047619046
1 0.6035714285714285 0.06190476190476191 0.02857142857142857 0.0419047619047619
1 0.6107142857142858 0.03619047619047619 0.027142857142857142 0.0380952380952381
1 0.6192857142857143 0.012380952380952381 0.022857142857142857 0.023809523809523808
