1 0.36857142857142855 0.9416243654822335 0.03857142857142857 0.09137055837563451
1 0.33785714285714286 0.8616751269035533 0.03857142857142857 0.0799492385786802
1 0.2042857142857143 0.7398477157360406 0.04357142857142857 0.06598984771573604
1 0.4614285714285714 0.5647208121827412 0.02857142857142857 0.0532994923857868
1 0.5828571428571429 0.37055837563451777 0.018571428571428572 0.03680203045685279
1 0.5792857142857143 0.2398477157360406 0.016428571428571428 0.02284263959390863
1 0.5714285714285714 0.20558375634517767 0.017142857142857144 0.030456852791878174
1 0.6757142857142857 0.046954314720812185 0.012142857142857143 0.01649746192893401
1 0.7364285714285714 0.20939086294416243 0.013571428571428571 0.027918781725888325
1 0.7671428571428571 0.04187817258883249 0.012857142857142857 0.015228426395939087
