1 0.45571428571428574 0.5323809523809524 0.039285714285714285 0.08666666666666667
1 0.4492857142857143 0.6571428571428571 0.03214285714285714 0.0980952380952381
1 0.44285714285714284 0.8104761904761905 0.037142857142857144 0.12857142857142856
1 0.5014285714285714 0.5076190476190476 0.030714285714285715 0.0980952380952381
1 0.4328571428571429 0.9504761904761905 0.04857142857142857 0.0980952380952381
1 0.48857142857142855 0.10476190476190476 0.018571428571428572 0.054285714285714284
1 0.31857142857142856 0.11619047619047619 0.012857142857142857 0.01619047619047619
1 0.4207142857142857 0.0419047619047619 0.03142857142857143 0.02857142857142857
0 0.9 0.8457142857142858 0.01 0.0419047619047619
