1 0.2978571428571429 0.5133333333333333 0.115 0.13238095238095238
1 0.5842857142857143 0.6771428571428572 0.06857142857142857 0.1380952380952381
1 0.5807142857142857 0.5647619047619048 0.055714285714285716 0.0838095238095238
1 0.5764285714285714 0.48 0.05285714285714286 0.07523809523809524
1 0.5771428571428572 0.4142857142857143 0.037142857142857144 0.06380952380952382
1 0.4014285714285714 0.32857142857142857 0.05071428571428571 0.04476190476190476
1 0.445 0.29333333333333333 0.032857142857142856 0.040952380952380955
1 0.5821428571428572 0.3780952380952381 0.03857142857142857 0.04476190476190476
1 0.5835714285714285 0.32285714285714284 0.03642857142857143 0.06190476190476191
1 0.5871428571428572 0.2876190476190476 0.025 0.02857142857142857
1 0.5921428571428572 0.2695238095238095 0.022857142857142857 0.02761904761904762
1 0.59 0.25047619047619046 0.020714285714285713 0.025714285714285714
1 0.6014285714285714 0.24095238095238095 0.024285714285714285 0.030476190476190476
1 0.5992857142857143 0.2219047619047619 0.04071428571428572 0.030476190476190476
1 0.6135714285714285 0.20285714285714285 0.017142857142857144 0.02
1 0.61 0.19333333333333333 0.03 0.018095238095238095
1 0.64 0.16857142857142857 0.023571428571428573 0.01904761904761905
1 0.46214285714285713 0.26761904761904765 0.02857142857142857 0.03142857142857143
1 0.47285714285714286 0.25142857142857145 0.022857142857142857 0.025714285714285714
1 0.4857142857142857 0.2419047619047619 0.020714285714285713 0.02666666666666667
1 0.49785714285714283 0.22666666666666666 0.018571428571428572 0.025714285714285714
1 0.5078571428571429 0.21714285714285714 0.017142857142857144 0.022857142857142857
1 0.5207142857142857 0.20666666666666667 0.015714285714285715 0.02
1 0.5314285714285715 0.20095238095238097 0.02142857142857143 0.022857142857142857
1 0.53 0.1819047619047619 0.030714285714285715 0.01619047619047619
1 0.5464285714285714 0.17904761904761904 0.027142857142857142 0.021904761904761906
1 0.5585714285714286 0.17714285714285713 0.025714285714285714 0.018095238095238095
1 0.5678571428571428 0.17238095238095238 0.02857142857142857 0.01904761904761905
1 0.575 0.16666666666666666 0.027142857142857142 0.017142857142857144
1 0.5807142857142857 0.16476190476190475 0.02214285714285714 0.01619047619047619
1 0.5878571428571429 0.15904761904761905 0.02142857142857143 0.01619047619047619
1 0.5942857142857143 0.15904761904761905 0.019285714285714285 0.017142857142857144
1 0.5957142857142858 0.15619047619047619 0.025 0.011428571428571429
1 0.6028571428571429 0.15047619047619049 0.02142857142857143 0.015238095238095238
1 0.61 0.14666666666666667 0.024285714285714285 0.014285714285714285
1 0.6185714285714285 0.14285714285714285 0.025 0.017142857142857144
1 0.65 0.12857142857142856 0.013571428571428571 0.009523809523809525
0 0.5428571428571428 0.29619047619047617 0.007142857142857143 0.02761904761904762
0 0.55 0.29523809523809524 0.007142857142857143 0.02761904761904762
0 0.5578571428571428 0.2980952380952381 0.008571428571428572 0.029523809523809525
1 0.56 0.3028571428571429 0.009285714285714286 0.02095238095238095
