1 0.3 0.7152380952380952 0.05785714285714286 0.16380952380952382
1 0.3092857142857143 0.5352380952380953 0.05285714285714286 0.14952380952380953
1 0.3221428571428571 0.3628571428571429 0.04642857142857143 0.13523809523809524
1 0.33071428571428574 0.19047619047619047 0.05857142857142857 0.18095238095238095
1 0.3692857142857143 0.32857142857142857 0.019285714285714285 0.05523809523809524
0 0.36857142857142855 0.32476190476190475 0.019285714285714285 0.03238095238095238
1 0.5257142857142857 0.05238095238095238 0.04071428571428572 0.10285714285714286
0 0.5935714285714285 0.021904761904761906 0.014285714285714285 0.04476190476190476
1 0.5342857142857143 0.5257142857142857 0.04857142857142857 0.14285714285714285
1 0.535 0.3619047619047619 0.045714285714285714 0.12666666666666668
1 0.495 0.9733333333333334 0.019285714285714285 0.05333333333333334
0 0.4957142857142857 0.9780952380952381 0.020714285714285713 0.02857142857142857
0 0.6607142857142857 0.9085714285714286 0.019285714285714285 0.0380952380952381
0 0.6921428571428572 0.8752380952380953 0.02642857142857143 0.02857142857142857
1 0.7635714285714286 0.7904761904761904 0.11214285714285714 0.09142857142857143
1 0.7664285714285715 0.9628571428571429 0.125 0.07333333333333333
1 0.7214285714285714 0.41904761904761906 0.11428571428571428 0.06857142857142857
1 0.7035714285714286 0.05047619047619047 0.095 0.06666666666666667
1 0.6964285714285714 0.10761904761904761 0.03642857142857143 0.03428571428571429
