0 0.08928571428571429 0.6852791878172588 0.02142857142857143 0.04187817258883249
0 0.16428571428571428 0.6256345177664975 0.03 0.04060913705583756
0 0.15 0.5177664974619289 0.016428571428571428 0.04949238578680203
0 0.21714285714285714 0.5685279187817259 0.02 0.048223350253807105
0 0.27214285714285713 0.633248730964467 0.017142857142857144 0.044416243654822336
0 0.3514285714285714 0.6065989847715736 0.018571428571428572 0.03807106598984772
0 0.44 0.583756345177665 0.013571428571428571 0.04187817258883249
