1 0.93 0.11333333333333333 0.11285714285714285 0.11619047619047619
1 0.825 0.16476190476190475 0.07785714285714286 0.08285714285714285
1 0.7964285714285714 0.2180952380952381 0.09857142857142857 0.10285714285714286
1 0.7557142857142857 0.2980952380952381 0.09785714285714285 0.10857142857142857
1 0.6514285714285715 0.32476190476190475 0.06571428571428571 0.07904761904761905
1 0.6564285714285715 0.34095238095238095 0.07357142857142857 0.08666666666666667
1 0.6785714285714286 0.3457142857142857 0.08214285714285714 0.09047619047619047
1 0.555 0.41619047619047617 0.06428571428571428 0.06666666666666667
1 0.5407142857142857 0.4523809523809524 0.06785714285714285 0.08761904761904762
1 0.505 0.44857142857142857 0.052142857142857144 0.06095238095238095
1 0.5585714285714286 0.46095238095238095 0.07142857142857142 0.08761904761904762
1 0.61 0.44 0.08428571428571428 0.1
1 0.6814285714285714 0.52 0.1407142857142857 0.13047619047619047
1 0.6157142857142858 0.6723809523809524 0.175 0.15619047619047619
1 0.4564285714285714 0.5066666666666667 0.02214285714285714 0.03142857142857143
0 0.4521428571428571 0.5009523809523809 0.009285714285714286 0.021904761904761906
1 0.2842857142857143 0.7704761904761904 0.06857142857142857 0.06571428571428571
1 0.31357142857142856 0.5866666666666667 0.02142857142857143 0.029523809523809525
1 0.155 0.8647619047619047 0.03571428571428571 0.05333333333333334
1 0.19285714285714287 0.7714285714285715 0.03 0.047619047619047616
1 0.21785714285714286 0.7019047619047619 0.023571428571428573 0.035238095238095235
1 0.19071428571428573 0.72 0.022857142857142857 0.03333333333333333
1 0.1757142857142857 0.7333333333333333 0.018571428571428572 0.029523809523809525
1 0.13214285714285715 0.820952380952381 0.035 0.05238095238095238
1 0.06714285714285714 0.9419047619047619 0.04857142857142857 0.08190476190476191
0 0.041428571428571426 0.9219047619047619 0.013571428571428571 0.013333333333333334
0 0.03642857142857143 0.9276190476190476 0.012857142857142857 0.01904761904761905
0 0.08428571428571428 0.8523809523809524 0.013571428571428571 0.017142857142857144
1 0.025 0.92 0.03428571428571429 0.05047619047619047
1 0.04642857142857143 0.8933333333333333 0.02857142857142857 0.030476190476190476
1 0.05357142857142857 0.8733333333333333 0.030714285714285715 0.03142857142857143
1 0.09142857142857143 0.8219047619047619 0.035 0.039047619047619046
1 0.10357142857142858 0.8019047619047619 0.03214285714285714 0.023809523809523808
1 0.11142857142857143 0.7895238095238095 0.02642857142857143 0.030476190476190476
1 0.12857142857142856 0.7638095238095238 0.030714285714285715 0.03333333333333333
1 0.15214285714285714 0.7333333333333333 0.02857142857142857 0.02761904761904762
1 0.15857142857142856 0.72 0.02 0.02761904761904762
1 0.12642857142857142 0.7428571428571429 0.016428571428571428 0.02
1 0.12428571428571429 0.7504761904761905 0.012857142857142857 0.017142857142857144
1 0.14785714285714285 0.72 0.012857142857142857 0.02
0 0.14 0.7266666666666667 0.005714285714285714 0.011428571428571429
1 0.17857142857142858 0.6904761904761905 0.02142857142857143 0.021904761904761906
1 0.18785714285714286 0.6733333333333333 0.02142857142857143 0.023809523809523808
1 0.24642857142857144 0.6419047619047619 0.017857142857142856 0.02761904761904762
0 0.26 0.6257142857142857 0.007857142857142858 0.012380952380952381
1 0.2692857142857143 0.6 0.014285714285714285 0.02095238095238095
1 0.23857142857142857 0.6152380952380953 0.03142857142857143 0.04380952380952381
1 0.21 0.6390476190476191 0.025714285714285714 0.03238095238095238
1 0.23357142857142857 0.5923809523809523 0.011428571428571429 0.012380952380952381
1 0.24857142857142858 0.5828571428571429 0.012142857142857143 0.013333333333333334
1 0.26 0.5647619047619048 0.01 0.012380952380952381
1 0.3271428571428571 0.5142857142857142 0.025714285714285714 0.049523809523809526
1 0.29714285714285715 0.5266666666666666 0.007142857142857143 0.007619047619047619
0 0.2835714285714286 0.540952380952381 0.0035714285714285713 0.0038095238095238095
1 0.285 0.5419047619047619 0.002857142857142857 0.006666666666666667
