1 0.4492857142857143 0.8540609137055838 0.016428571428571428 0.048223350253807105
1 0.42428571428571427 0.8705583756345178 0.017857142857142856 0.06218274111675127
1 0.5185714285714286 0.8781725888324873 0.015 0.05964467005076142
1 0.54 0.7741116751269036 0.017857142857142856 0.05456852791878172
1 0.4564285714285714 0.6357868020304569 0.014285714285714285 0.044416243654822336
1 0.5014285714285714 0.6472081218274112 0.015714285714285715 0.04568527918781726
1 0.49714285714285716 0.2614213197969543 0.007857142857142858 0.021573604060913704
1 0.49785714285714283 0.31091370558375636 0.009285714285714286 0.021573604060913704
1 0.45357142857142857 0.3147208121827411 0.007857142857142858 0.017766497461928935
1 0.4392857142857143 0.3134517766497462 0.008571428571428572 0.021573604060913704
1 0.46714285714285714 0.27411167512690354 0.007142857142857143 0.017766497461928935
1 0.45571428571428574 0.2652284263959391 0.008571428571428572 0.017766497461928935
1 0.5092857142857142 0.23096446700507614 0.007857142857142858 0.017766497461928935
1 0.5207142857142857 0.2131979695431472 0.007142857142857143 0.01903553299492386
1 0.49714285714285716 0.21065989847715735 0.0064285714285714285 0.01903553299492386
1 0.5071428571428571 0.17385786802030456 0.007142857142857143 0.017766497461928935
1 0.4707142857142857 0.21954314720812182 0.005714285714285714 0.01649746192893401
1 0.4592857142857143 0.21573604060913706 0.005714285714285714 0.015228426395939087
1 0.4471428571428571 0.2131979695431472 0.0064285714285714285 0.01649746192893401
1 0.51 0.3413705583756345 0.009285714285714286 0.027918781725888325
1 0.4714285714285714 0.025380710659898477 0.004285714285714286 0.01015228426395939
1 0.4714285714285714 0.03934010152284264 0.005 0.012690355329949238
1 0.465 0.04949238578680203 0.005 0.008883248730964468
1 0.4692857142857143 0.06091370558375635 0.005 0.01015228426395939
1 0.4664285714285714 0.1065989847715736 0.0035714285714285713 0.011421319796954314
1 0.46714285714285714 0.09390862944162437 0.004285714285714286 0.012690355329949238
1 0.4928571428571429 0.07868020304568528 0.005714285714285714 0.015228426395939087
1 0.49357142857142855 0.10532994923857868 0.007142857142857143 0.013959390862944163
1 0.4992857142857143 0.0266497461928934 0.005 0.011421319796954314
1 0.5107142857142857 0.06979695431472081 0.005 0.012690355329949238
1 0.4742857142857143 0.1218274111675127 0.005714285714285714 0.013959390862944163
1 0.49642857142857144 0.16624365482233502 0.005714285714285714 0.01903553299492386
1 0.4707142857142857 0.1751269035532995 0.007142857142857143 0.01903553299492386
1 0.4607142857142857 0.16751269035532995 0.007857142857142858 0.02030456852791878
1 0.45071428571428573 0.35786802030456855 0.01 0.024111675126903553
1 0.495 0.4022842639593909 0.009285714285714286 0.03553299492385787
1 0.49142857142857144 0.0583756345177665 0.005714285714285714 0.015228426395939087
1 0.4907142857142857 0.03553299492385787 0.005714285714285714 0.015228426395939087
1 0.5042857142857143 0.11294416243654823 0.007142857142857143 0.021573604060913704
1 0.46714285714285714 0.07106598984771574 0.005 0.012690355329949238
1 0.525 0.33883248730964466 0.009285714285714286 0.03553299492385787
1 0.4614285714285714 0.5342639593908629 0.012857142857142857 0.031725888324873094
1 0.4407142857142857 0.5634517766497462 0.012857142857142857 0.03553299492385787
1 0.4342857142857143 0.6738578680203046 0.012142857142857143 0.03680203045685279
1 0.405 0.7296954314720813 0.012142857142857143 0.03680203045685279
1 0.44 0.9708121827411168 0.017857142857142856 0.05456852791878172
0 0.40214285714285714 0.8895939086294417 0.007142857142857143 0.024111675126903553
0 0.38642857142857145 0.8921319796954315 0.0064285714285714285 0.02030456852791878
0 0.4057142857142857 0.8730964467005076 0.004285714285714286 0.01903553299492386
0 0.40214285714285714 0.8604060913705583 0.005714285714285714 0.021573604060913704
0 0.3821428571428571 0.8692893401015228 0.005 0.01903553299492386
0 0.3985714285714286 0.8489847715736041 0.0064285714285714285 0.021573604060913704
1 0.44857142857142857 0.46954314720812185 0.012857142857142857 0.03299492385786802
1 0.43357142857142855 0.4098984771573604 0.012142857142857143 0.024111675126903553
1 0.44142857142857145 0.28045685279187815 0.008571428571428572 0.02030456852791878
1 0.5028571428571429 0.07868020304568528 0.007857142857142858 0.024111675126903553
1 0.5 0.04314720812182741 0.005 0.013959390862944163
1 0.45714285714285713 0.07233502538071065 0.007857142857142858 0.02918781725888325
1 0.4707142857142857 0.07868020304568528 0.005 0.012690355329949238
1 0.4657142857142857 0.12055837563451777 0.005 0.015228426395939087
1 0.4614285714285714 0.021573604060913704 0.005 0.013959390862944163
1 0.49 0.02284263959390863 0.005 0.011421319796954314
1 0.47214285714285714 0.011421319796954314 0.005714285714285714 0.012690355329949238
1 0.03857142857142857 0.4263959390862944 0.02642857142857143 0.027918781725888325
1 0.08571428571428572 0.3464467005076142 0.032857142857142856 0.05583756345177665
1 0.1657142857142857 0.2182741116751269 0.012857142857142857 0.025380710659898477
1 0.11857142857142858 0.30456852791878175 0.025714285714285714 0.03426395939086294
1 0.08214285714285714 0.30456852791878175 0.02214285714285714 0.04187817258883249
