1 0.5785714285714286 0.8047619047619048 0.032857142857142856 0.05523809523809524
1 0.5285714285714286 0.8152380952380952 0.04071428571428572 0.05904761904761905
1 0.49857142857142855 0.7676190476190476 0.03857142857142857 0.05047619047619047
1 0.5485714285714286 0.76 0.030714285714285715 0.04666666666666667
1 0.585 0.7619047619047619 0.027142857142857142 0.035238095238095235
1 0.5964285714285714 0.7285714285714285 0.02642857142857143 0.040952380952380955
1 0.5614285714285714 0.7276190476190476 0.02642857142857143 0.035238095238095235
1 0.5721428571428572 0.6980952380952381 0.022857142857142857 0.03333333333333333
1 0.6035714285714285 0.700952380952381 0.02142857142857143 0.022857142857142857
1 0.6064285714285714 0.6819047619047619 0.017857142857142856 0.02666666666666667
1 0.5814285714285714 0.68 0.017857142857142856 0.024761904761904763
1 0.585 0.660952380952381 0.017857142857142856 0.01904761904761905
1 0.6121428571428571 0.6657142857142857 0.016428571428571428 0.01904761904761905
1 0.6135714285714285 0.6495238095238095 0.016428571428571428 0.01904761904761905
1 0.5907142857142857 0.6476190476190476 0.018571428571428572 0.021904761904761906
1 0.5978571428571429 0.6361904761904762 0.014285714285714285 0.01904761904761905
1 0.6057142857142858 0.6276190476190476 0.016428571428571428 0.017142857142857144
1 0.5907142857142857 0.6057142857142858 0.012857142857142857 0.01619047619047619
1 0.6071428571428571 0.6152380952380953 0.011428571428571429 0.010476190476190476
1 0.6107142857142858 0.6066666666666667 0.011428571428571429 0.012380952380952381
1 0.6128571428571429 0.5971428571428572 0.01 0.009523809523809525
1 0.6035714285714285 0.5857142857142857 0.009285714285714286 0.011428571428571429
1 0.6185714285714285 0.5866666666666667 0.01 0.010476190476190476
1 0.6321428571428571 0.5904761904761905 0.009285714285714286 0.011428571428571429
1 0.6164285714285714 0.5780952380952381 0.008571428571428572 0.008571428571428572
1 0.6228571428571429 0.5723809523809524 0.007142857142857143 0.008571428571428572
1 0.635 0.5714285714285714 0.008571428571428572 0.008571428571428572
1 0.6307142857142857 0.5657142857142857 0.005714285714285714 0.009523809523809525
1 0.6228571428571429 0.5619047619047619 0.0064285714285714285 0.008571428571428572
1 0.6271428571428571 0.5552380952380952 0.0064285714285714285 0.007619047619047619
1 0.6178571428571429 0.5476190476190477 0.007142857142857143 0.005714285714285714
1 0.26285714285714284 0.88 0.15214285714285714 0.08095238095238096
1 0.30714285714285716 0.6228571428571429 0.02142857142857143 0.018095238095238095
1 0.2892857142857143 0.6228571428571429 0.025714285714285714 0.015238095238095238
1 0.27285714285714285 0.6209523809523809 0.022857142857142857 0.017142857142857144
1 0.2542857142857143 0.62 0.024285714285714285 0.017142857142857144
1 0.24 0.6180952380952381 0.020714285714285713 0.015238095238095238
1 0.225 0.6171428571428571 0.02214285714285714 0.017142857142857144
1 0.20785714285714285 0.6161904761904762 0.02214285714285714 0.013333333333333334
1 0.19285714285714287 0.6142857142857143 0.02142857142857143 0.013333333333333334
