1 0.6142857142857143 0.36 0.02642857142857143 0.047619047619047616
1 0.4942857142857143 0.3219047619047619 0.02214285714285714 0.047619047619047616
1 0.5564285714285714 0.23904761904761904 0.023571428571428573 0.039047619047619046
1 0.4857142857142857 0.13333333333333333 0.012857142857142857 0.023809523809523808
1 0.5178571428571429 0.06666666666666667 0.012142857142857143 0.01619047619047619
1 0.5285714285714286 0.045714285714285714 0.010714285714285714 0.013333333333333334
1 0.5135714285714286 0.005714285714285714 0.011428571428571429 0.011428571428571429
1 0.5414285714285715 0.9114285714285715 0.05357142857142857 0.17047619047619048
0 0.6292857142857143 0.8180952380952381 0.012857142857142857 0.03238095238095238
