1 0.1755 0.8993333333333333 0.0655 0.126
1 0.23 0.734 0.0515 0.09533333333333334
1 0.5175 0.61 0.0315 0.06333333333333334
1 0.5805 0.6 0.0355 0.058666666666666666
1 0.2805 0.5686666666666667 0.036 0.06933333333333333
1 0.5515 0.476 0.0255 0.044
1 0.306 0.44666666666666666 0.026 0.04533333333333334
1 0.3345 0.36 0.042 0.028666666666666667
1 0.24 0.31466666666666665 0.0255 0.029333333333333333
1 0.2595 0.2806666666666667 0.019 0.028666666666666667
1 0.24 0.24066666666666667 0.0325 0.029333333333333333
1 0.275 0.22666666666666666 0.0335 0.027333333333333334
1 0.3225 0.21533333333333332 0.0285 0.019333333333333334
1 0.357 0.20066666666666666 0.02 0.021333333333333333
1 0.668 0.3433333333333333 0.034 0.03133333333333333
1 0.6205 0.236 0.0305 0.018
1 0.604 0.24666666666666667 0.0075 0.011333333333333334
1 0.5835 0.23266666666666666 0.009 0.01
0 0.5835 0.22933333333333333 0.004 0.012
0 0.6035 0.24266666666666667 0.0035 0.012
1 0.59 0.22666666666666666 0.027 0.017333333333333333
1 0.563 0.21866666666666668 0.0285 0.016666666666666666
1 0.499 0.206 0.0245 0.016
1 0.472 0.18533333333333332 0.014 0.015333333333333332
1 0.467 0.17533333333333334 0.012 0.012
1 0.1155 0.15066666666666667 0.015 0.016666666666666666
1 0.144 0.12866666666666668 0.015 0.015333333333333332
0 0.118 0.134 0.004 0.013333333333333334
0 0.1125 0.13466666666666666 0.0055 0.011333333333333334
0 0.106 0.13533333333333333 0.0055 0.012
1 0.259 0.14133333333333334 0.0095 0.013333333333333334
1 0.2725 0.13933333333333334 0.0095 0.014
1 0.064 0.14066666666666666 0.0225 0.013333333333333334
0 0.035 0.17733333333333334 0.005 0.014
0 0.0375 0.17533333333333334 0.004 0.012666666666666666
0 0.072 0.12066666666666667 0.0045 0.010666666666666666
1 0.288 0.07933333333333334 0.0085 0.008666666666666666
1 0.278 0.08333333333333333 0.009 0.007333333333333333
1 0.666 0.7966666666666666 0.014 0.037333333333333336
1 0.65 0.7953333333333333 0.009 0.04
1 0.6455 0.7773333333333333 0.016 0.034666666666666665
1 0.6435 0.7413333333333333 0.016 0.032
1 0.5825 0.562 0.024 0.014666666666666666
1 0.58 0.544 0.0165 0.020666666666666667
1 0.582 0.5346666666666666 0.0235 0.016666666666666666
