1 0.3418580375782881 0.7782931354359925 0.03392484342379958 0.07050092764378478
1 0.25835073068893527 0.7300556586270872 0.027661795407098122 0.06307977736549165
1 0.4253653444676409 0.7142857142857143 0.02661795407098121 0.05380333951762523
1 0.7583507306889353 0.9443413729128015 0.061064718162839246 0.08163265306122448
1 0.31941544885177453 0.5955473098330241 0.025052192066805846 0.04916512059369202
1 0.17745302713987474 0.3747680890538033 0.018789144050104383 0.03153988868274583
1 0.22025052192066805 0.35992578849721707 0.016701461377870562 0.025974025974025976
1 0.24791231732776617 0.3979591836734694 0.013569937369519834 0.027829313543599257
1 0.4535490605427975 0.47680890538033394 0.03392484342379958 0.03432282003710575
1 0.3564718162839248 0.9805194805194806 0.030271398747390398 0.03710575139146568
1 0.05636743215031315 0.826530612244898 0.02244258872651357 0.05844155844155844
1 0.2244258872651357 0.29313543599257885 0.014091858037578288 0.02411873840445269
1 0.1826722338204593 0.21057513914656772 0.010960334029227558 0.014842300556586271
1 0.19937369519832984 0.19387755102040816 0.012004175365344467 0.017625231910946195
1 0.18058455114822547 0.150278293135436 0.009394572025052192 0.012987012987012988
1 0.1336116910229645 0.1280148423005566 0.009394572025052192 0.017625231910946195
1 0.17588726513569938 0.12244897959183673 0.008350730688935281 0.01020408163265306
1 0.16022964509394572 0.12059369202226346 0.009394572025052192 0.02040816326530612
1 0.1278705636743215 0.07884972170686456 0.007828810020876827 0.011131725417439703
1 0.16544885177453028 0.07606679035250463 0.007306889352818371 0.012059369202226345
1 0.15762004175365343 0.05287569573283859 0.007828810020876827 0.014842300556586271
1 0.12160751565762004 0.05473098330241188 0.007828810020876827 0.011131725417439703
1 0.13100208768267224 0.04359925788497217 0.007306889352818371 0.011131725417439703
1 0.14665970772442588 0.030612244897959183 0.005741127348643006 0.00927643784786642
1 0.15187891440501045 0.013914656771799629 0.005219206680584551 0.00927643784786642
1 0.1174321503131524 0.022263450834879406 0.005219206680584551 0.011131725417439703
1 0.2974947807933194 0.3014842300556586 0.013569937369519834 0.02411873840445269
1 0.3444676409185804 0.3144712430426716 0.026096033402922755 0.01855287569573284
1 0.31106471816283926 0.2569573283858998 0.024530271398747392 0.02040816326530612
1 0.30741127348643005 0.24489795918367346 0.028183716075156576 0.013914656771799629
1 0.30219206680584554 0.23840445269016697 0.02244258872651357 0.01855287569573284
1 0.2651356993736952 0.20500927643784786 0.010960334029227558 0.016697588126159554
1 0.2917536534446764 0.15769944341372913 0.019311064718162838 0.012987012987012988
1 0.2687891440501044 0.16233766233766234 0.02035490605427975 0.012059369202226345
1 0.3945720250521921 0.4322820037105751 0.032359081419624215 0.026901669758812616
1 0.3862212943632568 0.4025974025974026 0.025052192066805846 0.03153988868274583
1 0.3663883089770355 0.35714285714285715 0.03288100208768267 0.029684601113172542
1 0.35020876826722336 0.3320964749536178 0.025052192066805846 0.025974025974025976
1 0.30323590814196244 0.21614100185528756 0.019311064718162838 0.01948051948051948
1 0.2954070981210856 0.21428571428571427 0.01722338204592902 0.016697588126159554
1 0.278705636743215 0.18181818181818182 0.021920668058455117 0.012987012987012988
1 0.2776617954070981 0.17625231910946196 0.02035490605427975 0.012059369202226345
1 0.23173277661795408 0.1261595547309833 0.006784968684759917 0.017625231910946195
1 0.24425887265135698 0.11688311688311688 0.014613778705636743 0.013914656771799629
1 0.20668058455114824 0.0575139146567718 0.006784968684759917 0.011131725417439703
1 0.19572025052192066 0.032467532467532464 0.006784968684759917 0.01020408163265306
1 0.1837160751565762 0.0287569573283859 0.005741127348643006 0.00927643784786642
1 0.4989561586638831 0.5584415584415584 0.031837160751565764 0.038033395176252316
1 0.32306889352818374 0.19666048237476808 0.008872651356993737 0.012059369202226345
0 0.31419624217118997 0.37755102040816324 0.003131524008350731 0.011131725417439703
0 0.4253653444676409 0.62708719851577 0.0036534446764091857 0.015769944341372914
0 0.3966597077244259 0.5705009276437848 0.003131524008350731 0.014842300556586271
0 0.09498956158663883 0.8274582560296846 0.014091858037578288 0.026901669758812616
0 0.1080375782881002 0.826530612244898 0.014091858037578288 0.0287569573283859
0 0.06263048016701461 0.6103896103896104 0.006784968684759917 0.016697588126159554
0 0.07881002087682672 0.24675324675324675 0.0041753653444676405 0.012059369202226345
0 0.08402922755741127 0.24025974025974026 0.0041753653444676405 0.011131725417439703
0 0.07881002087682672 0.08348794063079777 0.0026096033402922755 0.006493506493506494
1 0.39613778705636743 0.5769944341372912 0.007306889352818371 0.01855287569573284
1 0.4253653444676409 0.6363636363636364 0.009394572025052192 0.01948051948051948
1 0.09290187891440502 0.839517625231911 0.013048016701461378 0.025974025974025976
1 0.1069937369519833 0.8404452690166976 0.010960334029227558 0.023191094619666047
1 0.31315240083507306 0.3821892393320965 0.006263048016701462 0.012059369202226345
1 0.07933194154488518 0.2532467532467532 0.004697286012526096 0.006493506493506494
1 0.08402922755741127 0.24489795918367346 0.004697286012526096 0.008348794063079777
1 0.32828810020876825 0.20964749536178107 0.009916492693110648 0.012059369202226345
0 0.22390396659707723 0.12523191094619665 0.003131524008350731 0.00927643784786642
0 0.22599164926931106 0.14007421150278293 0.0026096033402922755 0.0074211502782931356
1 0.2265135699373695 0.14471243042671614 0.0036534446764091857 0.0074211502782931356
0 0.20250521920668058 0.07977736549165121 0.003131524008350731 0.011131725417439703
1 0.06419624217118998 0.62152133580705 0.008350730688935281 0.015769944341372914
1 0.07933194154488518 0.08719851576994433 0.0026096033402922755 0.00463821892393321
