1 0.3992857142857143 0.7819047619047619 0.05928571428571429 0.16857142857142857
1 0.6857142857142857 0.6038095238095238 0.08571428571428572 0.12095238095238095
1 0.4157142857142857 0.5428571428571428 0.05 0.1295238095238095
1 0.3707142857142857 0.9580952380952381 0.05928571428571429 0.08285714285714285
1 0.6828571428571428 0.4828571428571429 0.08285714285714285 0.1219047619047619
1 0.6828571428571428 0.3504761904761905 0.07785714285714286 0.09333333333333334
1 0.4278571428571429 0.38095238095238093 0.05357142857142857 0.13142857142857142
1 0.45571428571428574 0.22952380952380952 0.05357142857142857 0.09523809523809523
1 0.6757142857142857 0.26761904761904765 0.08785714285714286 0.08190476190476191
1 0.6685714285714286 0.20285714285714285 0.08642857142857142 0.07142857142857142
1 0.6671428571428571 0.13047619047619047 0.08357142857142857 0.07333333333333333
1 0.67 0.06190476190476191 0.08071428571428571 0.05904761904761905
1 0.45571428571428574 0.08857142857142856 0.047857142857142855 0.07428571428571429
1 0.6628571428571428 0.018095238095238095 0.06357142857142857 0.03619047619047619
1 0.7228571428571429 0.7761904761904762 0.08428571428571428 0.2123809523809524
