0 0.16857142857142857 0.9095238095238095 0.015 0.054285714285714284
1 0.2842857142857143 0.8647619047619047 0.03857142857142857 0.0761904761904762
1 0.34714285714285714 0.8295238095238096 0.054285714285714284 0.10476190476190476
1 0.3192857142857143 0.6447619047619048 0.027142857142857142 0.0380952380952381
1 0.2571428571428571 0.6628571428571428 0.022857142857142857 0.029523809523809525
1 0.039285714285714285 0.9095238095238095 0.07 0.11333333333333333
1 0.09642857142857143 0.7628571428571429 0.04214285714285714 0.05904761904761905
1 0.1757142857142857 0.679047619047619 0.025714285714285714 0.03428571428571429
1 0.12571428571428572 0.6571428571428571 0.056428571428571425 0.10380952380952381
1 0.17857142857142858 0.6009523809523809 0.015 0.01904761904761905
1 0.1757142857142857 0.5742857142857143 0.013571428571428571 0.017142857142857144
1 0.24071428571428571 0.5723809523809524 0.012142857142857143 0.014285714285714285
1 0.25857142857142856 0.559047619047619 0.010714285714285714 0.011428571428571429
1 0.2742857142857143 0.5552380952380952 0.010714285714285714 0.010476190476190476
1 0.2392857142857143 0.5580952380952381 0.010714285714285714 0.010476190476190476
1 0.2392857142857143 0.5457142857142857 0.01 0.009523809523809525
1 0.23785714285714285 0.5323809523809524 0.007857142857142858 0.008571428571428572
1 0.23357142857142857 0.52 0.007142857142857143 0.006666666666666667
1 0.24928571428571428 0.5228571428571429 0.007142857142857143 0.007619047619047619
1 0.24142857142857144 0.5038095238095238 0.0064285714285714285 0.004761904761904762
1 0.21285714285714286 0.5 0.0064285714285714285 0.006666666666666667
1 0.23857142857142857 0.49714285714285716 0.004285714285714286 0.0038095238095238095
1 0.23785714285714285 0.49142857142857144 0.004285714285714286 0.0038095238095238095
1 0.23142857142857143 0.48857142857142855 0.004285714285714286 0.004761904761904762
1 0.23642857142857143 0.4838095238095238 0.002857142857142857 0.002857142857142857
1 0.22857142857142856 0.47904761904761906 0.002857142857142857 0.002857142857142857
1 0.21571428571428572 0.48857142857142855 0.004285714285714286 0.0038095238095238095
1 0.215 0.4847619047619048 0.0035714285714285713 0.0038095238095238095
1 0.21071428571428572 0.4838095238095238 0.0035714285714285713 0.0038095238095238095
1 0.20857142857142857 0.48857142857142855 0.0035714285714285713 0.0038095238095238095
1 0.20285714285714285 0.49047619047619045 0.004285714285714286 0.0038095238095238095
1 0.205 0.4857142857142857 0.0035714285714285713 0.0038095238095238095
1 0.23214285714285715 0.47333333333333333 0.005 0.007619047619047619
1 0.23 0.4714285714285714 0.002142857142857143 0.002857142857142857
1 0.22642857142857142 0.4714285714285714 0.002142857142857143 0.002857142857142857
