1 0.06642857142857143 0.4057142857142857 0.13357142857142856 0.17714285714285713
1 0.9357142857142857 0.5685714285714286 0.12785714285714286 0.29523809523809524
1 0.8685714285714285 0.05142857142857143 0.12 0.10285714285714286
1 0.495 0.04 0.1407142857142857 0.08095238095238096
1 0.38285714285714284 0.1 0.15071428571428572 0.15714285714285714
1 0.3221428571428571 0.16380952380952382 0.15571428571428572 0.15714285714285714
1 0.6185714285714285 0.32476190476190475 0.15928571428571428 0.21714285714285714
1 0.45071428571428573 0.5580952380952381 0.20214285714285715 0.28
1 0.5471428571428572 0.66 0.205 0.2904761904761905
1 0.85 0.2038095238095238 0.12428571428571429 0.14952380952380953
1 0.965 0.037142857142857144 0.06857142857142857 0.07523809523809524
