1 0.5471428571428572 0.9352791878172588 0.032857142857142856 0.09137055837563451
1 0.565 0.7855329949238579 0.045 0.07614213197969544
1 0.6028571428571429 0.5697969543147208 0.022857142857142857 0.05964467005076142
1 0.4714285714285714 0.6649746192893401 0.02857142857142857 0.05964467005076142
1 0.45071428571428573 0.6040609137055838 0.029285714285714286 0.06725888324873096
1 0.22071428571428572 0.6408629441624365 0.03571428571428571 0.07614213197969544
1 0.2957142857142857 0.4149746192893401 0.029285714285714286 0.05456852791878172
1 0.515 0.4403553299492386 0.022857142857142857 0.03807106598984772
1 0.15714285714285714 0.23730964467005075 0.032857142857142856 0.07868020304568528
1 0.22 0.18908629441624367 0.020714285714285713 0.03934010152284264
1 0.1492857142857143 0.16370558375634517 0.022857142857142857 0.05583756345177665
1 0.12357142857142857 0.14593908629441624 0.012857142857142857 0.027918781725888325
1 0.12 0.09390862944162437 0.02214285714285714 0.04568527918781726
1 0.15071428571428572 0.05964467005076142 0.012142857142857143 0.02030456852791878
1 0.20642857142857143 0.027918781725888325 0.012142857142857143 0.01903553299492386
1 0.16428571428571428 0.01649746192893401 0.014285714285714285 0.01903553299492386
1 0.4614285714285714 0.2703045685279188 0.02 0.030456852791878174
1 0.48428571428571426 0.25 0.018571428571428572 0.0266497461928934
1 0.4471428571428571 0.25253807106598986 0.02 0.030456852791878174
1 0.4092857142857143 0.22081218274111675 0.022857142857142857 0.0266497461928934
1 0.6014285714285714 0.1916243654822335 0.011428571428571429 0.0266497461928934
1 0.5864285714285714 0.19289340101522842 0.015 0.0266497461928934
1 0.5742857142857143 0.19035532994923857 0.014285714285714285 0.02918781725888325
1 0.5435714285714286 0.15609137055837563 0.013571428571428571 0.03299492385786802
1 0.5314285714285715 0.1598984771573604 0.012857142857142857 0.025380710659898477
1 0.5935714285714285 0.1484771573604061 0.01 0.030456852791878174
1 0.6628571428571428 0.1116751269035533 0.025 0.02918781725888325
1 0.61 0.07360406091370558 0.010714285714285714 0.02284263959390863
1 0.2671428571428571 0.18274111675126903 0.02142857142857143 0.04568527918781726
1 0.25357142857142856 0.09137055837563451 0.016428571428571428 0.01649746192893401
1 0.265 0.03680203045685279 0.013571428571428571 0.01649746192893401
1 0.6042857142857143 0.048223350253807105 0.01 0.027918781725888325
1 0.6121428571428571 0.017766497461928935 0.01 0.02030456852791878
1 0.6164285714285714 0.04568527918781726 0.011428571428571429 0.024111675126903553
1 0.5535714285714286 0.04949238578680203 0.01 0.01903553299492386
1 0.5407142857142857 0.050761421319796954 0.01 0.017766497461928935
1 0.5321428571428571 0.04949238578680203 0.008571428571428572 0.01903553299492386
1 0.5071428571428571 0.06091370558375635 0.008571428571428572 0.015228426395939087
1 0.49785714285714283 0.05710659898477157 0.008571428571428572 0.012690355329949238
1 0.48928571428571427 0.07741116751269035 0.013571428571428571 0.01903553299492386
1 0.47928571428571426 0.05710659898477157 0.009285714285714286 0.017766497461928935
1 0.5514285714285714 0.024111675126903553 0.011428571428571429 0.01649746192893401
1 0.5564285714285714 0.006345177664974619 0.009285714285714286 0.011421319796954314
1 0.5307142857142857 0.027918781725888325 0.010714285714285714 0.013959390862944163
1 0.45357142857142857 0.2233502538071066 0.032857142857142856 0.02918781725888325
1 0.2664285714285714 0.011421319796954314 0.016428571428571428 0.017766497461928935
1 0.3142857142857143 0.021573604060913704 0.011428571428571429 0.01649746192893401
1 0.4042857142857143 0.031725888324873094 0.017142857142857144 0.031725888324873094
1 0.3821428571428571 0.0583756345177665 0.02 0.02918781725888325
1 0.37357142857142855 0.030456852791878174 0.016428571428571428 0.03553299492385787
1 0.36 0.06218274111675127 0.02142857142857143 0.03426395939086294
1 0.34714285714285714 0.06218274111675127 0.019285714285714285 0.04187817258883249
1 0.3364285714285714 0.06218274111675127 0.019285714285714285 0.03426395939086294
1 0.32285714285714284 0.06598984771573604 0.018571428571428572 0.03807106598984772
1 0.3057142857142857 0.0583756345177665 0.018571428571428572 0.030456852791878174
1 0.36142857142857143 0.027918781725888325 0.017142857142857144 0.03426395939086294
1 0.34214285714285714 0.02918781725888325 0.020714285714285713 0.03680203045685279
1 0.525 0.15355329949238578 0.019285714285714285 0.021573604060913704
1 0.5285714285714286 0.14720812182741116 0.027857142857142858 0.01903553299492386
1 0.5271428571428571 0.14086294416243655 0.023571428571428573 0.0266497461928934
1 0.2864285714285714 0.23477157360406092 0.027142857142857142 0.044416243654822336
