1 0.11285714285714285 0.9098984771573604 0.07785714285714286 0.13071065989847716
1 0.48642857142857143 0.6294416243654822 0.060714285714285714 0.12436548223350254
1 0.6121428571428571 0.7601522842639594 0.08428571428571428 0.12944162436548223
1 0.6378571428571429 0.700507614213198 0.075 0.10786802030456853
1 0.44785714285714284 0.5304568527918782 0.05928571428571429 0.11928934010152284
1 0.40285714285714286 0.5253807106598984 0.04857142857142857 0.09898477157360407
1 0.3292857142857143 0.46446700507614214 0.062142857142857146 0.12309644670050761
1 0.84 0.021573604060913704 0.07857142857142857 0.044416243654822336
