1 0.1692857142857143 0.05523809523809524 0.03571428571428571 0.022857142857142857
1 0.3142857142857143 0.03142857142857143 0.032857142857142856 0.021904761904761906
1 0.4064285714285714 0.009523809523809525 0.008571428571428572 0.008571428571428572
0 0.4057142857142857 0.006666666666666667 0.004285714285714286 0.014285714285714285
1 0.4521428571428571 0.9838095238095238 0.060714285714285714 0.029523809523809525
0 0.5378571428571428 0.8523809523809524 0.0064285714285714285 0.02761904761904762
0 0.58 0.8171428571428572 0.009285714285714286 0.022857142857142857
0 0.5421428571428571 0.8295238095238096 0.012142857142857143 0.021904761904761906
1 0.8635714285714285 0.8876190476190476 0.09642857142857143 0.11714285714285715
1 0.745 0.7161904761904762 0.05857142857142857 0.06571428571428571
1 0.7028571428571428 0.7466666666666667 0.04857142857142857 0.04857142857142857
1 0.665 0.7780952380952381 0.03642857142857143 0.02666666666666667
0 0.7642857142857142 0.7390476190476191 0.013571428571428571 0.023809523809523808
0 0.7592857142857142 0.7342857142857143 0.009285714285714286 0.01619047619047619
1 0.9742857142857143 0.6523809523809524 0.05071428571428571 0.07523809523809524
1 0.8921428571428571 0.5676190476190476 0.027857142857142858 0.05619047619047619
0 0.795 0.6523809523809524 0.011428571428571429 0.024761904761904763
0 0.8514285714285714 0.6314285714285715 0.011428571428571429 0.018095238095238095
0 0.8271428571428572 0.6028571428571429 0.01 0.01904761904761905
0 0.8221428571428572 0.5914285714285714 0.011428571428571429 0.017142857142857144
0 0.8128571428571428 0.6057142857142858 0.009285714285714286 0.018095238095238095
0 0.7871428571428571 0.5657142857142857 0.012142857142857143 0.02095238095238095
0 0.7928571428571428 0.5580952380952381 0.007857142857142858 0.023809523809523808
1 0.7807142857142857 0.5923809523809523 0.03571428571428571 0.022857142857142857
1 0.9421428571428572 0.49333333333333335 0.02857142857142857 0.037142857142857144
1 0.9878571428571429 0.4990476190476191 0.023571428571428573 0.023809523809523808
1 0.9814285714285714 0.44476190476190475 0.037142857142857144 0.04666666666666667
1 0.9764285714285714 0.3961904761904762 0.04642857142857143 0.06095238095238095
0 0.8192857142857143 0.5561904761904762 0.013571428571428571 0.021904761904761906
0 0.8507142857142858 0.5523809523809524 0.017142857142857144 0.023809523809523808
0 0.88 0.5342857142857143 0.018571428571428572 0.023809523809523808
0 0.8342857142857143 0.5285714285714286 0.012857142857142857 0.02761904761904762
0 0.8235714285714286 0.5485714285714286 0.010714285714285714 0.021904761904761906
0 0.9907142857142858 0.49333333333333335 0.014285714285714285 0.022857142857142857
0 0.9921428571428571 0.5142857142857142 0.015 0.021904761904761906
0 0.9271428571428572 0.47619047619047616 0.012857142857142857 0.021904761904761906
0 0.9192857142857143 0.439047619047619 0.014285714285714285 0.025714285714285714
0 0.9128571428571428 0.4228571428571429 0.011428571428571429 0.01904761904761905
0 0.8935714285714286 0.40476190476190477 0.011428571428571429 0.02095238095238095
1 0.6842857142857143 0.4419047619047619 0.019285714285714285 0.018095238095238095
0 0.6621428571428571 0.3476190476190476 0.007857142857142858 0.025714285714285714
0 0.6842857142857143 0.18857142857142858 0.004285714285714286 0.02
0 0.7035714285714286 0.18285714285714286 0.007142857142857143 0.02095238095238095
1 0.6971428571428572 0.16476190476190475 0.047857142857142855 0.047619047619047616
1 0.7707142857142857 0.12380952380952381 0.03 0.037142857142857144
1 0.8471428571428572 0.10285714285714286 0.02857142857142857 0.03238095238095238
1 0.9821428571428571 0.13238095238095238 0.035 0.02761904761904762
1 0.9914285714285714 0.12761904761904763 0.017142857142857144 0.02761904761904762
1 0.9435714285714286 0.14666666666666667 0.045 0.0419047619047619
0 0.96 0.14761904761904762 0.004285714285714286 0.023809523809523808
1 0.955 0.35714285714285715 0.017857142857142856 0.021904761904761906
0 0.9585714285714285 0.3523809523809524 0.014285714285714285 0.012380952380952381
1 0.8485714285714285 0.2904761904761905 0.03785714285714286 0.054285714285714284
1 0.8542857142857143 0.3323809523809524 0.012142857142857143 0.02
1 0.8107142857142857 0.26857142857142857 0.013571428571428571 0.022857142857142857
1 0.7664285714285715 0.23809523809523808 0.032857142857142856 0.037142857142857144
0 0.8264285714285714 0.2885714285714286 0.008571428571428572 0.02095238095238095
0 0.8307142857142857 0.29428571428571426 0.0064285714285714285 0.017142857142857144
0 0.8392857142857143 0.25333333333333335 0.007857142857142858 0.021904761904761906
0 0.9457142857142857 0.2419047619047619 0.007142857142857143 0.02095238095238095
0 0.99 0.2761904761904762 0.008571428571428572 0.017142857142857144
0 0.8364285714285714 0.2361904761904762 0.007142857142857143 0.02
0 0.7985714285714286 0.2276190476190476 0.007142857142857143 0.01904761904761905
0 0.7342857142857143 0.18666666666666668 0.0064285714285714285 0.02
0 0.77 0.19142857142857142 0.007142857142857143 0.02
0 0.7628571428571429 0.17904761904761904 0.007142857142857143 0.017142857142857144
0 0.7642857142857142 0.18857142857142858 0.005714285714285714 0.017142857142857144
0 0.7628571428571429 0.19428571428571428 0.007142857142857143 0.018095238095238095
0 0.7814285714285715 0.19047619047619047 0.0064285714285714285 0.018095238095238095
0 0.8092857142857143 0.20476190476190476 0.005714285714285714 0.017142857142857144
1 0.8878571428571429 0.08476190476190476 0.03857142857142857 0.0380952380952381
1 0.9128571428571428 0.07523809523809524 0.029285714285714286 0.03238095238095238
1 0.9 0.08476190476190476 0.03214285714285714 0.02857142857142857
1 0.9378571428571428 0.07333333333333333 0.035 0.02857142857142857
1 0.9585714285714285 0.06 0.03214285714285714 0.02857142857142857
1 0.9928571428571429 0.037142857142857144 0.014285714285714285 0.023809523809523808
