1 0.5714285714285714 0.6192893401015228 0.02 0.06345177664974619
1 0.5228571428571429 0.4936548223350254 0.016428571428571428 0.04314720812182741
1 0.5328571428571428 0.35913705583756345 0.015 0.03553299492385787
1 0.5085714285714286 0.3401015228426396 0.012857142857142857 0.031725888324873094
1 0.51 0.31091370558375636 0.01 0.027918781725888325
1 0.51 0.28045685279187815 0.013571428571428571 0.024111675126903553
1 0.5278571428571428 0.23477157360406092 0.010714285714285714 0.025380710659898477
1 0.525 0.18401015228426396 0.010714285714285714 0.02284263959390863
1 0.4685714285714286 0.25253807106598986 0.009285714285714286 0.024111675126903553
1 0.33071428571428574 0.37944162436548223 0.03142857142857143 0.024111675126903553
1 0.5235714285714286 0.14213197969543148 0.009285714285714286 0.021573604060913704
1 0.5414285714285715 0.1700507614213198 0.008571428571428572 0.021573604060913704
1 0.4907142857142857 0.08883248730964467 0.008571428571428572 0.015228426395939087
1 0.49357142857142855 0.03426395939086294 0.005714285714285714 0.011421319796954314
1 0.5128571428571429 0.02284263959390863 0.005714285714285714 0.01015228426395939
1 0.49214285714285716 0.01903553299492386 0.005714285714285714 0.012690355329949238
1 0.5214285714285715 0.013959390862944163 0.005 0.011421319796954314
1 0.4857142857142857 0.006345177664974619 0.005714285714285714 0.01015228426395939
1 0.5457142857142857 0.2296954314720812 0.01 0.027918781725888325
1 0.4685714285714286 0.7119289340101523 0.017142857142857144 0.050761421319796954
1 0.4135714285714286 0.6535532994923858 0.018571428571428572 0.0532994923857868
1 0.4878571428571429 0.1967005076142132 0.01 0.021573604060913704
1 0.5214285714285715 0.03426395939086294 0.007142857142857143 0.01903553299492386
1 0.525 0.025380710659898477 0.0064285714285714285 0.013959390862944163
1 0.5314285714285715 0.04187817258883249 0.0064285714285714285 0.01649746192893401
1 0.5371428571428571 0.11421319796954314 0.007857142857142858 0.024111675126903553
1 0.5207142857142857 0.05964467005076142 0.008571428571428572 0.01903553299492386
1 0.6892857142857143 0.6675126903553299 0.115 0.07233502538071065
1 0.5142857142857142 0.9758883248730964 0.025 0.04568527918781726
1 0.5978571428571429 0.983502538071066 0.025714285714285714 0.02918781725888325
0 0.2807142857142857 0.43781725888324874 0.0035714285714285713 0.01903553299492386
0 0.28214285714285714 0.4365482233502538 0.0064285714285714285 0.021573604060913704
1 0.545 0.6548223350253807 0.02642857142857143 0.12563451776649745
0 0.675 0.2614213197969543 0.005 0.01649746192893401
0 0.6635714285714286 0.2715736040609137 0.0064285714285714285 0.01903553299492386
