0 0.07142857142857142 0.30952380952380953 0.005714285714285714 0.02
0 0.07642857142857143 0.30952380952380953 0.005714285714285714 0.01904761904761905
0 0.08071428571428571 0.30666666666666664 0.007142857142857143 0.01619047619047619
0 0.25785714285714284 0.37333333333333335 0.007142857142857143 0.02095238095238095
1 0.05785714285714286 0.5666666666666667 0.035 0.02
1 0.07571428571428572 0.520952380952381 0.029285714285714286 0.02
1 0.45571428571428574 0.4723809523809524 0.025 0.05714285714285714
1 0.4342857142857143 0.6171428571428571 0.030714285714285715 0.05904761904761905
1 0.445 0.6742857142857143 0.056428571428571425 0.08190476190476191
0 0.4635714285714286 0.42 0.005714285714285714 0.022857142857142857
0 0.4714285714285714 0.41714285714285715 0.0064285714285714285 0.024761904761904763
0 0.39357142857142857 0.3419047619047619 0.0064285714285714285 0.02
0 0.5014285714285714 0.3466666666666667 0.005 0.018095238095238095
0 0.5021428571428571 0.3380952380952381 0.0064285714285714285 0.01904761904761905
0 0.2592857142857143 0.20761904761904762 0.002857142857142857 0.010476190476190476
1 0.185 0.4 0.007142857142857143 0.01904761904761905
1 0.17785714285714285 0.4 0.005714285714285714 0.014285714285714285
1 0.205 0.41523809523809524 0.012142857142857143 0.013333333333333334
1 0.19428571428571428 0.39714285714285713 0.007857142857142858 0.018095238095238095
1 0.2057142857142857 0.3980952380952381 0.004285714285714286 0.015238095238095238
1 0.215 0.3952380952380952 0.0064285714285714285 0.014285714285714285
1 0.4135714285714286 0.3333333333333333 0.039285714285714285 0.02095238095238095
1 0.5164285714285715 0.3342857142857143 0.02214285714285714 0.05142857142857143
1 0.475 0.16666666666666666 0.007857142857142858 0.009523809523809525
0 0.47 0.17714285714285713 0.002142857142857143 0.006666666666666667
0 0.4735714285714286 0.17714285714285713 0.002857142857142857 0.006666666666666667
0 0.5457142857142857 0.45714285714285713 0.005714285714285714 0.02095238095238095
0 0.5514285714285714 0.44857142857142857 0.0035714285714285713 0.021904761904761906
1 0.5292857142857142 0.46190476190476193 0.015 0.023809523809523808
0 0.53 0.4552380952380952 0.008571428571428572 0.018095238095238095
1 0.6835714285714286 0.9038095238095238 0.02642857142857143 0.05142857142857143
1 0.6514285714285715 0.8238095238095238 0.03428571428571429 0.06380952380952382
1 0.65 0.7847619047619048 0.016428571428571428 0.04857142857142857
0 0.5985714285714285 0.7857142857142857 0.009285714285714286 0.02761904761904762
1 0.6257142857142857 0.7723809523809524 0.010714285714285714 0.02857142857142857
1 0.64 0.7447619047619047 0.014285714285714285 0.035238095238095235
1 0.6328571428571429 0.7161904761904762 0.013571428571428571 0.02761904761904762
0 0.595 0.6333333333333333 0.009285714285714286 0.030476190476190476
0 0.63 0.6257142857142857 0.010714285714285714 0.023809523809523808
1 0.6007142857142858 0.5847619047619048 0.010714285714285714 0.029523809523809525
0 0.5842857142857143 0.4638095238095238 0.004285714285714286 0.021904761904761906
0 0.5914285714285714 0.4723809523809524 0.005 0.01904761904761905
0 0.5957142857142858 0.4666666666666667 0.005 0.022857142857142857
