0 0.35214285714285715 0.6352380952380953 0.01 0.030476190476190476
0 0.35642857142857143 0.7019047619047619 0.01 0.02857142857142857
0 0.4042857142857143 0.8219047619047619 0.009285714285714286 0.03142857142857143
0 0.3892857142857143 0.8333333333333334 0.010714285714285714 0.03142857142857143
0 0.37642857142857145 0.8295238095238096 0.01 0.023809523809523808
0 0.3707142857142857 0.8571428571428571 0.011428571428571429 0.02761904761904762
0 0.39785714285714285 0.9247619047619048 0.008571428571428572 0.022857142857142857
0 0.38357142857142856 0.9266666666666666 0.011428571428571429 0.03142857142857143
0 0.3757142857142857 0.9352380952380952 0.013571428571428571 0.03238095238095238
0 0.35214285714285715 0.959047619047619 0.015 0.03428571428571429
0 0.34 0.9771428571428571 0.013571428571428571 0.03333333333333333
0 0.3342857142857143 0.9457142857142857 0.013571428571428571 0.029523809523809525
0 0.31857142857142856 0.981904761904762 0.014285714285714285 0.02666666666666667
0 0.29642857142857143 0.9485714285714286 0.012142857142857143 0.029523809523809525
0 0.3007142857142857 0.9352380952380952 0.017142857142857144 0.02857142857142857
0 0.32071428571428573 0.8866666666666667 0.011428571428571429 0.021904761904761906
0 0.3271428571428571 0.8790476190476191 0.009285714285714286 0.02
0 0.345 0.8609523809523809 0.01 0.029523809523809525
0 0.3585714285714286 0.8276190476190476 0.01 0.03142857142857143
0 0.36642857142857144 0.8219047619047619 0.012142857142857143 0.03142857142857143
0 0.2542857142857143 0.940952380952381 0.010714285714285714 0.018095238095238095
0 0.2621428571428571 0.9247619047619048 0.014285714285714285 0.02857142857142857
0 0.2007142857142857 0.9761904761904762 0.015714285714285715 0.03142857142857143
0 0.96 0.7819047619047619 0.017857142857142856 0.024761904761904763
0 0.88 0.5342857142857143 0.009285714285714286 0.02095238095238095
0 0.8242857142857143 0.46285714285714286 0.011428571428571429 0.02
0 0.7907142857142857 0.42952380952380953 0.007857142857142858 0.021904761904761906
1 0.5878571428571429 0.49714285714285716 0.03428571428571429 0.04380952380952381
1 0.6292857142857143 0.43333333333333335 0.025714285714285714 0.03619047619047619
0 0.6714285714285714 0.3485714285714286 0.005 0.01619047619047619
0 0.6985714285714286 0.3742857142857143 0.0064285714285714285 0.017142857142857144
0 0.6921428571428572 0.37333333333333335 0.0064285714285714285 0.01904761904761905
0 0.6471428571428571 0.31142857142857144 0.005714285714285714 0.015238095238095238
0 0.64 0.31142857142857144 0.004285714285714286 0.013333333333333334
0 0.635 0.30666666666666664 0.005714285714285714 0.01619047619047619
0 0.6385714285714286 0.29428571428571426 0.005714285714285714 0.015238095238095238
0 0.6464285714285715 0.3047619047619048 0.004285714285714286 0.015238095238095238
1 0.6821428571428572 0.3161904761904762 0.017857142857142856 0.023809523809523808
1 0.7057142857142857 0.24952380952380954 0.014285714285714285 0.01904761904761905
1 0.7114285714285714 0.22952380952380952 0.014285714285714285 0.024761904761904763
0 0.6807142857142857 0.23904761904761904 0.004285714285714286 0.014285714285714285
0 0.675 0.2523809523809524 0.0035714285714285713 0.013333333333333334
0 0.6721428571428572 0.2523809523809524 0.004285714285714286 0.015238095238095238
0 0.6757142857142857 0.23809523809523808 0.005 0.015238095238095238
0 0.6714285714285714 0.23714285714285716 0.005 0.015238095238095238
0 0.6764285714285714 0.20952380952380953 0.005 0.011428571428571429
0 0.6871428571428572 0.20666666666666667 0.004285714285714286 0.012380952380952381
0 0.6835714285714286 0.2038095238095238 0.005 0.014285714285714285
1 0.7364285714285714 0.2019047619047619 0.011428571428571429 0.014285714285714285
0 0.7835714285714286 0.15333333333333332 0.0035714285714285713 0.010476190476190476
0 0.7807142857142857 0.15333333333333332 0.004285714285714286 0.011428571428571429
0 0.7742857142857142 0.15333333333333332 0.004285714285714286 0.010476190476190476
0 0.8942857142857142 0.22476190476190477 0.007142857142857143 0.015238095238095238
0 0.9071428571428571 0.24952380952380954 0.005714285714285714 0.014285714285714285
0 0.9464285714285714 0.21142857142857144 0.005714285714285714 0.014285714285714285
0 0.9342857142857143 0.2219047619047619 0.0064285714285714285 0.013333333333333334
0 0.93 0.22095238095238096 0.0064285714285714285 0.014285714285714285
0 0.9092857142857143 0.1761904761904762 0.005 0.011428571428571429
0 0.9042857142857142 0.1742857142857143 0.0064285714285714285 0.012380952380952381
0 0.925 0.17047619047619048 0.0064285714285714285 0.012380952380952381
0 0.9114285714285715 0.14857142857142858 0.005714285714285714 0.013333333333333334
0 0.9814285714285714 0.12666666666666668 0.0064285714285714285 0.010476190476190476
