0 0.468 0.6046666666666667 0.0055 0.014666666666666666
0 0.528 0.508 0.021 0.04133333333333333
0 0.5615 0.512 0.0215 0.044
0 0.5875 0.514 0.02 0.042666666666666665
0 0.6205 0.514 0.0215 0.043333333333333335
1 0.6455 0.5266666666666666 0.0195 0.048
1 0.694 0.5293333333333333 0.0185 0.04533333333333334
0 0.593 0.6873333333333334 0.0075 0.018
0 0.631 0.842 0.0055 0.02
1 0.4775 0.7246666666666667 0.019 0.015333333333333332
1 0.551 0.7926666666666666 0.021 0.015333333333333332
1 0.5515 0.7826666666666666 0.0215 0.014
1 0.553 0.7533333333333333 0.02 0.013333333333333334
1 0.5545 0.7253333333333334 0.02 0.012
1 0.5575 0.7186666666666667 0.02 0.012
1 0.5555 0.7093333333333334 0.0185 0.011333333333333334
1 0.555 0.698 0.0165 0.008666666666666666
1 0.5595 0.6886666666666666 0.0175 0.010666666666666666
1 0.4955 0.6786666666666666 0.0195 0.009333333333333334
1 0.485 0.6673333333333333 0.017 0.014
1 0.4885 0.6606666666666666 0.016 0.017333333333333333
1 0.4875 0.652 0.0175 0.011333333333333334
1 0.491 0.6473333333333333 0.0195 0.013333333333333334
1 0.49 0.6353333333333333 0.017 0.014
