0 0.5978571428571429 0.3580952380952381 0.029285714285714286 0.1
0 0.6707142857142857 0.40476190476190477 0.030714285714285715 0.08190476190476191
0 0.5507142857142857 0.37142857142857144 0.027142857142857142 0.09904761904761905
0 0.5657142857142857 0.35904761904761906 0.022857142857142857 0.08952380952380952
0 0.5335714285714286 0.38857142857142857 0.03428571428571429 0.09714285714285714
0 0.49857142857142855 0.39904761904761904 0.03142857142857143 0.08952380952380952
0 0.48642857142857143 0.36666666666666664 0.025 0.09142857142857143
0 0.42928571428571427 0.3933333333333333 0.03214285714285714 0.09333333333333334
0 0.38285714285714284 0.3838095238095238 0.03214285714285714 0.10761904761904761
0 0.3364285714285714 0.38571428571428573 0.04214285714285714 0.10380952380952381
0 0.2714285714285714 0.40190476190476193 0.04357142857142857 0.1
0 0.2342857142857143 0.38666666666666666 0.030714285714285715 0.10095238095238095
0 0.19142857142857142 0.4038095238095238 0.045714285714285714 0.1019047619047619
0 0.11928571428571429 0.3942857142857143 0.041428571428571426 0.09619047619047619
0 0.03357142857142857 0.40476190476190477 0.05357142857142857 0.10380952380952381
0 0.05857142857142857 0.3904761904761905 0.04071428571428572 0.13142857142857142
0 0.11214285714285714 0.3438095238095238 0.030714285714285715 0.09047619047619047
0 0.12714285714285714 0.3638095238095238 0.025714285714285714 0.07523809523809524
0 0.15071428571428572 0.3619047619047619 0.03 0.09428571428571429
0 0.175 0.35904761904761906 0.03214285714285714 0.09523809523809523
0 0.15571428571428572 0.3323809523809524 0.024285714285714285 0.08190476190476191
0 0.15357142857142858 0.3180952380952381 0.017857142857142856 0.045714285714285714
0 0.8521428571428571 0.37238095238095237 0.04 0.10380952380952381
0 0.8914285714285715 0.379047619047619 0.03857142857142857 0.1019047619047619
0 0.9407142857142857 0.38285714285714284 0.04642857142857143 0.09523809523809523
0 0.9771428571428571 0.38666666666666666 0.03214285714285714 0.09238095238095238
0 0.8864285714285715 0.06095238095238095 0.02214285714285714 0.06952380952380953
0 0.8564285714285714 0.06190476190476191 0.03142857142857143 0.07809523809523809
0 0.8157142857142857 0.06476190476190476 0.02 0.06761904761904762
0 0.7914285714285715 0.06571428571428571 0.019285714285714285 0.06857142857142857
0 0.715 0.06 0.017142857142857144 0.06476190476190476
0 0.6935714285714286 0.058095238095238096 0.025 0.06476190476190476
0 0.6571428571428571 0.06571428571428571 0.02142857142857143 0.06285714285714286
0 0.6242857142857143 0.06 0.02 0.06952380952380953
0 0.6035714285714285 0.07142857142857142 0.017142857142857144 0.04380952380952381
0 0.5921428571428572 0.06095238095238095 0.018571428571428572 0.06761904761904762
0 0.5728571428571428 0.07047619047619047 0.012142857142857143 0.049523809523809526
0 0.5521428571428572 0.06190476190476191 0.015 0.06285714285714286
0 0.53 0.06190476190476191 0.015 0.06190476190476191
0 0.49357142857142855 0.06 0.02142857142857143 0.06476190476190476
0 0.4764285714285714 0.06285714285714286 0.015 0.06285714285714286
0 0.4607142857142857 0.05714285714285714 0.019285714285714285 0.07333333333333333
0 0.42714285714285716 0.05714285714285714 0.018571428571428572 0.06095238095238095
0 0.41785714285714287 0.05619047619047619 0.019285714285714285 0.06761904761904762
0 0.43785714285714283 0.06857142857142857 0.015714285714285715 0.04476190476190476
0 0.5171428571428571 0.07142857142857142 0.013571428571428571 0.0419047619047619
0 0.56 0.06666666666666667 0.015 0.054285714285714284
0 0.5428571428571428 0.06666666666666667 0.017142857142857144 0.05142857142857143
0 0.8728571428571429 0.06285714285714286 0.015714285714285715 0.06952380952380953
0 0.925 0.07523809523809524 0.015 0.037142857142857144
0 0.9664285714285714 0.07238095238095238 0.02 0.05714285714285714
0 0.9864285714285714 0.07047619047619047 0.020714285714285713 0.06095238095238095
0 0.4007142857142857 0.18857142857142858 0.015 0.04285714285714286
0 0.33071428571428574 0.22857142857142856 0.013571428571428571 0.037142857142857144
0 0.33785714285714286 0.2342857142857143 0.01 0.02666666666666667
0 0.34714285714285714 0.22857142857142856 0.012142857142857143 0.035238095238095235
0 0.6757142857142857 0.22666666666666666 0.011428571428571429 0.039047619047619046
0 0.6864285714285714 0.23238095238095238 0.012857142857142857 0.045714285714285714
0 0.6992857142857143 0.23142857142857143 0.017857142857142856 0.049523809523809526
0 0.7692857142857142 0.2361904761904762 0.013571428571428571 0.04380952380952381
0 0.7828571428571428 0.23714285714285716 0.016428571428571428 0.06
0 0.24142857142857144 0.25142857142857145 0.017142857142857144 0.045714285714285714
