1 0.40657620041753656 0.5593692022263451 0.044363256784968684 0.038033395176252316
1 0.4514613778705637 0.48886827458256027 0.03653444676409186 0.04730983302411874
1 0.47390396659707723 0.47588126159554733 0.029749478079331943 0.04638218923933209
1 0.558455114822547 0.4907235621521336 0.016701461377870562 0.05009276437847866
1 0.587160751565762 0.6966604823747681 0.030271398747390398 0.06957328385899815
1 0.8089770354906054 0.6771799628942486 0.030793319415448852 0.05287569573283859
1 0.2974947807933194 0.14192949907235622 0.02035490605427975 0.016697588126159554
1 0.528705636743215 0.6966604823747681 0.027139874739039668 0.08070500927643785
1 0.059498956158663886 0.04730983302411874 0.02035490605427975 0.014842300556586271
1 0.06419624217118998 0.038033395176252316 0.01826722338204593 0.014842300556586271
1 0.06837160751565761 0.032467532467532464 0.01826722338204593 0.013914656771799629
1 0.07306889352818371 0.02411873840445269 0.015657620041753653 0.012059369202226345
1 0.07985386221294363 0.016697588126159554 0.01722338204592902 0.012987012987012988
1 0.0767223382045929 0.02040816326530612 0.015135699373695199 0.014842300556586271
1 0.014091858037578288 0.17346938775510204 0.02244258872651357 0.016697588126159554
1 0.009916492693110648 0.19109461966604824 0.019832985386221295 0.01948051948051948
