1 0.6735 0.944 0.013 0.04933333333333333
1 0.7 0.9473333333333334 0.0145 0.04533333333333334
1 0.613 0.9666666666666667 0.016 0.035333333333333335
1 0.5945 0.894 0.047 0.02666666666666667
1 0.5995 0.8786666666666667 0.0305 0.014666666666666666
1 0.6045 0.8473333333333334 0.0295 0.013333333333333334
1 0.603 0.8366666666666667 0.028 0.012
1 0.601 0.8253333333333334 0.0285 0.018
1 0.604 0.816 0.025 0.013333333333333334
1 0.6015 0.8053333333333333 0.0265 0.016
1 0.6015 0.792 0.028 0.013333333333333334
1 0.6015 0.782 0.0275 0.012666666666666666
1 0.599 0.772 0.028 0.015333333333333332
1 0.6025 0.7333333333333333 0.028 0.013333333333333334
1 0.602 0.7233333333333334 0.028 0.014666666666666666
1 0.585 0.6753333333333333 0.012 0.036
1 0.609 0.7553333333333333 0.025 0.012666666666666666
1 0.615 0.7446666666666667 0.027 0.015333333333333332
1 0.6295 0.6953333333333334 0.0105 0.037333333333333336
1 0.61 0.7093333333333334 0.026 0.016
1 0.611 0.6973333333333334 0.0225 0.02
1 0.6015 0.692 0.025 0.02266666666666667
1 0.611 0.6473333333333333 0.026 0.023333333333333334
1 0.616 0.636 0.022 0.018
1 0.698 0.6593333333333333 0.0145 0.04666666666666667
1 0.5945 0.622 0.022 0.014666666666666666
1 0.6065 0.6046666666666667 0.0255 0.027333333333333334
1 0.632 0.5906666666666667 0.016 0.050666666666666665
0 0.6355 0.624 0.0115 0.02266666666666667
0 0.6715 0.622 0.011 0.021333333333333333
0 0.6845 0.5006666666666667 0.011 0.022
0 0.64 0.4746666666666667 0.01 0.024666666666666667
0 0.619 0.484 0.0075 0.019333333333333334
0 0.6525 0.44866666666666666 0.0115 0.02266666666666667
1 0.665 0.49 0.009 0.026
0 0.6665 0.482 0.007 0.024
1 0.6355 0.4686666666666667 0.015 0.02266666666666667
1 0.5935 0.4666666666666667 0.05 0.04933333333333333
1 0.7215 0.468 0.0625 0.034666666666666665
1 0.793 0.4746666666666667 0.0645 0.035333333333333335
1 0.8695 0.4786666666666667 0.052 0.03266666666666666
0 0.7915 0.45 0.015 0.021333333333333333
0 0.808 0.45 0.0145 0.021333333333333333
0 0.806 0.44066666666666665 0.011 0.023333333333333334
0 0.8065 0.43066666666666664 0.012 0.021333333333333333
0 0.7925 0.43133333333333335 0.0095 0.022
0 0.8025 0.424 0.011 0.021333333333333333
1 0.8585 0.38866666666666666 0.049 0.03133333333333333
1 0.9255 0.38866666666666666 0.045 0.034666666666666665
1 0.769 0.36666666666666664 0.031 0.052
1 0.7015 0.35133333333333333 0.0385 0.04
1 0.652 0.37466666666666665 0.055 0.032
1 0.7915 0.24866666666666667 0.0635 0.03866666666666667
1 0.776 0.23333333333333334 0.0455 0.024666666666666667
1 0.768 0.126 0.039 0.02666666666666667
1 0.7675 0.11266666666666666 0.044 0.022
1 0.7635 0.1 0.0375 0.020666666666666667
1 0.6805 0.11933333333333333 0.0505 0.04133333333333333
1 0.6745 0.094 0.044 0.029333333333333333
1 0.681 0.08133333333333333 0.041 0.024666666666666667
1 0.7385 0.044 0.0265 0.024666666666666667
1 0.805 0.046 0.039 0.027333333333333334
1 0.8175 0.042 0.0335 0.021333333333333333
1 0.827 0.03333333333333333 0.0355 0.02266666666666667
1 0.9885 0.114 0.023 0.030666666666666665
1 0.967 0.11 0.011 0.017333333333333333
1 0.9825 0.05533333333333333 0.0335 0.021333333333333333
0 0.968 0.10466666666666667 0.0085 0.018
0 0.94 0.09333333333333334 0.009 0.014
0 0.936 0.08733333333333333 0.0075 0.012
1 0.933 0.042 0.0065 0.011333333333333334
0 0.934 0.037333333333333336 0.0055 0.012666666666666666
1 0.5845 0.37466666666666665 0.0335 0.03666666666666667
1 0.5185 0.37 0.0535 0.03266666666666666
1 0.4305 0.45666666666666667 0.0565 0.03666666666666667
1 0.452 0.36733333333333335 0.052 0.035333333333333335
1 0.371 0.4513333333333333 0.051 0.037333333333333336
1 0.3805 0.36333333333333334 0.054 0.03333333333333333
1 0.3045 0.4513333333333333 0.0595 0.035333333333333335
1 0.1805 0.44733333333333336 0.057 0.034
1 0.194 0.3626666666666667 0.052 0.030666666666666665
1 0.1355 0.3606666666666667 0.0535 0.03
0 0.156 0.37533333333333335 0.0115 0.021333333333333333
1 0.0225 0.44 0.045 0.035333333333333335
1 0.065 0.35933333333333334 0.0525 0.030666666666666665
1 0.017 0.3586666666666667 0.0345 0.03
1 0.325 0.298 0.0275 0.04
1 0.2785 0.236 0.0435 0.027333333333333334
1 0.2865 0.21133333333333335 0.043 0.028666666666666667
1 0.3855 0.22266666666666668 0.0455 0.025333333333333333
0 0.321 0.22866666666666666 0.007 0.020666666666666667
0 0.324 0.22333333333333333 0.008 0.02
1 0.358 0.198 0.024 0.034666666666666665
1 0.3605 0.128 0.023 0.03266666666666666
1 0.3215 0.118 0.0115 0.016
1 0.3445 0.10066666666666667 0.0355 0.024666666666666667
1 0.3585 0.078 0.0365 0.020666666666666667
1 0.396 0.08866666666666667 0.029 0.046
1 0.415 0.10933333333333334 0.0135 0.025333333333333333
1 0.3665 0.066 0.033 0.020666666666666667
1 0.3735 0.056 0.032 0.022
1 0.382 0.04733333333333333 0.031 0.019333333333333334
1 0.3915 0.038 0.032 0.020666666666666667
1 0.45 0.198 0.008 0.022
1 0.456 0.2 0.005 0.018
1 0.379 0.19066666666666668 0.0075 0.016666666666666666
1 0.391 0.19133333333333333 0.0095 0.022
1 0.3975 0.19333333333333333 0.0055 0.017333333333333333
1 0.4035 0.19133333333333333 0.005 0.018666666666666668
1 0.4075 0.194 0.0055 0.017333333333333333
1 0.3885 0.16666666666666666 0.0105 0.02
1 0.3955 0.166 0.0065 0.02
1 0.402 0.16733333333333333 0.0075 0.018666666666666668
1 0.407 0.16933333333333334 0.0045 0.019333333333333334
1 0.411 0.17066666666666666 0.005 0.016666666666666666
1 0.4185 0.16933333333333334 0.006 0.02
1 0.4255 0.17133333333333334 0.0055 0.02
1 0.431 0.17 0.0055 0.019333333333333334
1 0.4345 0.17 0.0055 0.018
1 0.439 0.17133333333333334 0.006 0.018666666666666668
1 0.444 0.17 0.006 0.018
1 0.447 0.17 0.0095 0.019333333333333334
1 0.4235 0.124 0.009 0.018
1 0.1645 0.5153333333333333 0.0225 0.014
1 0.155 0.534 0.0245 0.017333333333333333
1 0.1405 0.5693333333333334 0.025 0.014666666666666666
1 0.1365 0.584 0.022 0.013333333333333334
1 0.1125 0.6453333333333333 0.0275 0.016666666666666666
1 0.1045 0.674 0.025 0.02266666666666667
1 0.1385 0.6 0.0315 0.014666666666666666
1 0.738 0.9173333333333333 0.032 0.02666666666666667
