0 0.2785714285714286 0.3210659898477157 0.002142857142857143 0.008883248730964468
1 0.48142857142857143 0.01015228426395939 0.004285714285714286 0.015228426395939087
1 0.47 0.015228426395939087 0.002857142857142857 0.005076142131979695
1 0.4764285714285714 0.027918781725888325 0.002142857142857143 0.005076142131979695
1 0.47 0.03299492385786802 0.002857142857142857 0.005076142131979695
1 0.4714285714285714 0.03807106598984772 0.002142857142857143 0.005076142131979695
1 0.4807142857142857 0.03680203045685279 0.002857142857142857 0.005076142131979695
1 0.4764285714285714 0.03934010152284264 0.002142857142857143 0.005076142131979695
1 0.48 0.04314720812182741 0.002857142857142857 0.005076142131979695
1 0.48142857142857143 0.04949238578680203 0.002857142857142857 0.0038071065989847717
1 0.4828571428571429 0.06218274111675127 0.002857142857142857 0.005076142131979695
1 0.47785714285714287 0.0583756345177665 0.0035714285714285713 0.012690355329949238
1 0.4785714285714286 0.06725888324873096 0.002857142857142857 0.01015228426395939
1 0.47214285714285714 0.06345177664974619 0.0035714285714285713 0.01015228426395939
1 0.4685714285714286 0.06091370558375635 0.002142857142857143 0.0038071065989847717
1 0.4635714285714286 0.06598984771573604 0.002857142857142857 0.005076142131979695
1 0.46785714285714286 0.06725888324873096 0.002857142857142857 0.005076142131979695
1 0.4592857142857143 0.09771573604060914 0.005 0.017766497461928935
1 0.4757142857142857 0.11040609137055837 0.005 0.02030456852791878
1 0.48714285714285716 0.10913705583756345 0.005714285714285714 0.02030456852791878
1 0.5207142857142857 0.2436548223350254 0.015 0.030456852791878174
1 0.12642857142857142 0.6789340101522843 0.008571428571428572 0.021573604060913704
1 0.13714285714285715 0.6738578680203046 0.009285714285714286 0.021573604060913704
1 0.19642857142857142 0.6446700507614214 0.01 0.02030456852791878
1 0.14714285714285713 0.6713197969543148 0.01 0.017766497461928935
1 0.16785714285714284 0.6586294416243654 0.008571428571428572 0.02284263959390863
1 0.17714285714285713 0.6522842639593909 0.007857142857142858 0.017766497461928935
1 0.20642857142857143 0.6421319796954315 0.009285714285714286 0.017766497461928935
1 0.21571428571428572 0.6383248730964467 0.009285714285714286 0.01903553299492386
0 0.14857142857142858 0.8654822335025381 0.004285714285714286 0.012690355329949238
0 0.15071428571428572 0.8616751269035533 0.004285714285714286 0.012690355329949238
0 0.2257142857142857 0.8718274111675127 0.0035714285714285713 0.015228426395939087
0 0.3707142857142857 0.8083756345177665 0.0035714285714285713 0.008883248730964468
0 0.32785714285714285 0.7690355329949239 0.005 0.01015228426395939
1 0.27285714285714285 0.6446700507614214 0.032857142857142856 0.03680203045685279
1 0.3221428571428571 0.6256345177664975 0.045 0.03807106598984772
1 0.24142857142857144 0.6281725888324873 0.009285714285714286 0.008883248730964468
1 0.24785714285714286 0.6281725888324873 0.005 0.011421319796954314
1 0.26285714285714284 0.6230964467005076 0.016428571428571428 0.021573604060913704
1 0.2885714285714286 0.6142131979695431 0.013571428571428571 0.01903553299492386
1 0.3028571428571429 0.6065989847715736 0.017857142857142856 0.024111675126903553
1 0.27714285714285714 0.6192893401015228 0.014285714285714285 0.02030456852791878
1 0.31642857142857145 0.6015228426395939 0.015714285714285715 0.01903553299492386
1 0.32785714285714285 0.5977157360406091 0.013571428571428571 0.02030456852791878
1 0.24714285714285714 0.549492385786802 0.016428571428571428 0.017766497461928935
1 0.3292857142857143 0.5050761421319797 0.015714285714285715 0.017766497461928935
1 0.3557142857142857 0.5253807106598984 0.015714285714285715 0.01903553299492386
1 0.20357142857142857 0.4784263959390863 0.014285714285714285 0.013959390862944163
1 0.25 0.44923857868020306 0.012142857142857143 0.012690355329949238
1 0.30428571428571427 0.41116751269035534 0.012142857142857143 0.012690355329949238
1 0.32142857142857145 0.39720812182741116 0.014285714285714285 0.012690355329949238
1 0.37857142857142856 0.5862944162436549 0.017142857142857144 0.015228426395939087
1 0.3792857142857143 0.5951776649746193 0.016428571428571428 0.015228426395939087
1 0.43714285714285717 0.5 0.015 0.021573604060913704
1 0.435 0.5558375634517766 0.01 0.017766497461928935
1 0.37857142857142856 0.6065989847715736 0.017142857142857144 0.013959390862944163
1 0.4035714285714286 0.6154822335025381 0.016428571428571428 0.012690355329949238
1 0.4592857142857143 0.5571065989847716 0.015 0.012690355329949238
1 0.4592857142857143 0.565989847715736 0.017142857142857144 0.013959390862944163
1 0.43142857142857144 0.47588832487309646 0.015 0.01649746192893401
1 0.43142857142857144 0.5203045685279187 0.02857142857142857 0.030456852791878174
1 0.505 0.6408629441624365 0.017142857142857144 0.013959390862944163
1 0.5271428571428571 0.6345177664974619 0.017142857142857144 0.017766497461928935
1 0.5471428571428572 0.6294416243654822 0.017142857142857144 0.015228426395939087
0 0.45785714285714285 0.7817258883248731 0.002857142857142857 0.01015228426395939
0 0.48142857142857143 0.7550761421319797 0.002142857142857143 0.011421319796954314
1 0.5528571428571428 0.7614213197969543 0.035 0.03553299492385787
1 0.6178571428571429 0.7474619289340102 0.02214285714285714 0.021573604060913704
0 0.6364285714285715 0.6738578680203046 0.0035714285714285713 0.011421319796954314
0 0.6364285714285715 0.6687817258883249 0.002857142857142857 0.012690355329949238
0 0.6314285714285715 0.6700507614213198 0.002857142857142857 0.01015228426395939
1 0.6614285714285715 0.699238578680203 0.03571428571428571 0.07233502538071065
1 0.685 0.6370558375634517 0.03142857142857143 0.050761421319796954
1 0.7064285714285714 0.5989847715736041 0.025714285714285714 0.0583756345177665
1 0.6285714285714286 0.618020304568528 0.030714285714285715 0.02284263959390863
1 0.6178571428571429 0.6370558375634517 0.04642857142857143 0.04187817258883249
1 0.6228571428571429 0.649746192893401 0.05 0.044416243654822336
1 0.7242857142857143 0.7182741116751269 0.02642857142857143 0.03934010152284264
1 0.7185714285714285 0.700507614213198 0.025 0.04060913705583756
1 0.7042857142857143 0.6916243654822335 0.025 0.04060913705583756
1 0.7 0.6700507614213198 0.029285714285714286 0.04568527918781726
1 0.7635714285714286 0.6421319796954315 0.017142857142857144 0.02284263959390863
1 0.7307142857142858 0.5368020304568528 0.017857142857142856 0.015228426395939087
1 0.7807142857142857 0.5431472081218274 0.018571428571428572 0.012690355329949238
1 0.8428571428571429 0.5152284263959391 0.04214285714285714 0.030456852791878174
1 0.8421428571428572 0.5329949238578681 0.017142857142857144 0.025380710659898477
1 0.8492857142857143 0.5304568527918782 0.016428571428571428 0.025380710659898477
1 0.8585714285714285 0.5266497461928934 0.015 0.02030456852791878
1 0.8764285714285714 0.5190355329949239 0.016428571428571428 0.02284263959390863
1 0.9407142857142857 0.49746192893401014 0.019285714285714285 0.025380710659898477
1 0.9514285714285714 0.4936548223350254 0.018571428571428572 0.0266497461928934
1 0.9864285714285714 0.48223350253807107 0.019285714285714285 0.027918781725888325
1 0.9607142857142857 0.48984771573604063 0.016428571428571428 0.021573604060913704
1 0.9728571428571429 0.4873096446700508 0.013571428571428571 0.02030456852791878
1 0.9957142857142857 0.4784263959390863 0.007857142857142858 0.024111675126903553
1 0.9928571428571429 0.4796954314720812 0.014285714285714285 0.024111675126903553
0 0.7907142857142857 0.48223350253807107 0.002857142857142857 0.007614213197969543
0 0.895 0.467005076142132 0.002857142857142857 0.01015228426395939
0 0.8321428571428572 0.4733502538071066 0.002142857142857143 0.01015228426395939
0 0.9364285714285714 0.45685279187817257 0.002857142857142857 0.008883248730964468
0 0.9578571428571429 0.4479695431472081 0.002142857142857143 0.006345177664974619
0 0.8907142857142857 0.467005076142132 0.002142857142857143 0.008883248730964468
1 0.8564285714285714 0.40609137055837563 0.035 0.030456852791878174
1 0.8228571428571428 0.4149746192893401 0.03642857142857143 0.030456852791878174
1 0.845 0.31725888324873097 0.03357142857142857 0.025380710659898477
1 0.9521428571428572 0.350253807106599 0.023571428571428573 0.01903553299492386
1 0.9435714285714286 0.366751269035533 0.013571428571428571 0.01015228426395939
1 0.8992857142857142 0.34517766497461927 0.012142857142857143 0.01015228426395939
1 0.895 0.37182741116751267 0.015 0.008883248730964468
1 0.8935714285714286 0.383248730964467 0.014285714285714285 0.01015228426395939
1 0.8414285714285714 0.37055837563451777 0.013571428571428571 0.008883248730964468
1 0.8557142857142858 0.3604060913705584 0.012857142857142857 0.01015228426395939
1 0.7964285714285714 0.37182741116751267 0.014285714285714285 0.01015228426395939
1 0.7985714285714286 0.3629441624365482 0.012142857142857143 0.01015228426395939
1 0.7671428571428571 0.3604060913705584 0.01 0.008883248730964468
1 0.7185714285714285 0.33121827411167515 0.01 0.008883248730964468
1 0.7307142857142858 0.3756345177664975 0.013571428571428571 0.01015228426395939
1 0.7285714285714285 0.3426395939086294 0.012857142857142857 0.012690355329949238
1 0.6892857142857143 0.35913705583756345 0.012857142857142857 0.01015228426395939
1 0.7242857142857143 0.3134517766497462 0.018571428571428572 0.017766497461928935
1 0.7264285714285714 0.3083756345177665 0.030714285714285715 0.025380710659898477
0 0.7528571428571429 0.3096446700507614 0.0014285714285714286 0.006345177664974619
0 0.7021428571428572 0.30583756345177665 0.002142857142857143 0.005076142131979695
1 0.645 0.35406091370558374 0.02 0.015228426395939087
1 0.6507142857142857 0.37182741116751267 0.012142857142857143 0.01015228426395939
1 0.6664285714285715 0.4403553299492386 0.014285714285714285 0.012690355329949238
1 0.6907142857142857 0.43147208121827413 0.014285714285714285 0.01015228426395939
1 0.6814285714285714 0.49746192893401014 0.014285714285714285 0.02030456852791878
1 0.635 0.4251269035532995 0.010714285714285714 0.01649746192893401
1 0.6464285714285715 0.27918781725888325 0.014285714285714285 0.012690355329949238
1 0.6857142857142857 0.27918781725888325 0.02857142857142857 0.021573604060913704
1 0.5814285714285714 0.33121827411167515 0.019285714285714285 0.04060913705583756
1 0.5371428571428571 0.30076142131979694 0.007857142857142858 0.011421319796954314
1 0.5607142857142857 0.3236040609137056 0.008571428571428572 0.011421319796954314
1 0.5121428571428571 0.37055837563451777 0.012857142857142857 0.01015228426395939
1 0.4942857142857143 0.40609137055837563 0.012142857142857143 0.01015228426395939
1 0.545 0.38578680203045684 0.019285714285714285 0.017766497461928935
1 0.52 0.4022842639593909 0.022857142857142857 0.02284263959390863
1 0.5521428571428572 0.40609137055837563 0.013571428571428571 0.012690355329949238
1 0.45714285714285713 0.38071065989847713 0.013571428571428571 0.015228426395939087
1 0.495 0.4137055837563452 0.013571428571428571 0.013959390862944163
1 0.38857142857142857 0.36548223350253806 0.010714285714285714 0.01015228426395939
1 0.34 0.38578680203045684 0.010714285714285714 0.011421319796954314
1 0.3514285714285714 0.3743654822335025 0.01 0.011421319796954314
1 0.3628571428571429 0.3616751269035533 0.011428571428571429 0.01015228426395939
1 0.37785714285714284 0.3413705583756345 0.020714285714285713 0.030456852791878174
0 0.40214285714285714 0.29441624365482233 0.002142857142857143 0.008883248730964468
0 0.3992857142857143 0.28553299492385786 0.002142857142857143 0.006345177664974619
1 0.425 0.26649746192893403 0.01 0.021573604060913704
1 0.4307142857142857 0.26903553299492383 0.007857142857142858 0.01903553299492386
1 0.43 0.24619289340101522 0.02 0.024111675126903553
1 0.4514285714285714 0.2817258883248731 0.025 0.02030456852791878
1 0.4521428571428571 0.2715736040609137 0.025 0.021573604060913704
1 0.4542857142857143 0.26903553299492383 0.02 0.02030456852791878
1 0.45785714285714285 0.26649746192893403 0.015 0.017766497461928935
1 0.45571428571428574 0.25380710659898476 0.02214285714285714 0.021573604060913704
1 0.455 0.25 0.023571428571428573 0.024111675126903553
1 0.455 0.24619289340101522 0.022857142857142857 0.025380710659898477
1 0.45785714285714285 0.24238578680203046 0.019285714285714285 0.024111675126903553
1 0.4592857142857143 0.23857868020304568 0.023571428571428573 0.02918781725888325
1 0.44 0.23730964467005075 0.0064285714285714285 0.017766497461928935
1 0.4357142857142857 0.22208121827411167 0.007857142857142858 0.024111675126903553
1 0.4421428571428571 0.20304568527918782 0.009285714285714286 0.024111675126903553
1 0.49642857142857144 0.22208121827411167 0.008571428571428572 0.01649746192893401
1 0.48142857142857143 0.19796954314720813 0.0064285714285714285 0.012690355329949238
1 0.4785714285714286 0.16243654822335024 0.007142857142857143 0.02284263959390863
1 0.4342857142857143 0.12690355329949238 0.011428571428571429 0.011421319796954314
1 0.4007142857142857 0.13705583756345177 0.01 0.006345177664974619
1 0.4014285714285714 0.13451776649746192 0.007142857142857143 0.01015228426395939
1 0.41214285714285714 0.17258883248730963 0.008571428571428572 0.006345177664974619
1 0.41214285714285714 0.16751269035532995 0.009285714285714286 0.007614213197969543
1 0.4692857142857143 0.13959390862944163 0.005 0.021573604060913704
1 0.47 0.1548223350253807 0.004285714285714286 0.012690355329949238
1 0.4642857142857143 0.1319796954314721 0.005714285714285714 0.02030456852791878
1 0.4514285714285714 0.13959390862944163 0.0035714285714285713 0.011421319796954314
1 0.4828571428571429 0.07233502538071065 0.002142857142857143 0.006345177664974619
1 0.46285714285714286 0.07360406091370558 0.0035714285714285713 0.006345177664974619
1 0.48428571428571426 0.18781725888324874 0.005 0.01015228426395939
1 0.4657142857142857 0.16751269035532995 0.005 0.015228426395939087
1 0.4542857142857143 0.12436548223350254 0.0064285714285714285 0.006345177664974619
1 0.46714285714285714 0.07741116751269035 0.002857142857142857 0.006345177664974619
1 0.47214285714285714 0.07106598984771574 0.002857142857142857 0.006345177664974619
1 0.47714285714285715 0.0850253807106599 0.002142857142857143 0.005076142131979695
1 0.48214285714285715 0.08629441624365482 0.002142857142857143 0.006345177664974619
1 0.4807142857142857 0.09517766497461928 0.002857142857142857 0.006345177664974619
1 0.4714285714285714 0.08248730964467005 0.002142857142857143 0.005076142131979695
1 0.46214285714285713 0.0799492385786802 0.004285714285714286 0.005076142131979695
1 0.4664285714285714 0.08756345177664974 0.002857142857142857 0.005076142131979695
1 0.4707142857142857 0.08883248730964467 0.002142857142857143 0.006345177664974619
1 0.4614285714285714 0.08883248730964467 0.002857142857142857 0.007614213197969543
1 0.4664285714285714 0.09644670050761421 0.002142857142857143 0.007614213197969543
1 0.4707142857142857 0.09771573604060914 0.004285714285714286 0.005076142131979695
1 0.4657142857142857 0.10279187817258884 0.0035714285714285713 0.006345177664974619
1 0.46785714285714286 0.10786802030456853 0.0035714285714285713 0.006345177664974619
1 0.47 0.11294416243654823 0.002857142857142857 0.006345177664974619
1 0.4592857142857143 0.10913705583756345 0.002142857142857143 0.006345177664974619
1 0.4592857142857143 0.11802030456852793 0.0035714285714285713 0.008883248730964468
1 0.48142857142857143 0.116751269035533 0.002142857142857143 0.007614213197969543
1 0.48 0.12563451776649745 0.002142857142857143 0.007614213197969543
1 0.4828571428571429 0.13578680203045684 0.002857142857142857 0.008883248730964468
1 0.4764285714285714 0.13578680203045684 0.002857142857142857 0.006345177664974619
1 0.48714285714285716 0.1484771573604061 0.004285714285714286 0.007614213197969543
1 0.48714285714285716 0.2233502538071066 0.0064285714285714285 0.008883248730964468
1 0.49214285714285716 0.20304568527918782 0.004285714285714286 0.008883248730964468
1 0.5014285714285714 0.21954314720812182 0.005714285714285714 0.008883248730964468
1 0.49357142857142855 0.23223350253807107 0.007142857142857143 0.01015228426395939
1 0.4835714285714286 0.21573604060913706 0.005 0.008883248730964468
1 0.47928571428571426 0.20939086294416243 0.005 0.008883248730964468
1 0.46714285714285714 0.1751269035532995 0.002857142857142857 0.006345177664974619
1 0.4714285714285714 0.16624365482233502 0.0035714285714285713 0.006345177664974619
1 0.47285714285714286 0.17258883248730963 0.004285714285714286 0.008883248730964468
1 0.47714285714285715 0.18781725888324874 0.004285714285714286 0.006345177664974619
1 0.4692857142857143 0.18401015228426396 0.0035714285714285713 0.007614213197969543
1 0.4707142857142857 0.18908629441624367 0.0035714285714285713 0.008883248730964468
1 0.47285714285714286 0.19543147208121828 0.005 0.007614213197969543
1 0.4757142857142857 0.20050761421319796 0.004285714285714286 0.01015228426395939
0 0.495 0.1548223350253807 0.002142857142857143 0.007614213197969543
1 0.2764285714285714 0.38578680203045684 0.005714285714285714 0.008883248730964468
0 0.2092857142857143 0.4263959390862944 0.002857142857142857 0.006345177664974619
