1 0.635 0.5613333333333334 0.0225 0.018666666666666668
1 0.622 0.5713333333333334 0.024 0.016666666666666666
1 0.6025 0.5913333333333334 0.034 0.03666666666666667
1 0.5935 0.5406666666666666 0.0235 0.020666666666666667
1 0.5455 0.6253333333333333 0.0265 0.024666666666666667
1 0.5815 0.654 0.0305 0.032
1 0.6195 0.6853333333333333 0.023 0.027333333333333334
1 0.533 0.6733333333333333 0.03 0.032
1 0.5035 0.6493333333333333 0.035 0.03
1 0.516 0.684 0.0325 0.03266666666666666
1 0.503 0.696 0.034 0.036
1 0.4885 0.7106666666666667 0.036 0.038
1 0.4675 0.72 0.039 0.04533333333333334
1 0.4575 0.6813333333333333 0.0315 0.029333333333333333
1 0.4885 0.6606666666666666 0.0285 0.028666666666666667
1 0.4215 0.7053333333333334 0.0285 0.029333333333333333
1 0.4325 0.7493333333333333 0.0265 0.03866666666666667
1 0.4045 0.7153333333333334 0.027 0.03
1 0.389 0.73 0.0305 0.03133333333333333
1 0.3665 0.7433333333333333 0.0295 0.03666666666666667
1 0.3455 0.7553333333333333 0.0315 0.03333333333333333
1 0.337 0.676 0.0305 0.034666666666666665
1 0.31 0.6933333333333334 0.0275 0.03266666666666666
1 0.2755 0.7106666666666667 0.0205 0.028666666666666667
1 0.256 0.7253333333333334 0.0275 0.03266666666666666
1 0.233 0.734 0.0305 0.03933333333333333
1 0.325 0.7693333333333333 0.0325 0.034
1 0.3035 0.7853333333333333 0.034 0.03666666666666667
1 0.2815 0.7993333333333333 0.031 0.037333333333333336
1 0.259 0.816 0.032 0.035333333333333335
1 0.4225 0.654 0.0355 0.03
1 0.23 0.8746666666666667 0.0275 0.05
1 0.285 0.8513333333333334 0.034 0.048666666666666664
1 0.3065 0.836 0.029 0.03666666666666667
1 0.3305 0.8186666666666667 0.029 0.03933333333333333
1 0.3525 0.8046666666666666 0.034 0.042
1 0.375 0.7926666666666666 0.034 0.04
1 0.3935 0.776 0.034 0.032
1 0.4155 0.762 0.032 0.034
