1 0.771 0.8553333333333333 0.172 0.128
1 0.194 0.524 0.097 0.088
1 0.423 0.42533333333333334 0.0345 0.048666666666666664
1 0.4695 0.414 0.0355 0.048666666666666664
1 0.5245 0.4093333333333333 0.0245 0.04133333333333333
1 0.585 0.43866666666666665 0.0455 0.05333333333333334
1 0.6385 0.44066666666666665 0.0445 0.051333333333333335
1 0.7865 0.422 0.0805 0.04933333333333333
1 0.892 0.3933333333333333 0.08 0.043333333333333335
1 0.929 0.43333333333333335 0.0165 0.024666666666666667
0 0.9345 0.42533333333333334 0.013 0.030666666666666665
1 0.387 0.4 0.047 0.038
1 0.348 0.39466666666666667 0.057 0.04
1 0.306 0.3873333333333333 0.057 0.048666666666666664
1 0.237 0.37466666666666665 0.0555 0.04
1 0.2075 0.36733333333333335 0.0545 0.034666666666666665
1 0.1335 0.35133333333333333 0.066 0.03333333333333333
1 0.141 0.31933333333333336 0.057 0.02266666666666667
1 0.139 0.304 0.0585 0.02
1 0.141 0.28933333333333333 0.0665 0.034666666666666665
0 0.174 0.29533333333333334 0.0085 0.024666666666666667
0 0.1875 0.284 0.009 0.025333333333333333
1 0.156 0.2786666666666667 0.046 0.020666666666666667
1 0.166 0.24933333333333332 0.0415 0.020666666666666667
1 0.1695 0.242 0.0325 0.012
1 0.1725 0.23066666666666666 0.0345 0.014
1 0.176 0.21733333333333332 0.034 0.013333333333333334
1 0.0155 0.3413333333333333 0.0315 0.028
1 0.025 0.314 0.0505 0.02666666666666667
1 0.056 0.2786666666666667 0.0535 0.022
1 0.0675 0.2653333333333333 0.048 0.017333333333333333
1 0.075 0.252 0.0445 0.014666666666666666
1 0.0885 0.236 0.0375 0.015333333333333332
1 0.099 0.22666666666666666 0.038 0.014666666666666666
1 0.1165 0.21 0.0165 0.018
