1 0.27214285714285713 0.037142857142857144 0.008571428571428572 0.012380952380952381
1 0.27214285714285713 0.04476190476190476 0.0064285714285714285 0.005714285714285714
1 0.32357142857142857 0.11142857142857143 0.005714285714285714 0.005714285714285714
1 0.32857142857142857 0.12476190476190477 0.009285714285714286 0.01619047619047619
1 0.35214285714285715 0.18285714285714286 0.005714285714285714 0.008571428571428572
1 0.36214285714285716 0.2057142857142857 0.005714285714285714 0.009523809523809525
1 0.4514285714285714 0.17523809523809525 0.009285714285714286 0.017142857142857144
1 0.42 0.1457142857142857 0.008571428571428572 0.006666666666666667
1 0.38 0.32 0.014285714285714285 0.03428571428571429
1 0.4907142857142857 0.4066666666666667 0.015714285714285715 0.02666666666666667
1 0.5128571428571429 0.6695238095238095 0.025 0.06285714285714286
1 0.48714285714285716 0.6971428571428572 0.02 0.05238095238095238
1 0.5614285714285714 0.8285714285714286 0.04285714285714286 0.10761904761904761
1 0.5342857142857143 0.8704761904761905 0.02 0.04380952380952381
1 0.5478571428571428 0.9276190476190476 0.017857142857142856 0.05047619047619047
1 0.8121428571428572 0.8171428571428572 0.06285714285714286 0.07809523809523809
1 0.8778571428571429 0.7533333333333333 0.047142857142857146 0.06571428571428571
1 0.7607142857142857 0.35619047619047617 0.012857142857142857 0.02095238095238095
1 0.7742857142857142 0.35904761904761906 0.032857142857142856 0.037142857142857144
1 0.7907142857142857 0.35904761904761906 0.035 0.037142857142857144
1 0.7914285714285715 0.3485714285714286 0.015714285714285715 0.01619047619047619
1 0.8092857142857143 0.3647619047619048 0.02642857142857143 0.02857142857142857
1 0.8242857142857143 0.3838095238095238 0.02 0.017142857142857144
1 0.66 0.4828571428571429 0.02 0.02095238095238095
1 0.6885714285714286 0.6190476190476191 0.02642857142857143 0.02761904761904762
1 0.6985714285714286 0.23714285714285716 0.02 0.018095238095238095
1 0.5621428571428572 0.3352380952380952 0.012142857142857143 0.009523809523809525
1 0.6007142857142858 0.3628571428571429 0.012857142857142857 0.009523809523809525
1 0.6592857142857143 0.4961904761904762 0.013571428571428571 0.010476190476190476
1 0.635 0.5885714285714285 0.015 0.014285714285714285
1 0.5135714285714286 0.9228571428571428 0.015 0.03428571428571429
1 0.48857142857142855 0.9476190476190476 0.019285714285714285 0.037142857142857144
1 0.48 0.9657142857142857 0.020714285714285713 0.0380952380952381
1 0.4692857142857143 0.9847619047619047 0.016428571428571428 0.02857142857142857
1 0.4092857142857143 0.9742857142857143 0.022857142857142857 0.029523809523809525
1 0.4235714285714286 0.9133333333333333 0.019285714285714285 0.03142857142857143
1 0.43357142857142855 0.9 0.018571428571428572 0.030476190476190476
1 0.445 0.8885714285714286 0.019285714285714285 0.030476190476190476
1 0.45357142857142857 0.8742857142857143 0.017857142857142856 0.03142857142857143
1 0.4585714285714286 0.7666666666666667 0.014285714285714285 0.025714285714285714
1 0.4185714285714286 0.7438095238095238 0.012857142857142857 0.023809523809523808
1 0.3507142857142857 0.780952380952381 0.02142857142857143 0.01619047619047619
1 0.4092857142857143 0.7219047619047619 0.017142857142857144 0.018095238095238095
1 0.40285714285714286 0.6942857142857143 0.018571428571428572 0.02
1 0.39714285714285713 0.6857142857142857 0.016428571428571428 0.02
1 0.39285714285714285 0.6780952380952381 0.017142857142857144 0.02095238095238095
1 0.435 0.6838095238095238 0.018571428571428572 0.01904761904761905
1 0.4307142857142857 0.7133333333333334 0.019285714285714285 0.018095238095238095
1 0.4707142857142857 0.6523809523809524 0.010714285714285714 0.022857142857142857
1 0.46214285714285713 0.62 0.01 0.02095238095238095
1 0.44285714285714284 0.4438095238095238 0.009285714285714286 0.01619047619047619
1 0.4328571428571429 0.518095238095238 0.015 0.011428571428571429
1 0.4592857142857143 0.5114285714285715 0.025714285714285714 0.039047619047619046
1 0.3921428571428571 0.5285714285714286 0.012142857142857143 0.008571428571428572
0 0.4257142857142857 0.5142857142857142 0.004285714285714286 0.007619047619047619
0 0.39571428571428574 0.7295238095238096 0.0035714285714285713 0.008571428571428572
1 0.9614285714285714 0.7304761904761905 0.017857142857142856 0.023809523809523808
1 0.9721428571428572 0.7323809523809524 0.017857142857142856 0.023809523809523808
1 0.9835714285714285 0.7323809523809524 0.017142857142857144 0.022857142857142857
