0 0.46 0.7114285714285714 0.05071428571428571 0.08571428571428572
0 0.4278571428571429 0.719047619047619 0.041428571428571426 0.058095238095238096
0 0.31285714285714283 0.5438095238095239 0.05357142857142857 0.0838095238095238
0 0.26285714285714284 0.4666666666666667 0.045714285714285714 0.07333333333333333
0 0.23785714285714285 0.46 0.04857142857142857 0.08
0 0.4835714285714286 0.14476190476190476 0.027142857142857142 0.08952380952380952
0 0.41 0.11904761904761904 0.02857142857142857 0.0838095238095238
0 0.3221428571428571 0.1219047619047619 0.03 0.07904761904761905
0 0.2985714285714286 0.06761904761904762 0.03571428571428571 0.0838095238095238
0 0.17642857142857143 0.037142857142857144 0.03357142857142857 0.07047619047619047
0 0.27285714285714285 0.07523809523809524 0.03428571428571429 0.06380952380952382
1 0.2757142857142857 0.08571428571428572 0.03142857142857143 0.06476190476190476
1 0.5785714285714286 0.06 0.054285714285714284 0.04380952380952381
0 0.5792857142857143 0.04 0.018571428571428572 0.058095238095238096
1 0.18142857142857144 0.1895238095238095 0.14785714285714285 0.1219047619047619
1 0.05714285714285714 0.08857142857142856 0.1 0.12571428571428572
1 0.40214285714285714 0.030476190476190476 0.13714285714285715 0.06190476190476191
1 0.11571428571428571 0.9019047619047619 0.1992857142857143 0.1961904761904762
1 0.9128571428571428 0.15047619047619049 0.1742857142857143 0.23809523809523808
