0 0.4657142857142857 0.42095238095238097 0.015714285714285715 0.02857142857142857
0 0.5 0.49333333333333335 0.011428571428571429 0.021904761904761906
0 0.47714285714285715 0.5333333333333333 0.013571428571428571 0.021904761904761906
0 0.49142857142857144 0.5285714285714286 0.014285714285714285 0.021904761904761906
0 0.52 0.5419047619047619 0.011428571428571429 0.02
0 0.5264285714285715 0.5323809523809524 0.013571428571428571 0.024761904761904763
0 0.5521428571428572 0.539047619047619 0.01 0.023809523809523808
0 0.5621428571428572 0.5304761904761904 0.010714285714285714 0.021904761904761906
0 0.54 0.45904761904761904 0.012142857142857143 0.02857142857142857
0 0.5285714285714286 0.47523809523809524 0.014285714285714285 0.02761904761904762
0 0.5614285714285714 0.5971428571428572 0.015714285714285715 0.02
0 0.5721428571428572 0.580952380952381 0.012142857142857143 0.01619047619047619
0 0.61 0.5942857142857143 0.017142857142857144 0.02
0 0.6035714285714285 0.6047619047619047 0.012142857142857143 0.018095238095238095
0 0.5978571428571429 0.6228571428571429 0.012857142857142857 0.02
0 0.6128571428571429 0.6619047619047619 0.012857142857142857 0.02095238095238095
0 0.6028571428571429 0.6657142857142857 0.011428571428571429 0.015238095238095238
0 0.6235714285714286 0.6904761904761905 0.012142857142857143 0.02095238095238095
0 0.6478571428571429 0.7685714285714286 0.018571428571428572 0.01619047619047619
0 0.6614285714285715 0.7019047619047619 0.010714285714285714 0.01904761904761905
0 0.6707142857142857 0.7485714285714286 0.012857142857142857 0.017142857142857144
0 0.705 0.7085714285714285 0.017142857142857144 0.014285714285714285
0 0.7128571428571429 0.6961904761904761 0.017857142857142856 0.02
0 0.7128571428571429 0.8523809523809524 0.02 0.017142857142857144
0 0.7578571428571429 0.8333333333333334 0.018571428571428572 0.02
0 0.7692857142857142 0.8266666666666667 0.012142857142857143 0.02
0 0.775 0.8161904761904762 0.015714285714285715 0.018095238095238095
0 0.8371428571428572 0.9666666666666667 0.03 0.025714285714285714
0 0.8342857142857143 0.9857142857142858 0.025714285714285714 0.023809523809523808
