1 0.41910229645093944 0.5278293135435993 0.011482254697286013 0.023191094619666047
1 0.40396659707724425 0.5398886827458256 0.04645093945720251 0.06493506493506493
1 0.44832985386221297 0.48330241187384043 0.03444676409185804 0.038033395176252316
1 0.45407098121085593 0.31261595547309834 0.029227557411273485 0.03339517625231911
1 0.4801670146137787 0.28664192949907236 0.02870563674321503 0.030612244897959183
1 0.5067849686847599 0.25510204081632654 0.009916492693110648 0.012059369202226345
1 0.5448851774530271 0.21521335807050093 0.044363256784968684 0.05473098330241188
1 0.5798538622129437 0.18089053803339517 0.024530271398747392 0.02411873840445269
1 0.5835073068893528 0.16697588126159554 0.018789144050104383 0.021335807050092765
1 0.6200417536534447 0.14471243042671614 0.02348643006263048 0.02411873840445269
1 0.6367432150313153 0.13636363636363635 0.02244258872651357 0.022263450834879406
0 0.6403966597077244 0.13079777365491652 0.003131524008350731 0.012987012987012988
1 0.6623173277661796 0.17439703153988867 0.020876826722338204 0.027829313543599257
1 0.6831941544885177 0.15584415584415584 0.019832985386221295 0.02411873840445269
1 0.7139874739039666 0.20408163265306123 0.022964509394572025 0.025974025974025976
1 0.7072025052192067 0.17161410018552875 0.020876826722338204 0.02411873840445269
1 0.7113778705636743 0.08534322820037106 0.019311064718162838 0.01948051948051948
1 0.7098121085594989 0.287569573283859 0.02139874739039666 0.025974025974025976
1 0.6529227557411273 0.2532467532467532 0.021920668058455117 0.025974025974025976
1 0.6252609603340292 0.23747680890538034 0.021920668058455117 0.025974025974025976
1 0.08977035490605428 0.21521335807050093 0.03288100208768267 0.026901669758812616
1 0.08455114822546973 0.1836734693877551 0.033402922755741124 0.022263450834879406
1 0.06889352818371608 0.14656771799628943 0.013048016701461378 0.026901669758812616
1 0.1884133611691023 0.18274582560296845 0.026096033402922755 0.022263450834879406
1 0.19258872651356992 0.2012987012987013 0.028183716075156576 0.025974025974025976
1 0.05741127348643006 0.02040816326530612 0.01722338204592902 0.012059369202226345
1 0.23277661795407098 0.14192949907235622 0.02661795407098121 0.023191094619666047
1 0.2593945720250522 0.13172541743970315 0.024008350730688934 0.01855287569573284
1 0.2599164926931106 0.10667903525046382 0.016701461377870562 0.021335807050092765
1 0.36899791231732776 0.10760667903525047 0.024008350730688934 0.02411873840445269
1 0.3930062630480167 0.09183673469387756 0.020876826722338204 0.02040816326530612
1 0.39926931106471814 0.08163265306122448 0.02035490605427975 0.022263450834879406
1 0.40866388308977036 0.07606679035250463 0.02035490605427975 0.02040816326530612
0 0.47494780793319413 0.0575139146567718 0.0026096033402922755 0.012987012987012988
1 0.47390396659707723 0.0686456400742115 0.013569937369519834 0.022263450834879406
1 0.517223382045929 0.01020408163265306 0.01826722338204593 0.016697588126159554
