1 0.6475 0.7646666666666667 0.0825 0.06533333333333333
0 0.7785 0.7993333333333333 0.0215 0.04
1 0.7465 0.7206666666666667 0.044 0.07866666666666666
0 0.0475 0.7106666666666667 0.021 0.029333333333333333
0 0.0435 0.6806666666666666 0.016 0.026
0 0.1005 0.566 0.014 0.024
1 0.081 0.5606666666666666 0.021 0.02266666666666667
1 0.007 0.7006666666666667 0.013 0.014
0 0.01 0.662 0.0155 0.018666666666666668
1 0.209 0.9626666666666667 0.026 0.03933333333333333
1 0.226 0.9493333333333334 0.0265 0.03266666666666666
1 0.2435 0.936 0.029 0.03266666666666666
1 0.309 0.88 0.0235 0.036
1 0.3145 0.874 0.02 0.034
1 0.3235 0.8666666666666667 0.02 0.034
1 0.328 0.858 0.02 0.034
0 0.4495 0.8153333333333334 0.0135 0.03333333333333333
0 0.588 0.7573333333333333 0.012 0.03266666666666666
0 0.414 0.6953333333333334 0.0125 0.02266666666666667
0 0.4295 0.702 0.0125 0.026
1 0.415 0.706 0.0195 0.024
1 0.4305 0.712 0.019 0.024666666666666667
1 0.513 0.7273333333333334 0.0905 0.092
0 0.698 0.8893333333333333 0.0135 0.03666666666666667
0 0.509 0.9593333333333334 0.019 0.034
0 0.886 0.72 0.0125 0.027333333333333334
1 0.884 0.7306666666666667 0.015 0.024666666666666667
1 0.805 0.688 0.0665 0.05266666666666667
0 0.6765 0.872 0.0155 0.029333333333333333
1 0.675 0.8826666666666667 0.025 0.024666666666666667
0 0.754 0.906 0.0165 0.032
0 0.91 0.8106666666666666 0.014 0.027333333333333334
1 0.905 0.8246666666666667 0.0165 0.024
1 0.753 0.912 0.031 0.034666666666666665
1 0.8265 0.63 0.067 0.04466666666666667
1 0.845 0.6113333333333333 0.0675 0.04466666666666667
1 0.419 0.5446666666666666 0.0605 0.036
1 0.44 0.5573333333333333 0.0625 0.04066666666666666
1 0.462 0.5693333333333334 0.0645 0.042666666666666665
1 0.4965 0.582 0.0515 0.04666666666666667
1 0.5175 0.604 0.048 0.046
1 0.5415 0.622 0.0435 0.046
1 0.5735 0.6366666666666667 0.055 0.050666666666666665
1 0.6255 0.6733333333333333 0.0465 0.06533333333333333
1 0.6605 0.6906666666666667 0.0565 0.06466666666666666
0 0.6655 0.6566666666666666 0.0105 0.029333333333333333
1 0.69 0.7086666666666667 0.043 0.059333333333333335
1 0.887 0.5633333333333334 0.0565 0.03866666666666667
1 0.903 0.5446666666666666 0.0635 0.042
1 0.914 0.5286666666666666 0.051 0.034
1 0.9205 0.5086666666666667 0.053 0.03333333333333333
1 0.9285 0.49266666666666664 0.0565 0.03266666666666666
1 0.902 0.3933333333333333 0.044 0.03333333333333333
0 0.912 0.38666666666666666 0.008 0.020666666666666667
0 0.884 0.37866666666666665 0.0065 0.013333333333333334
1 0.883 0.38333333333333336 0.0135 0.014
1 0.8615 0.7126666666666667 0.0415 0.054
1 0.8905 0.6626666666666666 0.043 0.048
1 0.9155 0.622 0.0395 0.044
1 0.9405 0.584 0.0375 0.042
1 0.958 0.5453333333333333 0.031 0.04
1 0.974 0.5133333333333333 0.032 0.035333333333333335
1 0.986 0.48533333333333334 0.0275 0.037333333333333336
1 0.985 0.6193333333333333 0.0295 0.04733333333333333
0 0.9555 0.6113333333333333 0.0115 0.02666666666666667
1 0.9535 0.6186666666666667 0.012 0.021333333333333333
0 0.9685 0.5846666666666667 0.0115 0.025333333333333333
1 0.966 0.5906666666666667 0.0125 0.021333333333333333
0 0.973 0.558 0.01 0.024666666666666667
0 0.839 0.896 0.0135 0.029333333333333333
1 0.839 0.906 0.0315 0.024
1 0.855 0.4646666666666667 0.018 0.017333333333333333
1 0.862 0.4593333333333333 0.0165 0.018
0 0.8625 0.484 0.0135 0.02666666666666667
0 0.8455 0.49466666666666664 0.0095 0.024666666666666667
0 0.8465 0.52 0.0095 0.024
0 0.8555 0.5233333333333333 0.0095 0.026
