1 0.47928571428571426 0.9428571428571428 0.10357142857142858 0.11428571428571428
1 0.6014285714285714 0.861904761904762 0.09285714285714286 0.2257142857142857
1 0.29928571428571427 0.6438095238095238 0.025 0.08095238095238096
1 0.445 0.6238095238095238 0.06285714285714286 0.1580952380952381
0 0.29714285714285715 0.4676190476190476 0.02142857142857143 0.04380952380952381
1 0.33 0.43714285714285717 0.04428571428571428 0.035238095238095235
1 0.2571428571428571 0.3933333333333333 0.017142857142857144 0.04285714285714286
0 0.4092857142857143 0.379047619047619 0.019285714285714285 0.045714285714285714
0 0.4278571428571429 0.4123809523809524 0.017857142857142856 0.04380952380952381
0 0.4307142857142857 0.1619047619047619 0.016428571428571428 0.04380952380952381
0 0.4035714285714286 0.07809523809523809 0.012857142857142857 0.0419047619047619
1 0.38285714285714284 0.08 0.023571428571428573 0.047619047619047616
1 0.35214285714285715 0.12285714285714286 0.03428571428571429 0.03333333333333333
0 0.355 0.09047619047619047 0.013571428571428571 0.022857142857142857
1 0.355 0.1019047619047619 0.030714285714285715 0.0380952380952381
1 0.6721428571428572 0.560952380952381 0.08071428571428571 0.18285714285714286
1 0.58 0.5895238095238096 0.062142857142857146 0.16666666666666666
1 0.7121428571428572 0.16476190476190475 0.060714285714285714 0.09428571428571429
1 0.8235714285714286 0.5571428571428572 0.09142857142857143 0.16285714285714287
