0 0.6092857142857143 0.8838095238095238 0.019285714285714285 0.05142857142857143
0 0.5828571428571429 0.8752380952380953 0.015714285714285715 0.045714285714285714
0 0.5514285714285714 0.6771428571428572 0.014285714285714285 0.039047619047619046
0 0.5121428571428571 0.6209523809523809 0.011428571428571429 0.040952380952380955
0 0.4857142857142857 0.5723809523809524 0.010714285714285714 0.035238095238095235
0 0.5235714285714286 0.6171428571428571 0.013571428571428571 0.0380952380952381
0 0.635 0.7047619047619048 0.02 0.04380952380952381
0 0.5728571428571428 0.6285714285714286 0.017142857142857144 0.03238095238095238
0 0.6085714285714285 0.5523809523809524 0.015714285714285715 0.03238095238095238
0 0.3535714285714286 0.3628571428571429 0.007857142857142858 0.014285714285714285
0 0.385 0.3980952380952381 0.008571428571428572 0.018095238095238095
0 0.38785714285714284 0.41523809523809524 0.011428571428571429 0.017142857142857144
1 0.635 0.7095238095238096 0.032857142857142856 0.045714285714285714
1 0.5742857142857143 0.6371428571428571 0.024285714285714285 0.037142857142857144
1 0.6092857142857143 0.56 0.023571428571428573 0.03142857142857143
1 0.3871428571428571 0.4247619047619048 0.011428571428571429 0.018095238095238095
1 0.385 0.40190476190476193 0.012857142857142857 0.018095238095238095
1 0.355 0.37047619047619046 0.008571428571428572 0.017142857142857144
1 0.45571428571428574 0.3171428571428571 0.03 0.021904761904761906
1 0.41214285714285714 0.29619047619047617 0.022857142857142857 0.017142857142857144
1 0.3871428571428571 0.2761904761904762 0.017857142857142856 0.017142857142857144
1 0.36142857142857143 0.2571428571428571 0.013571428571428571 0.014285714285714285
1 0.32285714285714284 0.2523809523809524 0.023571428571428573 0.025714285714285714
1 0.34214285714285714 0.3514285714285714 0.008571428571428572 0.013333333333333334
1 0.33785714285714286 0.3657142857142857 0.008571428571428572 0.015238095238095238
0 0.3414285714285714 0.3457142857142857 0.005714285714285714 0.011428571428571429
0 0.33785714285714286 0.3580952380952381 0.005714285714285714 0.012380952380952381
1 0.6078571428571429 0.34285714285714286 0.030714285714285715 0.021904761904761906
1 0.5835714285714285 0.3342857142857143 0.023571428571428573 0.02
1 0.5721428571428572 0.3742857142857143 0.03642857142857143 0.02857142857142857
1 0.7 0.38952380952380955 0.045 0.03428571428571429
1 0.8385714285714285 0.43333333333333335 0.07571428571428572 0.05714285714285714
0 0.9421428571428572 0.5 0.015 0.03238095238095238
0 0.9792857142857143 0.5057142857142857 0.02 0.03238095238095238
1 0.9321428571428572 0.4542857142857143 0.08357142857142857 0.0419047619047619
1 0.6671428571428571 0.8657142857142858 0.025714285714285714 0.05238095238095238
0 0.6664285714285715 0.8476190476190476 0.02 0.04380952380952381
