1 0.054285714285714284 0.5723809523809524 0.02 0.039047619047619046
1 0.06785714285714285 0.5685714285714286 0.016428571428571428 0.035238095238095235
1 0.015 0.6961904761904761 0.030714285714285715 0.05047619047619047
1 0.04642857142857143 0.6961904761904761 0.018571428571428572 0.04285714285714286
1 0.065 0.6942857142857143 0.019285714285714285 0.047619047619047616
1 0.07785714285714286 0.679047619047619 0.020714285714285713 0.05047619047619047
1 0.017857142857142856 0.940952380952381 0.027857142857142858 0.021904761904761906
1 0.13642857142857143 0.9809523809523809 0.03785714285714286 0.03238095238095238
1 0.22857142857142856 0.8933333333333333 0.029285714285714286 0.023809523809523808
1 0.26071428571428573 0.9904761904761905 0.03142857142857143 0.018095238095238095
1 0.25214285714285717 0.7476190476190476 0.027857142857142858 0.02857142857142857
1 0.2664285714285714 0.7771428571428571 0.03142857142857143 0.025714285714285714
1 0.2621428571428571 0.8219047619047619 0.024285714285714285 0.024761904761904763
1 0.3 0.8085714285714286 0.027857142857142858 0.023809523809523808
1 0.37357142857142855 0.7771428571428571 0.02642857142857143 0.023809523809523808
1 0.4585714285714286 0.919047619047619 0.025714285714285714 0.023809523809523808
1 0.43642857142857144 0.6933333333333334 0.02 0.039047619047619046
1 0.49142857142857144 0.8038095238095239 0.06642857142857143 0.05619047619047619
1 0.6285714285714286 0.7428571428571429 0.10428571428571429 0.05047619047619047
1 0.5485714285714286 0.3495238095238095 0.029285714285714286 0.018095238095238095
1 0.5557142857142857 0.4 0.025 0.02666666666666667
1 0.8814285714285715 0.005714285714285714 0.030714285714285715 0.011428571428571429
1 0.9128571428571428 0.1419047619047619 0.02642857142857143 0.024761904761904763
1 0.9228571428571428 0.17904761904761904 0.029285714285714286 0.02095238095238095
1 0.9257142857142857 0.1980952380952381 0.02214285714285714 0.02
1 0.9342857142857143 0.21904761904761905 0.02857142857142857 0.023809523809523808
1 0.9371428571428572 0.23904761904761904 0.03 0.02095238095238095
1 0.9392857142857143 0.26 0.02857142857142857 0.02
1 0.885 0.28 0.017857142857142856 0.03333333333333333
1 0.96 0.32476190476190475 0.02142857142857143 0.017142857142857144
1 0.97 0.38095238095238093 0.03 0.02095238095238095
1 0.9742857142857143 0.39714285714285713 0.030714285714285715 0.021904761904761906
1 0.9764285714285714 0.4180952380952381 0.02857142857142857 0.02095238095238095
1 0.9828571428571429 0.4342857142857143 0.03142857142857143 0.022857142857142857
1 0.7442857142857143 0.6428571428571429 0.015 0.04
1 0.7571428571428571 0.6076190476190476 0.015714285714285715 0.037142857142857144
1 0.885 0.6161904761904762 0.027857142857142858 0.024761904761904763
1 0.9514285714285714 0.5914285714285714 0.035 0.025714285714285714
1 0.18428571428571427 0.9847619047619047 0.018571428571428572 0.015238095238095238
1 0.5335714285714286 0.820952380952381 0.012857142857142857 0.011428571428571429
1 0.6235714285714286 0.7819047619047619 0.012857142857142857 0.012380952380952381
1 0.7714285714285715 0.6333333333333333 0.010714285714285714 0.011428571428571429
