1 0.5657142857142857 0.9555837563451777 0.020714285714285713 0.06725888324873096
1 0.62 0.9708121827411168 0.020714285714285713 0.05583756345177665
1 0.6114285714285714 0.881979695431472 0.018571428571428572 0.05456852791878172
1 0.5914285714285714 0.9010152284263959 0.01 0.03553299492385787
1 0.5792857142857143 0.9048223350253807 0.010714285714285714 0.031725888324873094
1 0.5685714285714286 0.866751269035533 0.009285714285714286 0.03299492385786802
1 0.5771428571428572 0.8642131979695431 0.009285714285714286 0.031725888324873094
1 0.5971428571428572 0.43908629441624364 0.020714285714285713 0.06979695431472081
1 0.6621428571428571 0.39213197969543145 0.029285714285714286 0.08883248730964467
1 0.6407142857142857 0.28553299492385786 0.02857142857142857 0.08883248730964467
1 0.4342857142857143 0.4137055837563452 0.04214285714285714 0.1548223350253807
1 0.5842857142857143 0.05203045685279188 0.017857142857142856 0.0583756345177665
1 0.6414285714285715 0.18401015228426396 0.018571428571428572 0.06598984771573604
1 0.7985714285714286 0.5139593908629442 0.035 0.02918781725888325
1 0.8571428571428571 0.5736040609137056 0.03785714285714286 0.03426395939086294
1 0.9507142857142857 0.49619289340101524 0.05357142857142857 0.04314720812182741
