1 0.4845 0.03666666666666667 0.0055 0.011333333333333334
1 0.4955 0.028 0.0055 0.008666666666666666
1 0.4205 0.23133333333333334 0.0165 0.022
1 0.4245 0.21933333333333332 0.0145 0.016666666666666666
1 0.4525 0.212 0.014 0.021333333333333333
1 0.466 0.18 0.0125 0.012666666666666666
1 0.4665 0.188 0.0105 0.013333333333333334
1 0.477 0.198 0.031 0.018
1 0.4775 0.20066666666666666 0.0305 0.015333333333333332
1 0.4785 0.20733333333333334 0.0275 0.014666666666666666
1 0.475 0.21466666666666667 0.0285 0.014666666666666666
1 0.4755 0.22333333333333333 0.0325 0.018
1 0.478 0.232 0.032 0.018666666666666668
1 0.476 0.23666666666666666 0.028 0.014
1 0.4755 0.24466666666666667 0.0285 0.014666666666666666
1 0.4665 0.258 0.0275 0.017333333333333333
0 0.414 0.19533333333333333 0.0055 0.017333333333333333
0 0.4195 0.19 0.005 0.014666666666666666
1 0.415 0.5386666666666666 0.0505 0.04066666666666666
1 0.4145 0.5666666666666667 0.063 0.038
1 0.4025 0.5986666666666667 0.07 0.043333333333333335
1 0.42 0.626 0.0705 0.05
1 0.416 0.6693333333333333 0.0795 0.046
1 0.39 0.812 0.095 0.078
1 0.393 0.7193333333333334 0.084 0.054
1 0.387 0.7606666666666667 0.0935 0.062
0 0.628 0.8213333333333334 0.0155 0.03866666666666667
1 0.642 0.5746666666666667 0.06 0.04666666666666667
0 0.9245 0.106 0.0055 0.010666666666666666
0 0.9305 0.106 0.0055 0.011333333333333334
0 0.9675 0.116 0.0065 0.014
