1 0.5235714285714286 0.7157360406091371 0.013571428571428571 0.044416243654822336
1 0.5085714285714286 0.9314720812182741 0.02 0.06472081218274112
1 0.54 0.8426395939086294 0.018571428571428572 0.05710659898477157
1 0.5707142857142857 0.7106598984771574 0.015714285714285715 0.044416243654822336
1 0.5342857142857143 0.5939086294416244 0.012142857142857143 0.03553299492385787
1 0.49 0.5520304568527918 0.012142857142857143 0.027918781725888325
1 0.5442857142857143 0.39593908629441626 0.007857142857142858 0.024111675126903553
1 0.5257142857142857 0.37055837563451777 0.009285714285714286 0.02030456852791878
1 0.5778571428571428 0.2614213197969543 0.005714285714285714 0.015228426395939087
1 0.5657142857142857 0.29949238578680204 0.007142857142857143 0.01903553299492386
1 0.56 0.28045685279187815 0.007142857142857143 0.01649746192893401
1 0.5578571428571428 0.21192893401015228 0.005714285714285714 0.015228426395939087
1 0.5485714285714286 0.12690355329949238 0.005 0.01015228426395939
1 0.5514285714285714 0.1116751269035533 0.005714285714285714 0.008883248730964468
1 0.5635714285714286 0.11421319796954314 0.004285714285714286 0.011421319796954314
1 0.5364285714285715 0.26776649746192893 0.005714285714285714 0.017766497461928935
1 0.5671428571428572 0.233502538071066 0.005714285714285714 0.015228426395939087
1 0.5785714285714286 0.23477157360406092 0.007142857142857143 0.01903553299492386
1 0.5471428571428572 0.06598984771573604 0.004285714285714286 0.007614213197969543
1 0.5471428571428572 0.0583756345177665 0.004285714285714286 0.006345177664974619
1 0.5528571428571428 0.06472081218274112 0.0035714285714285713 0.007614213197969543
1 0.575 0.05456852791878172 0.004285714285714286 0.011421319796954314
1 0.5721428571428572 0.11802030456852793 0.005 0.012690355329949238
1 0.58 0.13451776649746192 0.005 0.013959390862944163
1 0.5757142857142857 0.30583756345177665 0.007857142857142858 0.01903553299492386
1 0.5542857142857143 0.32741116751269034 0.01 0.0266497461928934
1 0.5428571428571428 0.18274111675126903 0.0064285714285714285 0.015228426395939087
1 0.5692857142857143 0.16878172588832488 0.0064285714285714285 0.012690355329949238
1 0.5707142857142857 0.1434010152284264 0.005714285714285714 0.013959390862944163
1 0.5535714285714286 0.05583756345177665 0.005 0.008883248730964468
1 0.5757142857142857 0.024111675126903553 0.0035714285714285713 0.011421319796954314
1 0.575 0.4035532994923858 0.015 0.07360406091370558
1 0.5764285714285714 0.47081218274111675 0.010714285714285714 0.03934010152284264
1 0.555 0.22588832487309646 0.007142857142857143 0.01649746192893401
1 0.5792857142857143 0.19543147208121828 0.005714285714285714 0.015228426395939087
1 0.57 0.13071065989847716 0.005714285714285714 0.01903553299492386
1 0.4635714285714286 0.23477157360406092 0.015 0.011421319796954314
1 0.43714285714285717 0.233502538071066 0.017857142857142856 0.01649746192893401
1 0.57 0.19416243654822335 0.008571428571428572 0.030456852791878174
1 0.545 0.03934010152284264 0.011428571428571429 0.01015228426395939
1 0.6807142857142857 0.6814720812182741 0.03642857142857143 0.02284263959390863
1 0.7407142857142858 0.7119289340101523 0.03785714285714286 0.024111675126903553
1 0.7814285714285715 0.7208121827411168 0.03357142857142857 0.02918781725888325
1 0.7657142857142857 0.6852791878172588 0.03571428571428571 0.02918781725888325
1 0.8214285714285714 0.7220812182741116 0.03785714285714286 0.02918781725888325
1 0.9207142857142857 0.6865482233502538 0.035 0.024111675126903553
1 0.9721428571428572 0.6928934010152284 0.03571428571428571 0.024111675126903553
