1 0.6057142857142858 0.5545685279187818 0.045 0.046954314720812185
1 0.765 0.5393401015228426 0.04428571428571428 0.04187817258883249
1 0.6207142857142857 0.616751269035533 0.052142857142857144 0.0583756345177665
1 0.6514285714285715 0.8705583756345178 0.025 0.0583756345177665
1 0.7842857142857143 0.8883248730964467 0.05785714285714286 0.06725888324873096
1 0.7014285714285714 0.8375634517766497 0.052142857142857144 0.06091370558375635
1 0.6921428571428572 0.9111675126903553 0.02857142857142857 0.0901015228426396
1 0.72 0.9314720812182741 0.03 0.10025380710659898
1 0.7507142857142857 0.9441624365482234 0.025714285714285714 0.09263959390862944
1 0.48142857142857143 0.7373096446700508 0.045714285714285714 0.05710659898477157
1 0.6071428571428571 0.6446700507614214 0.047857142857142855 0.046954314720812185
1 0.6828571428571428 0.6560913705583756 0.05071428571428571 0.06218274111675127
1 0.6514285714285715 0.6738578680203046 0.03785714285714286 0.0532994923857868
1 0.6357142857142857 0.748730964467005 0.04857142857142857 0.048223350253807105
1 0.4942857142857143 0.9137055837563451 0.04928571428571429 0.06345177664974619
1 0.4757142857142857 0.8324873096446701 0.04928571428571429 0.0532994923857868
1 0.5221428571428571 0.9390862944162437 0.06571428571428571 0.07233502538071065
1 0.6435714285714286 0.7982233502538071 0.054285714285714284 0.06725888324873096
1 0.7935714285714286 0.950507614213198 0.05928571428571429 0.06345177664974619
1 0.6964285714285714 0.7715736040609137 0.06714285714285714 0.0799492385786802
1 0.7107142857142857 0.7347715736040609 0.062142857142857146 0.07614213197969544
1 0.77 0.6230964467005076 0.10642857142857143 0.10786802030456853
1 0.785 0.6928934010152284 0.05714285714285714 0.06979695431472081
1 0.9328571428571428 0.5253807106598984 0.025 0.06345177664974619
1 0.9671428571428572 0.583756345177665 0.04928571428571429 0.0532994923857868
1 0.9714285714285714 0.5609137055837563 0.04928571428571429 0.04568527918781726
1 0.9592857142857143 0.39593908629441626 0.04428571428571428 0.04060913705583756
1 0.9685714285714285 0.48223350253807107 0.04642857142857143 0.03680203045685279
1 0.9735714285714285 0.5088832487309645 0.052142857142857144 0.050761421319796954
1 0.965 0.4619289340101523 0.045714285714285714 0.03807106598984772
1 0.9628571428571429 0.43781725888324874 0.04428571428571428 0.03934010152284264
1 0.9721428571428572 0.4251269035532995 0.04928571428571429 0.04314720812182741
1 0.8585714285714285 0.2550761421319797 0.018571428571428572 0.05710659898477157
1 0.9121428571428571 0.29314720812182743 0.02142857142857143 0.05203045685279188
1 0.9264285714285714 0.3299492385786802 0.017857142857142856 0.06218274111675127
1 0.9457142857142857 0.29441624365482233 0.017142857142857144 0.044416243654822336
1 0.9814285714285714 0.35406091370558374 0.037142857142857144 0.050761421319796954
1 0.8871428571428571 0.29314720812182743 0.03571428571428571 0.13705583756345177
1 0.45071428571428573 0.10786802030456853 0.019285714285714285 0.044416243654822336
1 0.46714285714285714 0.10532994923857868 0.017857142857142856 0.03807106598984772
1 0.5828571428571429 0.07868020304568528 0.03 0.02918781725888325
1 0.5771428571428572 0.04949238578680203 0.030714285714285715 0.030456852791878174
1 0.6192857142857143 0.04187817258883249 0.02857142857142857 0.031725888324873094
1 0.6485714285714286 0.09390862944162437 0.027857142857142858 0.025380710659898477
1 0.6535714285714286 0.07487309644670051 0.029285714285714286 0.03426395939086294
1 0.5357142857142857 0.02030456852791878 0.029285714285714286 0.027918781725888325
1 0.5192857142857142 0.02918781725888325 0.02857142857142857 0.03553299492385787
1 0.7678571428571429 0.12690355329949238 0.085 0.0799492385786802
1 0.8392857142857143 0.12436548223350254 0.035 0.03299492385786802
1 0.8864285714285715 0.15355329949238578 0.035 0.03807106598984772
1 0.46785714285714286 0.7956852791878173 0.047857142857142855 0.05203045685279188
1 0.4692857142857143 0.6928934010152284 0.04214285714285714 0.044416243654822336
1 0.4278571428571429 0.550761421319797 0.03857142857142857 0.03553299492385787
1 0.4328571428571429 0.49111675126903553 0.04428571428571428 0.04568527918781726
1 0.4278571428571429 0.5228426395939086 0.03785714285714286 0.03553299492385787
1 0.4235714285714286 0.45050761421319796 0.03785714285714286 0.03934010152284264
1 0.4157142857142857 0.4213197969543147 0.04 0.03426395939086294
1 0.40285714285714286 0.30076142131979694 0.019285714285714285 0.04949238578680203
1 0.3842857142857143 0.2398477157360406 0.020714285714285713 0.05203045685279188
1 0.375 0.2068527918781726 0.013571428571428571 0.03299492385786802
1 0.36714285714285716 0.282994923857868 0.035 0.03426395939086294
1 0.3585714285714286 0.2652284263959391 0.03428571428571429 0.030456852791878174
1 0.355 0.25 0.030714285714285715 0.03553299492385787
1 0.3507142857142857 0.23223350253807107 0.03357142857142857 0.027918781725888325
1 0.3492857142857143 0.2182741116751269 0.029285714285714286 0.02918781725888325
1 0.3485714285714286 0.20304568527918782 0.02642857142857143 0.030456852791878174
1 0.36428571428571427 0.1814720812182741 0.024285714285714285 0.02918781725888325
1 0.35714285714285715 0.17385786802030456 0.027857142857142858 0.030456852791878174
1 0.35285714285714287 0.15736040609137056 0.03142857142857143 0.0266497461928934
