1 0.4707142857142857 0.7931472081218274 0.02857142857142857 0.10152284263959391
1 0.4735714285714286 0.4720812182741117 0.020714285714285713 0.06091370558375635
1 0.4064285714285714 0.36928934010152287 0.020714285714285713 0.050761421319796954
1 0.37142857142857144 0.3680203045685279 0.02142857142857143 0.0532994923857868
1 0.4857142857142857 0.30076142131979694 0.017142857142857144 0.05203045685279188
1 0.3985714285714286 0.13451776649746192 0.016428571428571428 0.03934010152284264
1 0.4278571428571429 0.07614213197969544 0.014285714285714285 0.03553299492385787
1 0.5085714285714286 0.05964467005076142 0.017142857142857144 0.04187817258883249
1 0.465 0.017766497461928935 0.013571428571428571 0.03553299492385787
1 0.4142857142857143 0.01015228426395939 0.018571428571428572 0.021573604060913704
1 0.5142857142857142 0.5076142131979695 0.03142857142857143 0.13705583756345177
1 0.31214285714285717 0.8870558375634517 0.065 0.22208121827411167
1 0.3842857142857143 0.0266497461928934 0.02642857142857143 0.05456852791878172
1 0.35714285714285715 0.26015228426395937 0.02 0.044416243654822336
1 0.4342857142857143 0.6890862944162437 0.027142857142857142 0.08883248730964467
1 0.46214285714285713 0.07868020304568528 0.015 0.048223350253807105
1 0.19214285714285714 0.2766497461928934 0.015714285714285715 0.04314720812182741
1 0.2671428571428571 0.07868020304568528 0.017857142857142856 0.04187817258883249
1 0.21785714285714286 0.14086294416243655 0.013571428571428571 0.03680203045685279
1 0.2835714285714286 0.12309644670050761 0.012142857142857143 0.04568527918781726
1 0.2571428571428571 0.2639593908629442 0.017142857142857144 0.046954314720812185
1 0.1442857142857143 0.7017766497461929 0.05285714285714286 0.1649746192893401
1 0.15857142857142856 0.766497461928934 0.04214285714285714 0.11421319796954314
1 0.22714285714285715 0.3286802030456853 0.029285714285714286 0.0850253807106599
1 0.255 0.3362944162436548 0.017857142857142856 0.05456852791878172
1 0.2392857142857143 0.03807106598984772 0.014285714285714285 0.027918781725888325
1 0.22357142857142856 0.1116751269035533 0.020714285714285713 0.03807106598984772
1 0.21285714285714286 0.17639593908629442 0.02 0.027918781725888325
1 0.20642857142857143 0.2068527918781726 0.02214285714285714 0.031725888324873094
1 0.19857142857142857 0.23604060913705585 0.016428571428571428 0.02918781725888325
1 0.18071428571428572 0.6700507614213198 0.029285714285714286 0.06979695431472081
1 0.12071428571428572 0.8895939086294417 0.03142857142857143 0.08883248730964467
1 0.10214285714285715 0.9682741116751269 0.04 0.05964467005076142
0 0.11 0.5228426395939086 0.010714285714285714 0.025380710659898477
0 0.17357142857142857 0.5634517766497462 0.012142857142857143 0.0266497461928934
0 0.02857142857142857 0.8071065989847716 0.017142857142857144 0.04060913705583756
0 0.7785714285714286 0.9543147208121827 0.007857142857142858 0.024111675126903553
0 0.7678571428571429 0.9708121827411168 0.008571428571428572 0.02284263959390863
0 0.7521428571428571 0.9784263959390863 0.009285714285714286 0.02918781725888325
0 0.685 0.9314720812182741 0.007142857142857143 0.01903553299492386
0 0.6657142857142857 0.9225888324873096 0.007857142857142858 0.0266497461928934
0 0.6157142857142858 0.8375634517766497 0.011428571428571429 0.021573604060913704
0 0.6535714285714286 0.7626903553299492 0.007142857142857143 0.02030456852791878
0 0.7064285714285714 0.7233502538071066 0.005714285714285714 0.021573604060913704
0 0.6564285714285715 0.7017766497461929 0.005 0.02284263959390863
0 0.6471428571428571 0.6967005076142132 0.005714285714285714 0.021573604060913704
0 0.6492857142857142 0.6700507614213198 0.0064285714285714285 0.015228426395939087
0 0.7135714285714285 0.6522842639593909 0.007142857142857143 0.021573604060913704
0 0.6692857142857143 0.6421319796954315 0.008571428571428572 0.024111675126903553
0 0.6585714285714286 0.41116751269035534 0.009285714285714286 0.025380710659898477
0 0.67 0.35406091370558374 0.0064285714285714285 0.01903553299492386
0 0.6428571428571429 0.2753807106598985 0.01 0.017766497461928935
0 0.6428571428571429 0.11928934010152284 0.005714285714285714 0.024111675126903553
0 0.5878571428571429 0.1548223350253807 0.0035714285714285713 0.015228426395939087
0 0.5807142857142857 0.13959390862944163 0.010714285714285714 0.01903553299492386
0 0.5442857142857143 0.3553299492385787 0.012142857142857143 0.024111675126903553
1 0.2957142857142857 0.031725888324873094 0.020714285714285713 0.06472081218274112
0 0.32 0.26015228426395937 0.007142857142857143 0.021573604060913704
1 0.48428571428571426 0.07360406091370558 0.02 0.06979695431472081
0 0.5964285714285714 0.15609137055837563 0.005714285714285714 0.02030456852791878
0 0.5921428571428572 0.1548223350253807 0.005 0.017766497461928935
0 0.6014285714285714 0.15862944162436549 0.004285714285714286 0.021573604060913704
0 0.6471428571428571 0.12309644670050761 0.004285714285714286 0.02030456852791878
0 0.5857142857142857 0.17385786802030456 0.004285714285714286 0.01649746192893401
0 0.5871428571428572 0.17639593908629442 0.0035714285714285713 0.01903553299492386
0 0.5907142857142857 0.1751269035532995 0.0035714285714285713 0.017766497461928935
0 0.5921428571428572 0.17385786802030456 0.0035714285714285713 0.02030456852791878
0 0.6728571428571428 0.35913705583756345 0.005714285714285714 0.02030456852791878
0 0.7042857142857143 0.6535532994923858 0.005 0.024111675126903553
0 0.6992857142857143 0.6560913705583756 0.005714285714285714 0.017766497461928935
0 0.6942857142857143 0.6649746192893401 0.005714285714285714 0.021573604060913704
0 0.7107142857142857 0.7246192893401016 0.007857142857142858 0.017766497461928935
0 0.695 0.9352791878172588 0.0064285714285714285 0.008883248730964468
0 0.6585714285714286 0.9200507614213198 0.0064285714285714285 0.021573604060913704
0 0.6485714285714286 0.833756345177665 0.009285714285714286 0.01649746192893401
