1 0.04071428571428572 0.23809523809523808 0.08214285714285714 0.08476190476190476
1 0.04428571428571428 0.16380952380952382 0.08857142857142856 0.06952380952380953
1 0.21142857142857144 0.03428571428571429 0.06571428571428571 0.06857142857142857
1 0.23357142857142857 0.10952380952380952 0.07142857142857142 0.11428571428571428
1 0.31642857142857145 0.14095238095238094 0.07071428571428572 0.10666666666666667
1 0.42428571428571427 0.07428571428571429 0.06928571428571428 0.08857142857142856
1 0.12428571428571429 0.3619047619047619 0.08071428571428571 0.15904761904761905
1 0.35214285714285715 0.2580952380952381 0.08214285714285714 0.1295238095238095
1 0.2978571428571429 0.3819047619047619 0.08571428571428572 0.17714285714285713
1 0.4064285714285714 0.4380952380952381 0.09928571428571428 0.1676190476190476
1 0.3507142857142857 0.6352380952380953 0.10857142857142857 0.2276190476190476
1 0.14214285714285715 0.6333333333333333 0.09857142857142857 0.22
1 0.41785714285714287 0.9095238095238095 0.12428571428571429 0.18095238095238095
1 0.5107142857142857 0.7609523809523809 0.13142857142857142 0.25142857142857145
0 0.6785714285714286 0.7857142857142857 0.027857142857142858 0.06571428571428571
1 0.7078571428571429 0.679047619047619 0.15 0.24095238095238095
0 0.5214285714285715 0.4638095238095238 0.018571428571428572 0.05714285714285714
1 0.6085714285714285 0.44571428571428573 0.10714285714285714 0.14761904761904762
1 0.5185714285714286 0.26666666666666666 0.09142857142857143 0.14666666666666667
1 0.46714285714285714 0.16095238095238096 0.07357142857142857 0.09523809523809523
1 0.15357142857142858 0.9419047619047619 0.12428571428571429 0.11619047619047619
