1 0.48642857142857143 0.8743654822335025 0.012142857142857143 0.05203045685279188
1 0.4735714285714286 0.5545685279187818 0.017142857142857144 0.11928934010152284
1 0.415 0.38578680203045684 0.013571428571428571 0.06218274111675127
1 0.4328571428571429 0.33756345177664976 0.011428571428571429 0.04314720812182741
1 0.46214285714285713 0.19289340101522842 0.011428571428571429 0.048223350253807105
1 0.38785714285714284 0.18781725888324874 0.02214285714285714 0.021573604060913704
0 0.38785714285714284 0.39847715736040606 0.005 0.008883248730964468
0 0.4928571428571429 0.44289340101522845 0.005 0.01015228426395939
0 0.5092857142857142 0.29949238578680204 0.005 0.012690355329949238
0 0.5121428571428571 0.2753807106598985 0.004285714285714286 0.008883248730964468
0 0.515 0.2563451776649746 0.0035714285714285713 0.008883248730964468
0 0.5264285714285715 0.19416243654822335 0.0035714285714285713 0.01015228426395939
0 0.53 0.2182741116751269 0.005 0.008883248730964468
1 0.5807142857142857 0.10025380710659898 0.007142857142857143 0.027918781725888325
1 0.7564285714285715 0.10406091370558376 0.027857142857142858 0.027918781725888325
1 0.8464285714285714 0.13071065989847716 0.025 0.05710659898477157
1 0.865 0.1319796954314721 0.016428571428571428 0.044416243654822336
