0 0.46714285714285714 0.21619047619047618 0.0035714285714285713 0.008571428571428572
0 0.45785714285714285 0.22285714285714286 0.004285714285714286 0.009523809523809525
0 0.47285714285714286 0.2123809523809524 0.002142857142857143 0.007619047619047619
1 0.4085714285714286 0.37523809523809526 0.017142857142857144 0.030476190476190476
1 0.415 0.3580952380952381 0.013571428571428571 0.023809523809523808
1 0.42142857142857143 0.33904761904761904 0.012142857142857143 0.022857142857142857
1 0.42642857142857143 0.319047619047619 0.015714285714285715 0.022857142857142857
1 0.42928571428571427 0.30095238095238097 0.01 0.014285714285714285
0 0.4042857142857143 0.3380952380952381 0.002857142857142857 0.015238095238095238
0 0.3807142857142857 0.38095238095238093 0.0035714285714285713 0.01619047619047619
0 0.405 0.3142857142857143 0.0035714285714285713 0.013333333333333334
1 0.36642857142857144 0.5114285714285715 0.029285714285714286 0.05238095238095238
1 0.3292857142857143 0.6276190476190476 0.03785714285714286 0.06952380952380953
1 0.44642857142857145 0.7133333333333334 0.039285714285714285 0.11904761904761904
1 0.6035714285714285 0.680952380952381 0.04071428571428572 0.06571428571428571
1 0.5707142857142857 0.4676190476190476 0.022857142857142857 0.03428571428571429
1 0.5335714285714286 0.49523809523809526 0.023571428571428573 0.05047619047619047
1 0.5078571428571429 0.3219047619047619 0.015714285714285715 0.02095238095238095
1 0.5585714285714286 0.3142857142857143 0.013571428571428571 0.01904761904761905
1 0.5535714285714286 0.39714285714285713 0.020714285714285713 0.03238095238095238
1 0.6792857142857143 0.47333333333333333 0.005714285714285714 0.018095238095238095
1 0.6685714285714286 0.4704761904761905 0.009285714285714286 0.023809523809523808
1 0.6564285714285715 0.47523809523809524 0.007857142857142858 0.02095238095238095
1 0.6178571428571429 0.3638095238095238 0.0035714285714285713 0.018095238095238095
1 0.6257142857142857 0.3638095238095238 0.0064285714285714285 0.018095238095238095
1 0.6264285714285714 0.38285714285714284 0.007857142857142858 0.011428571428571429
1 0.545 0.23333333333333334 0.004285714285714286 0.011428571428571429
1 0.5685714285714286 0.21619047619047618 0.0035714285714285713 0.006666666666666667
0 0.6807142857142857 0.4723809523809524 0.0064285714285714285 0.015238095238095238
0 0.6728571428571428 0.4685714285714286 0.005714285714285714 0.010476190476190476
0 0.6564285714285715 0.4695238095238095 0.005 0.011428571428571429
0 0.6264285714285714 0.3780952380952381 0.002857142857142857 0.006666666666666667
0 0.6178571428571429 0.35904761904761906 0.002142857142857143 0.007619047619047619
0 0.6257142857142857 0.35904761904761906 0.004285714285714286 0.008571428571428572
0 0.5685714285714286 0.21523809523809523 0.004285714285714286 0.004761904761904762
0 0.545 0.22952380952380952 0.004285714285714286 0.006666666666666667
1 0.5178571428571429 0.12476190476190477 0.0035714285714285713 0.008571428571428572
1 0.5128571428571429 0.12476190476190477 0.002857142857142857 0.007619047619047619
1 0.5142857142857142 0.14285714285714285 0.005 0.007619047619047619
1 0.5207142857142857 0.13714285714285715 0.0035714285714285713 0.006666666666666667
1 0.5192857142857142 0.17523809523809525 0.007142857142857143 0.007619047619047619
1 0.5071428571428571 0.17238095238095238 0.005714285714285714 0.007619047619047619
1 0.49857142857142855 0.17333333333333334 0.007857142857142858 0.005714285714285714
1 0.5107142857142857 0.1838095238095238 0.01 0.011428571428571429
1 0.49714285714285716 0.1819047619047619 0.0064285714285714285 0.009523809523809525
1 0.5185714285714286 0.18285714285714286 0.0064285714285714285 0.007619047619047619
1 0.5228571428571429 0.19714285714285715 0.005714285714285714 0.014285714285714285
1 0.5307142857142857 0.20666666666666667 0.005714285714285714 0.010476190476190476
1 0.5378571428571428 0.21523809523809523 0.01 0.008571428571428572
1 0.5285714285714286 0.23809523809523808 0.010714285714285714 0.010476190476190476
1 0.5092857142857142 0.23523809523809525 0.011428571428571429 0.010476190476190476
1 0.5071428571428571 0.26857142857142857 0.012857142857142857 0.015238095238095238
1 0.53 0.26571428571428574 0.008571428571428572 0.011428571428571429
1 0.5535714285714286 0.18476190476190477 0.002857142857142857 0.007619047619047619
1 0.5492857142857143 0.1742857142857143 0.0035714285714285713 0.007619047619047619
0 0.5471428571428572 0.17238095238095238 0.002142857142857143 0.0038095238095238095
0 0.5528571428571428 0.1819047619047619 0.002142857142857143 0.005714285714285714
1 0.6171428571428571 0.3180952380952381 0.015714285714285715 0.01904761904761905
1 0.5978571428571429 0.3076190476190476 0.009285714285714286 0.01619047619047619
1 0.875 0.7761904761904762 0.03214285714285714 0.06190476190476191
1 0.6707142857142857 0.2361904761904762 0.02214285714285714 0.021904761904761906
0 0.67 0.21047619047619048 0.005 0.014285714285714285
0 0.6642857142857143 0.20952380952380953 0.005714285714285714 0.011428571428571429
1 0.59 0.26571428571428574 0.002142857142857143 0.012380952380952381
1 0.5828571428571429 0.26666666666666666 0.0035714285714285713 0.008571428571428572
0 0.59 0.2638095238095238 0.002142857142857143 0.004761904761904762
0 0.5835714285714285 0.26571428571428574 0.0035714285714285713 0.005714285714285714
