1 0.064 0.9206666666666666 0.1285 0.08933333333333333
1 0.2835 0.862 0.158 0.096
1 0.4385 0.8566666666666667 0.129 0.12333333333333334
1 0.725 0.926 0.0325 0.08133333333333333
0 0.7325 0.9173333333333333 0.026 0.04666666666666667
1 0.832 0.9046666666666666 0.0925 0.19
1 0.904 0.8986666666666666 0.038 0.056
0 0.9085 0.9033333333333333 0.0405 0.03133333333333333
0 0.9825 0.936 0.0335 0.029333333333333333
0 0.961 0.7846666666666666 0.0395 0.02266666666666667
1 0.8505 0.728 0.137 0.08466666666666667
1 0.893 0.6353333333333333 0.1485 0.082
1 0.9395 0.536 0.1185 0.08866666666666667
1 0.8205 0.5233333333333333 0.0795 0.13733333333333334
1 0.7385 0.532 0.089 0.14266666666666666
0 0.681 0.5533333333333333 0.027 0.02666666666666667
0 0.7055 0.43333333333333335 0.0275 0.03666666666666667
0 0.518 0.086 0.012 0.034
0 0.0425 0.07666666666666666 0.04 0.048
0 0.052 0.02266666666666667 0.0255 0.04466666666666667
0 0.223 0.066 0.0225 0.044
0 0.1395 0.12666666666666668 0.0265 0.04
1 0.1625 0.10933333333333334 0.039 0.035333333333333335
0 0.153 0.10466666666666667 0.021 0.037333333333333336
1 0.223 0.12133333333333333 0.036 0.03333333333333333
0 0.216 0.11466666666666667 0.0195 0.036
0 0.282 0.032 0.022 0.051333333333333335
0 0.28 0.019333333333333334 0.018 0.037333333333333336
0 0.3225 0.07733333333333334 0.0155 0.04933333333333333
0 0.3165 0.06933333333333333 0.0115 0.016666666666666666
0 0.3185 0.12533333333333332 0.01 0.035333333333333335
0 0.3545 0.09733333333333333 0.025 0.042
0 0.3645 0.02 0.016 0.04066666666666666
0 0.3805 0.146 0.0145 0.042
0 0.44 0.12866666666666668 0.016 0.037333333333333336
0 0.414 0.19666666666666666 0.014 0.03866666666666667
0 0.479 0.09266666666666666 0.0145 0.037333333333333336
1 0.513 0.11533333333333333 0.079 0.07133333333333333
1 0.5525 0.18866666666666668 0.0345 0.042
0 0.5515 0.182 0.0195 0.03333333333333333
1 0.5165 0.20333333333333334 0.035 0.042
0 0.5155 0.19533333333333333 0.0185 0.03933333333333333
0 0.478 0.20466666666666666 0.0085 0.02266666666666667
0 0.49 0.214 0.014 0.03333333333333333
1 0.486 0.232 0.032 0.026
0 0.6015 0.16733333333333333 0.0125 0.04466666666666667
0 0.622 0.17933333333333334 0.013 0.03266666666666666
0 0.632 0.17933333333333334 0.0135 0.03866666666666667
0 0.5895 0.5533333333333333 0.017 0.028
0 0.668 0.6066666666666667 0.0215 0.02
1 0.64 0.616 0.023 0.06533333333333333
0 0.643 0.6093333333333333 0.023 0.026
1 0.7505 0.67 0.133 0.10333333333333333
0 0.5915 0.812 0.0185 0.021333333333333333
0 0.625 0.9 0.0235 0.028
0 0.639 0.9846666666666667 0.021 0.029333333333333333
1 0.436 0.5946666666666667 0.13 0.08133333333333333
1 0.265 0.612 0.117 0.12866666666666668
0 0.143 0.5526666666666666 0.029 0.04
1 0.1245 0.5766666666666667 0.053 0.042
1 0.0585 0.6293333333333333 0.045 0.03666666666666667
