1 0.3707142857142857 0.3942857142857143 0.03214285714285714 0.0980952380952381
1 0.38571428571428573 0.7561904761904762 0.04 0.13142857142857142
1 0.6535714285714286 0.8666666666666667 0.05857142857142857 0.15333333333333332
1 0.5192857142857142 0.6009523809523809 0.03785714285714286 0.12095238095238095
1 0.48 0.31047619047619046 0.027857142857142858 0.08476190476190476
1 0.475 0.21333333333333335 0.02857142857142857 0.06285714285714286
1 0.7785714285714286 0.4076190476190476 0.04 0.08285714285714285
1 0.8464285714285714 0.1523809523809524 0.035 0.06666666666666667
1 0.5585714285714286 0.20476190476190476 0.02857142857142857 0.05904761904761905
1 0.5178571428571429 0.2038095238095238 0.023571428571428573 0.06857142857142857
1 0.6 0.23333333333333334 0.02857142857142857 0.06476190476190476
1 0.605 0.32761904761904764 0.032857142857142856 0.0761904761904762
1 0.6542857142857142 0.32857142857142857 0.04 0.08666666666666667
1 0.6421428571428571 0.22952380952380952 0.02857142857142857 0.06285714285714286
1 0.9092857142857143 0.1580952380952381 0.047142857142857146 0.07047619047619047
1 0.5607142857142857 0.047619047619047616 0.05357142857142857 0.04666666666666667
1 0.4492857142857143 0.10285714285714286 0.15428571428571428 0.1219047619047619
1 0.6971428571428572 0.12380952380952381 0.12071428571428572 0.17047619047619048
1 0.8514285714285714 0.37333333333333335 0.055 0.08
1 0.9435714285714286 0.15619047619047619 0.037142857142857144 0.06857142857142857
1 0.9771428571428571 0.15333333333333332 0.03642857142857143 0.06761904761904762
1 0.8607142857142858 0.23238095238095238 0.05928571428571429 0.07523809523809524
1 0.9542857142857143 0.34476190476190477 0.06785714285714285 0.045714285714285714
1 0.9685714285714285 0.25047619047619046 0.062142857142857146 0.04285714285714286
0 0.7114285714285714 0.054285714285714284 0.008571428571428572 0.02666666666666667
0 0.7642857142857142 0.12857142857142856 0.009285714285714286 0.03428571428571429
0 0.7614285714285715 0.22 0.008571428571428572 0.025714285714285714
0 0.7971428571428572 0.23904761904761904 0.013571428571428571 0.030476190476190476
0 0.8464285714285714 0.29333333333333333 0.012857142857142857 0.025714285714285714
0 0.8778571428571429 0.6495238095238095 0.015 0.025714285714285714
0 0.87 0.3304761904761905 0.012142857142857143 0.023809523809523808
0 0.7985714285714286 0.17523809523809525 0.013571428571428571 0.030476190476190476
0 0.8107142857142857 0.23523809523809525 0.011428571428571429 0.029523809523809525
0 0.3921428571428571 0.037142857142857144 0.013571428571428571 0.02761904761904762
0 0.27071428571428574 0.22857142857142856 0.012857142857142857 0.02666666666666667
0 0.40214285714285714 0.030476190476190476 0.011428571428571429 0.023809523809523808
0 0.4564285714285714 0.040952380952380955 0.010714285714285714 0.030476190476190476
0 0.6857142857142857 0.018095238095238095 0.01 0.024761904761904763
0 0.6978571428571428 0.040952380952380955 0.01 0.02761904761904762
0 0.8135714285714286 0.14095238095238094 0.007142857142857143 0.029523809523809525
1 0.23857142857142857 0.24 0.011428571428571429 0.02666666666666667
1 0.24571428571428572 0.2019047619047619 0.015714285714285715 0.03238095238095238
1 0.18214285714285713 0.1761904761904762 0.02 0.03238095238095238
1 0.20714285714285716 0.36 0.022857142857142857 0.05904761904761905
1 0.24571428571428572 0.039047619047619046 0.02142857142857143 0.040952380952380955
0 0.23714285714285716 0.010476190476190476 0.009285714285714286 0.02095238095238095
0 0.2807142857142857 0.009523809523809525 0.010714285714285714 0.02
0 0.4114285714285714 0.014285714285714285 0.005 0.02857142857142857
0 0.6057142857142858 0.010476190476190476 0.008571428571428572 0.02095238095238095
0 0.5457142857142857 0.008571428571428572 0.008571428571428572 0.018095238095238095
0 0.78 0.010476190476190476 0.007142857142857143 0.021904761904761906
0 0.8142857142857143 0.023809523809523808 0.009285714285714286 0.022857142857142857
0 0.9228571428571428 0.013333333333333334 0.011428571428571429 0.02761904761904762
0 0.8664285714285714 0.011428571428571429 0.01 0.021904761904761906
0 0.8228571428571428 0.12095238095238095 0.007857142857142858 0.022857142857142857
0 0.7442857142857143 0.12 0.007142857142857143 0.025714285714285714
0 0.8164285714285714 0.1219047619047619 0.005 0.013333333333333334
0 0.8292857142857143 0.39714285714285713 0.012857142857142857 0.02761904761904762
0 0.9564285714285714 0.013333333333333334 0.011428571428571429 0.02666666666666667
0 0.8214285714285714 0.39904761904761904 0.015 0.025714285714285714
1 0.9764285714285714 0.43047619047619046 0.02857142857142857 0.015238095238095238
1 0.9478571428571428 0.43238095238095237 0.027857142857142858 0.021904761904761906
1 0.9514285714285714 0.4419047619047619 0.024285714285714285 0.025714285714285714
0 0.45285714285714285 0.024761904761904763 0.009285714285714286 0.02666666666666667
0 0.29714285714285715 0.08761904761904762 0.010714285714285714 0.025714285714285714
0 0.2864285714285714 0.07047619047619047 0.01 0.03333333333333333
0 0.31142857142857144 0.04857142857142857 0.012142857142857143 0.02761904761904762
0 0.21857142857142858 0.007619047619047619 0.012142857142857143 0.015238095238095238
0 0.2307142857142857 0.01619047619047619 0.01 0.02
0 0.10928571428571429 0.3961904761904762 0.017857142857142856 0.029523809523809525
1 0.1757142857142857 0.22476190476190477 0.023571428571428573 0.02095238095238095
0 0.31 0.03142857142857143 0.0064285714285714285 0.01619047619047619
0 0.30428571428571427 0.03238095238095238 0.005714285714285714 0.015238095238095238
0 0.21428571428571427 0.9238095238095239 0.017857142857142856 0.025714285714285714
0 0.21928571428571428 0.9104761904761904 0.014285714285714285 0.021904761904761906
1 0.21928571428571428 0.9285714285714286 0.017142857142857144 0.06380952380952382
1 0.31357142857142856 0.0419047619047619 0.019285714285714285 0.02
0 0.195 0.5914285714285714 0.014285714285714285 0.025714285714285714
