1 0.5871428571428572 0.4876190476190476 0.08 0.06095238095238095
1 0.5485714285714286 0.7552380952380953 0.11428571428571428 0.11238095238095239
1 0.4471428571428571 0.5028571428571429 0.047857142857142855 0.05904761904761905
1 0.605 0.37238095238095237 0.04642857142857143 0.047619047619047616
1 0.7128571428571429 0.32666666666666666 0.05928571428571429 0.030476190476190476
1 0.3757142857142857 0.30666666666666664 0.03214285714285714 0.030476190476190476
1 0.42214285714285715 0.2704761904761905 0.024285714285714285 0.02761904761904762
1 0.21 0.3380952380952381 0.03 0.040952380952380955
1 0.28285714285714286 0.3504761904761905 0.027142857142857142 0.035238095238095235
1 0.31142857142857144 0.3304761904761905 0.047142857142857146 0.02666666666666667
1 0.33285714285714285 0.31142857142857144 0.04428571428571428 0.022857142857142857
1 0.3514285714285714 0.29619047619047617 0.030714285714285715 0.021904761904761906
1 0.3742857142857143 0.28095238095238095 0.03357142857142857 0.021904761904761906
1 0.3942857142857143 0.26761904761904765 0.037142857142857144 0.02095238095238095
1 0.43785714285714283 0.25523809523809526 0.02214285714285714 0.025714285714285714
1 0.4614285714285714 0.23523809523809525 0.016428571428571428 0.02095238095238095
1 0.4828571428571429 0.21619047619047618 0.015714285714285715 0.02
1 0.4828571428571429 0.19523809523809524 0.016428571428571428 0.017142857142857144
1 0.4607142857142857 0.21714285714285714 0.018571428571428572 0.017142857142857144
1 0.4085714285714286 0.2561904761904762 0.03214285714285714 0.01904761904761905
1 0.42714285714285716 0.24476190476190476 0.029285714285714286 0.018095238095238095
1 0.43785714285714283 0.23333333333333334 0.03142857142857143 0.02
1 0.45 0.22666666666666666 0.02642857142857143 0.015238095238095238
1 0.5064285714285715 0.3780952380952381 0.03357142857142857 0.04
1 0.4714285714285714 0.4514285714285714 0.04928571428571429 0.04476190476190476
1 0.4278571428571429 0.4219047619047619 0.03642857142857143 0.045714285714285714
1 0.5264285714285715 0.1819047619047619 0.012857142857142857 0.014285714285714285
1 0.5414285714285715 0.17047619047619048 0.012142857142857143 0.013333333333333334
1 0.5492857142857143 0.16095238095238096 0.010714285714285714 0.012380952380952381
1 0.5585714285714286 0.15333333333333332 0.009285714285714286 0.009523809523809525
1 0.5714285714285714 0.14476190476190476 0.009285714285714286 0.012380952380952381
1 0.5757142857142857 0.14 0.009285714285714286 0.014285714285714285
1 0.6192857142857143 0.18666666666666668 0.011428571428571429 0.01619047619047619
1 0.6157142857142858 0.19238095238095237 0.011428571428571429 0.013333333333333334
1 0.61 0.1980952380952381 0.019285714285714285 0.012380952380952381
1 0.6064285714285714 0.2038095238095238 0.019285714285714285 0.014285714285714285
1 0.605 0.2123809523809524 0.025 0.018095238095238095
1 0.5914285714285714 0.22952380952380952 0.02 0.024761904761904763
1 0.5842857142857143 0.24952380952380954 0.025 0.023809523809523808
1 0.575 0.26 0.025 0.025714285714285714
1 0.565 0.2733333333333333 0.027857142857142858 0.02761904761904762
1 0.5557142857142857 0.2895238095238095 0.02857142857142857 0.029523809523809525
1 0.5457142857142857 0.30666666666666664 0.035 0.037142857142857144
1 0.5328571428571428 0.32857142857142857 0.03 0.02666666666666667
1 0.7092857142857143 0.3142857142857143 0.05714285714285714 0.024761904761904763
1 0.71 0.30095238095238097 0.05 0.03142857142857143
1 0.7028571428571428 0.28476190476190477 0.052142857142857144 0.022857142857142857
1 0.7114285714285714 0.25142857142857145 0.04214285714285714 0.018095238095238095
1 0.7078571428571429 0.2438095238095238 0.04214285714285714 0.022857142857142857
1 0.6785714285714286 0.20476190476190476 0.023571428571428573 0.018095238095238095
1 0.6585714285714286 0.20285714285714285 0.03214285714285714 0.02
1 0.6628571428571428 0.19142857142857142 0.03 0.01619047619047619
1 0.6635714285714286 0.18761904761904763 0.025714285714285714 0.014285714285714285
1 0.6621428571428571 0.17904761904761904 0.027857142857142858 0.013333333333333334
1 0.6928571428571428 0.17714285714285713 0.025 0.015238095238095238
1 0.715 0.18666666666666668 0.011428571428571429 0.015238095238095238
1 0.7092857142857143 0.2019047619047619 0.015714285714285715 0.022857142857142857
0 0.7028571428571428 0.22476190476190477 0.005 0.02
0 0.5464285714285714 0.4095238095238095 0.01 0.037142857142857144
0 0.5307142857142857 0.4066666666666667 0.012142857142857143 0.039047619047619046
0 0.6528571428571428 0.4895238095238095 0.012857142857142857 0.040952380952380955
0 0.7728571428571429 0.37333333333333335 0.009285714285714286 0.02857142857142857
0 0.7478571428571429 0.3761904761904762 0.011428571428571429 0.030476190476190476
0 0.7492857142857143 0.37238095238095237 0.010714285714285714 0.035238095238095235
1 0.7664285714285715 0.5542857142857143 0.015 0.04380952380952381
1 0.7385714285714285 0.28285714285714286 0.011428571428571429 0.024761904761904763
1 0.78 0.34285714285714286 0.018571428571428572 0.022857142857142857
1 0.7478571428571429 0.6685714285714286 0.025714285714285714 0.05523809523809524
0 0.7121428571428572 0.6 0.016428571428571428 0.05333333333333334
0 0.7942857142857143 0.6761904761904762 0.016428571428571428 0.05333333333333334
1 0.5171428571428571 0.8428571428571429 0.10857142857142857 0.15428571428571428
1 0.4392857142857143 0.9114285714285715 0.12 0.17714285714285713
1 0.7692857142857142 0.96 0.12357142857142857 0.07714285714285714
1 0.4107142857142857 0.5542857142857143 0.04285714285714286 0.07333333333333333
1 0.10785714285714286 0.5714285714285714 0.08857142857142856 0.1019047619047619
1 0.11357142857142857 0.5161904761904762 0.07357142857142857 0.06380952380952382
1 0.08714285714285715 0.49523809523809526 0.085 0.06761904761904762
1 0.19714285714285715 0.6638095238095238 0.11071428571428571 0.10857142857142857
1 0.06857142857142857 0.9295238095238095 0.13785714285714284 0.13428571428571429
1 0.02142857142857143 0.5542857142857143 0.04285714285714286 0.07047619047619047
