1 0.33785714285714286 0.5266666666666666 0.05357142857142857 0.08761904761904762
1 0.13785714285714284 0.621904761904762 0.06357142857142857 0.10666666666666667
1 0.48142857142857143 0.6761904761904762 0.055 0.11428571428571428
1 0.3457142857142857 0.2714285714285714 0.047857142857142855 0.06
1 0.2735714285714286 0.2895238095238095 0.039285714285714285 0.06571428571428571
1 0.19785714285714287 0.2695238095238095 0.027142857142857142 0.06380952380952382
1 0.1457142857142857 0.23809523809523808 0.02857142857142857 0.04476190476190476
1 0.29642857142857143 0.5057142857142857 0.05142857142857143 0.08761904761904762
1 0.25357142857142856 0.48857142857142855 0.04428571428571428 0.07809523809523809
1 0.21 0.4704761904761905 0.05 0.07523809523809524
1 0.17714285714285713 0.44476190476190475 0.05 0.07238095238095238
1 0.14 0.4228571428571429 0.05357142857142857 0.07523809523809524
1 0.09857142857142857 0.4114285714285714 0.05 0.06285714285714286
1 0.07571428571428572 0.3952380952380952 0.054285714285714284 0.0761904761904762
1 0.03642857142857143 0.3819047619047619 0.060714285714285714 0.07428571428571429
1 0.2714285714285714 0.22952380952380952 0.010714285714285714 0.024761904761904763
1 0.285 0.2361904761904762 0.010714285714285714 0.02
1 0.35214285714285715 0.3361904761904762 0.027857142857142858 0.01904761904761905
1 0.11071428571428571 0.23238095238095238 0.03785714285714286 0.058095238095238096
0 0.21785714285714286 0.20095238095238097 0.0064285714285714285 0.015238095238095238
1 0.02142857142857143 0.3523809523809524 0.04285714285714286 0.07714285714285714
1 0.022857142857142857 0.5552380952380952 0.04214285714285714 0.09904761904761905
1 0.06142857142857143 0.5771428571428572 0.05785714285714286 0.08285714285714285
1 0.11142857142857143 0.5942857142857143 0.06 0.10666666666666667
1 0.07857142857142857 0.700952380952381 0.09357142857142857 0.07904761904761905
1 0.05285714285714286 0.7561904761904762 0.08785714285714286 0.0838095238095238
1 0.03 0.8180952380952381 0.06 0.07904761904761905
1 0.18857142857142858 0.8990476190476191 0.14285714285714285 0.1419047619047619
1 0.1692857142857143 0.9638095238095238 0.11214285714285714 0.06952380952380953
0 0.30714285714285716 0.8419047619047619 0.008571428571428572 0.030476190476190476
0 0.30642857142857144 0.7438095238095238 0.01 0.029523809523809525
0 0.32285714285714284 0.82 0.012857142857142857 0.030476190476190476
0 0.5121428571428571 0.08285714285714285 0.002857142857142857 0.018095238095238095
0 0.5171428571428571 0.0838095238095238 0.0064285714285714285 0.01904761904761905
0 0.45285714285714285 0.43333333333333335 0.0064285714285714285 0.02666666666666667
0 0.44571428571428573 0.4419047619047619 0.007857142857142858 0.030476190476190476
0 0.4407142857142857 0.49333333333333335 0.007142857142857143 0.023809523809523808
0 0.4328571428571429 0.49238095238095236 0.0064285714285714285 0.02095238095238095
1 0.6014285714285714 0.35619047619047617 0.03428571428571429 0.07904761904761905
0 0.5578571428571428 0.3952380952380952 0.004285714285714286 0.018095238095238095
1 0.5128571428571429 0.5723809523809524 0.047857142857142855 0.09142857142857143
1 0.5528571428571428 0.6352380952380953 0.045714285714285714 0.10952380952380952
1 0.5971428571428572 0.7495238095238095 0.052142857142857144 0.11523809523809524
1 0.5471428571428572 0.94 0.06 0.11904761904761904
1 0.38285714285714284 0.9266666666666666 0.085 0.14666666666666667
1 0.69 0.7219047619047619 0.045 0.10666666666666667
1 0.655 0.62 0.04214285714285714 0.09333333333333334
1 0.7207142857142858 0.6161904761904762 0.041428571428571426 0.09428571428571429
1 0.74 0.5123809523809524 0.041428571428571426 0.08761904761904762
1 0.64 0.4 0.041428571428571426 0.07904761904761905
1 0.6292857142857143 0.26476190476190475 0.03428571428571429 0.06285714285714286
1 0.6514285714285715 0.2038095238095238 0.032857142857142856 0.06380952380952382
1 0.6728571428571428 0.15428571428571428 0.027142857142857142 0.05619047619047619
1 0.69 0.09714285714285714 0.027857142857142858 0.05333333333333334
1 0.7085714285714285 0.04857142857142857 0.025714285714285714 0.04476190476190476
1 0.7371428571428571 0.0380952380952381 0.02857142857142857 0.047619047619047616
1 0.7221428571428572 0.012380952380952381 0.023571428571428573 0.024761904761904763
0 0.7464285714285714 0.0838095238095238 0.007142857142857143 0.02857142857142857
1 0.7764285714285715 0.1295238095238095 0.027857142857142858 0.04666666666666667
1 0.8485714285714285 0.024761904761904763 0.02214285714285714 0.03428571428571429
1 0.8385714285714285 0.07809523809523809 0.025714285714285714 0.04380952380952381
1 0.8207142857142857 0.1380952380952381 0.023571428571428573 0.05047619047619047
1 0.805 0.22095238095238096 0.027857142857142858 0.05142857142857143
1 0.7914285714285715 0.2857142857142857 0.03214285714285714 0.058095238095238096
1 0.7742857142857142 0.3780952380952381 0.039285714285714285 0.06666666666666667
1 0.7564285714285715 0.44285714285714284 0.03357142857142857 0.054285714285714284
1 0.7971428571428572 0.9161904761904762 0.08642857142857142 0.10952380952380952
1 0.7985714285714286 0.8180952380952381 0.09071428571428572 0.08285714285714285
1 0.8064285714285714 0.7571428571428571 0.09214285714285714 0.07047619047619047
0 0.8728571428571429 0.9561904761904761 0.009285714285714286 0.030476190476190476
0 0.8621428571428571 0.9542857142857143 0.007857142857142858 0.03142857142857143
1 0.8235714285714286 0.6904761904761905 0.08214285714285714 0.08571428571428572
1 0.8378571428571429 0.6361904761904762 0.08357142857142857 0.09333333333333334
1 0.8407142857142857 0.5866666666666667 0.07785714285714286 0.08190476190476191
1 0.8614285714285714 0.5542857142857143 0.06928571428571428 0.08476190476190476
1 0.8607142857142858 0.4980952380952381 0.07142857142857142 0.07428571428571429
1 0.8771428571428571 0.45904761904761904 0.07428571428571429 0.07523809523809524
1 0.8757142857142857 0.3933333333333333 0.07928571428571428 0.07904761904761905
1 0.8835714285714286 0.35333333333333333 0.07 0.058095238095238096
1 0.8885714285714286 0.3142857142857143 0.062142857142857146 0.05904761904761905
1 0.8878571428571429 0.2761904761904762 0.05857142857142857 0.05523809523809524
0 0.8407142857142857 0.35523809523809524 0.005714285714285714 0.01619047619047619
1 0.8964285714285715 0.2419047619047619 0.05357142857142857 0.05047619047619047
1 0.8985714285714286 0.20761904761904762 0.05285714285714286 0.040952380952380955
1 0.9035714285714286 0.1819047619047619 0.04285714285714286 0.040952380952380955
1 0.9057142857142857 0.16 0.04 0.040952380952380955
1 0.9142857142857143 0.054285714285714284 0.022857142857142857 0.022857142857142857
1 0.9078571428571428 0.07904761904761905 0.037142857142857144 0.02857142857142857
1 0.91 0.10285714285714286 0.03 0.022857142857142857
1 0.9092857142857143 0.12761904761904763 0.030714285714285715 0.02666666666666667
1 0.9107142857142857 0.022857142857142857 0.027857142857142858 0.029523809523809525
