1 0.013571428571428571 0.11333333333333333 0.027857142857142858 0.04
0 0.05 0.12285714285714286 0.007857142857142858 0.008571428571428572
0 0.045714285714285714 0.14 0.009285714285714286 0.010476190476190476
1 0.08 0.1676190476190476 0.012857142857142857 0.006666666666666667
1 0.08357142857142857 0.2914285714285714 0.013571428571428571 0.011428571428571429
1 0.062142857142857146 0.24666666666666667 0.035 0.02095238095238095
1 0.14785714285714285 0.24285714285714285 0.027857142857142858 0.01904761904761905
1 0.054285714285714284 0.3495238095238095 0.03428571428571429 0.018095238095238095
0 0.07785714285714286 0.39714285714285713 0.007142857142857143 0.004761904761904762
0 0.06428571428571428 0.38857142857142857 0.007142857142857143 0.004761904761904762
1 0.13 0.43523809523809526 0.032857142857142856 0.021904761904761906
1 0.04928571428571429 0.4219047619047619 0.03571428571428571 0.02
1 0.047857142857142855 0.46 0.03142857142857143 0.01904761904761905
1 0.12357142857142857 0.4857142857142857 0.032857142857142856 0.01904761904761905
1 0.04214285714285714 0.5085714285714286 0.03428571428571429 0.02
1 0.4442857142857143 0.01904761904761905 0.029285714285714286 0.021904761904761906
1 0.43642857142857144 0.13238095238095238 0.03 0.02
1 0.4328571428571429 0.17142857142857143 0.03214285714285714 0.01904761904761905
1 0.5107142857142857 0.1457142857142857 0.030714285714285715 0.02095238095238095
1 0.43642857142857144 0.10666666666666667 0.030714285714285715 0.024761904761904763
1 0.56 0.10095238095238095 0.04214285714285714 0.03142857142857143
0 0.4857142857142857 0.23333333333333334 0.005 0.006666666666666667
1 0.5 0.2876190476190476 0.04214285714285714 0.02857142857142857
1 0.35928571428571426 0.26571428571428574 0.007857142857142858 0.01619047619047619
0 0.365 0.26095238095238094 0.0064285714285714285 0.007619047619047619
1 0.4157142857142857 0.3047619047619048 0.025714285714285714 0.02
1 0.4142857142857143 0.32761904761904764 0.02642857142857143 0.018095238095238095
1 0.48928571428571427 0.4076190476190476 0.03642857142857143 0.02
1 0.4042857142857143 0.4419047619047619 0.03142857142857143 0.01904761904761905
1 0.48714285714285716 0.42952380952380953 0.02857142857142857 0.018095238095238095
1 0.48428571428571426 0.4542857142857143 0.032857142857142856 0.02095238095238095
1 0.4007142857142857 0.5057142857142857 0.03214285714285714 0.01904761904761905
1 0.41285714285714287 0.3495238095238095 0.030714285714285715 0.02
1 0.4107142857142857 0.37238095238095237 0.03214285714285714 0.02095238095238095
1 0.41 0.39714285714285713 0.03142857142857143 0.02
1 0.4064285714285714 0.41904761904761906 0.025 0.018095238095238095
1 0.49714285714285716 0.33714285714285713 0.03142857142857143 0.02095238095238095
1 0.48 0.49238095238095236 0.03142857142857143 0.02
1 0.4007142857142857 0.48095238095238096 0.027142857142857142 0.017142857142857144
1 0.7435714285714285 0.035238095238095235 0.015 0.0419047619047619
1 0.8357142857142857 0.2 0.005 0.018095238095238095
0 0.8364285714285714 0.19904761904761906 0.005714285714285714 0.007619047619047619
0 0.8228571428571428 0.4266666666666667 0.0064285714285714285 0.006666666666666667
1 0.7707142857142857 0.46476190476190476 0.016428571428571428 0.040952380952380955
1 0.69 0.3142857142857143 0.015714285714285715 0.04285714285714286
1 0.7392857142857143 0.3504761904761905 0.016428571428571428 0.037142857142857144
1 0.7035714285714286 0.5457142857142857 0.016428571428571428 0.0380952380952381
1 0.6514285714285715 0.7295238095238096 0.013571428571428571 0.040952380952380955
1 0.685 0.7752380952380953 0.015714285714285715 0.04285714285714286
1 0.645 0.7904761904761904 0.014285714285714285 0.040952380952380955
1 0.7771428571428571 0.8723809523809524 0.015 0.040952380952380955
1 0.6407142857142857 0.8790476190476191 0.013571428571428571 0.04
1 0.6328571428571429 0.9371428571428572 0.012857142857142857 0.0380952380952381
1 0.6285714285714286 0.98 0.01 0.0380952380952381
1 0.67 0.9847619047619047 0.013571428571428571 0.02761904761904762
1 0.7364285714285714 0.9895238095238095 0.017142857142857144 0.018095238095238095
1 0.4107142857142857 0.9647619047619047 0.01 0.03333333333333333
0 0.5214285714285715 0.9733333333333334 0.0035714285714285713 0.007619047619047619
0 0.5185714285714286 0.9666666666666667 0.0035714285714285713 0.007619047619047619
0 0.515 0.9447619047619048 0.005 0.008571428571428572
0 0.5128571428571429 0.9352380952380952 0.0035714285714285713 0.008571428571428572
1 0.4421428571428571 0.9371428571428572 0.04357142857142857 0.030476190476190476
1 0.5442857142857143 0.8704761904761905 0.017142857142857144 0.06380952380952382
1 0.5028571428571429 0.840952380952381 0.018571428571428572 0.05714285714285714
1 0.45285714285714285 0.8380952380952381 0.04071428571428572 0.030476190476190476
1 0.4 0.84 0.004285714285714286 0.009523809523809525
1 0.35714285714285715 0.9057142857142857 0.027142857142857142 0.01904761904761905
1 0.5457142857142857 0.7952380952380952 0.02 0.04666666666666667
1 0.3757142857142857 0.8 0.023571428571428573 0.017142857142857144
1 0.3807142857142857 0.7295238095238096 0.03428571428571429 0.021904761904761906
1 0.46285714285714286 0.7161904761904762 0.02857142857142857 0.018095238095238095
1 0.38357142857142856 0.6838095238095238 0.029285714285714286 0.01904761904761905
1 0.45714285714285713 0.7847619047619048 0.02857142857142857 0.018095238095238095
1 0.4785714285714286 0.5152380952380953 0.03214285714285714 0.02
1 0.47785714285714287 0.5619047619047619 0.03214285714285714 0.018095238095238095
1 0.47285714285714286 0.5885714285714285 0.02642857142857143 0.01904761904761905
1 0.4692857142857143 0.6314285714285715 0.032857142857142856 0.02095238095238095
1 0.465 0.6933333333333334 0.029285714285714286 0.018095238095238095
1 0.5207142857142857 0.5447619047619048 0.029285714285714286 0.02095238095238095
1 0.3921428571428571 0.6457142857142857 0.035 0.022857142857142857
1 0.39285714285714285 0.5980952380952381 0.03142857142857143 0.017142857142857144
1 0.5207142857142857 0.5923809523809523 0.03142857142857143 0.02
1 0.5228571428571429 0.4228571428571429 0.0035714285714285713 0.014285714285714285
0 0.5571428571428572 0.3819047619047619 0.005 0.006666666666666667
0 0.3385714285714286 0.6123809523809524 0.005 0.006666666666666667
