1 0.3514285714285714 0.11619047619047619 0.014285714285714285 0.04857142857142857
0 0.3492857142857143 0.10571428571428572 0.012142857142857143 0.01904761904761905
1 0.4757142857142857 0.02 0.03142857142857143 0.040952380952380955
0 0.5285714285714286 0.17714285714285713 0.013571428571428571 0.03333333333333333
1 0.6335714285714286 0.1895238095238095 0.06928571428571428 0.05333333333333334
1 0.6264285714285714 0.09238095238095238 0.07857142857142857 0.05333333333333334
1 0.6178571428571429 0.04666666666666667 0.07785714285714286 0.05333333333333334
0 0.5478571428571428 0.3047619047619048 0.012857142857142857 0.03142857142857143
1 0.4764285714285714 0.32571428571428573 0.04071428571428572 0.10476190476190476
1 0.42857142857142855 0.3838095238095238 0.03428571428571429 0.10476190476190476
1 0.30357142857142855 0.20761904761904762 0.04 0.10761904761904761
1 0.3271428571428571 0.4238095238095238 0.025 0.045714285714285714
0 0.32571428571428573 0.3980952380952381 0.014285714285714285 0.021904761904761906
1 0.29 0.46476190476190476 0.03642857142857143 0.11238095238095239
1 0.37357142857142855 0.5323809523809524 0.03857142857142857 0.1219047619047619
1 0.28214285714285714 0.6076190476190476 0.041428571428571426 0.12380952380952381
1 0.2735714285714286 0.9295238095238095 0.04857142857142857 0.1361904761904762
1 0.665 0.30095238095238097 0.013571428571428571 0.039047619047619046
0 0.6814285714285714 0.3047619047619048 0.012857142857142857 0.018095238095238095
1 0.6585714285714286 0.46 0.032857142857142856 0.03238095238095238
1 0.6564285714285715 0.4895238095238095 0.03357142857142857 0.02666666666666667
1 0.65 0.5933333333333334 0.09571428571428571 0.05904761904761905
0 0.5842857142857143 0.7895238095238095 0.017142857142857144 0.029523809523809525
1 0.6735714285714286 0.800952380952381 0.09714285714285714 0.05333333333333334
1 0.5307142857142857 0.8761904761904762 0.047142857142857146 0.14095238095238094
1 0.48857142857142855 0.9685714285714285 0.04357142857142857 0.06285714285714286
1 0.38285714285714284 0.9638095238095238 0.04357142857142857 0.06476190476190476
