1 0.09214285714285714 0.5542857142857143 0.055714285714285716 0.030476190476190476
1 0.30214285714285716 0.539047619047619 0.054285714285714284 0.03142857142857143
1 0.7664285714285715 0.4838095238095238 0.055 0.030476190476190476
1 0.8392857142857143 0.49047619047619045 0.055 0.03238095238095238
1 0.9214285714285714 0.4895238095238095 0.05928571428571429 0.02857142857142857
1 0.4692857142857143 0.20285714285714285 0.024285714285714285 0.06380952380952382
1 0.43142857142857144 0.20476190476190476 0.011428571428571429 0.03619047619047619
1 0.44 0.3933333333333333 0.009285714285714286 0.035238095238095235
1 0.4064285714285714 0.46 0.024285714285714285 0.015238095238095238
1 0.5442857142857143 0.5933333333333334 0.009285714285714286 0.029523809523809525
1 0.6 0.5361904761904762 0.022857142857142857 0.01619047619047619
1 0.61 0.559047619047619 0.024285714285714285 0.015238095238095238
1 0.9764285714285714 0.5523809523809524 0.02857142857142857 0.015238095238095238
1 0.8478571428571429 0.4542857142857143 0.027857142857142858 0.01619047619047619
1 0.7292857142857143 0.5342857142857143 0.023571428571428573 0.013333333333333334
1 0.7414285714285714 0.45904761904761904 0.025714285714285714 0.015238095238095238
1 0.5185714285714286 0.800952380952381 0.01 0.035238095238095235
1 0.48642857142857143 0.8495238095238096 0.012857142857142857 0.030476190476190476
1 0.4007142857142857 0.6447619047619048 0.011428571428571429 0.030476190476190476
1 0.41714285714285715 0.5704761904761905 0.017857142857142856 0.01619047619047619
1 0.44857142857142857 0.7885714285714286 0.025714285714285714 0.07047619047619047
1 0.43785714285714283 0.878095238095238 0.023571428571428573 0.06761904761904762
1 0.5121428571428571 0.7209523809523809 0.025714285714285714 0.07333333333333333
1 0.5492857142857143 0.7847619047619048 0.02214285714285714 0.06857142857142857
1 0.5485714285714286 0.94 0.03214285714285714 0.12
1 0.5035714285714286 0.5219047619047619 0.02214285714285714 0.06
1 0.6428571428571429 0.4780952380952381 0.017857142857142856 0.011428571428571429
1 0.6885714285714286 0.4552380952380952 0.02214285714285714 0.013333333333333334
1 0.5321428571428571 0.7790476190476191 0.0064285714285714285 0.02666666666666667
0 0.045714285714285714 0.5657142857142857 0.02142857142857143 0.013333333333333334
0 0.44642857142857145 0.5657142857142857 0.007142857142857143 0.011428571428571429
0 0.4514285714285714 0.5695238095238095 0.005714285714285714 0.011428571428571429
0 0.45714285714285713 0.5676190476190476 0.005714285714285714 0.013333333333333334
0 0.41928571428571426 0.4438095238095238 0.008571428571428572 0.008571428571428572
0 0.4085714285714286 0.4438095238095238 0.0064285714285714285 0.008571428571428572
0 0.5064285714285715 0.3914285714285714 0.0064285714285714285 0.011428571428571429
0 0.9342857142857143 0.3057142857142857 0.015714285714285715 0.013333333333333334
0 0.45357142857142857 0.8266666666666667 0.008571428571428572 0.014285714285714285
1 0.4342857142857143 0.679047619047619 0.016428571428571428 0.03333333333333333
0 0.5185714285714286 0.8019047619047619 0.007857142857142858 0.01619047619047619
0 0.5328571428571428 0.780952380952381 0.005714285714285714 0.011428571428571429
0 0.4307142857142857 0.679047619047619 0.007857142857142858 0.011428571428571429
0 0.4057142857142857 0.4580952380952381 0.009285714285714286 0.012380952380952381
0 0.6085714285714285 0.559047619047619 0.01 0.011428571428571429
0 0.6014285714285714 0.5361904761904762 0.012857142857142857 0.012380952380952381
0 0.6464285714285715 0.4780952380952381 0.010714285714285714 0.009523809523809525
0 0.6928571428571428 0.4542857142857143 0.010714285714285714 0.012380952380952381
0 0.7442857142857143 0.4580952380952381 0.01 0.010476190476190476
0 0.9807142857142858 0.5514285714285714 0.011428571428571429 0.009523809523809525
0 0.41714285714285715 0.5714285714285714 0.0064285714285714285 0.008571428571428572
