1 0.2935714285714286 0.5393401015228426 0.11071428571428571 0.09263959390862944
1 0.45071428571428573 0.5114213197969543 0.045714285714285714 0.04187817258883249
0 0.4521428571428571 0.5139593908629442 0.02214285714285714 0.05964467005076142
0 0.4392857142857143 0.5101522842639594 0.015 0.04568527918781726
1 0.5507142857142857 0.5152284263959391 0.09785714285714285 0.07868020304568528
1 0.6942857142857143 0.5101522842639594 0.10428571428571429 0.08248730964467005
1 0.82 0.6357868020304569 0.12214285714285714 0.09771573604060914
1 0.8635714285714285 0.5215736040609137 0.11571428571428571 0.0850253807106599
