0 0.37 0.2704761904761905 0.011428571428571429 0.009523809523809525
1 0.29285714285714287 0.9304761904761905 0.04214285714285714 0.03333333333333333
0 0.5314285714285715 0.26 0.0035714285714285713 0.009523809523809525
0 0.5371428571428571 0.2561904761904762 0.004285714285714286 0.011428571428571429
0 0.5892857142857143 0.29333333333333333 0.008571428571428572 0.010476190476190476
0 0.5235714285714286 0.2180952380952381 0.005714285714285714 0.011428571428571429
0 0.8164285714285714 0.17238095238095238 0.005 0.011428571428571429
0 0.8078571428571428 0.18 0.007857142857142858 0.011428571428571429
0 0.8228571428571428 0.36857142857142855 0.007142857142857143 0.008571428571428572
0 0.9778571428571429 0.7161904761904762 0.008571428571428572 0.008571428571428572
1 0.9757142857142858 0.719047619047619 0.011428571428571429 0.02666666666666667
1 0.9228571428571428 0.699047619047619 0.020714285714285713 0.008571428571428572
1 0.9221428571428572 0.6857142857142857 0.022857142857142857 0.012380952380952381
1 0.92 0.6676190476190477 0.020714285714285713 0.013333333333333334
1 0.92 0.6466666666666666 0.02142857142857143 0.008571428571428572
1 0.9214285714285714 0.6361904761904762 0.020714285714285713 0.012380952380952381
0 0.925 0.6209523809523809 0.01 0.007619047619047619
1 0.9171428571428571 0.6142857142857143 0.020714285714285713 0.012380952380952381
