1 0.7605 0.954 0.148 0.092
1 0.671 0.8173333333333334 0.08 0.20533333333333334
1 0.5565 0.7226666666666667 0.1335 0.17
1 0.499 0.656 0.137 0.13666666666666666
1 0.4475 0.5966666666666667 0.12 0.138
1 0.388 0.5446666666666666 0.179 0.154
1 0.3255 0.4673333333333333 0.159 0.16533333333333333
1 0.262 0.4106666666666667 0.105 0.09933333333333333
1 0.221 0.3626666666666667 0.144 0.12466666666666666
1 0.2145 0.30933333333333335 0.0855 0.04933333333333333
1 0.1665 0.288 0.117 0.11333333333333333
1 0.1525 0.256 0.0885 0.056
1 0.1615 0.23266666666666666 0.0845 0.05
1 0.085 0.20133333333333334 0.0565 0.064
1 0.099 0.158 0.074 0.048666666666666664
1 0.0815 0.14533333333333334 0.0595 0.036
1 0.051 0.14066666666666666 0.066 0.036
1 0.0885 0.11466666666666667 0.0355 0.032
1 0.02 0.12066666666666667 0.0405 0.03266666666666666
1 0.0185 0.082 0.034 0.03333333333333333
1 0.0515 0.07533333333333334 0.032 0.03333333333333333
1 0.0165 0.046 0.033 0.024
1 0.058 0.051333333333333335 0.0325 0.03666666666666667
1 0.0105 0.023333333333333334 0.0215 0.034
1 0.049 0.024 0.031 0.024666666666666667
1 0.0405 0.008 0.0375 0.016666666666666666
1 0.6645 0.41333333333333333 0.088 0.088
1 0.584 0.36666666666666664 0.0465 0.07866666666666666
1 0.5415 0.3453333333333333 0.0495 0.062
1 0.4425 0.2713333333333333 0.0565 0.05333333333333334
1 0.4125 0.23533333333333334 0.0625 0.06733333333333333
1 0.464 0.23333333333333334 0.0195 0.028
1 0.9725 0.6233333333333333 0.0545 0.06066666666666667
1 0.6495 0.332 0.0185 0.03666666666666667
1 0.3665 0.196 0.054 0.08
1 0.3425 0.19066666666666668 0.0495 0.06133333333333333
1 0.302 0.17866666666666667 0.032 0.02266666666666667
1 0.3095 0.12533333333333332 0.009 0.024666666666666667
1 0.1955 0.086 0.0395 0.034
1 0.1545 0.050666666666666665 0.031 0.03333333333333333
1 0.1355 0.056666666666666664 0.0325 0.03666666666666667
1 0.126 0.042 0.037 0.02666666666666667
1 0.15 0.018 0.0155 0.018666666666666668
0 0.1495 0.012 0.009 0.02
1 0.1065 0.029333333333333333 0.034 0.035333333333333335
