0 0.475 0.1019047619047619 0.008571428571428572 0.023809523809523808
0 0.49785714285714283 0.2038095238095238 0.0064285714285714285 0.015238095238095238
0 0.5485714285714286 0.24761904761904763 0.0064285714285714285 0.01904761904761905
0 0.5064285714285715 0.29619047619047617 0.011428571428571429 0.018095238095238095
0 0.48857142857142855 0.2733333333333333 0.005714285714285714 0.018095238095238095
0 0.48428571428571426 0.20095238095238097 0.01 0.01619047619047619
0 0.4957142857142857 0.24285714285714285 0.0064285714285714285 0.009523809523809525
0 0.49 0.24095238095238095 0.010714285714285714 0.017142857142857144
0 0.455 0.38952380952380955 0.008571428571428572 0.02
0 0.415 0.47904761904761906 0.011428571428571429 0.012380952380952381
0 0.4035714285714286 0.4742857142857143 0.010714285714285714 0.01904761904761905
0 0.6185714285714285 0.5571428571428572 0.010714285714285714 0.014285714285714285
0 0.9264285714285714 0.5771428571428572 0.011428571428571429 0.015238095238095238
0 0.9557142857142857 0.5904761904761905 0.015 0.014285714285714285
0 0.9471428571428572 0.5761904761904761 0.017857142857142856 0.012380952380952381
0 0.46714285714285714 0.7428571428571429 0.008571428571428572 0.018095238095238095
0 0.4392857142857143 0.7085714285714285 0.007142857142857143 0.017142857142857144
0 0.4257142857142857 0.6409523809523809 0.010714285714285714 0.012380952380952381
1 0.5992857142857143 0.960952380952381 0.03785714285714286 0.07809523809523809
1 0.45357142857142857 0.9923809523809524 0.029285714285714286 0.014285714285714285
1 0.4542857142857143 0.9657142857142857 0.02857142857142857 0.012380952380952381
1 0.455 0.939047619047619 0.03214285714285714 0.017142857142857144
1 0.4492857142857143 0.8333333333333334 0.030714285714285715 0.015238095238095238
1 0.45071428571428573 0.8133333333333334 0.023571428571428573 0.012380952380952381
1 0.4421428571428571 0.7885714285714286 0.035 0.013333333333333334
1 0.46785714285714286 0.7409523809523809 0.011428571428571429 0.040952380952380955
1 0.4392857142857143 0.7095238095238096 0.027857142857142858 0.01619047619047619
1 0.6707142857142857 0.6914285714285714 0.016428571428571428 0.03428571428571429
1 0.8114285714285714 0.5333333333333333 0.009285714285714286 0.03428571428571429
1 0.8242857142857143 0.5314285714285715 0.01 0.035238095238095235
1 0.8364285714285714 0.5333333333333333 0.01 0.0380952380952381
1 0.8457142857142858 0.5266666666666666 0.015 0.03333333333333333
1 0.6014285714285714 0.49333333333333335 0.01 0.02857142857142857
1 0.5907142857142857 0.49142857142857144 0.012857142857142857 0.03238095238095238
1 0.42857142857142855 0.4580952380952381 0.02214285714285714 0.014285714285714285
1 0.425 0.43047619047619046 0.025 0.02
1 0.42857142857142855 0.37714285714285717 0.02142857142857143 0.012380952380952381
1 0.42714285714285716 0.3638095238095238 0.02142857142857143 0.009523809523809525
1 0.4235714285714286 0.3580952380952381 0.025714285714285714 0.013333333333333334
1 0.425 0.34095238095238095 0.025 0.015238095238095238
1 0.4228571428571429 0.32857142857142857 0.025 0.014285714285714285
1 0.4207142857142857 0.31523809523809526 0.023571428571428573 0.015238095238095238
1 0.42214285714285715 0.2885714285714286 0.025714285714285714 0.01619047619047619
1 0.41928571428571426 0.2742857142857143 0.02214285714285714 0.01619047619047619
1 0.41928571428571426 0.2638095238095238 0.025714285714285714 0.010476190476190476
1 0.41714285714285715 0.2542857142857143 0.020714285714285713 0.009523809523809525
1 0.42 0.24666666666666667 0.024285714285714285 0.015238095238095238
1 0.41785714285714287 0.23047619047619047 0.02142857142857143 0.018095238095238095
1 0.4157142857142857 0.2180952380952381 0.022857142857142857 0.012380952380952381
1 0.4157142857142857 0.2057142857142857 0.02 0.013333333333333334
1 0.41714285714285715 0.19333333333333333 0.02 0.012380952380952381
1 0.4157142857142857 0.18571428571428572 0.020714285714285713 0.009523809523809525
1 0.415 0.17523809523809525 0.018571428571428572 0.01619047619047619
1 0.4135714285714286 0.1657142857142857 0.02 0.012380952380952381
1 0.4135714285714286 0.1523809523809524 0.024285714285714285 0.015238095238095238
1 0.41 0.13047619047619047 0.023571428571428573 0.021904761904761906
1 0.49214285714285716 0.24285714285714285 0.015 0.02666666666666667
1 0.49714285714285716 0.20666666666666667 0.007142857142857143 0.030476190476190476
1 0.4835714285714286 0.20476190476190476 0.011428571428571429 0.02857142857142857
1 0.49357142857142855 0.16952380952380952 0.012142857142857143 0.02857142857142857
1 0.5192857142857142 0.19714285714285715 0.025 0.01619047619047619
1 0.5171428571428571 0.18666666666666668 0.025 0.014285714285714285
1 0.5178571428571429 0.1742857142857143 0.02142857142857143 0.01619047619047619
1 0.515 0.16476190476190475 0.02 0.01904761904761905
1 0.5121428571428571 0.15333333333333332 0.018571428571428572 0.011428571428571429
1 0.5135714285714286 0.13904761904761906 0.016428571428571428 0.015238095238095238
1 0.38285714285714284 0.02 0.04214285714285714 0.04
1 0.5007142857142857 0.029523809523809525 0.025714285714285714 0.058095238095238096
1 0.5085714285714286 0.09428571428571429 0.02214285714285714 0.04476190476190476
1 0.5228571428571429 0.24571428571428572 0.029285714285714286 0.06952380952380953
1 0.5321428571428571 0.32666666666666666 0.02857142857142857 0.07523809523809524
1 0.5457142857142857 0.41904761904761906 0.03214285714285714 0.0761904761904762
0 0.5778571428571428 0.43238095238095237 0.008571428571428572 0.013333333333333334
1 0.6628571428571428 0.5476190476190477 0.07357142857142857 0.047619047619047616
1 0.7278571428571429 0.6771428571428572 0.06785714285714285 0.04380952380952381
1 0.8071428571428572 0.6742857142857143 0.065 0.037142857142857144
1 0.9757142857142858 0.5228571428571429 0.009285714285714286 0.022857142857142857
1 0.9192857142857143 0.5228571428571429 0.013571428571428571 0.03238095238095238
1 0.9528571428571428 0.5266666666666666 0.017142857142857144 0.035238095238095235
1 0.9692857142857143 0.5571428571428572 0.045714285714285714 0.02857142857142857
