0 0.2557142857142857 0.02284263959390863 0.007142857142857143 0.030456852791878174
0 0.2642857142857143 0.025380710659898477 0.008571428571428572 0.02918781725888325
0 0.2692857142857143 0.008883248730964468 0.007142857142857143 0.017766497461928935
0 0.2735714285714286 0.024111675126903553 0.007142857142857143 0.030456852791878174
0 0.28285714285714286 0.02918781725888325 0.0064285714285714285 0.021573604060913704
0 0.2892857142857143 0.01649746192893401 0.01 0.03299492385786802
0 0.2892857142857143 0.007614213197969543 0.007142857142857143 0.01649746192893401
0 0.3028571428571429 0.05710659898477157 0.0064285714285714285 0.024111675126903553
0 0.3171428571428571 0.21446700507614214 0.007857142857142858 0.02918781725888325
0 0.3092857142857143 0.19543147208121828 0.0064285714285714285 0.021573604060913704
0 0.31857142857142856 0.1916243654822335 0.007142857142857143 0.0266497461928934
0 0.32357142857142857 0.20939086294416243 0.004285714285714286 0.01903553299492386
0 0.31857142857142856 0.19289340101522842 0.007142857142857143 0.027918781725888325
0 0.3271428571428571 0.20304568527918782 0.005714285714285714 0.027918781725888325
0 0.365 0.23223350253807107 0.007142857142857143 0.024111675126903553
0 0.335 0.3210659898477157 0.009285714285714286 0.0266497461928934
0 0.38571428571428573 0.4149746192893401 0.005714285714285714 0.0266497461928934
0 0.4407142857142857 0.5977157360406091 0.007857142857142858 0.02284263959390863
0 0.44142857142857145 0.6116751269035533 0.0064285714285714285 0.02030456852791878
0 0.415 0.6928934010152284 0.007857142857142858 0.01903553299492386
0 0.39285714285714285 0.6916243654822335 0.007142857142857143 0.021573604060913704
0 0.38642857142857145 0.6954314720812182 0.005 0.015228426395939087
0 0.38357142857142856 0.7157360406091371 0.007857142857142858 0.01649746192893401
0 0.3692857142857143 0.7436548223350253 0.007857142857142858 0.013959390862944163
0 0.4135714285714286 0.7474619289340102 0.01 0.021573604060913704
0 0.3414285714285714 0.7715736040609137 0.01 0.01903553299492386
0 0.11142857142857143 0.8705583756345178 0.019285714285714285 0.015228426395939087
0 0.03857142857142857 0.9263959390862944 0.018571428571428572 0.025380710659898477
1 0.15285714285714286 0.9682741116751269 0.08 0.06091370558375635
1 0.29285714285714287 0.9606598984771574 0.07571428571428572 0.07614213197969544
1 0.25857142857142856 0.9086294416243654 0.07214285714285715 0.08121827411167512
0 0.9892857142857143 0.9860406091370558 0.019285714285714285 0.017766497461928935
1 0.9857142857142858 0.7804568527918782 0.027857142857142858 0.06979695431472081
1 0.9671428571428572 0.7017766497461929 0.065 0.0799492385786802
0 0.745 0.5355329949238579 0.010714285714285714 0.03299492385786802
0 0.7421428571428571 0.5063451776649747 0.007142857142857143 0.02030456852791878
0 0.7457142857142857 0.5203045685279187 0.009285714285714286 0.0266497461928934
0 0.7535714285714286 0.5025380710659898 0.012857142857142857 0.02030456852791878
0 0.7721428571428571 0.5266497461928934 0.009285714285714286 0.02030456852791878
0 0.7778571428571428 0.5215736040609137 0.010714285714285714 0.02030456852791878
0 0.7914285714285715 0.5241116751269036 0.011428571428571429 0.02284263959390863
0 0.7307142857142858 0.4631979695431472 0.009285714285714286 0.024111675126903553
0 0.6671428571428571 0.3083756345177665 0.0064285714285714285 0.024111675126903553
0 0.6835714285714286 0.35786802030456855 0.007142857142857143 0.027918781725888325
0 0.7135714285714285 0.42258883248730966 0.010714285714285714 0.02284263959390863
0 0.7471428571428571 0.4302030456852792 0.007857142857142858 0.021573604060913704
0 0.7378571428571429 0.4543147208121827 0.009285714285714286 0.017766497461928935
0 0.745 0.47081218274111675 0.005 0.012690355329949238
0 0.7792857142857142 0.4581218274111675 0.012857142857142857 0.02284263959390863
0 0.7828571428571428 0.501269035532995 0.012857142857142857 0.02284263959390863
0 0.79 0.48096446700507617 0.011428571428571429 0.02030456852791878
0 0.8014285714285714 0.47588832487309646 0.014285714285714285 0.021573604060913704
0 0.7971428571428572 0.5050761421319797 0.012142857142857143 0.024111675126903553
1 0.485 0.4873096446700508 0.037142857142857144 0.09644670050761421
1 0.5371428571428571 0.49619289340101524 0.03857142857142857 0.09517766497461928
