1 0.243 0.926 0.0645 0.148
1 0.2355 0.616 0.0685 0.09133333333333334
1 0.8095 0.89 0.1025 0.18
1 0.7295 0.676 0.073 0.122
1 0.669 0.5626666666666666 0.054 0.08266666666666667
0 0.75 0.6733333333333333 0.0155 0.048
1 0.782 0.5606666666666666 0.074 0.068
1 0.8985 0.3273333333333333 0.037 0.04066666666666666
1 0.7915 0.2966666666666667 0.0305 0.04666666666666667
1 0.748 0.2813333333333333 0.033 0.04533333333333334
1 0.8855 0.402 0.0395 0.068
1 0.86 0.462 0.048 0.07333333333333333
1 0.796 0.21133333333333335 0.0445 0.03333333333333333
1 0.7345 0.17666666666666667 0.048 0.032
1 0.664 0.14933333333333335 0.0435 0.026
1 0.5825 0.16933333333333334 0.046 0.024
1 0.6035 0.13133333333333333 0.034 0.024666666666666667
1 0.579 0.114 0.024 0.025333333333333333
1 0.568 0.07266666666666667 0.017 0.023333333333333334
1 0.5675 0.04666666666666667 0.014 0.017333333333333333
1 0.567 0.027333333333333334 0.013 0.018666666666666668
1 0.418 0.064 0.0165 0.020666666666666667
1 0.409 0.09733333333333333 0.021 0.026
1 0.392 0.11266666666666666 0.0245 0.02666666666666667
1 0.357 0.12933333333333333 0.0405 0.028
1 0.3165 0.142 0.036 0.03
1 0.297 0.17933333333333334 0.0445 0.03933333333333333
1 0.2315 0.168 0.042 0.04133333333333333
1 0.189 0.19133333333333333 0.046 0.035333333333333335
1 0.2765 0.12866666666666668 0.0065 0.013333333333333334
1 0.4085 0.074 0.0115 0.014666666666666666
1 0.4025 0.08 0.0125 0.012
1 0.235 0.6166666666666667 0.0675 0.094
1 0.1865 0.4766666666666667 0.017 0.027333333333333334
0 0.1855 0.4713333333333333 0.0155 0.027333333333333334
1 0.015 0.286 0.013 0.02266666666666667
1 0.0875 0.216 0.017 0.018
1 0.079 0.21666666666666667 0.0145 0.016666666666666666
0 0.126 0.18466666666666667 0.008 0.022
1 0.547 0.025333333333333333 0.009 0.016
0 0.5485 0.022 0.0055 0.012666666666666666
