1 0.33285714285714285 0.6285714285714286 0.04285714285714286 0.10761904761904761
1 0.265 0.6685714285714286 0.047142857142857146 0.11047619047619048
1 0.1357142857142857 0.6952380952380952 0.05928571428571429 0.11238095238095239
1 0.17285714285714285 0.5123809523809524 0.04071428571428572 0.07333333333333333
1 0.6564285714285715 0.5476190476190477 0.05357142857142857 0.07238095238095238
1 0.7042857142857143 0.5542857142857143 0.055 0.08
1 0.7764285714285715 0.5723809523809524 0.065 0.09047619047619047
1 0.8664285714285714 0.5638095238095238 0.047857142857142855 0.0761904761904762
1 0.945 0.6304761904761905 0.06928571428571428 0.08952380952380952
1 0.6642857142857143 0.48095238095238096 0.05 0.06285714285714286
1 0.5957142857142858 0.4580952380952381 0.060714285714285714 0.05238095238095238
1 0.585 0.4114285714285714 0.04214285714285714 0.05047619047619047
1 0.48857142857142855 0.35714285714285715 0.03 0.04476190476190476
1 0.3192857142857143 0.4695238095238095 0.03357142857142857 0.07142857142857142
1 0.32142857142857145 0.4076190476190476 0.02857142857142857 0.06
1 0.47714285714285715 0.22 0.02214285714285714 0.030476190476190476
1 0.45357142857142857 0.17714285714285713 0.018571428571428572 0.02761904761904762
1 0.4307142857142857 0.10761904761904761 0.015 0.017142857142857144
1 0.9092857142857143 0.9152380952380952 0.115 0.15904761904761905
1 0.3357142857142857 0.06666666666666667 0.012142857142857143 0.01619047619047619
1 0.33214285714285713 0.01904761904761905 0.01 0.012380952380952381
1 0.28285714285714286 0.013333333333333334 0.007142857142857143 0.011428571428571429
1 0.2842857142857143 0.006666666666666667 0.007857142857142858 0.011428571428571429
1 0.28285714285714286 0.01904761904761905 0.008571428571428572 0.010476190476190476
1 0.2792857142857143 0.02857142857142857 0.011428571428571429 0.012380952380952381
1 0.27785714285714286 0.03619047619047619 0.01 0.010476190476190476
1 0.275 0.040952380952380955 0.008571428571428572 0.012380952380952381
1 0.275 0.049523809523809526 0.01 0.013333333333333334
1 0.2735714285714286 0.05714285714285714 0.012142857142857143 0.014285714285714285
1 0.27 0.06571428571428571 0.011428571428571429 0.015238095238095238
1 0.26857142857142857 0.07333333333333333 0.01 0.015238095238095238
1 0.265 0.08 0.012142857142857143 0.015238095238095238
1 0.265 0.09047619047619047 0.012142857142857143 0.01619047619047619
1 0.26142857142857145 0.1019047619047619 0.013571428571428571 0.01904761904761905
1 0.25857142857142856 0.11523809523809524 0.014285714285714285 0.01904761904761905
1 0.25642857142857145 0.1295238095238095 0.015714285714285715 0.024761904761904763
1 0.24285714285714285 0.17047619047619048 0.020714285714285713 0.03333333333333333
1 0.25214285714285717 0.14476190476190476 0.015 0.018095238095238095
1 0.25 0.15904761904761905 0.017142857142857144 0.02666666666666667
1 0.24071428571428571 0.19047619047619047 0.018571428571428572 0.02666666666666667
1 0.23214285714285715 0.21619047619047618 0.022857142857142857 0.03619047619047619
1 0.2292857142857143 0.24857142857142858 0.02214285714285714 0.02666666666666667
1 0.21785714285714286 0.2723809523809524 0.023571428571428573 0.040952380952380955
1 0.21357142857142858 0.30857142857142855 0.027142857142857142 0.03333333333333333
1 0.2057142857142857 0.34476190476190477 0.03142857142857143 0.05238095238095238
1 0.19785714285714287 0.3980952380952381 0.032857142857142856 0.045714285714285714
1 0.18357142857142858 0.44666666666666666 0.035 0.06285714285714286
1 0.14642857142857144 0.5952380952380952 0.052142857142857144 0.09238095238095238
1 0.32142857142857145 0.5495238095238095 0.03642857142857143 0.06095238095238095
1 0.2642857142857143 0.5742857142857143 0.07428571428571429 0.08571428571428572
1 0.2621428571428571 0.518095238095238 0.06428571428571428 0.06857142857142857
1 0.2592857142857143 0.4561904761904762 0.03428571428571429 0.06380952380952382
1 0.26785714285714285 0.36952380952380953 0.04214285714285714 0.05238095238095238
1 0.2757142857142857 0.32571428571428573 0.03 0.04666666666666667
1 0.325 0.36 0.027142857142857142 0.04476190476190476
1 0.3192857142857143 0.32285714285714284 0.025 0.04285714285714286
1 0.32 0.2780952380952381 0.027857142857142858 0.047619047619047616
1 0.32285714285714284 0.23809523809523808 0.024285714285714285 0.04857142857142857
1 0.3221428571428571 0.19714285714285715 0.019285714285714285 0.02857142857142857
1 0.32071428571428573 0.2180952380952381 0.018571428571428572 0.02666666666666667
1 0.31785714285714284 0.17904761904761904 0.016428571428571428 0.02666666666666667
1 0.3221428571428571 0.1580952380952381 0.015714285714285715 0.024761904761904763
1 0.3221428571428571 0.1438095238095238 0.015714285714285715 0.02095238095238095
1 0.32 0.1295238095238095 0.015 0.021904761904761906
1 0.32071428571428573 0.11619047619047619 0.011428571428571429 0.01904761904761905
1 0.32142857142857145 0.10476190476190476 0.013571428571428571 0.018095238095238095
1 0.3221428571428571 0.09333333333333334 0.011428571428571429 0.02095238095238095
1 0.32 0.08476190476190476 0.011428571428571429 0.017142857142857144
1 0.32142857142857145 0.07333333333333333 0.011428571428571429 0.015238095238095238
1 0.32 0.06571428571428571 0.010714285714285714 0.015238095238095238
1 0.32 0.06 0.010714285714285714 0.015238095238095238
1 0.31857142857142856 0.049523809523809526 0.01 0.01619047619047619
0 0.28714285714285714 0.03333333333333333 0.004285714285714286 0.013333333333333334
0 0.2892857142857143 0.03428571428571429 0.004285714285714286 0.013333333333333334
0 0.2735714285714286 0.11333333333333333 0.005714285714285714 0.01619047619047619
0 0.2714285714285714 0.14285714285714285 0.005714285714285714 0.017142857142857144
0 0.36714285714285716 0.32857142857142857 0.009285714285714286 0.029523809523809525
0 0.3578571428571429 0.36095238095238097 0.011428571428571429 0.03142857142857143
0 0.345 0.36095238095238097 0.009285714285714286 0.030476190476190476
0 0.4592857142857143 0.20857142857142857 0.0064285714285714285 0.023809523809523808
0 0.45 0.18476190476190477 0.005714285714285714 0.01904761904761905
0 0.4692857142857143 0.19523809523809524 0.005 0.017142857142857144
0 0.475 0.19333333333333333 0.0064285714285714285 0.02
0 0.46714285714285714 0.17333333333333334 0.005 0.017142857142857144
1 0.4521428571428571 0.1619047619047619 0.017857142857142856 0.02
1 0.445 0.14666666666666667 0.017857142857142856 0.024761904761904763
1 0.5007142857142857 0.17714285714285713 0.05142857142857143 0.040952380952380955
1 0.5242857142857142 0.2219047619047619 0.060714285714285714 0.05142857142857143
0 0.51 0.12857142857142856 0.005 0.018095238095238095
0 0.5164285714285715 0.13142857142857142 0.005714285714285714 0.018095238095238095
0 0.5585714285714286 0.12666666666666668 0.004285714285714286 0.018095238095238095
0 0.48642857142857143 0.08571428571428572 0.004285714285714286 0.014285714285714285
0 0.6414285714285715 0.1980952380952381 0.0064285714285714285 0.021904761904761906
1 0.4828571428571429 0.06571428571428571 0.012142857142857143 0.01619047619047619
1 0.47785714285714287 0.058095238095238096 0.011428571428571429 0.014285714285714285
1 0.4707142857142857 0.05142857142857143 0.010714285714285714 0.013333333333333334
1 0.4657142857142857 0.04285714285714286 0.009285714285714286 0.017142857142857144
1 0.4592857142857143 0.06666666666666667 0.009285714285714286 0.018095238095238095
1 0.4442857142857143 0.08476190476190476 0.012142857142857143 0.014285714285714285
1 0.4492857142857143 0.09523809523809523 0.012142857142857143 0.014285714285714285
1 0.43857142857142856 0.07714285714285714 0.012857142857142857 0.014285714285714285
1 0.44857142857142857 0.06095238095238095 0.014285714285714285 0.017142857142857144
1 0.4407142857142857 0.049523809523809526 0.012857142857142857 0.014285714285714285
1 0.4357142857142857 0.06857142857142857 0.012142857142857143 0.013333333333333334
1 0.43142857142857144 0.06095238095238095 0.010714285714285714 0.013333333333333334
1 0.42642857142857143 0.05333333333333334 0.011428571428571429 0.015238095238095238
1 0.4235714285714286 0.047619047619047616 0.01 0.013333333333333334
1 0.41928571428571426 0.04 0.008571428571428572 0.012380952380952381
1 0.4157142857142857 0.035238095238095235 0.010714285714285714 0.013333333333333334
1 0.41214285714285714 0.02857142857142857 0.01 0.011428571428571429
1 0.4342857142857143 0.03619047619047619 0.012857142857142857 0.02
0 0.3942857142857143 0.023809523809523808 0.0035714285714285713 0.013333333333333334
1 0.5178571428571429 0.13428571428571429 0.007857142857142858 0.013333333333333334
0 0.5978571428571429 0.27714285714285714 0.007857142857142858 0.02666666666666667
1 0.5864285714285714 0.2761904761904762 0.018571428571428572 0.018095238095238095
1 0.5914285714285714 0.2885714285714286 0.018571428571428572 0.013333333333333334
1 0.5942857142857143 0.29714285714285715 0.024285714285714285 0.015238095238095238
1 0.5992857142857143 0.29904761904761906 0.022857142857142857 0.011428571428571429
1 0.6021428571428571 0.30857142857142855 0.02142857142857143 0.02095238095238095
1 0.61 0.2780952380952381 0.018571428571428572 0.018095238095238095
1 0.5607142857142857 0.2980952380952381 0.027857142857142858 0.04
1 0.5942857142857143 0.3628571428571429 0.054285714285714284 0.04476190476190476
1 0.5878571428571429 0.32095238095238093 0.04428571428571428 0.06
1 0.6285714285714286 0.4085714285714286 0.05285714285714286 0.06857142857142857
1 0.815 0.5638095238095238 0.05928571428571429 0.09142857142857143
1 0.7664285714285715 0.8685714285714285 0.08714285714285715 0.13238095238095238
1 0.9514285714285714 0.8628571428571429 0.095 0.15047619047619049
1 0.43142857142857144 0.7980952380952381 0.019285714285714285 0.05333333333333334
0 0.42928571428571427 0.7923809523809524 0.019285714285714285 0.04380952380952381
