1 0.8195 0.9346666666666666 0.101 0.13
1 0.745 0.7793333333333333 0.0715 0.126
1 0.694 0.6606666666666666 0.063 0.10266666666666667
1 0.5515 0.632 0.044 0.08933333333333333
1 0.6335 0.5126666666666667 0.045 0.05333333333333334
1 0.515 0.428 0.026 0.046
1 0.5545 0.32266666666666666 0.0205 0.02666666666666667
1 0.4605 0.20333333333333334 0.0085 0.011333333333333334
1 0.4795 0.16266666666666665 0.0135 0.008
1 0.39 0.164 0.011 0.008666666666666666
1 0.0395 0.274 0.0375 0.018
1 0.0445 0.266 0.036 0.014666666666666666
1 0.0425 0.25933333333333336 0.04 0.014666666666666666
1 0.0405 0.25666666666666665 0.036 0.013333333333333334
1 0.033 0.25466666666666665 0.03 0.016
1 0.03 0.252 0.0265 0.015333333333333332
1 0.027 0.24933333333333332 0.031 0.017333333333333333
1 0.0195 0.24866666666666667 0.0275 0.015333333333333332
1 0.015 0.24666666666666667 0.03 0.013333333333333334
1 0.012 0.23866666666666667 0.0245 0.014
1 0.012 0.23466666666666666 0.0245 0.015333333333333332
1 0.0125 0.22733333333333333 0.025 0.013333333333333334
1 0.0075 0.21333333333333335 0.0155 0.013333333333333334
1 0.022 0.20733333333333334 0.0255 0.013333333333333334
1 0.072 0.23266666666666666 0.025 0.014
1 0.0885 0.23333333333333334 0.0245 0.012666666666666666
1 0.095 0.23733333333333334 0.0295 0.017333333333333333
0 0.085 0.2693333333333333 0.007 0.014666666666666666
0 0.0835 0.26666666666666666 0.0065 0.016
0 0.099 0.2613333333333333 0.0065 0.016666666666666666
0 0.0845 0.25133333333333335 0.0055 0.015333333333333332
0 0.1 0.24333333333333335 0.0055 0.014666666666666666
0 0.107 0.24333333333333335 0.0055 0.014
0 0.1095 0.24066666666666667 0.0045 0.012
0 0.2065 0.4593333333333333 0.0105 0.028
1 0.148 0.16133333333333333 0.0165 0.006666666666666667
1 0.172 0.15933333333333333 0.0165 0.007333333333333333
1 0.1775 0.152 0.016 0.007333333333333333
1 0.1855 0.152 0.0155 0.009333333333333334
1 0.192 0.15066666666666667 0.0165 0.006666666666666667
0 0.228 0.158 0.003 0.007333333333333333
0 0.223 0.15933333333333333 0.003 0.007333333333333333
1 0.3305 0.15733333333333333 0.007 0.007333333333333333
1 0.3635 0.152 0.0145 0.012
1 0.386 0.15333333333333332 0.009 0.007333333333333333
1 0.406 0.16133333333333333 0.023 0.014
1 0.4505 0.16666666666666666 0.033 0.02
1 0.4585 0.15733333333333333 0.0145 0.013333333333333334
1 0.532 0.18333333333333332 0.0165 0.012
1 0.531 0.18133333333333335 0.0165 0.013333333333333334
1 0.525 0.16066666666666668 0.011 0.008666666666666666
1 0.5175 0.144 0.0105 0.007333333333333333
1 0.5055 0.19666666666666666 0.009 0.016666666666666666
1 0.4945 0.22266666666666668 0.01 0.018666666666666668
1 0.4815 0.24133333333333334 0.0125 0.020666666666666667
1 0.5415 0.2946666666666667 0.0205 0.028666666666666667
1 0.502 0.3486666666666667 0.0255 0.04133333333333333
1 0.576 0.37133333333333335 0.023 0.04066666666666666
1 0.6105 0.4513333333333333 0.055 0.06533333333333333
1 0.522 0.5486666666666666 0.013 0.04
1 0.4925 0.316 0.0145 0.012666666666666666
1 0.4885 0.308 0.013 0.014666666666666666
1 0.4775 0.322 0.0135 0.012
1 0.4725 0.31533333333333335 0.0065 0.014666666666666666
1 0.489 0.29533333333333334 0.0165 0.021333333333333333
1 0.5635 0.35 0.0225 0.029333333333333333
1 0.538 0.2806666666666667 0.0135 0.015333333333333332
1 0.533 0.27 0.015 0.017333333333333333
1 0.5255 0.25733333333333336 0.0145 0.018666666666666668
1 0.523 0.24533333333333332 0.0125 0.014666666666666666
1 0.5175 0.236 0.0125 0.013333333333333334
1 0.478 0.23266666666666666 0.014 0.015333333333333332
1 0.471 0.22466666666666665 0.024 0.015333333333333332
1 0.4635 0.21933333333333332 0.009 0.012666666666666666
1 0.4765 0.21933333333333332 0.0095 0.012
1 0.5175 0.21266666666666667 0.0215 0.012
1 0.507 0.20666666666666667 0.0105 0.012666666666666666
1 0.472 0.19733333333333333 0.0085 0.010666666666666666
1 0.4995 0.18933333333333333 0.009 0.010666666666666666
1 0.4415 0.19333333333333333 0.0175 0.009333333333333334
1 0.4975 0.18333333333333332 0.009 0.009333333333333334
1 0.4955 0.17933333333333334 0.009 0.01
1 0.4935 0.17333333333333334 0.0075 0.008666666666666666
1 0.4695 0.19133333333333333 0.0085 0.009333333333333334
1 0.4695 0.186 0.008 0.008
1 0.4685 0.17933333333333334 0.008 0.009333333333333334
1 0.511 0.16533333333333333 0.012 0.008666666666666666
1 0.5035 0.164 0.0125 0.008
1 0.4705 0.15666666666666668 0.0105 0.006666666666666667
1 0.529 0.14333333333333334 0.0115 0.007333333333333333
1 0.4725 0.14533333333333334 0.0115 0.007333333333333333
1 0.461 0.15066666666666667 0.008 0.006
1 0.4515 0.15 0.011 0.006666666666666667
1 0.4475 0.14866666666666667 0.013 0.006666666666666667
1 0.4645 0.144 0.0115 0.007333333333333333
1 0.4585 0.14466666666666667 0.012 0.006666666666666667
1 0.4535 0.14266666666666666 0.0105 0.007333333333333333
1 0.4485 0.14066666666666666 0.0115 0.006666666666666667
1 0.444 0.13933333333333334 0.0125 0.007333333333333333
1 0.395 0.18466666666666667 0.0085 0.012666666666666666
0 0.421 0.168 0.003 0.008666666666666666
0 0.4115 0.19533333333333333 0.0025 0.010666666666666666
1 0.5105 0.462 0.011 0.025333333333333333
1 0.482 0.27 0.0125 0.01
0 0.483 0.26666666666666666 0.0055 0.013333333333333334
0 0.4685 0.264 0.005 0.011333333333333334
0 0.51 0.23 0.0035 0.014
0 0.512 0.21733333333333332 0.0045 0.012
1 0.513 0.22066666666666668 0.0085 0.008666666666666666
0 0.451 0.196 0.004 0.014
1 0.331 0.17533333333333334 0.02 0.01
