1 0.10071428571428571 0.932741116751269 0.052142857142857144 0.0532994923857868
1 0.21571428571428572 0.7766497461928934 0.08214285714285714 0.06725888324873096
1 0.32 0.8959390862944162 0.047142857142857146 0.050761421319796954
1 0.29642857142857143 0.8540609137055838 0.045 0.048223350253807105
1 0.29642857142857143 0.8058375634517766 0.04357142857142857 0.044416243654822336
1 0.8885714285714286 0.6789340101522843 0.04071428571428572 0.04187817258883249
1 0.8021428571428572 0.7208121827411168 0.04642857142857143 0.046954314720812185
1 0.7307142857142858 0.7576142131979695 0.04071428571428572 0.044416243654822336
1 0.6714285714285714 0.7893401015228426 0.045714285714285714 0.04949238578680203
1 0.5507142857142857 0.8261421319796954 0.04642857142857143 0.04314720812182741
1 0.48857142857142855 0.7715736040609137 0.04 0.06345177664974619
1 0.45571428571428574 0.7017766497461929 0.02642857142857143 0.0583756345177665
1 0.43 0.5977157360406091 0.027857142857142858 0.06852791878172589
1 0.39785714285714285 0.4251269035532995 0.04214285714285714 0.13324873096446702
1 0.4492857142857143 0.4137055837563452 0.029285714285714286 0.0850253807106599
1 0.4307142857142857 0.3197969543147208 0.027857142857142858 0.08121827411167512
1 0.47714285714285715 0.4352791878172589 0.020714285714285713 0.05456852791878172
1 0.4614285714285714 0.37055837563451777 0.023571428571428573 0.0532994923857868
1 0.45 0.3032994923857868 0.02142857142857143 0.05710659898477157
1 0.43857142857142856 0.23730964467005075 0.020714285714285713 0.0532994923857868
1 0.4185714285714286 0.24873096446700507 0.02 0.05456852791878172
1 0.42642857142857143 0.18527918781725888 0.02142857142857143 0.048223350253807105
1 0.4135714285714286 0.12563451776649745 0.018571428571428572 0.04949238578680203
1 0.39357142857142857 0.03299492385786802 0.02214285714285714 0.04949238578680203
1 0.375 0.2715736040609137 0.02857142857142857 0.08121827411167512
