1 0.79 0.9416243654822335 0.05357142857142857 0.11294416243654823
1 0.7178571428571429 0.6065989847715736 0.06357142857142857 0.13324873096446702
1 0.5607142857142857 0.43781725888324874 0.019285714285714285 0.025380710659898477
1 0.485 0.4289340101522843 0.019285714285714285 0.03553299492385787
1 0.6021428571428571 0.43908629441624364 0.02142857142857143 0.031725888324873094
1 0.6235714285714286 0.4365482233502538 0.02214285714285714 0.03299492385786802
1 0.565 0.36421319796954316 0.017142857142857144 0.030456852791878174
1 0.5985714285714285 0.383248730964467 0.019285714285714285 0.0266497461928934
1 0.6207142857142857 0.3769035532994924 0.018571428571428572 0.027918781725888325
1 0.5957142857142858 0.3147208121827411 0.016428571428571428 0.021573604060913704
1 0.56 0.2918781725888325 0.015 0.02030456852791878
1 0.5357142857142857 0.3134517766497462 0.015714285714285715 0.02030456852791878
1 0.5 0.26776649746192893 0.014285714285714285 0.017766497461928935
1 0.4735714285714286 0.2233502538071066 0.013571428571428571 0.02030456852791878
1 0.49642857142857144 0.20812182741116753 0.017142857142857144 0.030456852791878174
1 0.44 0.20939086294416243 0.012142857142857143 0.013959390862944163
1 0.4471428571428571 0.20304568527918782 0.011428571428571429 0.01649746192893401
1 0.42214285714285715 0.19416243654822335 0.012142857142857143 0.01649746192893401
1 0.4164285714285714 0.17893401015228427 0.012857142857142857 0.01649746192893401
1 0.38357142857142856 0.1319796954314721 0.010714285714285714 0.011421319796954314
