1 0.5464285714285714 0.6971428571428572 0.04071428571428572 0.06095238095238095
1 0.31 0.9704761904761905 0.037142857142857144 0.058095238095238096
1 0.8471428571428572 0.8742857142857143 0.16785714285714284 0.18571428571428572
