1 0.3985714285714286 0.9682741116751269 0.045714285714285714 0.06091370558375635
1 0.46 0.9352791878172588 0.03857142857142857 0.11421319796954314
0 0.9421428571428572 0.9682741116751269 0.025 0.02284263959390863
0 0.10428571428571429 0.030456852791878174 0.008571428571428572 0.030456852791878174
1 0.05785714285714286 0.0266497461928934 0.030714285714285715 0.0532994923857868
1 0.04928571428571429 0.07487309644670051 0.03571428571428571 0.09644670050761421
0 0.045 0.15736040609137056 0.01 0.031725888324873094
1 0.17214285714285715 0.11928934010152284 0.05785714285714286 0.05456852791878172
0 0.12214285714285714 0.005076142131979695 0.008571428571428572 0.011421319796954314
1 0.13357142857142856 0.025380710659898477 0.023571428571428573 0.050761421319796954
1 0.21214285714285713 0.025380710659898477 0.023571428571428573 0.05203045685279188
1 0.2621428571428571 0.02030456852791878 0.020714285714285713 0.04187817258883249
1 0.2892857142857143 0.01903553299492386 0.018571428571428572 0.03807106598984772
1 0.18357142857142858 0.02918781725888325 0.02642857142857143 0.05964467005076142
0 0.06285714285714286 0.37055837563451777 0.013571428571428571 0.031725888324873094
1 0.03 0.45050761421319796 0.060714285714285714 0.05710659898477157
1 0.11 0.4365482233502538 0.07285714285714286 0.05710659898477157
1 0.18642857142857142 0.41751269035532995 0.07571428571428572 0.06218274111675127
1 0.30142857142857143 0.501269035532995 0.07571428571428572 0.06345177664974619
0 0.20642857142857143 0.6624365482233503 0.009285714285714286 0.030456852791878174
0 0.29 0.35786802030456855 0.012142857142857143 0.030456852791878174
1 0.2392857142857143 0.4149746192893401 0.011428571428571429 0.05456852791878172
1 0.25785714285714284 0.4086294416243655 0.012142857142857143 0.050761421319796954
1 0.2664285714285714 0.41116751269035534 0.011428571428571429 0.04314720812182741
1 0.2764285714285714 0.399746192893401 0.013571428571428571 0.05710659898477157
1 0.28785714285714287 0.39847715736040606 0.010714285714285714 0.0583756345177665
1 0.29928571428571427 0.4035532994923858 0.01 0.03807106598984772
1 0.31 0.4010152284263959 0.009285714285714286 0.03553299492385787
1 0.32071428571428573 0.3946700507614213 0.012857142857142857 0.050761421319796954
1 0.33 0.39213197969543145 0.009285714285714286 0.05710659898477157
1 0.34214285714285714 0.39720812182741116 0.01 0.0532994923857868
1 0.35214285714285715 0.3946700507614213 0.013571428571428571 0.05203045685279188
1 0.3607142857142857 0.3883248730964467 0.011428571428571429 0.046954314720812185
1 0.37 0.3883248730964467 0.010714285714285714 0.0532994923857868
1 0.3821428571428571 0.39086294416243655 0.012857142857142857 0.050761421319796954
1 0.39071428571428574 0.383248730964467 0.012857142857142857 0.05583756345177665
1 0.4007142857142857 0.3895939086294416 0.010714285714285714 0.048223350253807105
1 0.4228571428571429 0.38071065989847713 0.012142857142857143 0.05710659898477157
1 0.4328571428571429 0.3769035532994924 0.007142857142857143 0.05203045685279188
1 0.445 0.3769035532994924 0.013571428571428571 0.05203045685279188
0 0.4392857142857143 0.616751269035533 0.011428571428571429 0.030456852791878174
0 0.42714285714285716 0.6789340101522843 0.009285714285714286 0.025380710659898477
0 0.49714285714285716 0.5736040609137056 0.008571428571428572 0.025380710659898477
0 0.5164285714285715 0.5951776649746193 0.008571428571428572 0.02918781725888325
0 0.6257142857142857 0.5812182741116751 0.012857142857142857 0.0266497461928934
0 0.7328571428571429 0.5266497461928934 0.010714285714285714 0.031725888324873094
0 0.8485714285714285 0.5126903553299492 0.014285714285714285 0.0266497461928934
0 0.8821428571428571 0.5279187817258884 0.010714285714285714 0.024111675126903553
0 0.9485714285714286 0.5203045685279187 0.014285714285714285 0.031725888324873094
1 0.9664285714285714 0.30076142131979694 0.06642857142857143 0.06598984771573604
0 0.7764285714285715 0.28553299492385786 0.012857142857142857 0.02918781725888325
0 0.7735714285714286 0.27284263959390864 0.011428571428571429 0.030456852791878174
1 0.8428571428571429 0.31852791878172587 0.09928571428571428 0.07233502538071065
1 0.6821428571428572 0.33756345177664976 0.1392857142857143 0.09898477157360407
0 0.7414285714285714 0.18908629441624367 0.0064285714285714285 0.025380710659898477
0 0.48714285714285716 0.11421319796954314 0.005 0.027918781725888325
0 0.5064285714285715 0.13071065989847716 0.005714285714285714 0.025380710659898477
0 0.48857142857142855 0.10913705583756345 0.005714285714285714 0.025380710659898477
0 0.49357142857142855 0.10532994923857868 0.007857142857142858 0.0266497461928934
0 0.49857142857142855 0.10786802030456853 0.005 0.01649746192893401
0 0.4957142857142857 0.07233502538071065 0.004285714285714286 0.02284263959390863
0 0.4992857142857143 0.04060913705583756 0.004285714285714286 0.021573604060913704
0 0.5021428571428571 0.04314720812182741 0.004285714285714286 0.02284263959390863
0 0.5064285714285715 0.05456852791878172 0.007142857142857143 0.025380710659898477
0 0.5142857142857142 0.05456852791878172 0.005 0.0266497461928934
0 0.5207142857142857 0.050761421319796954 0.004285714285714286 0.02284263959390863
0 0.5192857142857142 0.008883248730964468 0.0035714285714285713 0.01903553299492386
0 0.5214285714285715 0.2982233502538071 0.0064285714285714285 0.031725888324873094
1 0.5235714285714286 0.36421319796954316 0.10214285714285715 0.0799492385786802
1 0.8628571428571429 0.9467005076142132 0.012142857142857143 0.04568527918781726
1 0.7907142857142857 0.8705583756345178 0.010714285714285714 0.04187817258883249
1 0.8021428571428572 0.8654822335025381 0.010714285714285714 0.044416243654822336
1 0.8214285714285714 0.8857868020304569 0.009285714285714286 0.0532994923857868
0 0.7435714285714285 0.9822335025380711 0.012142857142857143 0.03299492385786802
0 0.8578571428571429 0.7208121827411168 0.011428571428571429 0.031725888324873094
0 0.8 0.7588832487309645 0.010714285714285714 0.021573604060913704
0 0.7328571428571429 0.866751269035533 0.01 0.025380710659898477
0 0.7392857142857143 0.8642131979695431 0.007142857142857143 0.021573604060913704
0 0.6864285714285714 0.8083756345177665 0.007142857142857143 0.025380710659898477
0 0.6642857142857143 0.7829949238578681 0.009285714285714286 0.024111675126903553
0 0.6635714285714286 0.7550761421319797 0.01 0.024111675126903553
1 0.7578571428571429 0.618020304568528 0.012857142857142857 0.046954314720812185
0 0.5292857142857142 0.7829949238578681 0.007857142857142858 0.021573604060913704
0 0.5464285714285714 0.7461928934010152 0.009285714285714286 0.0266497461928934
1 0.7692857142857142 0.8515228426395939 0.011428571428571429 0.06091370558375635
1 0.78 0.8565989847715736 0.011428571428571429 0.0583756345177665
