1 0.6942857142857143 0.6514285714285715 0.04071428571428572 0.06666666666666667
1 0.5707142857142857 0.3 0.019285714285714285 0.035238095238095235
1 0.7414285714285714 0.4695238095238095 0.03571428571428571 0.06380952380952382
1 0.69 0.3476190476190476 0.03142857142857143 0.040952380952380955
0 0.3407142857142857 0.3038095238095238 0.0035714285714285713 0.013333333333333334
0 0.33714285714285713 0.3028571428571429 0.004285714285714286 0.015238095238095238
1 0.45714285714285713 0.54 0.027142857142857142 0.07238095238095238
1 0.4442857142857143 0.37142857142857144 0.024285714285714285 0.05047619047619047
1 0.43 0.23047619047619047 0.016428571428571428 0.0380952380952381
1 0.4907142857142857 0.2123809523809524 0.016428571428571428 0.03333333333333333
0 0.44857142857142857 0.20761904761904762 0.004285714285714286 0.018095238095238095
0 0.44 0.15142857142857144 0.005 0.018095238095238095
0 0.42857142857142855 0.20857142857142857 0.004285714285714286 0.012380952380952381
0 0.42857142857142855 0.14095238095238094 0.005714285714285714 0.018095238095238095
0 0.4207142857142857 0.005714285714285714 0.002857142857142857 0.012380952380952381
0 0.4164285714285714 0.006666666666666667 0.004285714285714286 0.013333333333333334
0 0.44 0.11333333333333333 0.002857142857142857 0.006666666666666667
1 0.5692857142857143 0.05142857142857143 0.012857142857142857 0.017142857142857144
1 0.4407142857142857 0.11714285714285715 0.005714285714285714 0.018095238095238095
1 0.5921428571428572 0.10761904761904761 0.015 0.021904761904761906
1 0.6028571428571429 0.13428571428571429 0.015 0.02095238095238095
1 0.625 0.18761904761904763 0.020714285714285713 0.029523809523809525
1 0.6807142857142857 0.16857142857142857 0.02142857142857143 0.02666666666666667
1 0.9342857142857143 0.9333333333333333 0.07857142857142857 0.1295238095238095
1 0.8585714285714285 0.7590476190476191 0.06 0.10571428571428572
1 0.5314285714285715 0.9228571428571428 0.02142857142857143 0.08095238095238096
1 0.4878571428571429 0.8428571428571429 0.025 0.0980952380952381
0 0.5321428571428571 0.9066666666666666 0.012857142857142857 0.03333333333333333
