1 0.5610647181628392 0.5816326530612245 0.01722338204592902 0.061224489795918366
1 0.56419624217119 0.5269016697588126 0.017745302713987474 0.05658627087198516
1 0.5647181628392485 0.35435992578849723 0.01722338204592902 0.045454545454545456
1 0.5652400835073069 0.3033395176252319 0.016179540709812108 0.05009276437847866
1 0.5673277661795407 0.17068645640074212 0.012004175365344467 0.030612244897959183
1 0.5688935281837161 0.14842300556586271 0.013048016701461378 0.03153988868274583
1 0.5683716075156576 0.10111317254174397 0.010960334029227558 0.0287569573283859
0 0.5923799582463466 0.0862708719851577 0.003131524008350731 0.015769944341372914
1 0.07463465553235908 0.19202226345083487 0.04697286012526096 0.0640074211502783
1 0.0720250521920668 0.11038961038961038 0.04801670146137787 0.059369202226345084
1 0.05167014613778706 0.07328385899814471 0.05375782881002088 0.061224489795918366
