1 0.14 0.11040609137055837 0.016428571428571428 0.01649746192893401
1 0.1392857142857143 0.12309644670050761 0.018571428571428572 0.02030456852791878
1 0.17142857142857143 0.0799492385786802 0.02214285714285714 0.02030456852791878
1 0.1692857142857143 0.10406091370558376 0.02142857142857143 0.02030456852791878
1 0.22428571428571428 0.0850253807106599 0.016428571428571428 0.017766497461928935
1 0.22285714285714286 0.07106598984771574 0.016428571428571428 0.013959390862944163
1 0.22428571428571428 0.06091370558375635 0.014285714285714285 0.01649746192893401
1 0.21928571428571428 0.12436548223350254 0.02142857142857143 0.01903553299492386
1 0.23785714285714285 0.23857868020304568 0.019285714285714285 0.01649746192893401
1 0.1757142857142857 0.30583756345177665 0.019285714285714285 0.027918781725888325
0 0.20714285714285716 0.5977157360406091 0.0035714285714285713 0.01015228426395939
0 0.20642857142857143 0.5951776649746193 0.005 0.012690355329949238
0 0.21214285714285713 0.5939086294416244 0.005 0.011421319796954314
0 0.20857142857142857 0.5901015228426396 0.004285714285714286 0.012690355329949238
1 0.185 0.8527918781725888 0.027142857142857142 0.0266497461928934
1 0.12571428571428572 0.9746192893401016 0.03571428571428571 0.048223350253807105
1 0.24071428571428571 0.7690355329949239 0.05928571428571429 0.05456852791878172
0 0.16642857142857143 0.7626903553299492 0.004285714285714286 0.011421319796954314
1 0.255 0.8286802030456852 0.029285714285714286 0.03553299492385787
1 0.3407142857142857 0.7677664974619289 0.027857142857142858 0.03680203045685279
1 0.39357142857142857 0.7804568527918782 0.027142857142857142 0.03299492385786802
1 0.36142857142857143 0.7131979695431472 0.06428571428571428 0.07614213197969544
1 0.43642857142857144 0.6903553299492385 0.022857142857142857 0.03299492385786802
0 0.29428571428571426 0.3401015228426396 0.004285714285714286 0.011421319796954314
1 0.3057142857142857 0.30456852791878175 0.025714285714285714 0.07868020304568528
1 0.25142857142857145 0.17385786802030456 0.04 0.03553299492385787
1 0.35 0.0532994923857868 0.009285714285714286 0.01903553299492386
1 0.355 0.031725888324873094 0.008571428571428572 0.02030456852791878
1 0.35714285714285715 0.011421319796954314 0.007142857142857143 0.017766497461928935
1 0.37214285714285716 0.044416243654822336 0.01 0.050761421319796954
1 0.37357142857142855 0.01903553299492386 0.005 0.015228426395939087
1 0.38285714285714284 0.03426395939086294 0.0064285714285714285 0.01903553299492386
1 0.39785714285714285 0.007614213197969543 0.0064285714285714285 0.015228426395939087
1 0.39714285714285713 0.03807106598984772 0.0064285714285714285 0.021573604060913704
1 0.38357142857142856 0.09137055837563451 0.007142857142857143 0.02030456852791878
1 0.37214285714285716 0.08248730964467005 0.005714285714285714 0.015228426395939087
1 0.3707142857142857 0.10406091370558376 0.007857142857142858 0.02030456852791878
1 0.37214285714285716 0.13578680203045684 0.013571428571428571 0.07106598984771574
1 0.38642857142857145 0.1434010152284264 0.01 0.03934010152284264
1 0.375 0.1967005076142132 0.009285714285714286 0.025380710659898477
1 0.3921428571428571 0.21446700507614214 0.009285714285714286 0.0266497461928934
1 0.38 0.23730964467005075 0.01 0.025380710659898477
1 0.385 0.2880710659898477 0.010714285714285714 0.0266497461928934
1 0.38857142857142857 0.3210659898477157 0.009285714285714286 0.027918781725888325
1 0.395 0.3565989847715736 0.010714285714285714 0.027918781725888325
1 0.41285714285714287 0.37182741116751267 0.012142857142857143 0.027918781725888325
1 0.40714285714285714 0.41243654822335024 0.011428571428571429 0.031725888324873094
0 0.38357142857142856 0.39720812182741116 0.004285714285714286 0.012690355329949238
0 0.38285714285714284 0.399746192893401 0.002857142857142857 0.007614213197969543
1 0.4142857142857143 0.4593908629441624 0.013571428571428571 0.031725888324873094
1 0.4257142857142857 0.5101522842639594 0.013571428571428571 0.03680203045685279
1 0.44142857142857145 0.5761421319796954 0.014285714285714285 0.03553299492385787
1 0.43142857142857144 0.4479695431472081 0.017142857142857144 0.05203045685279188
1 0.46214285714285713 0.6700507614213198 0.016428571428571428 0.04314720812182741
1 0.4764285714285714 0.7385786802030457 0.017857142857142856 0.04568527918781726
1 0.49785714285714283 0.8312182741116751 0.02 0.050761421319796954
1 0.61 0.6598984771573604 0.025714285714285714 0.021573604060913704
1 0.5242857142857142 0.5038071065989848 0.009285714285714286 0.04060913705583756
1 0.4707142857142857 0.23857868020304568 0.011428571428571429 0.027918781725888325
1 0.5028571428571429 0.32741116751269034 0.013571428571428571 0.03299492385786802
1 0.5128571428571429 0.39847715736040606 0.014285714285714285 0.03934010152284264
0 0.5228571428571429 0.34517766497461927 0.002857142857142857 0.01015228426395939
0 0.525 0.350253807106599 0.002142857142857143 0.011421319796954314
0 0.5271428571428571 0.35406091370558374 0.002857142857142857 0.01015228426395939
1 0.9857142857142858 0.6408629441624365 0.027857142857142858 0.025380710659898477
1 0.8485714285714285 0.6649746192893401 0.027857142857142858 0.0266497461928934
1 0.9771428571428571 0.9035532994923858 0.03214285714285714 0.0266497461928934
1 0.9764285714285714 0.7880710659898477 0.04642857142857143 0.048223350253807105
0 0.905 0.7588832487309645 0.0064285714285714285 0.01015228426395939
1 0.8385714285714285 0.7804568527918782 0.07642857142857143 0.048223350253807105
0 0.845 0.7614213197969543 0.0064285714285714285 0.013959390862944163
0 0.9157142857142857 0.7563451776649747 0.005 0.008883248730964468
0 0.9 0.7563451776649747 0.004285714285714286 0.013959390862944163
0 0.9728571428571429 0.766497461928934 0.0035714285714285713 0.013959390862944163
1 0.2842857142857143 0.5076142131979695 0.02214285714285714 0.06725888324873096
1 0.31642857142857145 0.6281725888324873 0.039285714285714285 0.046954314720812185
1 0.32142857142857145 0.6040609137055838 0.055714285714285716 0.06091370558375635
1 0.32571428571428573 0.5786802030456852 0.056428571428571425 0.06091370558375635
1 0.32357142857142857 0.549492385786802 0.055 0.06091370558375635
1 0.3414285714285714 0.5393401015228426 0.03357142857142857 0.04060913705583756
1 0.335 0.5088832487309645 0.05785714285714286 0.06472081218274112
1 0.3364285714285714 0.4873096446700508 0.05857142857142857 0.06472081218274112
1 0.3357142857142857 0.4619289340101523 0.055714285714285716 0.06472081218274112
1 0.3357142857142857 0.4352791878172589 0.054285714285714284 0.05583756345177665
1 0.3464285714285714 0.4200507614213198 0.041428571428571426 0.05203045685279188
1 0.34714285714285714 0.39720812182741116 0.05357142857142857 0.05456852791878172
1 0.30642857142857144 0.4022842639593909 0.017857142857142856 0.05583756345177665
