1 0.41 0.2276190476190476 0.08285714285714285 0.09142857142857143
1 0.11928571428571429 0.5685714285714286 0.010714285714285714 0.02857142857142857
1 0.16071428571428573 0.5342857142857143 0.015 0.0419047619047619
1 0.22285714285714286 0.5771428571428572 0.014285714285714285 0.03142857142857143
1 0.02857142857142857 0.5476190476190477 0.005 0.040952380952380955
1 0.06285714285714286 0.5066666666666667 0.017142857142857144 0.05333333333333334
1 0.05285714285714286 0.5047619047619047 0.019285714285714285 0.04857142857142857
1 0.04642857142857143 0.5047619047619047 0.018571428571428572 0.049523809523809526
1 0.03214285714285714 0.5066666666666667 0.017142857142857144 0.05047619047619047
1 0.024285714285714285 0.5066666666666667 0.015714285714285715 0.040952380952380955
1 0.012857142857142857 0.5047619047619047 0.02214285714285714 0.03333333333333333
1 0.0064285714285714285 0.48095238095238096 0.013571428571428571 0.02761904761904762
1 0.4057142857142857 0.9457142857142857 0.054285714285714284 0.10476190476190476
0 0.35642857142857143 0.4714285714285714 0.014285714285714285 0.02095238095238095
0 0.6242857142857143 0.9847619047619047 0.020714285714285713 0.02857142857142857
1 0.635 0.3342857142857143 0.05928571428571429 0.16952380952380952
