1 0.284 0.916 0.0135 0.046
1 0.488 0.4693333333333333 0.021 0.017333333333333333
1 0.483 0.478 0.025 0.019333333333333334
1 0.468 0.49933333333333335 0.029 0.018666666666666668
1 0.4715 0.48933333333333334 0.0305 0.017333333333333333
1 0.546 0.9706666666666667 0.0325 0.058666666666666666
1 0.5605 0.9146666666666666 0.028 0.05733333333333333
1 0.5805 0.814 0.0225 0.04666666666666667
1 0.6685 0.9266666666666666 0.025 0.06733333333333333
1 0.613 0.672 0.0205 0.04066666666666666
1 0.624 0.6186666666666667 0.018 0.034
1 0.6305 0.5886666666666667 0.018 0.03133333333333333
1 0.646 0.5146666666666667 0.0135 0.023333333333333334
1 0.6515 0.49333333333333335 0.0135 0.022
1 0.653 0.444 0.02 0.059333333333333335
1 0.897 0.8493333333333334 0.0275 0.04733333333333333
1 0.819 0.8113333333333334 0.0215 0.042
1 0.7605 0.794 0.019 0.04133333333333333
1 0.595 0.7513333333333333 0.0205 0.042
1 0.699 0.6453333333333333 0.0175 0.03666666666666667
1 0.6855 0.5413333333333333 0.0265 0.07666666666666666
1 0.7085 0.4713333333333333 0.013 0.022
1 0.9905 0.7713333333333333 0.0185 0.04133333333333333
1 0.9615 0.754 0.024 0.04066666666666666
1 0.936 0.7473333333333333 0.027 0.042
1 0.9085 0.7793333333333333 0.0275 0.04733333333333333
1 0.898 0.7106666666666667 0.0225 0.035333333333333335
1 0.9285 0.6726666666666666 0.043 0.025333333333333333
1 0.87 0.6886666666666666 0.022 0.03666666666666667
1 0.8665 0.6553333333333333 0.019 0.030666666666666665
1 0.857 0.6066666666666667 0.0185 0.03
1 0.8525 0.5726666666666667 0.018 0.025333333333333333
1 0.847 0.5473333333333333 0.0175 0.025333333333333333
1 0.8445 0.5253333333333333 0.0155 0.02266666666666667
1 0.804 0.546 0.0155 0.025333333333333333
1 0.843 0.5046666666666667 0.015 0.021333333333333333
1 0.839 0.482 0.0145 0.019333333333333334
1 0.837 0.4646666666666667 0.013 0.018666666666666668
1 0.8335 0.448 0.0145 0.018666666666666668
1 0.831 0.43133333333333335 0.0145 0.015333333333333332
1 0.828 0.41333333333333333 0.012 0.014
1 0.764 0.498 0.012 0.018
1 0.7815 0.4826666666666667 0.013 0.018666666666666668
1 0.7225 0.402 0.0105 0.018
1 0.7665 0.426 0.0105 0.016666666666666666
1 0.782 0.414 0.012 0.016666666666666666
1 0.735 0.38 0.0095 0.014666666666666666
1 0.775 0.37666666666666665 0.0115 0.013333333333333334
1 0.7915 0.384 0.01 0.014666666666666666
1 0.789 0.3313333333333333 0.0095 0.016666666666666666
1 0.7415 0.3566666666666667 0.009 0.014666666666666666
1 0.727 0.3453333333333333 0.0095 0.013333333333333334
1 0.7615 0.3413333333333333 0.009 0.013333333333333334
1 0.7735 0.328 0.0105 0.014
1 0.7195 0.31666666666666665 0.009 0.012666666666666666
1 0.7315 0.30533333333333335 0.009 0.013333333333333334
1 0.7615 0.296 0.0085 0.011333333333333334
1 0.784 0.298 0.0085 0.01
1 0.7725 0.2906666666666667 0.008 0.010666666666666666
1 0.7845 0.282 0.0075 0.009333333333333334
1 0.82 0.37066666666666664 0.0115 0.014
1 0.8245 0.3506666666666667 0.01 0.014
1 0.824 0.34 0.0095 0.014
1 0.823 0.322 0.0095 0.010666666666666666
1 0.8215 0.31466666666666665 0.009 0.010666666666666666
1 0.8175 0.294 0.0085 0.009333333333333334
0 0.6015 0.826 0.008 0.015333333333333332
1 0.6015 0.834 0.008 0.018666666666666668
0 0.8805 0.9646666666666667 0.0115 0.019333333333333334
1 0.8795 0.9706666666666667 0.009 0.024
0 0.8935 0.9346666666666666 0.01 0.016666666666666666
1 0.893 0.9406666666666667 0.0095 0.023333333333333334
0 0.881 0.892 0.009 0.014
0 0.882 0.898 0.009 0.014
1 0.8805 0.896 0.009 0.025333333333333333
1 0.694 0.714 0.0185 0.037333333333333336
1 0.7915 0.7353333333333333 0.0195 0.04
1 0.723 0.7286666666666667 0.02 0.04
0 0.6235 0.7673333333333333 0.006 0.014666666666666666
1 0.6225 0.772 0.0065 0.018
1 0.9325 0.644 0.0145 0.012666666666666666
1 0.9265 0.6373333333333333 0.016 0.012
1 0.912 0.6326666666666667 0.0145 0.014
0 0.8215 0.4593333333333333 0.0045 0.011333333333333334
1 0.8215 0.462 0.005 0.012
0 0.8135 0.39 0.004 0.008
0 0.813 0.42533333333333334 0.004 0.009333333333333334
1 0.813 0.42866666666666664 0.005 0.010666666666666666
1 0.8135 0.392 0.004 0.008666666666666666
1 0.7605 0.27266666666666667 0.0075 0.009333333333333334
1 0.7775 0.27066666666666667 0.009 0.01
1 0.7365 0.2653333333333333 0.007 0.010666666666666666
1 0.748 0.26666666666666666 0.007 0.01
1 0.7295 0.24733333333333332 0.0075 0.012
1 0.807 0.25733333333333336 0.0085 0.01
1 0.761 0.25133333333333335 0.0075 0.009333333333333334
1 0.7705 0.25 0.0065 0.008666666666666666
1 0.783 0.25 0.0075 0.01
1 0.782 0.228 0.0095 0.020666666666666667
1 0.8005 0.244 0.006 0.009333333333333334
1 0.8025 0.25066666666666665 0.0075 0.009333333333333334
1 0.772 0.24066666666666667 0.0065 0.009333333333333334
1 0.762 0.224 0.0065 0.008666666666666666
1 0.7055 0.25066666666666665 0.0125 0.023333333333333334
1 0.696 0.294 0.009 0.012
1 0.699 0.2826666666666667 0.008 0.011333333333333334
1 0.7015 0.26666666666666666 0.0075 0.014666666666666666
1 0.687 0.316 0.0095 0.012666666666666666
1 0.691 0.30933333333333335 0.009 0.012
1 0.683 0.3253333333333333 0.01 0.012666666666666666
1 0.6795 0.33466666666666667 0.0085 0.011333333333333334
1 0.7705 0.23066666666666666 0.008 0.008666666666666666
1 0.7705 0.22466666666666665 0.006 0.008666666666666666
1 0.762 0.20133333333333334 0.006 0.007333333333333333
1 0.7795 0.20533333333333334 0.006 0.006666666666666667
1 0.771 0.21066666666666667 0.0055 0.008
1 0.771 0.20066666666666666 0.0055 0.006666666666666667
0 0.842 0.654 0.007 0.013333333333333334
1 0.841 0.6566666666666666 0.0065 0.016
0 0.827 0.508 0.0045 0.011333333333333334
1 0.827 0.5106666666666667 0.0035 0.010666666666666666
0 0.652 0.618 0.006 0.013333333333333334
1 0.652 0.6213333333333333 0.0065 0.015333333333333332
0 0.6485 0.592 0.006 0.014666666666666666
1 0.6485 0.5973333333333334 0.0055 0.014666666666666666
0 0.659 0.5166666666666667 0.0055 0.012
1 0.659 0.5213333333333333 0.0055 0.011333333333333334
1 0.7705 0.26266666666666666 0.0075 0.010666666666666666
1 0.7825 0.26266666666666666 0.007 0.009333333333333334
1 0.762 0.18666666666666668 0.0055 0.006666666666666667
1 0.769 0.192 0.005 0.006
1 0.7705 0.186 0.005 0.006
1 0.778 0.19 0.0055 0.007333333333333333
1 0.7095 0.23533333333333334 0.0075 0.011333333333333334
1 0.7115 0.22533333333333333 0.007 0.011333333333333334
1 0.713 0.21666666666666667 0.006 0.008666666666666666
1 0.716 0.20733333333333334 0.005 0.008
0 0.809 0.37333333333333335 0.004 0.008666666666666666
0 0.8135 0.37466666666666665 0.0035 0.009333333333333334
