1 0.056428571428571425 0.8542857142857143 0.11214285714285714 0.2038095238095238
1 0.19142857142857142 0.719047619047619 0.12142857142857143 0.1438095238095238
1 0.11642857142857142 0.6057142857142858 0.10071428571428571 0.11047619047619048
1 0.07857142857142857 0.4980952380952381 0.07785714285714286 0.09142857142857143
1 0.055714285714285716 0.4247619047619048 0.07714285714285714 0.06761904761904762
1 0.02214285714285714 0.37523809523809526 0.041428571428571426 0.06285714285714286
1 0.29428571428571426 0.6723809523809524 0.12 0.12857142857142856
1 0.5307142857142857 0.7752380952380953 0.15928571428571428 0.2
1 0.5785714285714286 0.7066666666666667 0.14214285714285715 0.1438095238095238
1 0.6157142857142858 0.6514285714285715 0.14357142857142857 0.13238095238095238
1 0.665 0.6133333333333333 0.12357142857142857 0.11428571428571428
1 0.6964285714285714 0.559047619047619 0.12571428571428572 0.11619047619047619
1 0.7314285714285714 0.5285714285714286 0.11 0.08952380952380952
1 0.7478571428571429 0.4942857142857143 0.10571428571428572 0.07809523809523809
1 0.7714285714285715 0.4704761904761905 0.105 0.08
1 0.7785714285714286 0.4361904761904762 0.09642857142857143 0.08285714285714285
1 0.7964285714285714 0.41523809523809524 0.08928571428571429 0.07238095238095238
1 0.8192857142857143 0.3980952380952381 0.08428571428571428 0.06380952380952382
1 0.8314285714285714 0.38571428571428573 0.085 0.058095238095238096
1 0.835 0.3676190476190476 0.08142857142857143 0.05619047619047619
1 0.8485714285714285 0.3457142857142857 0.07642857142857143 0.06190476190476191
1 0.8685714285714285 0.3161904761904762 0.07142857142857142 0.05142857142857143
1 0.25857142857142856 0.4276190476190476 0.07285714285714286 0.06666666666666667
1 0.38357142857142856 0.49047619047619045 0.05142857142857143 0.1
1 0.44357142857142856 0.4942857142857143 0.05285714285714286 0.0980952380952381
1 0.51 0.4990476190476191 0.047142857142857146 0.08857142857142856
0 0.295 0.5266666666666666 0.016428571428571428 0.05904761904761905
0 0.4057142857142857 0.8219047619047619 0.02142857142857143 0.06857142857142857
0 0.44142857142857145 0.8095238095238095 0.027142857142857142 0.07428571428571429
0 0.41 0.7142857142857143 0.02 0.06571428571428571
0 0.24357142857142858 0.520952380952381 0.017142857142857144 0.05047619047619047
0 0.13 0.43238095238095237 0.024285714285714285 0.06095238095238095
0 0.03 0.2838095238095238 0.012857142857142857 0.039047619047619046
0 0.020714285714285713 0.2838095238095238 0.011428571428571429 0.035238095238095235
0 0.010714285714285714 0.2866666666666667 0.012142857142857143 0.03333333333333333
1 0.15571428571428572 0.31523809523809526 0.062142857142857146 0.05714285714285714
1 0.34714285714285714 0.5238095238095238 0.022857142857142857 0.04476190476190476
1 0.335 0.49142857142857144 0.02214285714285714 0.045714285714285714
1 0.3314285714285714 0.47523809523809524 0.020714285714285713 0.047619047619047616
1 0.5371428571428571 0.45714285714285713 0.018571428571428572 0.047619047619047616
1 0.5685714285714286 0.49333333333333335 0.012857142857142857 0.049523809523809526
1 0.6735714285714286 0.4533333333333333 0.017142857142857144 0.0380952380952381
0 0.6614285714285715 0.47619047619047616 0.015 0.05523809523809524
0 0.6807142857142857 0.4742857142857143 0.013571428571428571 0.054285714285714284
0 0.7107142857142857 0.44666666666666666 0.011428571428571429 0.023809523809523808
0 0.6135714285714285 0.4523809523809524 0.016428571428571428 0.04666666666666667
0 0.6171428571428571 0.43238095238095237 0.01 0.0380952380952381
0 0.6085714285714285 0.42095238095238097 0.01 0.04666666666666667
0 0.3921428571428571 0.4 0.012857142857142857 0.045714285714285714
0 0.37357142857142855 0.3838095238095238 0.012857142857142857 0.045714285714285714
0 0.395 0.3638095238095238 0.01 0.025714285714285714
0 0.49714285714285716 0.3657142857142857 0.011428571428571429 0.0380952380952381
0 0.485 0.3638095238095238 0.010714285714285714 0.030476190476190476
0 0.5685714285714286 0.2714285714285714 0.0064285714285714285 0.05142857142857143
0 0.5807142857142857 0.2761904761904762 0.01 0.0419047619047619
0 0.5864285714285714 0.26857142857142857 0.007142857142857143 0.0380952380952381
0 0.6507142857142857 0.26476190476190475 0.013571428571428571 0.040952380952380955
1 0.8314285714285714 0.9466666666666667 0.10642857142857143 0.10571428571428572
1 0.9642857142857143 0.9314285714285714 0.06928571428571428 0.13714285714285715
1 0.9678571428571429 0.8314285714285714 0.06357142857142857 0.08190476190476191
0 0.9371428571428572 0.660952380952381 0.02642857142857143 0.054285714285714284
1 0.98 0.6257142857142857 0.04 0.06666666666666667
1 0.9692857142857143 0.5676190476190476 0.060714285714285714 0.05333333333333334
1 0.98 0.5266666666666666 0.04 0.03428571428571429
0 0.9557142857142857 0.4504761904761905 0.02 0.047619047619047616
1 0.8821428571428571 0.30095238095238097 0.06285714285714286 0.047619047619047616
1 0.8957142857142857 0.2885714285714286 0.07142857142857142 0.045714285714285714
1 0.9107142857142857 0.2580952380952381 0.06714285714285714 0.05619047619047619
1 0.9542857142857143 0.21904761904761905 0.03857142857142857 0.03238095238095238
1 0.9357142857142857 0.2561904761904762 0.052142857142857144 0.03428571428571429
1 0.9392857142857143 0.24857142857142858 0.04642857142857143 0.030476190476190476
1 0.9478571428571428 0.22857142857142856 0.05142857142857143 0.025714285714285714
1 0.9464285714285714 0.23523809523809525 0.045714285714285714 0.02761904761904762
0 0.48 0.5333333333333333 0.015 0.05523809523809524
0 0.62 0.5504761904761905 0.016428571428571428 0.05333333333333334
0 0.2885714285714286 0.25333333333333335 0.013571428571428571 0.03238095238095238
0 0.30357142857142855 0.2619047619047619 0.012857142857142857 0.030476190476190476
0 0.28785714285714287 0.3628571428571429 0.012142857142857143 0.02761904761904762
0 0.2978571428571429 0.37142857142857144 0.013571428571428571 0.029523809523809525
0 0.30714285714285716 0.37142857142857144 0.01 0.030476190476190476
0 0.30357142857142855 0.36095238095238097 0.009285714285714286 0.037142857142857144
0 0.40285714285714286 0.4123809523809524 0.010714285714285714 0.03238095238095238
0 0.4164285714285714 0.2876190476190476 0.014285714285714285 0.03619047619047619
0 0.4185714285714286 0.27904761904761904 0.011428571428571429 0.035238095238095235
0 0.4421428571428571 0.28476190476190477 0.011428571428571429 0.039047619047619046
0 0.4642857142857143 0.2838095238095238 0.014285714285714285 0.04380952380952381
0 0.48714285714285716 0.2838095238095238 0.02 0.04285714285714286
0 0.5121428571428571 0.2857142857142857 0.015 0.040952380952380955
0 0.6307142857142857 0.2866666666666667 0.015714285714285715 0.030476190476190476
0 0.605 0.2866666666666667 0.014285714285714285 0.03142857142857143
0 0.6042857142857143 0.2866666666666667 0.012857142857142857 0.04
0 0.6271428571428571 0.28285714285714286 0.017142857142857144 0.03333333333333333
0 0.6378571428571429 0.4085714285714286 0.012857142857142857 0.02761904761904762
0 0.5128571428571429 0.4085714285714286 0.012142857142857143 0.03333333333333333
0 0.5164285714285715 0.41714285714285715 0.010714285714285714 0.02857142857142857
0 0.49142857142857144 0.4142857142857143 0.014285714285714285 0.030476190476190476
0 0.46714285714285714 0.41333333333333333 0.013571428571428571 0.035238095238095235
0 0.44785714285714284 0.41619047619047617 0.013571428571428571 0.040952380952380955
0 0.4057142857142857 0.3676190476190476 0.01 0.030476190476190476
0 0.4235714285714286 0.36095238095238097 0.01 0.02666666666666667
0 0.42142857142857143 0.38095238095238093 0.010714285714285714 0.024761904761904763
0 0.42642857142857143 0.38476190476190475 0.011428571428571429 0.024761904761904763
0 0.44357142857142856 0.38476190476190475 0.01 0.02761904761904762
0 0.4521428571428571 0.3838095238095238 0.010714285714285714 0.02761904761904762
0 0.45357142857142857 0.3819047619047619 0.013571428571428571 0.03333333333333333
