1 0.3414285714285714 0.024761904761904763 0.07928571428571428 0.04857142857142857
1 0.485 0.05047619047619047 0.03214285714285714 0.10095238095238095
1 0.44571428571428573 0.06285714285714286 0.035 0.10476190476190476
1 0.345 0.07523809523809524 0.075 0.047619047619047616
1 0.3464285714285714 0.11714285714285715 0.06714285714285714 0.05142857142857143
1 0.3335714285714286 0.1742857142857143 0.07642857142857143 0.049523809523809526
1 0.48642857142857143 0.1657142857142857 0.03571428571428571 0.11238095238095239
0 0.45071428571428573 0.1580952380952381 0.009285714285714286 0.01904761904761905
0 0.42642857142857143 0.22 0.007142857142857143 0.024761904761904763
1 0.6464285714285715 0.06380952380952382 0.03428571428571429 0.07714285714285714
1 0.65 0.17904761904761904 0.03571428571428571 0.09714285714285714
1 0.655 0.29904761904761906 0.03357142857142857 0.10095238095238095
1 0.655 0.41619047619047617 0.037142857142857144 0.10095238095238095
1 0.66 0.5361904761904762 0.03642857142857143 0.10952380952380952
1 0.6657142857142857 0.6733333333333333 0.037142857142857144 0.11238095238095239
1 0.675 0.9457142857142857 0.04285714285714286 0.10571428571428572
1 0.48714285714285716 0.9780952380952381 0.04071428571428572 0.040952380952380955
1 0.48928571428571427 0.8752380952380953 0.03785714285714286 0.13047619047619047
1 0.32785714285714285 0.9304761904761905 0.09142857142857143 0.06095238095238095
1 0.48642857142857143 0.6942857142857143 0.041428571428571426 0.12476190476190477
0 0.5564285714285714 0.4714285714285714 0.011428571428571429 0.01619047619047619
0 0.6278571428571429 0.6276190476190476 0.014285714285714285 0.013333333333333334
0 0.3871428571428571 0.5819047619047619 0.012857142857142857 0.011428571428571429
1 0.44357142857142856 0.5838095238095238 0.035 0.11047619047619048
1 0.48857142857142855 0.5466666666666666 0.03642857142857143 0.11238095238095239
1 0.48928571428571427 0.29619047619047617 0.03214285714285714 0.10095238095238095
1 0.3314285714285714 0.4257142857142857 0.07571428571428572 0.04285714285714286
1 0.33785714285714286 0.49142857142857144 0.08928571428571429 0.05142857142857143
0 0.38785714285714284 0.19904761904761906 0.008571428571428572 0.02857142857142857
