1 0.6425 0.31266666666666665 0.0095 0.015333333333333332
1 0.64 0.3273333333333333 0.012 0.012
1 0.65 0.33466666666666667 0.018 0.014666666666666666
1 0.6755 0.3486666666666667 0.015 0.013333333333333334
1 0.6835 0.342 0.0245 0.014666666666666666
1 0.5305 0.32266666666666666 0.01 0.013333333333333334
1 0.5105 0.328 0.021 0.012
1 0.4885 0.33 0.0195 0.013333333333333334
1 0.4435 0.33466666666666667 0.0225 0.016666666666666666
1 0.421 0.3413333333333333 0.024 0.014
0 0.461 0.42733333333333334 0.0065 0.014
1 0.4615 0.43133333333333335 0.014 0.013333333333333334
1 0.4345 0.426 0.0195 0.024666666666666667
1 0.4305 0.4633333333333333 0.021 0.030666666666666665
1 0.4155 0.48533333333333334 0.0255 0.028
1 0.541 0.508 0.004 0.014666666666666666
0 0.5415 0.49866666666666665 0.006 0.019333333333333334
1 0.603 0.4493333333333333 0.02 0.023333333333333334
1 0.612 0.5166666666666667 0.0195 0.04
1 0.616 0.57 0.0245 0.035333333333333335
1 0.6175 0.6233333333333333 0.0265 0.044
1 0.625 0.6906666666666667 0.0315 0.074
0 0.5915 0.6926666666666667 0.0105 0.018
1 0.592 0.7066666666666667 0.0185 0.035333333333333335
1 0.6545 0.948 0.0695 0.104
1 0.345 0.75 0.045 0.08
1 0.3485 0.6193333333333333 0.0375 0.051333333333333335
1 0.3835 0.532 0.0105 0.015333333333333332
1 0.812 0.9253333333333333 0.0785 0.114
1 0.734 0.7206666666666667 0.0435 0.06666666666666667
1 0.7765 0.7133333333333334 0.0515 0.07
1 0.828 0.7153333333333334 0.0555 0.06466666666666666
0 0.812 0.7606666666666667 0.018 0.042
1 0.88 0.7153333333333334 0.0585 0.088
1 0.927 0.724 0.063 0.062
1 0.7175 0.4126666666666667 0.0605 0.03133333333333333
1 0.7155 0.3526666666666667 0.024 0.016
1 0.7425 0.364 0.0205 0.016
1 0.794 0.392 0.011 0.011333333333333334
1 0.862 0.39666666666666667 0.032 0.02
1 0.915 0.384 0.029 0.018
1 0.952 0.38666666666666666 0.0335 0.018
1 0.9885 0.38866666666666666 0.022 0.016
1 0.648 0.25733333333333336 0.0075 0.009333333333333334
