1 0.7317327766179541 0.9230055658627088 0.043319415448851775 0.10575139146567718
1 0.7025052192066806 0.8747680890538033 0.042275574112734866 0.1038961038961039
1 0.6477035490605428 0.8042671614100185 0.043319415448851775 0.09461966604823747
1 0.44572025052192066 0.6168831168831169 0.04018789144050104 0.07606679035250463
0 0.3747390396659708 0.5992578849721707 0.005741127348643006 0.014842300556586271
1 0.4024008350730689 0.5955473098330241 0.007306889352818371 0.030612244897959183
1 0.40970772442588727 0.5705009276437848 0.008350730688935281 0.021335807050092765
1 0.418580375782881 0.564935064935065 0.008872651356993737 0.0287569573283859
1 0.36430062630480164 0.5343228200371057 0.0407098121085595 0.06679035250463822
1 0.2886221294363257 0.4582560296846011 0.04018789144050104 0.061224489795918366
1 0.23799582463465555 0.4007421150278293 0.0407098121085595 0.05658627087198516
1 0.15605427974947808 0.3163265306122449 0.03914405010438413 0.05009276437847866
1 0.12212943632567849 0.1790352504638219 0.03549060542797495 0.030612244897959183
1 0.05845511482254697 0.19109461966604824 0.03966597077244259 0.04359925788497217
1 0.12630480167014613 0.07421150278293136 0.07933194154488518 0.05380333951762523
1 0.01826722338204593 0.14007421150278293 0.012004175365344467 0.01855287569573284
1 0.006263048016701462 0.14656771799628943 0.010960334029227558 0.016697588126159554
1 0.0036534446764091857 0.1549165120593692 0.007306889352818371 0.013914656771799629
1 0.6852818371607515 0.5946196660482375 0.07776617954070981 0.10204081632653061
1 0.7630480167014614 0.5575139146567718 0.028183716075156576 0.06957328385899815
1 0.6920668058455115 0.5018552875695733 0.029227557411273485 0.06029684601113173
1 0.7938413361169102 0.43042671614100186 0.02870563674321503 0.059369202226345084
1 0.7312108559498957 0.3395176252319109 0.04175365344467641 0.04267161410018553
1 0.5709812108559499 0.2755102040816326 0.027661795407098122 0.045454545454545456
1 0.5548016701461378 0.2634508348794063 0.030793319415448852 0.04452690166975881
1 0.6430062630480167 0.2847866419294991 0.03392484342379958 0.04916512059369202
1 0.656054279749478 0.2727272727272727 0.03288100208768267 0.04452690166975881
1 0.6664926931106472 0.25788497217068646 0.029227557411273485 0.039888682745825604
1 0.691544885177453 0.23191094619666047 0.0360125260960334 0.039888682745825604
1 0.7030271398747391 0.21614100185528756 0.02870563674321503 0.03896103896103896
1 0.7192066805845512 0.20222634508348794 0.029227557411273485 0.04081632653061224
1 0.7484342379958246 0.1725417439703154 0.030793319415448852 0.04081632653061224
1 0.7599164926931107 0.15862708719851576 0.027661795407098122 0.036178107606679034
1 0.8293319415448852 0.12987012987012986 0.018789144050104383 0.03339517625231911
1 0.01826722338204593 0.2884972170686456 0.03653444676409186 0.045454545454545456
