0 0.11642857142857142 0.2436548223350254 0.005 0.01903553299492386
0 0.1357142857142857 0.19796954314720813 0.002857142857142857 0.013959390862944163
0 0.13785714285714284 0.20431472081218274 0.005714285714285714 0.015228426395939087
0 0.1407142857142857 0.2017766497461929 0.005 0.015228426395939087
0 0.145 0.2068527918781726 0.005714285714285714 0.01649746192893401
0 0.1657142857142857 0.16370558375634517 0.004285714285714286 0.013959390862944163
0 0.21214285714285713 0.07614213197969544 0.0035714285714285713 0.01649746192893401
0 0.21642857142857144 0.07487309644670051 0.004285714285714286 0.01649746192893401
0 0.24428571428571427 0.04187817258883249 0.0035714285714285713 0.01649746192893401
0 0.24785714285714286 0.04314720812182741 0.002857142857142857 0.017766497461928935
0 0.2542857142857143 0.0025380710659898475 0.002142857142857143 0.006345177664974619
1 0.3092857142857143 0.01015228426395939 0.020714285714285713 0.021573604060913704
1 0.3464285714285714 0.13959390862944163 0.03642857142857143 0.07868020304568528
0 0.375 0.046954314720812185 0.0035714285714285713 0.015228426395939087
0 0.37857142857142856 0.044416243654822336 0.004285714285714286 0.013959390862944163
1 0.2507142857142857 0.09390862944162437 0.0064285714285714285 0.01903553299492386
0 0.25142857142857145 0.09263959390862944 0.004285714285714286 0.01649746192893401
1 0.2557142857142857 0.05964467005076142 0.015 0.025380710659898477
1 0.2864285714285714 0.06345177664974619 0.014285714285714285 0.025380710659898477
1 0.24 0.12563451776649745 0.017857142857142856 0.0266497461928934
1 0.24357142857142858 0.16116751269035534 0.017857142857142856 0.02918781725888325
1 0.19357142857142856 0.26015228426395937 0.045 0.0901015228426396
0 0.235 0.3401015228426396 0.005714285714285714 0.02030456852791878
1 0.26785714285714285 0.2436548223350254 0.04928571428571429 0.09644670050761421
0 0.29 0.233502538071066 0.004285714285714286 0.021573604060913704
1 0.23785714285714285 0.43908629441624364 0.055714285714285716 0.0532994923857868
1 0.32785714285714285 0.5088832487309645 0.1 0.06598984771573604
1 0.25285714285714284 0.38071065989847713 0.06642857142857143 0.05964467005076142
1 0.33785714285714286 0.4796954314720812 0.09928571428571428 0.06979695431472081
1 0.3435714285714286 0.3743654822335025 0.04857142857142857 0.11802030456852793
1 0.27714285714285714 0.3489847715736041 0.056428571428571425 0.04187817258883249
1 0.2692857142857143 0.33375634517766495 0.055714285714285716 0.04949238578680203
1 0.2885714285714286 0.30456852791878175 0.054285714285714284 0.03934010152284264
1 0.4035714285714286 0.22461928934010153 0.07428571428571429 0.05203045685279188
1 0.45571428571428574 0.31218274111675126 0.03142857142857143 0.0266497461928934
1 0.45071428571428573 0.33121827411167515 0.02857142857142857 0.0266497461928934
1 0.44571428571428573 0.37182741116751267 0.032857142857142856 0.030456852791878174
1 0.42928571428571427 0.6408629441624365 0.03785714285714286 0.03680203045685279
1 0.475 0.6535532994923858 0.037142857142857144 0.03807106598984772
1 0.5257142857142857 0.666243654822335 0.03642857142857143 0.03553299492385787
0 0.8835714285714286 0.700507614213198 0.008571428571428572 0.01903553299492386
0 0.9207142857142857 0.3464467005076142 0.009285714285714286 0.02030456852791878
0 0.9264285714285714 0.35152284263959394 0.0064285714285714285 0.01903553299492386
0 0.8514285714285714 0.5038071065989848 0.004285714285714286 0.01649746192893401
0 0.8257142857142857 0.49111675126903553 0.010714285714285714 0.01015228426395939
0 0.85 0.42385786802030456 0.009285714285714286 0.012690355329949238
0 0.8728571428571429 0.43147208121827413 0.0064285714285714285 0.013959390862944163
0 0.7114285714285714 0.2703045685279188 0.005 0.01903553299492386
1 0.5485714285714286 0.3895939086294416 0.054285714285714284 0.050761421319796954
1 0.5607142857142857 0.3362944162436548 0.03142857142857143 0.025380710659898477
1 0.5671428571428572 0.3134517766497462 0.032857142857142856 0.030456852791878174
1 0.5728571428571428 0.29949238578680204 0.025 0.027918781725888325
