1 0.5178571428571429 0.06285714285714286 0.017857142857142856 0.030476190476190476
1 0.5014285714285714 0.058095238095238096 0.014285714285714285 0.012380952380952381
1 0.5042857142857143 0.049523809523809526 0.014285714285714285 0.011428571428571429
1 0.49357142857142855 0.07714285714285714 0.02 0.021904761904761906
0 0.5171428571428571 0.12 0.005 0.01619047619047619
1 0.5171428571428571 0.12285714285714286 0.007142857142857143 0.01904761904761905
0 0.6078571428571429 0.26571428571428574 0.008571428571428572 0.017142857142857144
0 0.4692857142857143 0.36952380952380953 0.007142857142857143 0.01904761904761905
0 0.4807142857142857 0.4657142857142857 0.007142857142857143 0.01904761904761905
0 0.33714285714285713 0.16380952380952382 0.007142857142857143 0.01904761904761905
0 0.4064285714285714 0.46190476190476193 0.010714285714285714 0.02095238095238095
0 0.4014285714285714 0.4857142857142857 0.007857142857142858 0.023809523809523808
1 0.9428571428571428 0.3628571428571429 0.02142857142857143 0.01904761904761905
1 0.92 0.3619047619047619 0.015714285714285715 0.023809523809523808
1 0.8771428571428571 0.3580952380952381 0.009285714285714286 0.02666666666666667
1 0.48 0.4723809523809524 0.009285714285714286 0.029523809523809525
1 0.4685714285714286 0.37523809523809526 0.009285714285714286 0.023809523809523808
1 0.6078571428571429 0.26761904761904765 0.008571428571428572 0.025714285714285714
1 0.4657142857142857 0.26761904761904765 0.023571428571428573 0.05904761904761905
1 0.5778571428571428 0.2838095238095238 0.019285714285714285 0.04285714285714286
1 0.6792857142857143 0.43142857142857144 0.027142857142857142 0.05904761904761905
1 0.7442857142857143 0.4438095238095238 0.03 0.054285714285714284
1 0.8407142857142857 0.35904761904761906 0.055714285714285716 0.03619047619047619
1 0.7471428571428571 0.3380952380952381 0.02214285714285714 0.018095238095238095
1 0.8628571428571429 0.47333333333333333 0.03785714285714286 0.06190476190476191
1 0.9 0.47714285714285715 0.035 0.06285714285714286
1 0.4471428571428571 0.9761904761904762 0.016428571428571428 0.047619047619047616
0 0.4471428571428571 0.98 0.015 0.030476190476190476
