1 0.0225 0.28 0.0385 0.018666666666666668
1 0.0335 0.24533333333333332 0.0315 0.020666666666666667
1 0.0495 0.23333333333333334 0.027 0.017333333333333333
1 0.057 0.282 0.0315 0.020666666666666667
1 0.12 0.2866666666666667 0.032 0.024666666666666667
1 0.0865 0.284 0.028 0.02266666666666667
1 0.1605 0.292 0.0355 0.018666666666666668
1 0.199 0.296 0.034 0.018666666666666668
1 0.1925 0.26 0.032 0.018666666666666668
1 0.19 0.24333333333333335 0.0345 0.020666666666666667
1 0.1065 0.22 0.0245 0.024
0 0.181 0.20133333333333334 0.0075 0.014
0 0.189 0.21266666666666667 0.005 0.011333333333333334
1 0.0605 0.11933333333333333 0.024 0.022
1 0.1825 0.09933333333333333 0.0165 0.02
1 0.199 0.10133333333333333 0.019 0.016666666666666666
1 0.3165 0.21066666666666667 0.02 0.022
1 0.232 0.262 0.033 0.02
1 0.271 0.26666666666666666 0.034 0.018666666666666668
1 0.241 0.3 0.0335 0.02
1 0.28 0.30333333333333334 0.035 0.02
1 0.3245 0.30733333333333335 0.0365 0.02
1 0.308 0.268 0.0305 0.021333333333333333
1 0.3415 0.26866666666666666 0.0295 0.02266666666666667
0 0.355 0.2613333333333333 0.0045 0.012
1 0.385 0.2753333333333333 0.031 0.021333333333333333
1 0.361 0.312 0.032 0.02266666666666667
0 0.401 0.2826666666666667 0.006 0.014
0 0.396 0.29 0.0065 0.019333333333333334
1 0.401 0.31533333333333335 0.0325 0.020666666666666667
1 0.457 0.21866666666666668 0.0125 0.028
1 0.4385 0.31933333333333336 0.0285 0.018
1 0.425 0.278 0.032 0.020666666666666667
1 0.471 0.2806666666666667 0.0285 0.018
1 0.53 0.32666666666666666 0.036 0.020666666666666667
0 0.5125 0.29533333333333334 0.007 0.014
1 0.5115 0.29933333333333334 0.012 0.01
1 0.551 0.27066666666666667 0.025 0.02666666666666667
1 0.6205 0.28733333333333333 0.031 0.027333333333333334
1 0.72 0.37933333333333336 0.0195 0.03933333333333333
1 0.666 0.5206666666666667 0.022 0.048666666666666664
1 0.7005 0.5326666666666666 0.022 0.052
1 0.6715 0.758 0.0305 0.084
1 0.673 0.9046666666666666 0.0445 0.09
1 0.8865 0.56 0.0495 0.082
1 0.622 0.014666666666666666 0.0115 0.018
1 0.635 0.018666666666666668 0.0095 0.017333333333333333
1 0.603 0.10133333333333333 0.0125 0.017333333333333333
1 0.575 0.096 0.0225 0.018
0 0.187 0.14333333333333334 0.0055 0.014666666666666666
0 0.211 0.19666666666666666 0.005 0.013333333333333334
0 0.221 0.10466666666666667 0.0045 0.011333333333333334
0 0.224 0.09866666666666667 0.004 0.008
0 0.2195 0.10333333333333333 0.0045 0.010666666666666666
0 0.2305 0.10933333333333334 0.0045 0.013333333333333334
0 0.2295 0.108 0.0025 0.008666666666666666
0 0.224 0.09666666666666666 0.0035 0.012
