1 0.5828571428571429 0.920952380952381 0.11428571428571428 0.15714285714285714
1 0.14357142857142857 0.9466666666666667 0.1442857142857143 0.10571428571428572
1 0.5285714285714286 0.6276190476190476 0.08071428571428571 0.07523809523809524
1 0.4207142857142857 0.72 0.09857142857142857 0.09047619047619047
1 0.3078571428571429 0.8276190476190476 0.11428571428571428 0.11904761904761904
1 0.35714285714285715 0.8866666666666667 0.11571428571428571 0.1295238095238095
1 0.4992857142857143 0.7485714285714286 0.09571428571428571 0.1019047619047619
1 0.5357142857142857 0.8285714285714286 0.09928571428571428 0.11238095238095239
0 0.7614285714285715 0.8314285714285714 0.02214285714285714 0.0380952380952381
0 0.8064285714285714 0.7685714285714286 0.02214285714285714 0.054285714285714284
0 0.7 0.6409523809523809 0.023571428571428573 0.049523809523809526
0 0.72 0.5752380952380952 0.020714285714285713 0.04857142857142857
0 0.6814285714285714 0.5038095238095238 0.011428571428571429 0.035238095238095235
0 0.7057142857142857 0.4666666666666667 0.014285714285714285 0.03238095238095238
0 0.7164285714285714 0.40285714285714286 0.011428571428571429 0.03333333333333333
0 0.8278571428571428 0.41714285714285715 0.012857142857142857 0.02666666666666667
0 0.835 0.4114285714285714 0.01 0.025714285714285714
0 0.8614285714285714 0.3314285714285714 0.01 0.025714285714285714
0 0.9092857142857143 0.3476190476190476 0.019285714285714285 0.03238095238095238
0 0.9207142857142857 0.3380952380952381 0.011428571428571429 0.023809523809523808
0 0.9814285714285714 0.34285714285714286 0.008571428571428572 0.030476190476190476
0 0.9728571428571429 0.35714285714285715 0.012142857142857143 0.03142857142857143
0 0.9707142857142858 0.3914285714285714 0.009285714285714286 0.025714285714285714
0 0.9664285714285714 0.38 0.009285714285714286 0.022857142857142857
0 0.9407142857142857 0.3342857142857143 0.012857142857142857 0.02857142857142857
0 0.9842857142857143 0.37142857142857144 0.014285714285714285 0.03142857142857143
0 0.9921428571428571 0.3942857142857143 0.014285714285714285 0.03619047619047619
0 0.9264285714285714 0.3323809523809524 0.012142857142857143 0.025714285714285714
1 0.9564285714285714 0.1819047619047619 0.04642857142857143 0.02857142857142857
1 0.8314285714285714 0.17809523809523808 0.03642857142857143 0.02666666666666667
1 0.8178571428571428 0.20285714285714285 0.03571428571428571 0.023809523809523808
1 0.8121428571428572 0.23047619047619047 0.12142857142857143 0.06380952380952382
1 0.755 0.24 0.047142857142857146 0.03333333333333333
1 0.7542857142857143 0.28095238095238095 0.041428571428571426 0.0380952380952381
1 0.8057142857142857 0.32571428571428573 0.03571428571428571 0.04380952380952381
1 0.7757142857142857 0.39904761904761904 0.08214285714285714 0.15047619047619049
0 0.72 0.8114285714285714 0.023571428571428573 0.045714285714285714
1 0.7221428571428572 0.8314285714285714 0.02214285714285714 0.04666666666666667
0 0.3342857142857143 0.5723809523809524 0.011428571428571429 0.024761904761904763
0 0.23785714285714285 0.7104761904761905 0.017142857142857144 0.02761904761904762
1 0.33714285714285713 0.580952380952381 0.022857142857142857 0.01619047619047619
1 0.2342857142857143 0.719047619047619 0.045714285714285714 0.01904761904761905
1 0.34714285714285714 0.5047619047619047 0.062142857142857146 0.047619047619047616
1 0.26571428571428574 0.5523809523809524 0.09071428571428572 0.08285714285714285
1 0.14785714285714285 0.6314285714285715 0.08785714285714286 0.08285714285714285
1 0.04642857142857143 0.7142857142857143 0.09285714285714286 0.09333333333333334
0 0.3742857142857143 0.45714285714285713 0.010714285714285714 0.02857142857142857
0 0.20142857142857143 0.35333333333333333 0.01 0.018095238095238095
0 0.22 0.37142857142857144 0.012142857142857143 0.021904761904761906
0 0.2092857142857143 0.4276190476190476 0.01 0.02
0 0.215 0.41904761904761906 0.008571428571428572 0.021904761904761906
0 0.22428571428571428 0.4180952380952381 0.012142857142857143 0.018095238095238095
0 0.23 0.43333333333333335 0.010714285714285714 0.01904761904761905
0 0.24714285714285714 0.4342857142857143 0.009285714285714286 0.02095238095238095
0 0.24142857142857144 0.43333333333333335 0.007857142857142858 0.015238095238095238
0 0.5378571428571428 0.3438095238095238 0.008571428571428572 0.022857142857142857
1 0.5971428571428572 0.36 0.045 0.04285714285714286
1 0.645 0.36666666666666664 0.04214285714285714 0.04476190476190476
0 0.7035714285714286 0.2876190476190476 0.01 0.02666666666666667
0 0.6742857142857143 0.2723809523809524 0.01 0.02095238095238095
1 0.6592857142857143 0.28095238095238095 0.027142857142857142 0.030476190476190476
0 0.49214285714285716 0.379047619047619 0.011428571428571429 0.03238095238095238
0 0.6235714285714286 0.27714285714285714 0.0064285714285714285 0.02095238095238095
0 0.6271428571428571 0.2866666666666667 0.004285714285714286 0.022857142857142857
0 0.6314285714285715 0.2866666666666667 0.007142857142857143 0.025714285714285714
0 0.7521428571428571 0.3076190476190476 0.008571428571428572 0.018095238095238095
1 0.7528571428571429 0.3142857142857143 0.015714285714285715 0.013333333333333334
1 0.012857142857142857 0.3295238095238095 0.010714285714285714 0.017142857142857144
1 0.022857142857142857 0.32476190476190475 0.015 0.018095238095238095
0 0.08857142857142856 0.25523809523809526 0.007857142857142858 0.01904761904761905
0 0.09071428571428572 0.2438095238095238 0.007857142857142858 0.014285714285714285
0 0.09642857142857143 0.2542857142857143 0.01 0.021904761904761906
0 0.12071428571428572 0.2542857142857143 0.010714285714285714 0.02095238095238095
1 0.11642857142857142 0.3 0.04428571428571428 0.02666666666666667
1 0.14785714285714285 0.3171428571428571 0.05 0.024761904761904763
1 0.16214285714285714 0.30095238095238097 0.04 0.021904761904761906
1 0.16785714285714284 0.29523809523809524 0.03428571428571429 0.025714285714285714
1 0.175 0.2895238095238095 0.032857142857142856 0.02095238095238095
1 0.185 0.28095238095238095 0.03428571428571429 0.022857142857142857
1 0.19071428571428573 0.2704761904761905 0.039285714285714285 0.022857142857142857
1 0.19071428571428573 0.3304761904761905 0.052142857142857144 0.02666666666666667
1 0.1657142857142857 0.36 0.060714285714285714 0.02666666666666667
1 0.15571428571428572 0.3838095238095238 0.06357142857142857 0.02761904761904762
1 0.14 0.4066666666666667 0.07142857142857142 0.039047619047619046
1 0.25 0.18 0.029285714285714286 0.023809523809523808
1 0.21428571428571427 0.19047619047619047 0.030714285714285715 0.017142857142857144
1 0.21 0.18761904761904763 0.030714285714285715 0.01619047619047619
1 0.19642857142857142 0.18571428571428572 0.027142857142857142 0.015238095238095238
1 0.1957142857142857 0.18285714285714286 0.030714285714285715 0.01904761904761905
1 0.18857142857142858 0.17523809523809525 0.027142857142857142 0.01904761904761905
1 0.1757142857142857 0.17047619047619048 0.025 0.01619047619047619
1 0.17 0.16952380952380952 0.029285714285714286 0.018095238095238095
1 0.165 0.16666666666666666 0.027142857142857142 0.013333333333333334
1 0.15071428571428572 0.16 0.027857142857142858 0.017142857142857144
1 0.15 0.1523809523809524 0.03571428571428571 0.02095238095238095
1 0.13785714285714284 0.15523809523809523 0.02142857142857143 0.014285714285714285
1 0.13357142857142856 0.15142857142857144 0.025 0.012380952380952381
1 0.19714285714285715 0.15714285714285714 0.03214285714285714 0.018095238095238095
1 0.18214285714285713 0.15142857142857144 0.017857142857142856 0.012380952380952381
1 0.17857142857142858 0.14952380952380953 0.015714285714285715 0.009523809523809525
1 0.16714285714285715 0.1457142857142857 0.025714285714285714 0.014285714285714285
1 0.15642857142857142 0.14 0.016428571428571428 0.012380952380952381
1 0.2621428571428571 0.14952380952380953 0.025714285714285714 0.017142857142857144
1 0.25357142857142856 0.1438095238095238 0.029285714285714286 0.017142857142857144
1 0.24642857142857144 0.14285714285714285 0.027857142857142858 0.014285714285714285
1 0.23785714285714285 0.14095238095238094 0.02214285714285714 0.012380952380952381
1 0.22785714285714287 0.13523809523809524 0.027142857142857142 0.015238095238095238
1 0.21285714285714286 0.13238095238095238 0.025 0.01904761904761905
0 0.16642857142857143 0.19714285714285715 0.008571428571428572 0.018095238095238095
1 0.32285714285714284 0.16666666666666666 0.047857142857142855 0.03333333333333333
1 0.30428571428571427 0.16 0.027857142857142858 0.01904761904761905
1 0.22714285714285715 0.23809523809523808 0.027142857142857142 0.024761904761904763
1 0.23642857142857143 0.22666666666666666 0.025714285714285714 0.01619047619047619
1 0.24785714285714286 0.2219047619047619 0.027142857142857142 0.014285714285714285
1 0.2507142857142857 0.21714285714285714 0.029285714285714286 0.014285714285714285
1 0.25214285714285717 0.20666666666666667 0.03785714285714286 0.01619047619047619
1 0.26142857142857145 0.12380952380952381 0.019285714285714285 0.017142857142857144
1 0.28 0.12 0.017142857142857144 0.017142857142857144
1 0.28714285714285714 0.13047619047619047 0.019285714285714285 0.014285714285714285
1 0.29928571428571427 0.12666666666666668 0.016428571428571428 0.017142857142857144
1 0.3142857142857143 0.12380952380952381 0.017142857142857144 0.01619047619047619
1 0.3271428571428571 0.13333333333333333 0.019285714285714285 0.015238095238095238
1 0.3271428571428571 0.1438095238095238 0.024285714285714285 0.01904761904761905
1 0.37 0.15523809523809523 0.023571428571428573 0.01619047619047619
1 0.37285714285714283 0.1457142857142857 0.024285714285714285 0.01904761904761905
1 0.39785714285714285 0.14476190476190476 0.025714285714285714 0.017142857142857144
1 0.4035714285714286 0.16476190476190475 0.023571428571428573 0.02095238095238095
1 0.4235714285714286 0.16095238095238096 0.022857142857142857 0.018095238095238095
1 0.44142857142857145 0.14952380952380953 0.024285714285714285 0.014285714285714285
1 0.45714285714285713 0.17904761904761904 0.03 0.021904761904761906
1 0.4785714285714286 0.1657142857142857 0.055 0.04476190476190476
1 0.5014285714285714 0.19142857142857142 0.02642857142857143 0.01904761904761905
1 0.5221428571428571 0.1819047619047619 0.020714285714285713 0.017142857142857144
1 0.5792857142857143 0.2019047619047619 0.08142857142857143 0.05047619047619047
1 0.6385714285714286 0.23904761904761904 0.032857142857142856 0.03238095238095238
1 0.6442857142857142 0.21047619047619048 0.03214285714285714 0.029523809523809525
1 0.6607142857142857 0.20285714285714285 0.029285714285714286 0.025714285714285714
1 0.7071428571428572 0.20761904761904762 0.04285714285714286 0.025714285714285714
1 0.685 0.14857142857142858 0.03214285714285714 0.01904761904761905
1 0.7392857142857143 0.1523809523809524 0.04857142857142857 0.021904761904761906
0 0.3057142857142857 0.20666666666666667 0.009285714285714286 0.021904761904761906
0 0.245 0.2571428571428571 0.005714285714285714 0.018095238095238095
