1 0.5224425887265136 0.6873840445269017 0.011482254697286013 0.03710575139146568
0 0.5229645093945721 0.6892393320964749 0.004697286012526096 0.017625231910946195
1 0.55741127348643 0.424860853432282 0.009394572025052192 0.017625231910946195
1 0.5636743215031316 0.46938775510204084 0.010438413361169102 0.01948051948051948
1 0.5652400835073069 0.5445269016697588 0.009916492693110648 0.029684601113172542
1 0.5349686847599165 0.24118738404452691 0.005741127348643006 0.014842300556586271
1 0.634133611691023 0.5890538033395176 0.02870563674321503 0.0287569573283859
1 0.680062630480167 0.6808905380333952 0.01826722338204593 0.01948051948051948
1 0.7025052192066806 0.9035250463821892 0.04697286012526096 0.041743970315398886
1 0.7030271398747391 0.862708719851577 0.01722338204592902 0.04916512059369202
1 0.5908141962421712 0.6103896103896104 0.010438413361169102 0.025974025974025976
1 0.5187891440501043 0.6261595547309833 0.005741127348643006 0.017625231910946195
1 0.5673277661795407 0.3395176252319109 0.008872651356993737 0.02411873840445269
1 0.18684759916492694 0.3423005565862709 0.012004175365344467 0.012059369202226345
0 0.5193110647181628 0.62152133580705 0.0041753653444676405 0.017625231910946195
