0 0.5128571428571429 0.7855329949238579 0.0064285714285714285 0.021573604060913704
0 0.5314285714285715 0.7690355329949239 0.007857142857142858 0.02030456852791878
1 0.5178571428571429 0.6548223350253807 0.075 0.15862944162436549
1 0.425 0.7030456852791879 0.09428571428571429 0.15355329949238578
1 0.255 0.6814720812182741 0.07571428571428572 0.14720812182741116
1 0.19714285714285715 0.5050761421319797 0.065 0.12309644670050761
1 0.15928571428571428 0.4022842639593909 0.054285714285714284 0.10279187817258884
1 0.24071428571428571 0.366751269035533 0.04642857142857143 0.09517766497461928
1 0.5828571428571429 0.2563451776649746 0.07285714285714286 0.07868020304568528
1 0.6535714285714286 0.40482233502538073 0.02214285714285714 0.03807106598984772
1 0.7007142857142857 0.5317258883248731 0.032857142857142856 0.04568527918781726
1 0.73 0.5862944162436549 0.035 0.05203045685279188
1 0.7692857142857142 0.6421319796954315 0.039285714285714285 0.05583756345177665
1 0.7971428571428572 0.5050761421319797 0.05357142857142857 0.0901015228426396
1 0.6728571428571428 0.13959390862944163 0.007142857142857143 0.017766497461928935
1 0.7635714285714286 0.14593908629441624 0.013571428571428571 0.0266497461928934
1 0.775 0.116751269035533 0.011428571428571429 0.024111675126903553
