1 0.9371428571428572 0.6085714285714285 0.09357142857142857 0.11333333333333333
1 0.8378571428571429 0.43047619047619046 0.060714285714285714 0.06952380952380953
1 0.7771428571428571 0.4561904761904762 0.05928571428571429 0.08285714285714285
0 0.9521428571428572 0.43333333333333335 0.02142857142857143 0.0419047619047619
0 0.7642857142857142 0.2895238095238095 0.009285714285714286 0.022857142857142857
1 0.7642857142857142 0.29619047619047617 0.011428571428571429 0.021904761904761906
1 0.7357142857142858 0.16666666666666666 0.03857142857142857 0.02761904761904762
0 0.6514285714285715 0.11333333333333333 0.004285714285714286 0.015238095238095238
1 0.6235714285714286 0.23142857142857143 0.03571428571428571 0.058095238095238096
1 0.6935714285714286 0.13333333333333333 0.03785714285714286 0.02
1 0.6878571428571428 0.12761904761904763 0.035 0.01904761904761905
1 0.6578571428571428 0.11142857142857143 0.012142857142857143 0.014285714285714285
1 0.6471428571428571 0.10095238095238095 0.012142857142857143 0.014285714285714285
1 0.64 0.09238095238095238 0.014285714285714285 0.013333333333333334
1 0.5707142857142857 0.04 0.008571428571428572 0.008571428571428572
0 0.5935714285714285 0.06761904761904762 0.0035714285714285713 0.013333333333333334
0 0.5892857142857143 0.06666666666666667 0.005 0.012380952380952381
0 0.5771428571428572 0.05714285714285714 0.005 0.014285714285714285
1 0.6464285714285715 0.8228571428571428 0.09285714285714286 0.18095238095238095
1 0.6135714285714285 0.6371428571428571 0.06928571428571428 0.12571428571428572
1 0.5885714285714285 0.5228571428571429 0.04928571428571429 0.07714285714285714
1 0.5771428571428572 0.44476190476190475 0.04857142857142857 0.07238095238095238
1 0.3914285714285714 0.9276190476190476 0.1692857142857143 0.11619047619047619
1 0.38785714285714284 0.82 0.15571428571428572 0.09333333333333334
1 0.31357142857142856 0.7285714285714285 0.02142857142857143 0.06666666666666667
1 0.39785714285714285 0.74 0.14142857142857143 0.07904761904761905
1 0.4014285714285714 0.6752380952380952 0.11571428571428571 0.08095238095238096
1 0.415 0.6161904761904762 0.11714285714285715 0.06952380952380953
1 0.4228571428571429 0.5704761904761905 0.11285714285714285 0.05619047619047619
1 0.41785714285714287 0.5257142857142857 0.10428571428571429 0.054285714285714284
0 0.5014285714285714 0.6114285714285714 0.016428571428571428 0.05142857142857143
1 0.435 0.4533333333333333 0.08785714285714286 0.05523809523809524
1 0.43785714285714283 0.4219047619047619 0.08 0.049523809523809526
0 0.5478571428571428 0.37714285714285717 0.013571428571428571 0.04285714285714286
1 0.3985714285714286 0.35904761904761906 0.010714285714285714 0.029523809523809525
1 0.38357142857142856 0.35714285714285715 0.014285714285714285 0.037142857142857144
1 0.37785714285714284 0.3161904761904762 0.012142857142857143 0.025714285714285714
1 0.3707142857142857 0.28095238095238095 0.009285714285714286 0.02761904761904762
1 0.15714285714285714 0.11428571428571428 0.015714285714285715 0.018095238095238095
1 0.3914285714285714 0.28476190476190477 0.020714285714285713 0.02095238095238095
1 0.41785714285714287 0.2780952380952381 0.012142857142857143 0.017142857142857144
1 0.4257142857142857 0.26761904761904765 0.011428571428571429 0.01619047619047619
1 0.42928571428571427 0.25523809523809526 0.010714285714285714 0.01904761904761905
0 0.46285714285714286 0.23523809523809525 0.008571428571428572 0.02761904761904762
1 0.45357142857142857 0.36 0.07357142857142857 0.04
1 0.4514285714285714 0.32 0.065 0.039047619047619046
1 0.45785714285714285 0.3038095238095238 0.065 0.03142857142857143
1 0.45785714285714285 0.2904761904761905 0.05928571428571429 0.035238095238095235
1 0.46214285714285713 0.27714285714285714 0.05 0.029523809523809525
1 0.46214285714285713 0.26095238095238094 0.05142857142857143 0.02857142857142857
1 0.4642857142857143 0.25333333333333335 0.05714285714285714 0.02857142857142857
1 0.5614285714285714 0.3419047619047619 0.035 0.06380952380952382
1 0.5121428571428571 0.18857142857142858 0.02 0.02761904761904762
1 0.4685714285714286 0.1838095238095238 0.039285714285714285 0.022857142857142857
1 0.46285714285714286 0.1676190476190476 0.039285714285714285 0.022857142857142857
1 0.43785714285714283 0.17047619047619048 0.005714285714285714 0.01619047619047619
1 0.46785714285714286 0.16 0.03571428571428571 0.018095238095238095
1 0.4657142857142857 0.15619047619047619 0.03857142857142857 0.02
1 0.445 0.15142857142857144 0.007857142857142858 0.01619047619047619
1 0.4685714285714286 0.14857142857142858 0.03428571428571429 0.017142857142857144
1 0.4707142857142857 0.1419047619047619 0.027142857142857142 0.02095238095238095
1 0.44142857142857145 0.13714285714285715 0.010714285714285714 0.009523809523809525
1 0.44357142857142856 0.13142857142857142 0.010714285714285714 0.008571428571428572
1 0.45714285714285713 0.12857142857142856 0.01 0.010476190476190476
1 0.47285714285714286 0.13047619047619047 0.029285714285714286 0.018095238095238095
1 0.4707142857142857 0.12285714285714286 0.027857142857142858 0.02
1 0.47285714285714286 0.09333333333333334 0.020714285714285713 0.014285714285714285
1 0.47928571428571426 0.09238095238095238 0.02142857142857143 0.012380952380952381
1 0.47285714285714286 0.10095238095238095 0.025714285714285714 0.01619047619047619
1 0.4707142857142857 0.10285714285714286 0.025714285714285714 0.013333333333333334
1 0.4685714285714286 0.10666666666666667 0.02642857142857143 0.01619047619047619
1 0.47 0.10857142857142857 0.027857142857142858 0.014285714285714285
1 0.4714285714285714 0.11333333333333333 0.025714285714285714 0.014285714285714285
1 0.47214285714285714 0.11904761904761904 0.027857142857142858 0.01904761904761905
0 0.49 0.13428571428571429 0.0035714285714285713 0.013333333333333334
0 0.49357142857142855 0.13142857142857142 0.005 0.014285714285714285
0 0.5007142857142857 0.15047619047619049 0.004285714285714286 0.01619047619047619
1 0.5007142857142857 0.15333333333333332 0.005 0.014285714285714285
0 0.45 0.11428571428571428 0.004285714285714286 0.013333333333333334
0 0.4514285714285714 0.08857142857142856 0.0035714285714285713 0.014285714285714285
0 0.48 0.06285714285714286 0.002857142857142857 0.009523809523809525
0 0.4942857142857143 0.05333333333333334 0.002857142857142857 0.009523809523809525
0 0.49642857142857144 0.054285714285714284 0.002142857142857143 0.009523809523809525
0 0.49357142857142855 0.040952380952380955 0.002142857142857143 0.007619047619047619
0 0.49714285714285716 0.0419047619047619 0.002857142857142857 0.007619047619047619
0 0.4942857142857143 0.03238095238095238 0.0035714285714285713 0.008571428571428572
1 0.48928571428571427 0.03142857142857143 0.005714285714285714 0.009523809523809525
1 0.48142857142857143 0.030476190476190476 0.0064285714285714285 0.006666666666666667
1 0.4757142857142857 0.06 0.017857142857142856 0.008571428571428572
