1 0.5585714285714286 0.6281725888324873 0.02142857142857143 0.09263959390862944
1 0.6378571428571429 0.6776649746192893 0.027142857142857142 0.09771573604060914
1 0.6335714285714286 0.5545685279187818 0.025 0.08375634517766498
1 0.6307142857142857 0.4517766497461929 0.024285714285714285 0.0850253807106599
1 0.6407142857142857 0.8147208121827412 0.02642857142857143 0.1116751269035533
1 0.6514285714285715 0.9403553299492385 0.029285714285714286 0.11294416243654823
1 0.62 0.2639593908629442 0.024285714285714285 0.07741116751269035
1 0.6171428571428571 0.17639593908629442 0.019285714285714285 0.07106598984771574
1 0.36714285714285716 0.4479695431472081 0.05357142857142857 0.05456852791878172
1 0.36357142857142855 0.3870558375634518 0.05357142857142857 0.046954314720812185
1 0.37142857142857144 0.28553299492385786 0.05 0.03934010152284264
1 0.3742857142857143 0.2436548223350254 0.04857142857142857 0.03680203045685279
1 0.38142857142857145 0.2017766497461929 0.04857142857142857 0.04060913705583756
1 0.3792857142857143 0.15862944162436549 0.04285714285714286 0.03680203045685279
1 0.39071428571428574 0.07487309644670051 0.04428571428571428 0.050761421319796954
1 0.2714285714285714 0.7284263959390863 0.056428571428571425 0.06852791878172589
1 0.25857142857142856 0.8401015228426396 0.05285714285714286 0.044416243654822336
1 0.2671428571428571 0.6370558375634517 0.06 0.04314720812182741
1 0.2664285714285714 0.5799492385786802 0.045714285714285714 0.04568527918781726
1 0.2792857142857143 0.49746192893401014 0.055 0.04187817258883249
1 0.28214285714285714 0.4517766497461929 0.05142857142857143 0.03934010152284264
1 0.2892857142857143 0.4035532994923858 0.056428571428571425 0.048223350253807105
1 0.2935714285714286 0.3604060913705584 0.05357142857142857 0.04187817258883249
1 0.29714285714285715 0.3210659898477157 0.045 0.03553299492385787
1 0.3057142857142857 0.2817258883248731 0.05285714285714286 0.03553299492385787
1 0.305 0.24746192893401014 0.052142857142857144 0.03553299492385787
1 0.3057142857142857 0.20431472081218274 0.05357142857142857 0.03934010152284264
1 0.31285714285714283 0.17258883248730963 0.04857142857142857 0.030456852791878174
1 0.32285714285714284 0.12563451776649745 0.04857142857142857 0.03426395939086294
1 0.32142857142857145 0.08883248730964467 0.04928571428571429 0.04187817258883249
1 0.20142857142857143 0.3553299492385787 0.03 0.07741116751269035
1 0.3485714285714286 0.549492385786802 0.06928571428571428 0.05710659898477157
1 0.2392857142857143 0.9758883248730964 0.06928571428571428 0.044416243654822336
1 0.25285714285714284 0.16116751269035534 0.02642857142857143 0.08756345177664974
1 0.2357142857142857 0.046954314720812185 0.020714285714285713 0.05710659898477157
1 0.27071428571428574 0.04949238578680203 0.02 0.06472081218274112
0 0.28285714285714286 0.0850253807106599 0.009285714285714286 0.030456852791878174
0 0.22214285714285714 0.1916243654822335 0.014285714285714285 0.03299492385786802
0 0.12857142857142856 0.9149746192893401 0.015 0.02918781725888325
1 0.32857142857142857 0.01649746192893401 0.06 0.03426395939086294
1 0.39357142857142857 0.01649746192893401 0.045714285714285714 0.03426395939086294
1 0.6171428571428571 0.09898477157360407 0.018571428571428572 0.05964467005076142
1 0.6142857142857143 0.025380710659898477 0.025 0.050761421319796954
1 0.625 0.35279187817258884 0.022857142857142857 0.06979695431472081
0 0.6121428571428571 0.6522842639593909 0.010714285714285714 0.031725888324873094
0 0.41 0.19416243654822335 0.009285714285714286 0.027918781725888325
0 0.19 0.42258883248730966 0.01 0.01903553299492386
