1 0.6571428571428571 0.8616751269035533 0.05285714285714286 0.06345177664974619
1 0.39785714285714285 0.8591370558375635 0.023571428571428573 0.08375634517766498
1 0.31142857142857144 0.883248730964467 0.029285714285714286 0.08756345177664974
1 0.4157142857142857 0.3464467005076142 0.016428571428571428 0.048223350253807105
1 0.5071428571428571 0.28553299492385786 0.016428571428571428 0.05710659898477157
1 0.5457142857142857 0.46573604060913704 0.02 0.0583756345177665
1 0.5828571428571429 0.5621827411167513 0.03428571428571429 0.05583756345177665
1 0.885 0.5329949238578681 0.04214285714285714 0.03934010152284264
1 0.9428571428571428 0.5266497461928934 0.041428571428571426 0.03680203045685279
1 0.44857142857142857 0.949238578680203 0.02214285714285714 0.09771573604060914
1 0.9892857142857143 0.5063451776649747 0.02142857142857143 0.03680203045685279
1 0.74 0.567258883248731 0.05 0.04949238578680203
1 0.8285714285714286 0.549492385786802 0.05 0.04568527918781726
1 0.5335714285714286 0.6814720812182741 0.023571428571428573 0.08248730964467005
1 0.4857142857142857 0.8553299492385786 0.02214285714285714 0.10025380710659898
1 0.45357142857142857 0.01015228426395939 0.014285714285714285 0.017766497461928935
0 0.3007142857142857 0.37055837563451777 0.005714285714285714 0.021573604060913704
0 0.37357142857142855 0.10406091370558376 0.0064285714285714285 0.01903553299492386
0 0.4328571428571429 0.10532994923857868 0.007142857142857143 0.017766497461928935
0 0.32857142857142857 0.22715736040609136 0.007857142857142858 0.021573604060913704
0 0.7757142857142857 0.6434010152284264 0.005 0.01903553299492386
