1 0.46346555323590816 0.6790352504638218 0.04018789144050104 0.06957328385899815
1 0.43893528183716074 0.7050092764378478 0.03914405010438413 0.06679035250463822
1 0.48643006263048016 0.6595547309833024 0.03392484342379958 0.0640074211502783
1 0.407098121085595 0.7309833024118738 0.015135699373695199 0.027829313543599257
1 0.5041753653444676 0.6298701298701299 0.018789144050104383 0.03339517625231911
1 0.6252609603340292 0.5250463821892394 0.022964509394572025 0.04359925788497217
1 0.6440501043841336 0.5157699443413729 0.021920668058455117 0.03339517625231911
1 0.7150313152400835 0.22170686456400743 0.024530271398747392 0.03153988868274583
1 0.7280793319415448 0.2690166975881262 0.03392484342379958 0.03432282003710575
1 0.7494780793319415 0.24953617810760667 0.030793319415448852 0.030612244897959183
1 0.7729645093945721 0.20686456400742115 0.024530271398747392 0.030612244897959183
1 0.7520876826722338 0.18738404452690166 0.022964509394572025 0.029684601113172542
1 0.6236951983298539 0.09554730983302412 0.050626304801670144 0.041743970315398886
1 0.545929018789144 0.06586270871985157 0.017745302713987474 0.026901669758812616
1 0.8053235908141962 0.029684601113172542 0.014091858037578288 0.02411873840445269
1 0.7896659707724426 0.022263450834879406 0.014613778705636743 0.02504638218923933
1 0.7755741127348643 0.02040816326530612 0.015135699373695199 0.02411873840445269
1 0.7437369519832986 0.008348794063079777 0.014091858037578288 0.017625231910946195
1 0.5250521920668059 0.05380333951762523 0.019832985386221295 0.02411873840445269
1 0.2985386221294363 0.8367346938775511 0.03496868475991649 0.08905380333951762
1 0.13883089770354906 0.6159554730983302 0.04645093945720251 0.05194805194805195
1 0.0824634655532359 0.5371057513914657 0.04645093945720251 0.061224489795918366
1 0.059498956158663886 0.2857142857142857 0.02244258872651357 0.041743970315398886
1 0.037056367432150315 0.29313543599257885 0.022964509394572025 0.041743970315398886
1 0.019832985386221295 0.2625231910946197 0.031837160751565764 0.032467532467532464
1 0.778705636743215 0.4035250463821892 0.038100208768267224 0.04267161410018553
1 0.7917536534446764 0.39332096474953615 0.04018789144050104 0.04267161410018553
1 0.8053235908141962 0.38404452690166974 0.037056367432150315 0.041743970315398886
1 0.8622129436325678 0.025974025974025976 0.008872651356993737 0.01020408163265306
1 0.894572025052192 0.011131725417439703 0.02244258872651357 0.023191094619666047
