1 0.12 0.8685714285714285 0.125 0.26285714285714284
1 0.7328571428571429 0.9171428571428571 0.2 0.1361904761904762
1 0.5492857142857143 0.9466666666666667 0.06357142857142857 0.1
0 0.5507142857142857 0.8257142857142857 0.02642857142857143 0.05047619047619047
0 0.5778571428571428 0.8247619047619048 0.025 0.04380952380952381
1 0.07928571428571428 0.6942857142857143 0.10428571428571429 0.17904761904761904
1 0.20142857142857143 0.5685714285714286 0.08285714285714285 0.16
1 0.14 0.5228571428571429 0.08 0.1457142857142857
1 0.5807142857142857 0.6123809523809524 0.06428571428571428 0.16285714285714287
1 0.425 0.5771428571428572 0.06285714285714286 0.16095238095238096
1 0.18142857142857144 0.3914285714285714 0.06428571428571428 0.10285714285714286
1 0.42428571428571427 0.43238095238095237 0.05857142857142857 0.13904761904761906
1 0.485 0.36 0.045 0.10380952380952381
1 0.42857142857142855 0.30952380952380953 0.045 0.09333333333333334
0 0.435 0.3466666666666667 0.012857142857142857 0.054285714285714284
1 0.6235714285714286 0.2714285714285714 0.10071428571428571 0.0761904761904762
0 0.5364285714285715 0.5780952380952381 0.019285714285714285 0.05523809523809524
0 0.6464285714285715 0.6295238095238095 0.017857142857142856 0.05333333333333334
0 0.7764285714285715 0.5514285714285714 0.025714285714285714 0.0419047619047619
0 0.6807142857142857 0.4980952380952381 0.02 0.049523809523809526
0 0.7535714285714286 0.4638095238095238 0.02 0.05142857142857143
0 0.6564285714285715 0.38952380952380955 0.017857142857142856 0.05523809523809524
0 0.6957142857142857 0.3333333333333333 0.02 0.04476190476190476
1 0.6521428571428571 0.3333333333333333 0.022857142857142857 0.04666666666666667
0 0.5328571428571428 0.40190476190476193 0.014285714285714285 0.05142857142857143
0 0.5142857142857142 0.40190476190476193 0.016428571428571428 0.05333333333333334
0 0.5257142857142857 0.3142857142857143 0.016428571428571428 0.047619047619047616
0 0.53 0.2857142857142857 0.014285714285714285 0.03428571428571429
0 0.5557142857142857 0.2876190476190476 0.012857142857142857 0.05047619047619047
1 0.20285714285714285 0.29619047619047617 0.06642857142857143 0.10380952380952381
1 0.23142857142857143 0.20095238095238097 0.05285714285714286 0.09142857142857143
0 0.2814285714285714 0.1380952380952381 0.014285714285714285 0.04380952380952381
1 0.2507142857142857 0.13428571428571429 0.045714285714285714 0.06761904761904762
1 0.27 0.08285714285714285 0.04214285714285714 0.05904761904761905
1 0.28785714285714287 0.037142857142857144 0.037142857142857144 0.05238095238095238
1 0.3007142857142857 0.010476190476190476 0.03571428571428571 0.02
0 0.5185714285714286 0.04476190476190476 0.009285714285714286 0.03619047619047619
1 0.43214285714285716 0.08190476190476191 0.030714285714285715 0.058095238095238096
1 0.4307142857142857 0.1438095238095238 0.03142857142857143 0.06761904761904762
1 0.42857142857142855 0.21904761904761905 0.032857142857142856 0.07809523809523809
1 0.47714285714285715 0.21523809523809523 0.03357142857142857 0.06761904761904762
1 0.47714285714285715 0.13333333333333333 0.035 0.058095238095238096
1 0.6157142857142858 0.24 0.08 0.058095238095238096
1 0.6028571428571429 0.20285714285714285 0.08071428571428571 0.05238095238095238
1 0.5985714285714285 0.16952380952380952 0.08357142857142857 0.05238095238095238
1 0.5907142857142857 0.14 0.08571428571428572 0.05523809523809524
1 0.5807142857142857 0.11428571428571428 0.07571428571428572 0.04666666666666667
1 0.5728571428571428 0.08666666666666667 0.065 0.04857142857142857
1 0.5785714285714286 0.06761904761904762 0.07214285714285715 0.0380952380952381
