1 0.9890396659707724 0.6836734693877551 0.020876826722338204 0.045454545454545456
1 0.5636743215031316 0.12708719851576994 0.008350730688935281 0.014842300556586271
1 0.5474947807933194 0.07977736549165121 0.005741127348643006 0.015769944341372914
1 0.5485386221294363 0.11224489795918367 0.007828810020876827 0.014842300556586271
1 0.5558455114822547 0.05844155844155844 0.006784968684759917 0.011131725417439703
0 0.3872651356993737 0.5176252319109462 0.004697286012526096 0.013914656771799629
0 0.3862212943632568 0.48330241187384043 0.005741127348643006 0.013914656771799629
0 0.424321503131524 0.34415584415584416 0.005219206680584551 0.00927643784786642
0 0.4311064718162839 0.2922077922077922 0.004697286012526096 0.012059369202226345
0 0.4352818371607516 0.29777365491651203 0.005219206680584551 0.00927643784786642
0 0.6263048016701461 0.29777365491651203 0.0036534446764091857 0.00927643784786642
0 0.6367432150313153 0.30241187384044527 0.0026096033402922755 0.01020408163265306
0 0.5829853862212944 0.2189239332096475 0.0036534446764091857 0.012987012987012988
0 0.581419624217119 0.16512059369202226 0.003131524008350731 0.00927643784786642
0 0.49164926931106473 0.09183673469387756 0.0026096033402922755 0.006493506493506494
0 0.4932150313152401 0.06957328385899815 0.003131524008350731 0.006493506493506494
0 0.7734864300626305 0.9545454545454546 0.010960334029227558 0.023191094619666047
0 0.7719206680584552 0.7903525046382189 0.009394572025052192 0.025974025974025976
0 0.5829853862212944 0.14842300556586271 0.004697286012526096 0.008348794063079777
0 0.5730688935281837 0.06957328385899815 0.003131524008350731 0.006493506493506494
1 0.49269311064718163 0.075139146567718 0.003131524008350731 0.0037105751391465678
1 0.4921711899791232 0.09833024118738404 0.0020876826722338203 0.0055658627087198514
1 0.5730688935281837 0.07606679035250463 0.003131524008350731 0.0055658627087198514
1 0.5824634655532359 0.1549165120593692 0.0026096033402922755 0.006493506493506494
1 0.581419624217119 0.17068645640074212 0.0036534446764091857 0.0074211502782931356
1 0.5829853862212944 0.22634508348794063 0.004697286012526096 0.008348794063079777
1 0.6263048016701461 0.30612244897959184 0.004697286012526096 0.008348794063079777
1 0.6362212943632568 0.31261595547309834 0.003131524008350731 0.01020408163265306
1 0.43580375782881003 0.30612244897959184 0.004697286012526096 0.0074211502782931356
1 0.42954070981210857 0.3014842300556586 0.003131524008350731 0.0074211502782931356
1 0.42379958246346555 0.35435992578849723 0.005741127348643006 0.011131725417439703
1 0.38569937369519836 0.5009276437847866 0.007828810020876827 0.015769944341372914
1 0.3862212943632568 0.5333951762523191 0.006784968684759917 0.015769944341372914
1 0.7719206680584552 0.7987012987012987 0.02244258872651357 0.01855287569573284
1 0.7682672233820459 0.9666048237476809 0.013048016701461378 0.03525046382189239
0 0.5683716075156576 0.027829313543599257 0.0020876826722338203 0.01020408163265306
0 0.5005219206680585 0.017625231910946195 0.0020876826722338203 0.011131725417439703
0 0.6680584551148225 0.46382189239332094 0.0041753653444676405 0.012059369202226345
1 0.6664926931106472 0.4712430426716141 0.007828810020876827 0.01948051948051948
0 0.5923799582463466 0.19202226345083487 0.0026096033402922755 0.013914656771799629
0 0.5934237995824635 0.18552875695732837 0.003131524008350731 0.013914656771799629
