1 0.03642857142857143 0.3743654822335025 0.039285714285714285 0.05456852791878172
1 0.5757142857142857 0.9225888324873096 0.02142857142857143 0.08121827411167512
1 0.5064285714285715 0.7055837563451777 0.016428571428571428 0.05710659898477157
1 0.5607142857142857 0.6357868020304569 0.02 0.0532994923857868
0 0.6257142857142857 0.766497461928934 0.0035714285714285713 0.01903553299492386
0 0.6564285714285715 0.7208121827411168 0.0064285714285714285 0.021573604060913704
0 0.6142857142857143 0.7144670050761421 0.007142857142857143 0.02284263959390863
1 0.5535714285714286 0.48984771573604063 0.013571428571428571 0.03553299492385787
1 0.47214285714285714 0.5393401015228426 0.013571428571428571 0.03680203045685279
1 0.5414285714285715 0.41878172588832485 0.012142857142857143 0.030456852791878174
1 0.5314285714285715 0.35913705583756345 0.012142857142857143 0.03680203045685279
1 0.5485714285714286 0.34517766497461927 0.011428571428571429 0.030456852791878174
1 0.5314285714285715 0.3032994923857868 0.009285714285714286 0.02284263959390863
1 0.4692857142857143 0.30456852791878175 0.010714285714285714 0.02284263959390863
1 0.5271428571428571 0.22842639593908629 0.011428571428571429 0.03426395939086294
1 0.545 0.2817258883248731 0.010714285714285714 0.021573604060913704
1 0.5157142857142857 0.20939086294416243 0.007857142857142858 0.017766497461928935
1 0.5428571428571428 0.20558375634517767 0.008571428571428572 0.02030456852791878
1 0.495 0.1802030456852792 0.008571428571428572 0.012690355329949238
1 0.4835714285714286 0.15736040609137056 0.007857142857142858 0.01903553299492386
1 0.4714285714285714 0.1548223350253807 0.007857142857142858 0.015228426395939087
1 0.4857142857142857 0.12055837563451777 0.007142857142857143 0.011421319796954314
1 0.4992857142857143 0.1065989847715736 0.007142857142857143 0.01015228426395939
1 0.5278571428571428 0.10025380710659898 0.01 0.03934010152284264
1 0.5271428571428571 0.06725888324873096 0.007142857142857143 0.015228426395939087
1 0.5257142857142857 0.044416243654822336 0.005 0.013959390862944163
1 0.5171428571428571 0.03299492385786802 0.005714285714285714 0.013959390862944163
1 0.5364285714285715 0.02030456852791878 0.005714285714285714 0.015228426395939087
1 0.5271428571428571 0.017766497461928935 0.004285714285714286 0.011421319796954314
1 0.5178571428571429 0.02030456852791878 0.005714285714285714 0.015228426395939087
1 0.5178571428571429 0.008883248730964468 0.004285714285714286 0.011421319796954314
1 0.5264285714285715 0.007614213197969543 0.005714285714285714 0.01015228426395939
