1 0.19642857142857142 0.04666666666666667 0.08071428571428571 0.06476190476190476
1 0.023571428571428573 0.23047619047619047 0.047142857142857146 0.08761904761904762
1 0.21 0.18285714285714286 0.075 0.07428571428571429
1 0.23857142857142857 0.22285714285714286 0.07357142857142857 0.06952380952380953
1 0.29714285714285715 0.06952380952380953 0.03357142857142857 0.08
1 0.3171428571428571 0.17904761904761904 0.04428571428571428 0.10666666666666667
1 0.48142857142857143 0.039047619047619046 0.032857142857142856 0.07904761904761905
0 0.515 0.02095238095238095 0.007857142857142858 0.03238095238095238
1 0.4764285714285714 0.22380952380952382 0.03428571428571429 0.10095238095238095
1 0.4835714285714286 0.3419047619047619 0.03642857142857143 0.10761904761904761
1 0.48214285714285715 0.4676190476190476 0.03571428571428571 0.10380952380952381
1 0.48428571428571426 0.5923809523809523 0.03785714285714286 0.10095238095238095
1 0.4907142857142857 0.8552380952380952 0.03214285714285714 0.11238095238095239
1 0.4928571428571429 0.9638095238095238 0.03428571428571429 0.06952380952380953
1 0.3535714285714286 0.9276190476190476 0.03571428571428571 0.12380952380952381
1 0.3107142857142857 0.9733333333333334 0.03357142857142857 0.05047619047619047
1 0.3157142857142857 0.7971428571428572 0.04071428571428572 0.11714285714285715
1 0.42642857142857143 0.6019047619047619 0.03357142857142857 0.12380952380952381
1 0.32071428571428573 0.6685714285714286 0.039285714285714285 0.1019047619047619
1 0.31785714285714284 0.379047619047619 0.03642857142857143 0.10380952380952381
1 0.31785714285714284 0.5009523809523809 0.04 0.10095238095238095
1 0.15714285714285714 0.8638095238095238 0.08571428571428572 0.05333333333333334
1 0.15428571428571428 0.800952380952381 0.09428571428571429 0.05714285714285714
0 0.24571428571428572 0.6619047619047619 0.03142857142857143 0.009523809523809525
1 0.1792857142857143 0.4514285714285714 0.07285714285714286 0.09047619047619047
1 0.15928571428571428 0.39904761904761904 0.07857142857142857 0.09428571428571429
1 0.12785714285714286 0.37523809523809526 0.07857142857142857 0.09238095238095238
0 0.045714285714285714 0.38095238095238093 0.015714285714285715 0.01619047619047619
0 0.054285714285714284 0.3742857142857143 0.02 0.018095238095238095
0 0.21571428571428572 0.3028571428571429 0.015714285714285715 0.022857142857142857
0 0.20785714285714285 0.34285714285714286 0.020714285714285713 0.02666666666666667
0 0.19214285714285714 0.3314285714285714 0.017857142857142856 0.017142857142857144
0 0.18142857142857144 0.3314285714285714 0.015714285714285715 0.02
