1 0.045 0.024761904761904763 0.004285714285714286 0.006666666666666667
1 0.039285714285714285 0.029523809523809525 0.004285714285714286 0.004761904761904762
1 0.06857142857142857 0.08761904761904762 0.005 0.005714285714285714
1 0.035 0.09047619047619047 0.005 0.006666666666666667
1 0.045714285714285714 0.0980952380952381 0.005 0.006666666666666667
1 0.04642857142857143 0.05142857142857143 0.005 0.009523809523809525
1 0.047857142857142855 0.10857142857142857 0.005714285714285714 0.009523809523809525
1 0.08071428571428571 0.14285714285714285 0.009285714285714286 0.015238095238095238
1 0.05 0.12380952380952381 0.005 0.006666666666666667
1 0.05 0.14476190476190476 0.005714285714285714 0.007619047619047619
1 0.07571428571428572 0.15142857142857144 0.005 0.007619047619047619
1 0.085 0.18095238095238095 0.005 0.007619047619047619
1 0.08785714285714286 0.21142857142857144 0.005 0.006666666666666667
1 0.05142857142857143 0.16285714285714287 0.013571428571428571 0.02761904761904762
0 0.09428571428571429 0.16 0.002142857142857143 0.004761904761904762
0 0.09785714285714285 0.1742857142857143 0.002142857142857143 0.004761904761904762
0 0.09428571428571429 0.17809523809523808 0.0035714285714285713 0.005714285714285714
0 0.075 0.10952380952380952 0.002857142857142857 0.004761904761904762
0 0.08642857142857142 0.41904761904761906 0.004285714285714286 0.007619047619047619
0 0.085 0.38857142857142857 0.0035714285714285713 0.006666666666666667
0 0.14357142857142857 0.38 0.004285714285714286 0.008571428571428572
0 0.13714285714285715 0.3676190476190476 0.0035714285714285713 0.008571428571428572
0 0.14214285714285715 0.36952380952380953 0.0035714285714285713 0.006666666666666667
0 0.1492857142857143 0.3780952380952381 0.005714285714285714 0.009523809523809525
0 0.14 0.3419047619047619 0.005 0.009523809523809525
0 0.15357142857142858 0.3314285714285714 0.002857142857142857 0.006666666666666667
0 0.14714285714285713 0.34285714285714286 0.002857142857142857 0.007619047619047619
1 0.18285714285714286 0.35428571428571426 0.008571428571428572 0.013333333333333334
1 0.1792857142857143 0.34285714285714286 0.008571428571428572 0.013333333333333334
1 0.195 0.3457142857142857 0.009285714285714286 0.018095238095238095
1 0.07642857142857143 0.28095238095238095 0.007142857142857143 0.008571428571428572
1 0.06714285714285714 0.3161904761904762 0.008571428571428572 0.010476190476190476
1 0.09214285714285714 0.23904761904761904 0.0064285714285714285 0.009523809523809525
1 0.08428571428571428 0.25142857142857145 0.012142857142857143 0.01904761904761905
1 0.02 0.33904761904761904 0.007142857142857143 0.012380952380952381
0 0.05 0.2571428571428571 0.002857142857142857 0.005714285714285714
0 0.11285714285714285 0.2561904761904762 0.002857142857142857 0.007619047619047619
0 0.11714285714285715 0.25523809523809526 0.002142857142857143 0.004761904761904762
0 0.11571428571428571 0.2561904761904762 0.002857142857142857 0.005714285714285714
1 0.012857142857142857 0.4180952380952381 0.017857142857142856 0.039047619047619046
0 0.17785714285714285 0.47333333333333333 0.005 0.008571428571428572
1 0.6735714285714286 0.5638095238095238 0.009285714285714286 0.022857142857142857
1 0.6442857142857142 0.46 0.019285714285714285 0.02095238095238095
1 0.5392857142857143 0.43238095238095237 0.014285714285714285 0.02857142857142857
1 0.5428571428571428 0.9885714285714285 0.016428571428571428 0.021904761904761906
1 0.5521428571428572 0.9504761904761905 0.02142857142857143 0.0419047619047619
0 0.7621428571428571 0.680952380952381 0.002857142857142857 0.006666666666666667
0 0.7714285714285715 0.6828571428571428 0.004285714285714286 0.006666666666666667
1 0.21571428571428572 0.540952380952381 0.008571428571428572 0.02
1 0.4042857142857143 0.17809523809523808 0.0064285714285714285 0.007619047619047619
1 0.4057142857142857 0.19523809523809524 0.01 0.005714285714285714
1 0.4107142857142857 0.2 0.011428571428571429 0.004761904761904762
1 0.4107142857142857 0.20285714285714285 0.011428571428571429 0.004761904761904762
1 0.41214285714285714 0.20666666666666667 0.01 0.006666666666666667
1 0.1357142857142857 0.06190476190476191 0.008571428571428572 0.004761904761904762
1 0.29214285714285715 0.9809523809523809 0.012142857142857143 0.022857142857142857
1 0.15142857142857144 0.7304761904761905 0.007142857142857143 0.009523809523809525
1 0.39285714285714285 0.42952380952380953 0.009285714285714286 0.02
1 0.40214285714285714 0.41523809523809524 0.007857142857142858 0.014285714285714285
1 0.41214285714285714 0.3961904761904762 0.010714285714285714 0.01619047619047619
1 0.44285714285714284 0.3514285714285714 0.008571428571428572 0.014285714285714285
1 0.42714285714285716 0.41714285714285715 0.010714285714285714 0.013333333333333334
1 0.43642857142857144 0.40095238095238095 0.010714285714285714 0.012380952380952381
1 0.4492857142857143 0.379047619047619 0.01 0.013333333333333334
1 0.4614285714285714 0.36095238095238097 0.009285714285714286 0.012380952380952381
1 0.6242857142857143 0.37523809523809526 0.014285714285714285 0.010476190476190476
