1 0.3678571428571429 0.044416243654822336 0.017857142857142856 0.021573604060913704
1 0.365 0.12055837563451777 0.02 0.017766497461928935
1 0.3742857142857143 0.09517766497461928 0.022857142857142857 0.021573604060913704
1 0.3464285714285714 0.16243654822335024 0.025 0.02284263959390863
1 0.3314285714285714 0.20304568527918782 0.023571428571428573 0.01903553299492386
1 0.32 0.2296954314720812 0.025 0.02284263959390863
1 0.2642857142857143 0.35279187817258884 0.025 0.021573604060913704
1 0.2557142857142857 0.36548223350253806 0.020714285714285713 0.01903553299492386
1 0.24285714285714285 0.399746192893401 0.025 0.027918781725888325
0 0.27285714285714285 0.4022842639593909 0.005714285714285714 0.012690355329949238
0 0.15571428571428572 0.631979695431472 0.0064285714285714285 0.013959390862944163
0 0.15857142857142856 0.6269035532994924 0.005 0.011421319796954314
1 0.03142857142857143 0.6802030456852792 0.037142857142857144 0.03680203045685279
1 0.041428571428571426 0.6395939086294417 0.06642857142857143 0.05964467005076142
0 0.08142857142857143 0.6192893401015228 0.007857142857142858 0.01903553299492386
1 0.09071428571428572 0.9111675126903553 0.04071428571428572 0.03426395939086294
1 0.26571428571428574 0.8883248730964467 0.032857142857142856 0.05456852791878172
1 0.25642857142857145 0.9809644670050761 0.039285714285714285 0.03553299492385787
0 0.5692857142857143 0.8845177664974619 0.01 0.013959390862944163
1 0.5671428571428572 0.8883248730964467 0.015714285714285715 0.01649746192893401
0 0.5285714285714286 0.8236040609137056 0.004285714285714286 0.012690355329949238
0 0.5657142857142857 0.8134517766497462 0.004285714285714286 0.013959390862944163
1 0.5435714285714286 0.013959390862944163 0.013571428571428571 0.027918781725888325
1 0.5278571428571428 0.10532994923857868 0.013571428571428571 0.02918781725888325
1 0.5078571428571429 0.1751269035532995 0.015 0.03299492385786802
1 0.4878571428571429 0.2982233502538071 0.017142857142857144 0.03934010152284264
1 0.47214285714285714 0.3489847715736041 0.015714285714285715 0.03934010152284264
1 0.4807142857142857 0.25253807106598986 0.03785714285714286 0.11040609137055837
1 0.45785714285714285 0.33248730964467005 0.019285714285714285 0.04568527918781726
1 0.44357142857142856 0.38071065989847713 0.017857142857142856 0.04060913705583756
1 0.45714285714285713 0.4010152284263959 0.017142857142857144 0.048223350253807105
1 0.4278571428571429 0.4365482233502538 0.02142857142857143 0.044416243654822336
1 0.40285714285714286 0.45050761421319796 0.020714285714285713 0.048223350253807105
1 0.4092857142857143 0.48350253807106597 0.02214285714285714 0.05203045685279188
1 0.3914285714285714 0.5355329949238579 0.017857142857142856 0.05456852791878172
1 0.37642857142857145 0.5951776649746193 0.023571428571428573 0.0532994923857868
1 0.42857142857142855 0.49238578680203043 0.03142857142857143 0.07741116751269035
1 0.3792857142857143 0.5126903553299492 0.03142857142857143 0.07614213197969544
1 0.335 0.5862944162436549 0.03142857142857143 0.07614213197969544
1 0.3607142857142857 0.5812182741116751 0.02214285714285714 0.04949238578680203
1 0.4057142857142857 0.567258883248731 0.02142857142857143 0.05583756345177665
1 0.37285714285714283 0.6814720812182741 0.02142857142857143 0.05710659898477157
0 0.4707142857142857 0.6776649746192893 0.005 0.013959390862944163
1 0.655 0.9847715736040609 0.03642857142857143 0.027918781725888325
0 0.6707142857142857 0.025380710659898477 0.0035714285714285713 0.01649746192893401
0 0.6578571428571428 0.08375634517766498 0.002142857142857143 0.011421319796954314
0 0.66 0.08375634517766498 0.0014285714285714286 0.012690355329949238
0 0.645 0.1598984771573604 0.0014285714285714286 0.01649746192893401
0 0.6642857142857143 0.8807106598984772 0.004285714285714286 0.011421319796954314
0 0.6757142857142857 0.8857868020304569 0.005 0.012690355329949238
0 0.6757142857142857 0.8946700507614214 0.005 0.01015228426395939
0 0.6885714285714286 0.8895939086294417 0.005 0.011421319796954314
0 0.6992857142857143 0.9010152284263959 0.0035714285714285713 0.011421319796954314
0 0.6985714285714286 0.9098984771573604 0.007142857142857143 0.01649746192893401
0 0.7678571428571429 0.949238578680203 0.007857142857142858 0.011421319796954314
0 0.7678571428571429 0.9644670050761421 0.007142857142857143 0.01015228426395939
0 0.7921428571428571 0.9479695431472082 0.007142857142857143 0.013959390862944163
0 0.7907142857142857 0.9416243654822335 0.0064285714285714285 0.012690355329949238
