1 0.427 0.7353333333333333 0.054 0.11866666666666667
1 0.4695 0.8353333333333334 0.0435 0.13666666666666666
1 0.532 0.6306666666666667 0.036 0.094
1 0.575 0.6426666666666667 0.036 0.11533333333333333
1 0.5255 0.7533333333333333 0.043 0.13066666666666665
1 0.523 0.9253333333333333 0.0665 0.14333333333333334
1 0.404 0.9106666666666666 0.058 0.172
1 0.454 0.9613333333333334 0.0455 0.07733333333333334
1 0.5415 0.5173333333333333 0.033 0.06866666666666667
1 0.581 0.5073333333333333 0.0295 0.06666666666666667
1 0.5755 0.44 0.0265 0.062
1 0.5425 0.41733333333333333 0.0245 0.054
1 0.5425 0.3433333333333333 0.0255 0.046
1 0.526 0.31133333333333335 0.0255 0.038
1 0.4885 0.3373333333333333 0.0195 0.04
1 0.762 0.32266666666666666 0.0555 0.04
0 0.4195 0.5593333333333333 0.0125 0.03266666666666666
1 0.435 0.6413333333333333 0.0155 0.037333333333333336
1 0.583 0.8606666666666667 0.0475 0.212
1 0.6575 0.8993333333333333 0.0555 0.17933333333333334
0 0.5825 0.9733333333333334 0.0265 0.032
0 0.522 0.3973333333333333 0.01 0.028
0 0.4685 0.3893333333333333 0.0075 0.02666666666666667
0 0.4615 0.3873333333333333 0.006 0.02666666666666667
1 0.7505 0.40066666666666667 0.062 0.03133333333333333
1 0.6505 0.296 0.0205 0.036
1 0.5765 0.3406666666666667 0.022 0.034
1 0.6815 0.194 0.028 0.020666666666666667
1 0.584 0.232 0.018 0.030666666666666665
1 0.583 0.26266666666666666 0.018 0.037333333333333336
1 0.537 0.23666666666666666 0.0175 0.03666666666666667
1 0.534 0.186 0.015 0.024
1 0.456 0.16 0.014 0.019333333333333334
1 0.5375 0.15333333333333332 0.011 0.016
1 0.5475 0.10266666666666667 0.0105 0.018
1 0.541 0.128 0.0115 0.014666666666666666
1 0.454 0.292 0.027 0.07066666666666667
1 0.5035 0.2786666666666667 0.0235 0.04
1 0.433 0.21866666666666668 0.0205 0.034
1 0.617 0.048666666666666664 0.011 0.014666666666666666
1 0.5635 0.076 0.005 0.012
1 0.426 0.388 0.0445 0.056666666666666664
0 0.5785 0.05733333333333333 0.0055 0.013333333333333334
0 0.562 0.25866666666666666 0.0085 0.024666666666666667
0 0.574 0.388 0.0105 0.03
1 0.763 0.428 0.0715 0.05
