1 0.3595 0.898 0.194 0.13466666666666666
1 0.237 0.8486666666666667 0.0415 0.08133333333333333
1 0.5025 0.896 0.06 0.15466666666666667
1 0.5625 0.8473333333333334 0.0565 0.13933333333333334
1 0.639 0.7873333333333333 0.0785 0.108
1 0.7585 0.97 0.0795 0.06
1 0.689 0.9713333333333334 0.066 0.05733333333333333
1 0.6785 0.8713333333333333 0.094 0.11333333333333333
1 0.784 0.5253333333333333 0.039 0.04466666666666667
1 0.7115 0.47 0.0295 0.032
1 0.6925 0.42933333333333334 0.042 0.027333333333333334
1 0.939 0.6046666666666667 0.042 0.048
1 0.9765 0.682 0.0465 0.08066666666666666
1 0.9805 0.5973333333333334 0.039 0.062
1 0.397 0.8293333333333334 0.1145 0.08733333333333333
1 0.341 0.79 0.1245 0.08066666666666666
1 0.34 0.7426666666666667 0.1065 0.064
1 0.3545 0.6953333333333334 0.103 0.05733333333333333
1 0.375 0.6513333333333333 0.091 0.05733333333333333
1 0.3595 0.6293333333333333 0.088 0.05333333333333334
1 0.4525 0.664 0.052 0.09733333333333333
1 0.4195 0.5806666666666667 0.0725 0.056666666666666664
1 0.3675 0.5533333333333333 0.0705 0.048
1 0.42 0.5406666666666666 0.068 0.043333333333333335
1 0.573 0.5193333333333333 0.0515 0.04933333333333333
1 0.548 0.47333333333333333 0.0445 0.03933333333333333
1 0.3765 0.508 0.0685 0.035333333333333335
1 0.3875 0.486 0.106 0.051333333333333335
1 0.5395 0.4613333333333333 0.0435 0.028666666666666667
1 0.565 0.438 0.0565 0.034666666666666665
1 0.548 0.42 0.069 0.04933333333333333
1 0.5265 0.4046666666666667 0.043 0.02666666666666667
1 0.445 0.446 0.021 0.04133333333333333
1 0.429 0.42133333333333334 0.0515 0.034
1 0.4155 0.41333333333333333 0.0355 0.027333333333333334
1 0.3865 0.402 0.0355 0.027333333333333334
1 0.395 0.394 0.0405 0.026
1 0.4055 0.38866666666666666 0.04 0.02266666666666667
1 0.4055 0.37133333333333335 0.0565 0.036
1 0.3905 0.362 0.034 0.02666666666666667
1 0.4055 0.3546666666666667 0.027 0.02
1 0.415 0.3466666666666667 0.0305 0.016
0 0.445 0.38 0.008 0.021333333333333333
0 0.453 0.316 0.0065 0.016666666666666666
1 0.443 0.31866666666666665 0.012 0.02
1 0.4225 0.314 0.0275 0.036
1 0.448 0.30333333333333334 0.0105 0.018
1 0.4485 0.29133333333333333 0.0105 0.016
0 0.4575 0.30466666666666664 0.0055 0.018
0 0.4575 0.3 0.006 0.015333333333333332
0 0.454 0.264 0.004 0.009333333333333334
0 0.4555 0.268 0.004 0.006
1 0.4545 0.2713333333333333 0.0045 0.007333333333333333
1 0.467 0.26466666666666666 0.0105 0.010666666666666666
1 0.4535 0.21466666666666667 0.01 0.006666666666666667
