1 0.43642857142857144 0.3819796954314721 0.02142857142857143 0.05583756345177665
1 0.43 0.3223350253807107 0.019285714285714285 0.048223350253807105
1 0.4514285714285714 0.44416243654822335 0.025714285714285714 0.07233502538071065
1 0.4664285714285714 0.5279187817258884 0.023571428571428573 0.06852791878172589
1 0.42214285714285715 0.4619289340101523 0.022857142857142857 0.06725888324873096
1 0.435 0.5380710659898477 0.02142857142857143 0.07487309644670051
0 0.275 0.8401015228426396 0.005 0.017766497461928935
0 0.2864285714285714 0.8527918781725888 0.007142857142857143 0.01903553299492386
0 0.295 0.7969543147208121 0.007857142857142858 0.017766497461928935
0 0.3192857142857143 0.7614213197969543 0.005714285714285714 0.01903553299492386
0 0.2842857142857143 0.6230964467005076 0.007857142857142858 0.024111675126903553
0 0.27285714285714285 0.25 0.0064285714285714285 0.017766497461928935
0 0.5121428571428571 0.5355329949238579 0.0064285714285714285 0.0266497461928934
0 0.5685714285714286 0.7817258883248731 0.007142857142857143 0.025380710659898477
0 0.7335714285714285 0.8857868020304569 0.007857142857142858 0.02284263959390863
0 0.7314285714285714 0.9010152284263959 0.005714285714285714 0.02284263959390863
0 0.28 0.8426395939086294 0.0064285714285714285 0.017766497461928935
0 0.29428571428571426 0.8058375634517766 0.007857142857142858 0.02030456852791878
0 0.31785714285714284 0.7690355329949239 0.0064285714285714285 0.017766497461928935
0 0.27785714285714286 0.7157360406091371 0.008571428571428572 0.024111675126903553
0 0.5614285714285714 0.7893401015228426 0.007857142857142858 0.024111675126903553
0 0.7521428571428571 0.8984771573604061 0.012142857142857143 0.01903553299492386
0 0.7035714285714286 0.9923857868020305 0.009285714285714286 0.012690355329949238
