0 0.3955 0.7573333333333333 0.007 0.018666666666666668
0 0.444 0.786 0.0055 0.018666666666666668
0 0.4585 0.804 0.0065 0.020666666666666667
0 0.469 0.8313333333333334 0.006 0.020666666666666667
0 0.492 0.8646666666666667 0.005 0.020666666666666667
0 0.457 0.726 0.0045 0.017333333333333333
0 0.4925 0.7673333333333333 0.006 0.016
1 0.4965 0.772 0.0165 0.027333333333333334
1 0.373 0.44133333333333336 0.027 0.017333333333333333
1 0.4125 0.448 0.0245 0.02
1 0.4495 0.4573333333333333 0.027 0.019333333333333334
1 0.486 0.464 0.029 0.020666666666666667
0 0.4835 0.43666666666666665 0.005 0.009333333333333334
1 0.4835 0.43933333333333335 0.01 0.01
1 0.3375 0.41 0.004 0.01
1 0.341 0.4086666666666667 0.005 0.01
1 0.353 0.4073333333333333 0.005 0.008666666666666666
1 0.3575 0.4066666666666667 0.004 0.01
0 0.4215 0.43266666666666664 0.0045 0.01
0 0.421 0.43866666666666665 0.0045 0.011333333333333334
1 0.4185 0.43466666666666665 0.018 0.011333333333333334
1 0.4225 0.44333333333333336 0.009 0.008
0 0.5795 0.478 0.0025 0.012666666666666666
1 0.597 0.4886666666666667 0.032 0.02
1 0.7185 0.43666666666666665 0.0035 0.012666666666666666
1 0.7245 0.44066666666666665 0.005 0.013333333333333334
1 0.7325 0.44733333333333336 0.005 0.010666666666666666
1 0.7375 0.45 0.0065 0.014
1 0.743 0.45466666666666666 0.007 0.010666666666666666
1 0.75 0.45866666666666667 0.006 0.011333333333333334
1 0.756 0.462 0.005 0.01
1 0.7615 0.4653333333333333 0.0105 0.008
1 0.764 0.4706666666666667 0.0055 0.011333333333333334
1 0.7705 0.4726666666666667 0.005 0.011333333333333334
0 0.7825 0.47933333333333333 0.006 0.012
0 0.791 0.5066666666666667 0.0055 0.014
0 0.793 0.5113333333333333 0.006 0.014666666666666666
0 0.8025 0.5113333333333333 0.005 0.014
0 0.8015 0.5086666666666667 0.006 0.014
0 0.9115 0.5406666666666666 0.006 0.011333333333333334
1 0.916 0.544 0.028 0.018
0 0.965 0.6233333333333333 0.01 0.017333333333333333
1 0.1405 0.2733333333333333 0.0165 0.010666666666666666
1 0.128 0.2713333333333333 0.0175 0.013333333333333334
