1 0.4 0.8961904761904762 0.045 0.0380952380952381
1 0.5357142857142857 0.38857142857142857 0.027142857142857142 0.029523809523809525
1 0.8735714285714286 0.4114285714285714 0.03785714285714286 0.0761904761904762
1 0.6657142857142857 0.3438095238095238 0.07214285714285715 0.05238095238095238
1 0.6278571428571429 0.47714285714285715 0.10357142857142858 0.06761904761904762
1 0.6621428571428571 0.25333333333333335 0.03642857142857143 0.05047619047619047
0 0.645 0.31238095238095237 0.009285714285714286 0.02666666666666667
0 0.6671428571428571 0.3047619047619048 0.009285714285714286 0.03142857142857143
0 0.6635714285714286 0.29428571428571426 0.009285714285714286 0.02761904761904762
0 0.9314285714285714 0.4990476190476191 0.018571428571428572 0.03238095238095238
1 0.6392857142857142 0.8676190476190476 0.06785714285714285 0.18095238095238095
