1 0.5114285714285715 0.7238095238095238 0.035 0.06380952380952382
1 0.49642857142857144 0.800952380952381 0.04071428571428572 0.07428571428571429
1 0.46285714285714286 0.9238095238095239 0.05142857142857143 0.10761904761904761
1 0.2835714285714286 0.9238095238095239 0.03142857142857143 0.03238095238095238
1 0.32 0.9104761904761904 0.019285714285714285 0.03142857142857143
0 0.2857142857142857 0.9114285714285715 0.014285714285714285 0.021904761904761906
0 0.32071428571428573 0.8961904761904762 0.012142857142857143 0.022857142857142857
0 0.31214285714285717 0.9933333333333333 0.011428571428571429 0.012380952380952381
1 0.5664285714285714 0.3961904761904762 0.011428571428571429 0.01904761904761905
1 0.595 0.24285714285714285 0.005714285714285714 0.007619047619047619
1 0.5971428571428572 0.21904761904761905 0.005714285714285714 0.004761904761904762
1 0.5292857142857142 0.45714285714285713 0.004285714285714286 0.010476190476190476
0 0.5721428571428572 0.48095238095238096 0.005 0.017142857142857144
0 0.5292857142857142 0.4542857142857143 0.002857142857142857 0.006666666666666667
0 0.41285714285714287 0.7885714285714286 0.010714285714285714 0.02857142857142857
1 0.7671428571428571 0.7561904761904762 0.011428571428571429 0.03238095238095238
0 0.7678571428571429 0.7485714285714286 0.007857142857142858 0.01904761904761905
1 0.6785714285714286 0.3838095238095238 0.01 0.013333333333333334
1 0.6564285714285715 0.30857142857142855 0.005714285714285714 0.005714285714285714
1 0.6457142857142857 0.2780952380952381 0.005 0.005714285714285714
1 0.6235714285714286 0.24476190476190476 0.004285714285714286 0.002857142857142857
1 0.6321428571428571 0.24571428571428572 0.002142857142857143 0.0038095238095238095
1 0.6378571428571429 0.25142857142857145 0.0035714285714285713 0.002857142857142857
1 0.6378571428571429 0.2714285714285714 0.0035714285714285713 0.004761904761904762
1 0.6642857142857143 0.259047619047619 0.005 0.006666666666666667
1 0.6921428571428572 0.3038095238095238 0.005714285714285714 0.005714285714285714
1 0.6814285714285714 0.27904761904761904 0.004285714285714286 0.006666666666666667
1 0.6457142857142857 0.25523809523809526 0.0035714285714285713 0.004761904761904762
1 0.6578571428571428 0.2914285714285714 0.005714285714285714 0.004761904761904762
1 0.6557142857142857 0.28476190476190477 0.005714285714285714 0.004761904761904762
1 0.6642857142857143 0.24666666666666667 0.004285714285714286 0.004761904761904762
0 0.7021428571428572 0.29714285714285715 0.002142857142857143 0.011428571428571429
1 0.7214285714285714 0.3514285714285714 0.02 0.011428571428571429
1 0.7692857142857142 0.43047619047619046 0.0064285714285714285 0.007619047619047619
1 0.8764285714285714 0.5980952380952381 0.05285714285714286 0.03428571428571429
1 0.9885714285714285 0.7266666666666667 0.022857142857142857 0.021904761904761906
