1 0.015657620041753653 0.6651205936920223 0.031837160751565764 0.039888682745825604
1 0.04645093945720251 0.6576994434137291 0.028183716075156576 0.03896103896103896
1 0.07828810020876827 0.6456400742115028 0.025052192066805846 0.03710575139146568
1 0.10073068893528184 0.6419294990723562 0.02244258872651357 0.03896103896103896
1 0.25521920668058456 0.5964749536178108 0.024530271398747392 0.029684601113172542
1 0.27139874739039666 0.5602968460111317 0.026096033402922755 0.0287569573283859
1 0.26461377870563674 0.5547309833024119 0.019832985386221295 0.02504638218923933
1 0.13517745302713988 0.6252319109461967 0.02035490605427975 0.036178107606679034
1 0.2687891440501044 0.487012987012987 0.02244258872651357 0.022263450834879406
1 0.714509394572025 0.8877551020408163 0.04123173277661795 0.06215213358070501
1 0.9749478079331941 0.911873840445269 0.048538622129436326 0.07699443413729128
1 0.42484342379958245 0.5055658627087198 0.024530271398747392 0.02040816326530612
1 0.43684759916492694 0.4962894248608534 0.02244258872651357 0.02504638218923933
1 0.44780793319415446 0.4907235621521336 0.02139874739039666 0.01948051948051948
1 0.4561586638830898 0.48237476808905383 0.02244258872651357 0.021335807050092765
1 0.4963465553235908 0.45640074211502785 0.02348643006263048 0.01855287569573284
1 0.5046972860125261 0.4489795918367347 0.02139874739039666 0.017625231910946195
1 0.5626304801670147 0.40630797773654914 0.019311064718162838 0.015769944341372914
1 0.574634655532359 0.3970315398886827 0.017745302713987474 0.017625231910946195
1 0.5323590814196242 0.4267161410018553 0.021920668058455117 0.01948051948051948
1 0.5850730688935282 0.38589981447124305 0.018789144050104383 0.016697588126159554
1 0.593945720250522 0.3803339517625232 0.014091858037578288 0.016697588126159554
1 0.6049060542797495 0.37569573283859 0.016701461377870562 0.014842300556586271
1 0.6049060542797495 0.3692022263450835 0.015135699373695199 0.012059369202226345
1 0.6116910229645094 0.3654916512059369 0.016701461377870562 0.014842300556586271
1 0.8585594989561587 0.4313543599257885 0.02139874739039666 0.016697588126159554
1 0.8893528183716075 0.33766233766233766 0.014613778705636743 0.012059369202226345
1 0.8502087682672234 0.25510204081632654 0.006263048016701462 0.01020408163265306
1 0.6711899791231732 0.274582560296846 0.013048016701461378 0.011131725417439703
1 0.6659707724425887 0.28014842300556586 0.013048016701461378 0.01020408163265306
1 0.675365344467641 0.2717996289424861 0.009916492693110648 0.01020408163265306
1 0.6779749478079332 0.2699443413729128 0.011482254697286013 0.00927643784786642
1 0.6795407098121086 0.2662337662337662 0.012004175365344467 0.008348794063079777
1 0.6873695198329853 0.26159554730983303 0.010438413361169102 0.01020408163265306
1 0.7072025052192067 0.24304267161410018 0.006784968684759917 0.0074211502782931356
1 0.7750521920668059 0.22448979591836735 0.0041753653444676405 0.008348794063079777
1 0.7588726513569938 0.22170686456400743 0.005741127348643006 0.011131725417439703
