0 0.2405 0.942 0.023 0.09333333333333334
0 0.2575 0.9513333333333334 0.028 0.09733333333333333
1 0.282 0.9013333333333333 0.0275 0.06266666666666666
1 0.318 0.8766666666666667 0.0225 0.07133333333333333
1 0.345 0.8826666666666667 0.0195 0.07666666666666666
0 0.318 0.8306666666666667 0.017 0.07266666666666667
1 0.334 0.8433333333333334 0.022 0.05
1 0.3695 0.8193333333333334 0.022 0.056666666666666664
1 0.3365 0.8093333333333333 0.0225 0.042666666666666665
1 0.382 0.716 0.0255 0.032
0 0.413 0.7 0.0095 0.03933333333333333
1 0.4195 0.762 0.031 0.05533333333333333
0 0.451 0.762 0.0105 0.05266666666666667
0 0.4935 0.782 0.0155 0.06466666666666666
0 0.446 0.7393333333333333 0.01 0.04933333333333333
0 0.461 0.726 0.014 0.03933333333333333
1 0.4605 0.734 0.014 0.037333333333333336
0 0.474 0.7473333333333333 0.0125 0.051333333333333335
0 0.498 0.7486666666666667 0.0145 0.054
0 0.5235 0.8673333333333333 0.026 0.08466666666666667
0 0.6055 0.9786666666666667 0.026 0.042
0 0.723 0.984 0.03 0.032
1 0.6905 0.968 0.0615 0.064
1 0.7055 0.9313333333333333 0.0465 0.062
1 0.7145 0.8493333333333334 0.149 0.11066666666666666
1 0.81 0.8906666666666667 0.062 0.04933333333333333
0 0.848 0.8486666666666667 0.014 0.044
0 0.8675 0.844 0.0175 0.05533333333333333
0 0.791 0.7806666666666666 0.0205 0.07466666666666667
1 0.8275 0.7993333333333333 0.0345 0.04933333333333333
0 0.7625 0.78 0.01 0.050666666666666665
1 0.6695 0.8066666666666666 0.037 0.048666666666666664
1 0.726 0.814 0.03 0.04466666666666667
1 0.6395 0.816 0.0165 0.052
1 0.622 0.8226666666666667 0.018 0.056666666666666664
1 0.6035 0.828 0.024 0.05466666666666667
0 0.5335 0.8046666666666666 0.0185 0.064
0 0.5505 0.7986666666666666 0.0155 0.05333333333333334
0 0.5455 0.782 0.013 0.056
0 0.537 0.7693333333333333 0.0095 0.048
0 0.5685 0.7686666666666667 0.02 0.046
0 0.5805 0.766 0.0175 0.03933333333333333
0 0.554 0.7446666666666667 0.0265 0.04066666666666666
0 0.511 0.7133333333333334 0.0085 0.044
0 0.5155 0.7086666666666667 0.0075 0.042666666666666665
0 0.529 0.7006666666666667 0.011 0.042
0 0.5295 0.7093333333333334 0.0055 0.02
0 0.536 0.7106666666666667 0.01 0.02
0 0.5555 0.7213333333333334 0.0115 0.04066666666666666
0 0.568 0.718 0.011 0.03933333333333333
0 0.573 0.7226666666666667 0.0105 0.03933333333333333
0 0.5655 0.69 0.01 0.036
0 0.536 0.69 0.009 0.03333333333333333
0 0.5465 0.676 0.01 0.03933333333333333
0 0.5605 0.6726666666666666 0.0105 0.03666666666666667
0 0.528 0.684 0.007 0.03333333333333333
0 0.5135 0.6813333333333333 0.011 0.042
0 0.5205 0.6713333333333333 0.008 0.03333333333333333
0 0.533 0.6733333333333333 0.008 0.025333333333333333
0 0.534 0.6713333333333333 0.0045 0.026
0 0.536 0.6706666666666666 0.0045 0.018
0 0.543 0.6566666666666666 0.012 0.027333333333333334
0 0.559 0.6553333333333333 0.01 0.028
0 0.5285 0.6553333333333333 0.0045 0.017333333333333333
0 0.5255 0.6466666666666666 0.006 0.029333333333333333
0 0.5455 0.6373333333333333 0.009 0.026
0 0.5545 0.638 0.0055 0.024666666666666667
0 0.525 0.6353333333333333 0.0045 0.023333333333333334
0 0.5465 0.6246666666666667 0.004 0.019333333333333334
0 0.491 0.6673333333333333 0.009 0.037333333333333336
0 0.4485 0.6653333333333333 0.009 0.034
0 0.455 0.6673333333333333 0.0085 0.025333333333333333
0 0.463 0.6606666666666666 0.008 0.036
0 0.3945 0.682 0.0095 0.034
0 0.4145 0.638 0.0095 0.014
0 0.4285 0.634 0.006 0.024666666666666667
0 0.4355 0.6426666666666667 0.0105 0.021333333333333333
1 0.438 0.6433333333333333 0.006 0.02266666666666667
0 0.407 0.6113333333333333 0.006 0.024
0 0.4515 0.6246666666666667 0.0085 0.027333333333333334
0 0.4545 0.6413333333333333 0.0085 0.028
0 0.4675 0.6446666666666667 0.0115 0.028
0 0.4765 0.6453333333333333 0.0075 0.028666666666666667
1 0.4655 0.6493333333333333 0.0075 0.020666666666666667
0 0.4905 0.64 0.011 0.030666666666666665
1 0.492 0.6446666666666667 0.0095 0.02266666666666667
0 0.4695 0.6146666666666667 0.0075 0.024
0 0.472 0.6126666666666667 0.0065 0.02266666666666667
0 0.4795 0.6146666666666667 0.0065 0.024666666666666667
0 0.4885 0.6173333333333333 0.0065 0.023333333333333334
0 0.4475 0.614 0.005 0.02266666666666667
1 0.456 0.6113333333333333 0.0105 0.019333333333333334
0 0.513 0.62 0.007 0.026
0 0.525 0.624 0.006 0.021333333333333333
0 0.5385 0.6113333333333333 0.006 0.025333333333333333
0 0.506 0.5993333333333334 0.005 0.021333333333333333
0 0.5095 0.6 0.004 0.018
0 0.5135 0.6013333333333334 0.0045 0.020666666666666667
0 0.5315 0.6026666666666667 0.005 0.016
0 0.519 0.602 0.0045 0.019333333333333334
0 0.524 0.5953333333333334 0.006 0.019333333333333334
0 0.5035 0.5953333333333334 0.006 0.02266666666666667
0 0.509 0.596 0.004 0.02
0 0.5175 0.592 0.0045 0.016666666666666666
0 0.521 0.5913333333333334 0.0055 0.012
0 0.5265 0.5913333333333334 0.0035 0.014666666666666666
0 0.536 0.5933333333333334 0.005 0.017333333333333333
1 0.513 0.592 0.0055 0.012666666666666666
1 0.5195 0.606 0.0065 0.016666666666666666
1 0.4745 0.582 0.015 0.016666666666666666
0 0.497 0.5793333333333334 0.004 0.015333333333333332
0 0.5045 0.5773333333333334 0.0065 0.016666666666666666
1 0.5055 0.5813333333333334 0.005 0.012
1 0.525 0.5773333333333334 0.0135 0.019333333333333334
1 0.5225 0.568 0.0125 0.016666666666666666
1 0.522 0.5646666666666667 0.0105 0.018
1 0.5165 0.5586666666666666 0.011 0.012666666666666666
1 0.467 0.5606666666666666 0.021 0.012666666666666666
1 0.484 0.5533333333333333 0.0105 0.012
0 0.4905 0.544 0.002 0.008666666666666666
0 0.4935 0.544 0.003 0.009333333333333334
0 0.497 0.54 0.0025 0.008666666666666666
0 0.5015 0.5393333333333333 0.0025 0.009333333333333334
0 0.5065 0.546 0.0035 0.010666666666666666
0 0.5115 0.5446666666666666 0.0035 0.008666666666666666
0 0.5115 0.544 0.0035 0.008
1 0.5115 0.546 0.003 0.006
1 0.5135 0.542 0.008 0.01
1 0.509 0.5353333333333333 0.0075 0.010666666666666666
1 0.489 0.5426666666666666 0.0065 0.006666666666666667
1 0.49 0.5366666666666666 0.0075 0.007333333333333333
1 0.501 0.5326666666666666 0.0065 0.006666666666666667
1 0.52 0.536 0.0075 0.008666666666666666
1 0.5275 0.5333333333333333 0.0075 0.006666666666666667
1 0.493 0.5333333333333333 0.006 0.007333333333333333
1 0.4985 0.5353333333333333 0.0115 0.006
