1 0.065 0.5342857142857143 0.03571428571428571 0.02095238095238095
1 0.3921428571428571 0.4247619047619048 0.02642857142857143 0.018095238095238095
1 0.44785714285714284 0.3466666666666667 0.02857142857142857 0.022857142857142857
1 0.38857142857142857 0.3514285714285714 0.027857142857142858 0.018095238095238095
1 0.38785714285714284 0.32 0.03 0.01904761904761905
1 0.38571428571428573 0.27904761904761904 0.030714285714285715 0.02095238095238095
1 0.38571428571428573 0.22666666666666666 0.025714285714285714 0.02095238095238095
1 0.4421428571428571 0.22476190476190477 0.03 0.021904761904761906
1 0.4421428571428571 0.17142857142857143 0.025 0.018095238095238095
1 0.4392857142857143 0.13333333333333333 0.027857142857142858 0.02095238095238095
1 0.3792857142857143 0.13333333333333333 0.025714285714285714 0.021904761904761906
1 0.39714285714285713 0.560952380952381 0.024285714285714285 0.02095238095238095
1 0.4614285714285714 0.9304761904761905 0.030714285714285715 0.021904761904761906
1 0.5814285714285714 0.46095238095238095 0.02214285714285714 0.08571428571428572
1 0.5535714285714286 0.4942857142857143 0.005714285714285714 0.015238095238095238
1 0.7357142857142858 0.38476190476190475 0.015714285714285715 0.03619047619047619
1 0.7521428571428571 0.3476190476190476 0.007142857142857143 0.018095238095238095
0 0.9092857142857143 0.4723809523809524 0.008571428571428572 0.010476190476190476
0 0.895 0.29904761904761906 0.008571428571428572 0.010476190476190476
0 0.9571428571428572 0.5009523809523809 0.008571428571428572 0.009523809523809525
0 0.9535714285714286 0.5152380952380953 0.011428571428571429 0.012380952380952381
0 0.9314285714285714 0.2885714285714286 0.010714285714285714 0.013333333333333334
0 0.9771428571428571 0.5028571428571429 0.0064285714285714285 0.008571428571428572
0 0.9835714285714285 0.5047619047619047 0.009285714285714286 0.013333333333333334
