1 0.805 0.9352380952380952 0.2342857142857143 0.1295238095238095
1 0.7957142857142857 0.7838095238095238 0.24285714285714285 0.12095238095238095
1 0.7835714285714286 0.6523809523809524 0.19357142857142856 0.12380952380952381
1 0.7007142857142857 0.5333333333333333 0.2 0.11619047619047619
1 0.6635714285714286 0.43714285714285717 0.17357142857142857 0.10380952380952381
1 0.6492857142857142 0.2914285714285714 0.13785714285714284 0.09619047619047619
1 0.6471428571428571 0.22095238095238096 0.12928571428571428 0.07428571428571429
1 0.40785714285714286 0.5838095238095238 0.1 0.2019047619047619
1 0.42928571428571427 0.37714285714285717 0.07571428571428572 0.15428571428571428
1 0.4642857142857143 0.15428571428571428 0.055714285714285716 0.10857142857142857
1 0.4664285714285714 0.049523809523809526 0.047857142857142855 0.09428571428571429
0 0.5514285714285714 0.029523809523809525 0.012142857142857143 0.04666666666666667
0 0.5671428571428572 0.02857142857142857 0.012142857142857143 0.05619047619047619
1 0.6257142857142857 0.023809523809523808 0.09714285714285714 0.04857142857142857
1 0.1657142857142857 0.05047619047619047 0.07571428571428572 0.09523809523809523
1 0.32571428571428573 0.03619047619047619 0.055714285714285716 0.07333333333333333
1 0.6292857142857143 0.06571428571428571 0.04 0.023809523809523808
1 0.6228571428571429 0.05333333333333334 0.045 0.039047619047619046
