1 0.16142857142857142 0.5542857142857143 0.065 0.16
1 0.4564285714285714 0.3580952380952381 0.056428571428571425 0.16095238095238096
1 0.16428571428571428 0.36666666666666664 0.062142857142857146 0.14761904761904762
1 0.16857142857142857 0.18761904761904763 0.05785714285714286 0.14761904761904762
1 0.08928571428571429 0.46476190476190476 0.07 0.1761904761904762
1 0.09285714285714286 0.3047619047619048 0.06357142857142857 0.12571428571428572
1 0.09428571428571429 0.06571428571428571 0.06571428571428571 0.13238095238095238
0 0.05142857142857143 0.3419047619047619 0.029285714285714286 0.03619047619047619
0 0.03142857142857143 0.3504761904761905 0.04 0.037142857142857144
1 0.8885714285714286 0.08476190476190476 0.11642857142857142 0.0761904761904762
1 0.65 0.08666666666666667 0.054285714285714284 0.14761904761904762
1 0.6657142857142857 0.26571428571428574 0.05785714285714286 0.1457142857142857
1 0.8814285714285715 0.02857142857142857 0.11 0.058095238095238096
1 0.6771428571428572 0.4514285714285714 0.055714285714285716 0.14857142857142858
1 0.6964285714285714 0.6419047619047619 0.06357142857142857 0.15047619047619049
1 0.7135714285714285 0.86 0.06428571428571428 0.17523809523809525
1 0.5628571428571428 0.6847619047619048 0.05714285714285714 0.16857142857142857
0 0.06357142857142857 0.6571428571428571 0.03428571428571429 0.024761904761904763
1 0.9642857142857143 0.46190476190476193 0.04 0.02761904761904762
1 0.9271428571428572 0.43238095238095237 0.06857142857142857 0.035238095238095235
