0 0.08928571428571429 0.43047619047619046 0.037142857142857144 0.06095238095238095
0 0.18571428571428572 0.4219047619047619 0.027857142857142858 0.05238095238095238
0 0.5271428571428571 0.7380952380952381 0.02214285714285714 0.07333333333333333
0 0.31785714285714284 0.4257142857142857 0.025714285714285714 0.07047619047619047
0 0.35428571428571426 0.39904761904761904 0.024285714285714285 0.058095238095238096
0 0.535 0.3980952380952381 0.023571428571428573 0.05047619047619047
0 0.7814285714285715 0.49047619047619045 0.02642857142857143 0.054285714285714284
1 0.6821428571428572 0.7571428571428571 0.04071428571428572 0.08285714285714285
1 0.7985714285714286 0.7438095238095238 0.056428571428571425 0.11142857142857143
1 0.8742857142857143 0.7438095238095238 0.06714285714285714 0.11238095238095239
1 0.2692857142857143 0.27714285714285714 0.035 0.05619047619047619
0 0.7957142857142857 0.43714285714285717 0.01 0.0380952380952381
0 0.7807142857142857 0.4342857142857143 0.015714285714285715 0.047619047619047616
