1 0.5042857142857143 0.8923809523809524 0.032857142857142856 0.09523809523809523
1 0.4642857142857143 0.8133333333333334 0.02142857142857143 0.06190476190476191
1 0.8628571428571429 0.8847619047619047 0.06428571428571428 0.04380952380952381
1 0.4592857142857143 0.5085714285714286 0.015 0.03333333333333333
1 0.6678571428571428 0.6123809523809524 0.03857142857142857 0.03142857142857143
1 0.46785714285714286 0.3819047619047619 0.007857142857142858 0.011428571428571429
1 0.45285714285714285 0.35333333333333333 0.007142857142857143 0.01619047619047619
1 0.4607142857142857 0.31047619047619046 0.009285714285714286 0.02666666666666667
1 0.46285714285714286 0.2885714285714286 0.005 0.007619047619047619
1 0.4742857142857143 0.23904761904761904 0.004285714285714286 0.002857142857142857
1 0.4785714285714286 0.22476190476190477 0.004285714285714286 0.0038095238095238095
1 0.47 0.25142857142857145 0.0064285714285714285 0.015238095238095238
1 0.7442857142857143 0.5857142857142857 0.02642857142857143 0.03142857142857143
1 0.7235714285714285 0.5980952380952381 0.025714285714285714 0.03333333333333333
1 0.8964285714285715 0.5504761904761905 0.08285714285714285 0.0380952380952381
1 0.9092857142857143 0.5761904761904761 0.09214285714285714 0.04380952380952381
1 0.12928571428571428 0.4961904761904762 0.03428571428571429 0.014285714285714285
1 0.9371428571428572 0.3819047619047619 0.02 0.013333333333333334
1 0.9685714285714285 0.38095238095238093 0.018571428571428572 0.010476190476190476
1 0.9878571428571429 0.38 0.017857142857142856 0.012380952380952381
0 0.3485714285714286 0.599047619047619 0.005 0.013333333333333334
0 0.36214285714285716 0.5857142857142857 0.005 0.011428571428571429
0 0.37857142857142856 0.5961904761904762 0.004285714285714286 0.006666666666666667
0 0.3757142857142857 0.6266666666666667 0.005 0.010476190476190476
1 0.37642857142857145 0.3961904761904762 0.04071428571428572 0.023809523809523808
0 0.39 0.3923809523809524 0.002142857142857143 0.007619047619047619
0 0.3921428571428571 0.3923809523809524 0.002142857142857143 0.007619047619047619
0 0.22 0.7504761904761905 0.01 0.009523809523809525
0 0.19214285714285714 0.8085714285714286 0.007142857142857143 0.010476190476190476
1 0.9407142857142857 0.8847619047619047 0.025714285714285714 0.023809523809523808
1 0.9307142857142857 0.8590476190476191 0.02642857142857143 0.022857142857142857
0 0.6992857142857143 0.45714285714285713 0.005 0.015238095238095238
1 0.4807142857142857 0.3647619047619048 0.004285714285714286 0.009523809523809525
0 0.4807142857142857 0.3628571428571429 0.004285714285714286 0.005714285714285714
