1 0.2671428571428571 0.6015228426395939 0.08071428571428571 0.05964467005076142
1 0.27714285714285714 0.5393401015228426 0.08214285714285714 0.06598984771573604
1 0.47928571428571426 0.5342639593908629 0.03214285714285714 0.11928934010152284
1 0.5171428571428571 0.4936548223350254 0.03142857142857143 0.09263959390862944
1 0.5964285714285714 0.4619289340101523 0.07571428571428572 0.07360406091370558
0 0.8085714285714286 0.5266497461928934 0.012857142857142857 0.03299492385786802
1 0.7364285714285714 0.2563451776649746 0.04214285714285714 0.12690355329949238
