0 0.020714285714285713 0.919047619047619 0.009285714285714286 0.01619047619047619
0 0.014285714285714285 0.74 0.010714285714285714 0.017142857142857144
1 0.02142857142857143 0.9180952380952381 0.010714285714285714 0.02761904761904762
0 0.3078571428571429 0.8923809523809524 0.007142857142857143 0.014285714285714285
0 0.3157142857142857 0.9752380952380952 0.009285714285714286 0.013333333333333334
1 0.3171428571428571 0.9761904761904762 0.018571428571428572 0.03238095238095238
1 0.37857142857142856 0.9666666666666667 0.03857142857142857 0.06666666666666667
0 0.6242857142857143 0.9828571428571429 0.008571428571428572 0.012380952380952381
1 0.5292857142857142 0.6685714285714286 0.025714285714285714 0.06095238095238095
1 0.5657142857142857 0.43714285714285717 0.02214285714285714 0.04476190476190476
1 0.5171428571428571 0.44 0.018571428571428572 0.035238095238095235
0 0.5485714285714286 0.3923809523809524 0.004285714285714286 0.010476190476190476
1 0.5485714285714286 0.3933333333333333 0.0064285714285714285 0.02
1 0.5864285714285714 0.34095238095238095 0.018571428571428572 0.035238095238095235
0 0.5692857142857143 0.3352380952380952 0.005714285714285714 0.011428571428571429
1 0.5685714285714286 0.33714285714285713 0.007857142857142858 0.018095238095238095
1 0.5107142857142857 0.2980952380952381 0.015 0.03238095238095238
1 0.52 0.2580952380952381 0.018571428571428572 0.037142857142857144
1 0.53 0.22 0.018571428571428572 0.03619047619047619
1 0.6692857142857143 0.22 0.01 0.012380952380952381
1 0.6614285714285715 0.21714285714285714 0.011428571428571429 0.013333333333333334
1 0.6571428571428571 0.21142857142857144 0.010714285714285714 0.014285714285714285
1 0.6328571428571429 0.1676190476190476 0.005 0.01904761904761905
1 0.6221428571428571 0.15428571428571428 0.015714285714285715 0.025714285714285714
1 0.6257142857142857 0.13238095238095238 0.012142857142857143 0.012380952380952381
1 0.6307142857142857 0.10380952380952381 0.015 0.02761904761904762
1 0.5414285714285715 0.18857142857142858 0.017857142857142856 0.03333333333333333
1 0.5507142857142857 0.15523809523809523 0.018571428571428572 0.03333333333333333
1 0.5592857142857143 0.12666666666666668 0.017857142857142856 0.029523809523809525
1 0.5742857142857143 0.07238095238095238 0.015 0.02761904761904762
1 0.565 0.09619047619047619 0.015714285714285715 0.030476190476190476
1 0.5821428571428572 0.045714285714285714 0.017857142857142856 0.02761904761904762
0 0.5664285714285714 0.030476190476190476 0.002857142857142857 0.007619047619047619
1 0.5664285714285714 0.03333333333333333 0.005714285714285714 0.013333333333333334
0 0.6264285714285714 0.08857142857142856 0.002857142857142857 0.013333333333333334
1 0.6435714285714286 0.05714285714285714 0.011428571428571429 0.02
1 0.6235714285714286 0.035238095238095235 0.010714285714285714 0.023809523809523808
0 0.13142857142857142 0.4142857142857143 0.007142857142857143 0.009523809523809525
1 0.21 0.14761904761904762 0.03 0.029523809523809525
1 0.22214285714285714 0.13428571428571429 0.030714285714285715 0.02095238095238095
1 0.23357142857142857 0.11238095238095239 0.03214285714285714 0.021904761904761906
