1 0.8378571428571429 0.8933333333333333 0.13214285714285715 0.21333333333333335
1 0.9385714285714286 0.5885714285714285 0.11785714285714285 0.11142857142857143
1 0.9742857142857143 0.379047619047619 0.05142857142857143 0.10666666666666667
0 0.9242857142857143 0.23142857142857143 0.020714285714285713 0.054285714285714284
0 0.8678571428571429 0.18571428571428572 0.013571428571428571 0.04
1 0.29714285714285715 0.8266666666666667 0.22071428571428572 0.1438095238095238
1 0.385 0.7047619047619048 0.19 0.12666666666666668
1 0.4685714285714286 0.5980952380952381 0.18285714285714286 0.10380952380952381
1 0.5228571428571429 0.5085714285714286 0.12714285714285714 0.09904761904761905
1 0.5671428571428572 0.46190476190476193 0.13285714285714287 0.09142857142857143
1 0.6157142857142858 0.4104761904761905 0.13642857142857143 0.09047619047619047
1 0.6671428571428571 0.36095238095238097 0.12214285714285714 0.06952380952380953
1 0.6992857142857143 0.3047619047619048 0.14 0.08571428571428572
1 0.74 0.2561904761904762 0.10642857142857143 0.06190476190476191
1 0.7678571428571429 0.24 0.08785714285714286 0.05619047619047619
1 0.7771428571428571 0.2123809523809524 0.09285714285714286 0.049523809523809526
1 0.7978571428571428 0.20285714285714285 0.09 0.04
1 0.8 0.18 0.09428571428571429 0.04476190476190476
1 0.8221428571428572 0.1676190476190476 0.08642857142857142 0.03238095238095238
1 0.8271428571428572 0.15333333333333332 0.08142857142857143 0.04
1 0.8214285714285714 0.14095238095238094 0.08428571428571428 0.037142857142857144
1 0.8514285714285714 0.1180952380952381 0.07214285714285715 0.035238095238095235
1 0.8842857142857142 0.10380952380952381 0.062142857142857146 0.03333333333333333
1 0.8835714285714286 0.09142857142857143 0.06 0.03142857142857143
1 0.8914285714285715 0.07904761904761905 0.05 0.03619047619047619
1 0.9057142857142857 0.07047619047619047 0.045 0.03238095238095238
1 0.9071428571428571 0.058095238095238096 0.05 0.0380952380952381
1 0.9192857142857143 0.05047619047619047 0.052142857142857144 0.02857142857142857
1 0.9207142857142857 0.039047619047619046 0.05285714285714286 0.02666666666666667
1 0.9335714285714286 0.022857142857142857 0.03785714285714286 0.02666666666666667
1 0.9421428571428572 0.012380952380952381 0.03428571428571429 0.021904761904761906
1 0.15357142857142858 0.9447619047619048 0.21928571428571428 0.10952380952380952
