1 0.8357142857142857 0.9761904761904762 0.06285714285714286 0.04666666666666667
1 0.54 0.9580952380952381 0.04642857142857143 0.08285714285714285
1 0.48142857142857143 0.9495238095238095 0.05857142857142857 0.1
1 0.435 0.8866666666666667 0.06714285714285714 0.1019047619047619
1 0.58 0.8104761904761905 0.03571428571428571 0.06380952380952382
1 0.5264285714285715 0.8114285714285714 0.03571428571428571 0.06
1 0.49357142857142855 0.7847619047619048 0.035 0.05047619047619047
1 0.5507142857142857 0.7523809523809524 0.02857142857142857 0.05142857142857143
1 0.5714285714285714 0.6904761904761905 0.02 0.03428571428571429
1 0.5507142857142857 0.6752380952380952 0.025 0.02857142857142857
1 0.5992857142857143 0.5838095238095238 0.012142857142857143 0.01619047619047619
1 0.6085714285714285 0.5628571428571428 0.009285714285714286 0.012380952380952381
1 0.6264285714285714 0.5466666666666666 0.007142857142857143 0.010476190476190476
1 0.6135714285714285 0.5466666666666666 0.008571428571428572 0.011428571428571429
1 0.6164285714285714 0.5266666666666666 0.0064285714285714285 0.011428571428571429
1 0.6321428571428571 0.5276190476190477 0.007142857142857143 0.007619047619047619
1 0.6271428571428571 0.5228571428571429 0.005714285714285714 0.007619047619047619
1 0.6214285714285714 0.5171428571428571 0.007142857142857143 0.005714285714285714
1 0.6221428571428571 0.5095238095238095 0.005 0.005714285714285714
1 0.6335714285714286 0.5085714285714286 0.005 0.005714285714285714
1 0.6342857142857142 0.5019047619047619 0.004285714285714286 0.004761904761904762
1 0.6664285714285715 0.5057142857142857 0.004285714285714286 0.004761904761904762
1 0.6635714285714286 0.5 0.004285714285714286 0.004761904761904762
1 0.6364285714285715 0.48857142857142855 0.0035714285714285713 0.004761904761904762
1 0.6335714285714286 0.4838095238095238 0.004285714285714286 0.005714285714285714
1 0.6364285714285715 0.47619047619047616 0.002142857142857143 0.002857142857142857
1 0.6471428571428571 0.4714285714285714 0.002142857142857143 0.0019047619047619048
1 0.6521428571428571 0.4704761904761905 0.002142857142857143 0.0019047619047619048
