1 0.6907142857142857 0.6687817258883249 0.11357142857142857 0.17385786802030456
1 0.8007142857142857 0.41878172588832485 0.07571428571428572 0.1116751269035533
0 0.5678571428571428 0.46446700507614214 0.007142857142857143 0.017766497461928935
0 0.9371428571428572 0.13705583756345177 0.016428571428571428 0.024111675126903553
1 0.013571428571428571 0.050761421319796954 0.027857142857142858 0.050761421319796954
1 0.047857142857142855 0.021573604060913704 0.03142857142857143 0.0266497461928934
0 0.045 0.02284263959390863 0.015714285714285715 0.027918781725888325
1 0.11928571428571429 0.06218274111675127 0.05714285714285714 0.06345177664974619
1 0.19428571428571428 0.02284263959390863 0.05714285714285714 0.046954314720812185
