1 0.16714285714285715 0.9076190476190477 0.09928571428571428 0.1761904761904762
1 0.38357142857142856 0.3314285714285714 0.052142857142857144 0.08285714285714285
1 0.3271428571428571 0.379047619047619 0.04928571428571429 0.08571428571428572
1 0.22 0.6476190476190476 0.07857142857142857 0.11333333333333333
1 0.2814285714285714 0.5133333333333333 0.07357142857142857 0.10285714285714286
1 0.16 0.579047619047619 0.07928571428571428 0.10857142857142857
1 0.3871428571428571 0.23714285714285716 0.04928571428571429 0.08857142857142856
1 0.30428571428571427 0.2704761904761905 0.05357142857142857 0.08476190476190476
1 0.5485714285714286 0.4819047619047619 0.045714285714285714 0.09619047619047619
1 0.575 0.3819047619047619 0.04214285714285714 0.08476190476190476
1 0.675 0.4819047619047619 0.045714285714285714 0.09904761904761905
1 0.6664285714285715 0.20857142857142857 0.03357142857142857 0.0761904761904762
1 0.6078571428571429 0.22476190476190477 0.03571428571428571 0.06380952380952382
1 0.48214285714285715 0.08761904761904762 0.03428571428571429 0.06476190476190476
1 0.6364285714285715 0.06095238095238095 0.027857142857142858 0.045714285714285714
1 0.7292857142857143 0.09714285714285714 0.06 0.04380952380952381
1 0.7178571428571429 0.38476190476190475 0.08571428571428572 0.06095238095238095
1 0.7242857142857143 0.4228571428571429 0.07642857142857143 0.058095238095238096
1 0.7392857142857143 0.07142857142857142 0.06642857142857143 0.045714285714285714
0 0.6642857142857143 0.10761904761904761 0.011428571428571429 0.03428571428571429
1 0.7471428571428571 0.2523809523809524 0.025714285714285714 0.025714285714285714
1 0.7485714285714286 0.23238095238095238 0.025714285714285714 0.030476190476190476
1 0.7364285714285714 0.21428571428571427 0.02 0.023809523809523808
1 0.715 0.5447619047619048 0.03428571428571429 0.03238095238095238
1 0.7328571428571429 0.518095238095238 0.017857142857142856 0.04
1 0.7421428571428571 0.18571428571428572 0.03857142857142857 0.03142857142857143
1 0.7407142857142858 0.03333333333333333 0.02214285714285714 0.01904761904761905
1 0.7564285714285715 0.0419047619047619 0.025714285714285714 0.022857142857142857
1 0.6485714285714286 0.01904761904761905 0.024285714285714285 0.039047619047619046
0 0.3585714285714286 0.4561904761904762 0.012857142857142857 0.03333333333333333
0 0.3485714285714286 0.43523809523809526 0.013571428571428571 0.03428571428571429
1 0.7207142857142858 0.9152380952380952 0.04928571428571429 0.039047619047619046
1 0.5842857142857143 0.8533333333333334 0.05142857142857143 0.15047619047619049
1 0.4907142857142857 0.8542857142857143 0.037142857142857144 0.06
0 0.49357142857142855 0.8561904761904762 0.023571428571428573 0.022857142857142857
