1 0.05928571428571429 0.5824873096446701 0.015714285714285715 0.02284263959390863
1 0.07428571428571429 0.7131979695431472 0.015 0.02030456852791878
1 0.055 0.7373096446700508 0.018571428571428572 0.02284263959390863
1 0.07 0.7918781725888325 0.02 0.02284263959390863
1 0.10714285714285714 0.7715736040609137 0.025714285714285714 0.01903553299492386
1 0.09714285714285714 0.9416243654822335 0.014285714285714285 0.03553299492385787
1 0.11857142857142858 0.9796954314720813 0.029285714285714286 0.02284263959390863
1 0.16 0.815989847715736 0.022857142857142857 0.021573604060913704
1 0.16214285714285714 0.7982233502538071 0.019285714285714285 0.017766497461928935
1 0.19785714285714287 0.7880710659898477 0.025714285714285714 0.021573604060913704
1 0.205 0.7538071065989848 0.02642857142857143 0.017766497461928935
1 0.21285714285714286 0.9365482233502538 0.013571428571428571 0.031725888324873094
1 0.26571428571428574 0.733502538071066 0.022857142857142857 0.021573604060913704
1 0.26785714285714285 0.75 0.02142857142857143 0.01903553299492386
1 0.26357142857142857 0.7690355329949239 0.018571428571428572 0.01903553299492386
1 0.25142857142857145 0.8274111675126904 0.02642857142857143 0.024111675126903553
1 0.25785714285714284 0.9911167512690355 0.029285714285714286 0.013959390862944163
1 0.2785714285714286 0.8642131979695431 0.06714285714285714 0.04314720812182741
1 0.435 0.9898477157360406 0.009285714285714286 0.01649746192893401
1 0.5392857142857143 0.9733502538071066 0.012857142857142857 0.03553299492385787
1 0.5135714285714286 0.833756345177665 0.008571428571428572 0.02284263959390863
1 0.43214285714285716 0.9086294416243654 0.01 0.03426395939086294
0 0.415 0.850253807106599 0.002857142857142857 0.012690355329949238
0 0.41285714285714287 0.8705583756345178 0.002142857142857143 0.01015228426395939
1 0.4328571428571429 0.9543147208121827 0.010714285714285714 0.03680203045685279
1 0.4492857142857143 0.9593908629441624 0.01 0.03553299492385787
1 0.4514285714285714 0.7893401015228426 0.009285714285714286 0.031725888324873094
1 0.435 0.7779187817258884 0.008571428571428572 0.024111675126903553
1 0.43357142857142855 0.8312182741116751 0.013571428571428571 0.09517766497461928
1 0.4521428571428571 0.7170050761421319 0.009285714285714286 0.04314720812182741
1 0.44 0.699238578680203 0.012857142857142857 0.06345177664974619
1 0.43714285714285717 0.751269035532995 0.007857142857142858 0.025380710659898477
1 0.415 0.7068527918781726 0.011428571428571429 0.0266497461928934
1 0.45357142857142857 0.6852791878172588 0.007857142857142858 0.024111675126903553
1 0.45714285714285713 0.6459390862944162 0.007142857142857143 0.02284263959390863
1 0.44285714285714284 0.6649746192893401 0.007857142857142858 0.02030456852791878
1 0.42214285714285715 0.6763959390862944 0.01 0.02284263959390863
1 0.4257142857142857 0.6522842639593909 0.009285714285714286 0.02284263959390863
1 0.4471428571428571 0.631979695431472 0.008571428571428572 0.021573604060913704
1 0.46214285714285713 0.5862944162436549 0.007142857142857143 0.01903553299492386
1 0.43357142857142855 0.5951776649746193 0.007142857142857143 0.017766497461928935
1 0.44857142857142857 0.5850253807106599 0.012142857142857143 0.06345177664974619
1 0.43 0.618020304568528 0.011428571428571429 0.03807106598984772
1 0.4592857142857143 0.6078680203045685 0.008571428571428572 0.03426395939086294
1 0.47714285714285715 0.5888324873096447 0.012857142857142857 0.06725888324873096
0 0.38785714285714284 0.5545685279187818 0.002142857142857143 0.007614213197969543
1 0.49642857142857144 0.5317258883248731 0.007857142857142858 0.01903553299492386
1 0.47928571428571426 0.5406091370558376 0.0064285714285714285 0.01903553299492386
1 0.44785714285714284 0.4873096446700508 0.027142857142857142 0.048223350253807105
1 0.5071428571428571 0.34517766497461927 0.009285714285714286 0.04568527918781726
1 0.45571428571428574 0.42258883248730966 0.010714285714285714 0.04949238578680203
1 0.505 0.4276649746192893 0.011428571428571429 0.05203045685279188
1 0.4757142857142857 0.3489847715736041 0.007142857142857143 0.021573604060913704
1 0.46714285714285714 0.5101522842639594 0.007142857142857143 0.031725888324873094
1 0.4564285714285714 0.5152284263959391 0.01 0.02030456852791878
1 0.47 0.4885786802030457 0.0064285714285714285 0.017766497461928935
1 0.4564285714285714 0.49619289340101524 0.009285714285714286 0.017766497461928935
1 0.4564285714285714 0.4593908629441624 0.005 0.01649746192893401
1 0.4642857142857143 0.4581218274111675 0.007142857142857143 0.015228426395939087
1 0.47214285714285714 0.47081218274111675 0.0064285714285714285 0.015228426395939087
1 0.4878571428571429 0.4530456852791878 0.007857142857142858 0.03299492385786802
1 0.4928571428571429 0.42385786802030456 0.0064285714285714285 0.015228426395939087
1 0.4657142857142857 0.3565989847715736 0.0064285714285714285 0.013959390862944163
1 0.4685714285714286 0.3413705583756345 0.005 0.011421319796954314
1 0.4764285714285714 0.4289340101522843 0.0064285714285714285 0.017766497461928935
1 0.4785714285714286 0.41116751269035534 0.007142857142857143 0.017766497461928935
1 0.4742857142857143 0.44923857868020306 0.0064285714285714285 0.013959390862944163
1 0.46714285714285714 0.4403553299492386 0.005 0.012690355329949238
1 0.4664285714285714 0.4263959390862944 0.0064285714285714285 0.011421319796954314
1 0.4685714285714286 0.4073604060913706 0.0064285714285714285 0.015228426395939087
1 0.465 0.3895939086294416 0.005714285714285714 0.013959390862944163
1 0.4635714285714286 0.3756345177664975 0.005 0.01015228426395939
1 0.4742857142857143 0.3680203045685279 0.005714285714285714 0.013959390862944163
1 0.4785714285714286 0.3223350253807107 0.005714285714285714 0.008883248730964468
1 0.47 0.3223350253807107 0.0064285714285714285 0.02284263959390863
1 0.47285714285714286 0.38578680203045684 0.005714285714285714 0.013959390862944163
1 0.48 0.39213197969543145 0.0064285714285714285 0.012690355329949238
1 0.4928571428571429 0.3946700507614213 0.005714285714285714 0.015228426395939087
1 0.48214285714285715 0.3680203045685279 0.008571428571428572 0.025380710659898477
1 0.5 0.3299492385786802 0.005714285714285714 0.012690355329949238
1 0.48428571428571426 0.35406091370558374 0.005714285714285714 0.012690355329949238
1 0.47714285714285715 0.3362944162436548 0.005 0.013959390862944163
1 0.4857142857142857 0.3362944162436548 0.005714285714285714 0.013959390862944163
1 0.48714285714285716 0.3248730964467005 0.005714285714285714 0.01015228426395939
1 0.5021428571428571 0.30456852791878175 0.004285714285714286 0.015228426395939087
1 0.5085714285714286 0.3197969543147208 0.005714285714285714 0.011421319796954314
1 0.51 0.2956852791878173 0.005 0.013959390862944163
1 0.49857142857142855 0.28045685279187815 0.007142857142857143 0.012690355329949238
1 0.475 0.2639593908629442 0.009285714285714286 0.011421319796954314
1 0.5264285714285715 0.2550761421319797 0.011428571428571429 0.008883248730964468
1 0.42428571428571427 0.25253807106598986 0.012142857142857143 0.008883248730964468
1 0.4235714285714286 0.2436548223350254 0.01 0.006345177664974619
1 0.44357142857142856 0.25761421319796957 0.01 0.011421319796954314
1 0.4685714285714286 0.2398477157360406 0.007857142857142858 0.008883248730964468
0 0.46214285714285713 0.2296954314720812 0.002142857142857143 0.006345177664974619
1 0.5878571428571429 0.2703045685279188 0.010714285714285714 0.011421319796954314
1 0.5871428571428572 0.2880710659898477 0.010714285714285714 0.01015228426395939
1 0.5714285714285714 0.2918781725888325 0.011428571428571429 0.011421319796954314
1 0.5885714285714285 0.28426395939086296 0.011428571428571429 0.01015228426395939
1 0.5107142857142857 0.21573604060913706 0.005 0.011421319796954314
1 0.505 0.21446700507614214 0.002857142857142857 0.01015228426395939
1 0.5057142857142857 0.20304568527918782 0.0035714285714285713 0.011421319796954314
1 0.5114285714285715 0.20558375634517767 0.0035714285714285713 0.01015228426395939
1 0.7228571428571429 0.3032994923857868 0.011428571428571429 0.011421319796954314
