1 0.1174321503131524 0.310760667903525 0.024008350730688934 0.04081632653061224
1 0.12630480167014613 0.2717996289424861 0.018789144050104383 0.04081632653061224
1 0.2160751565762004 0.42578849721706863 0.014613778705636743 0.05102040816326531
1 0.23434237995824633 0.44063079777365494 0.016701461377870562 0.05473098330241188
1 0.2640918580375783 0.42578849721706863 0.02035490605427975 0.05844155844155844
1 0.32045929018789143 0.40166975881261596 0.019311064718162838 0.05380333951762523
1 0.3408141962421712 0.39053803339517623 0.02244258872651357 0.05380333951762523
1 0.3637787056367432 0.3961038961038961 0.016701461377870562 0.05473098330241188
1 0.3893528183716075 0.4137291280148423 0.02035490605427975 0.05194805194805195
1 0.4848643006263048 0.3738404452690167 0.020876826722338204 0.05380333951762523
1 0.5067849686847599 0.36363636363636365 0.02244258872651357 0.05380333951762523
1 0.4822546972860125 0.44712430426716143 0.017745302713987474 0.016697588126159554
0 0.4812108559498956 0.4424860853432282 0.007306889352818371 0.017625231910946195
1 0.5480167014613778 0.3515769944341373 0.02244258872651357 0.05287569573283859
1 0.3815240083507307 0.5788497217068646 0.02035490605427975 0.0640074211502783
1 0.5083507306889353 0.5241187384044527 0.022964509394572025 0.055658627087198514
1 0.535490605427975 0.5231910946196661 0.02348643006263048 0.06215213358070501
1 0.5631524008350731 0.5204081632653061 0.0255741127348643 0.06215213358070501
1 0.6383089770354906 0.5 0.027661795407098122 0.055658627087198514
1 0.6638830897703549 0.5018552875695733 0.027661795407098122 0.061224489795918366
1 0.7171189979123174 0.48608534322820035 0.022964509394572025 0.05473098330241188
1 0.6184759916492694 0.33302411873840443 0.026096033402922755 0.05194805194805195
1 0.27035490605427975 0.6076066790352505 0.02244258872651357 0.061224489795918366
1 0.24164926931106473 0.6168831168831169 0.02661795407098121 0.07235621521335807
