1 0.3557142857142857 0.5714285714285714 0.12714285714285714 0.08761904761904762
1 0.5971428571428572 0.6352380952380953 0.14714285714285713 0.09428571428571429
1 0.7907142857142857 0.5980952380952381 0.14214285714285715 0.08666666666666667
1 0.6492857142857142 0.5247619047619048 0.11785714285714285 0.08
1 0.5992857142857143 0.8752380952380953 0.21571428571428572 0.16476190476190475
1 0.325 0.8504761904761905 0.19285714285714287 0.1295238095238095
1 0.20714285714285716 0.6666666666666666 0.17214285714285715 0.1
1 0.6478571428571429 0.4266666666666667 0.10785714285714286 0.06952380952380953
1 0.8157142857142857 0.42857142857142855 0.10928571428571429 0.07809523809523809
1 0.94 0.43238095238095237 0.09071428571428572 0.0761904761904762
1 0.9071428571428571 0.9028571428571428 0.185 0.16666666666666666
1 0.9271428571428572 0.7552380952380953 0.14357142857142857 0.11523809523809524
1 0.10428571428571429 0.9466666666666667 0.20857142857142857 0.10476190476190476
1 0.08142857142857143 0.8047619047619048 0.16285714285714287 0.12095238095238095
1 0.041428571428571426 0.2895238095238095 0.06928571428571428 0.06761904761904762
1 0.09142857142857143 0.29333333333333333 0.07 0.07047619047619047
1 0.04928571428571429 0.3942857142857143 0.09857142857142857 0.07809523809523809
1 0.25785714285714284 0.4104761904761905 0.09 0.09238095238095238
1 0.30714285714285716 0.41619047619047617 0.09071428571428572 0.10380952380952381
1 0.38285714285714284 0.4180952380952381 0.08285714285714285 0.09333333333333334
1 0.4492857142857143 0.4257142857142857 0.07857142857142857 0.08952380952380952
1 0.5085714285714286 0.4238095238095238 0.07928571428571428 0.09428571428571429
0 0.58 0.42095238095238097 0.017857142857142856 0.05142857142857143
1 0.5671428571428572 0.3219047619047619 0.03785714285714286 0.07428571428571429
1 0.6235714285714286 0.3180952380952381 0.03642857142857143 0.07142857142857142
1 0.6685714285714286 0.32857142857142857 0.04214285714285714 0.07809523809523809
1 0.72 0.3219047619047619 0.04285714285714286 0.07714285714285714
1 0.7664285714285715 0.32857142857142857 0.045 0.07428571428571429
1 0.8114285714285714 0.3380952380952381 0.05071428571428571 0.07333333333333333
1 0.865 0.3361904761904762 0.06142857142857143 0.0838095238095238
1 0.9142857142857143 0.33904761904761904 0.05285714285714286 0.08571428571428572
0 0.7714285714285715 0.3676190476190476 0.017142857142857144 0.05142857142857143
1 0.9535714285714286 0.46285714285714286 0.037142857142857144 0.03333333333333333
1 0.8128571428571428 0.46285714285714286 0.03785714285714286 0.029523809523809525
1 0.7971428571428572 0.45904761904761904 0.04214285714285714 0.03428571428571429
1 0.3921428571428571 0.9676190476190476 0.24571428571428572 0.06476190476190476
1 0.032857142857142856 0.5714285714285714 0.06571428571428571 0.08285714285714285
