1 0.24642857142857144 0.8038095238095239 0.4928571428571429 0.38476190476190475
1 0.1407142857142857 0.6333333333333333 0.14357142857142857 0.1438095238095238
0 0.20285714285714285 0.48095238095238096 0.030714285714285715 0.058095238095238096
0 0.44642857142857145 0.5895238095238096 0.030714285714285715 0.06476190476190476
0 0.5057142857142857 0.6333333333333333 0.017142857142857144 0.07333333333333333
0 0.6057142857142858 0.5038095238095238 0.015 0.05142857142857143
0 0.5828571428571429 0.5161904761904762 0.013571428571428571 0.05904761904761905
0 0.6042857142857143 0.4828571428571429 0.017142857142857144 0.05238095238095238
0 0.585 0.47714285714285715 0.015 0.05714285714285714
0 0.65 0.52 0.017857142857142856 0.05047619047619047
0 0.6821428571428572 0.6123809523809524 0.022857142857142857 0.06380952380952382
0 0.8907142857142857 0.7447619047619047 0.041428571428571426 0.07047619047619047
0 0.47214285714285714 0.4276190476190476 0.010714285714285714 0.04285714285714286
0 0.5614285714285714 0.4990476190476191 0.019285714285714285 0.047619047619047616
0 0.37357142857142855 0.2904761904761905 0.012857142857142857 0.02666666666666667
0 0.41785714285714287 0.319047619047619 0.008571428571428572 0.02857142857142857
0 0.39571428571428574 0.31333333333333335 0.009285714285714286 0.023809523809523808
0 0.3707142857142857 0.26857142857142857 0.008571428571428572 0.02
0 0.3314285714285714 0.2276190476190476 0.005714285714285714 0.012380952380952381
0 0.31285714285714283 0.18571428571428572 0.004285714285714286 0.009523809523809525
0 0.315 0.1742857142857143 0.004285714285714286 0.010476190476190476
0 0.30714285714285716 0.17714285714285713 0.0035714285714285713 0.007619047619047619
1 0.30714285714285716 0.18 0.0035714285714285713 0.007619047619047619
1 0.315 0.17809523809523808 0.005 0.008571428571428572
1 0.31285714285714283 0.18761904761904763 0.004285714285714286 0.010476190476190476
1 0.33214285714285713 0.23238095238095238 0.007142857142857143 0.015238095238095238
1 0.3707142857142857 0.2704761904761905 0.0064285714285714285 0.014285714285714285
1 0.37214285714285716 0.29523809523809524 0.012142857142857143 0.021904761904761906
1 0.38285714285714284 0.35714285714285715 0.012142857142857143 0.03238095238095238
1 0.40214285714285714 0.27714285714285714 0.011428571428571429 0.02095238095238095
1 0.4185714285714286 0.32571428571428573 0.023571428571428573 0.018095238095238095
1 0.4471428571428571 0.33714285714285713 0.01 0.023809523809523808
1 0.47285714285714286 0.44095238095238093 0.015 0.03333333333333333
1 0.5592857142857143 0.5047619047619047 0.03571428571428571 0.0380952380952381
1 0.6514285714285715 0.5352380952380953 0.019285714285714285 0.0419047619047619
0 0.5421428571428571 0.43523809523809526 0.012857142857142857 0.04857142857142857
0 0.5407142857142857 0.4704761904761905 0.012142857142857143 0.05047619047619047
0 0.5464285714285714 0.4704761904761905 0.008571428571428572 0.03428571428571429
0 0.5657142857142857 0.46095238095238095 0.012142857142857143 0.045714285714285714
0 0.565 0.44666666666666666 0.010714285714285714 0.04666666666666667
0 0.5742857142857143 0.44857142857142857 0.007142857142857143 0.045714285714285714
0 0.4635714285714286 0.37523809523809526 0.011428571428571429 0.04
0 0.455 0.37333333333333335 0.011428571428571429 0.0380952380952381
0 0.3921428571428571 0.3504761904761905 0.012857142857142857 0.03238095238095238
0 0.3992857142857143 0.3476190476190476 0.012857142857142857 0.03428571428571429
0 0.4057142857142857 0.3438095238095238 0.009285714285714286 0.03619047619047619
0 0.38785714285714284 0.319047619047619 0.010714285714285714 0.03333333333333333
0 0.37357142857142855 0.3342857142857143 0.012857142857142857 0.029523809523809525
0 0.3707142857142857 0.3295238095238095 0.012857142857142857 0.02666666666666667
0 0.39785714285714285 0.2923809523809524 0.01 0.02666666666666667
0 0.3514285714285714 0.2895238095238095 0.008571428571428572 0.029523809523809525
0 0.35642857142857143 0.2876190476190476 0.0064285714285714285 0.02666666666666667
0 0.3821428571428571 0.2619047619047619 0.005 0.023809523809523808
0 0.37857142857142856 0.26761904761904765 0.007142857142857143 0.017142857142857144
0 0.33714285714285713 0.24666666666666667 0.007857142857142858 0.02
0 0.3264285714285714 0.24666666666666667 0.008571428571428572 0.01619047619047619
0 0.31642857142857145 0.2257142857142857 0.0064285714285714285 0.01904761904761905
0 0.32 0.22095238095238096 0.005714285714285714 0.01904761904761905
0 0.33 0.2219047619047619 0.005 0.01904761904761905
0 0.34214285714285714 0.22380952380952382 0.0064285714285714285 0.02
0 0.3464285714285714 0.22476190476190477 0.0064285714285714285 0.01904761904761905
0 0.35642857142857143 0.2342857142857143 0.007142857142857143 0.017142857142857144
1 0.36428571428571427 0.24571428571428572 0.02142857142857143 0.024761904761904763
0 0.3585714285714286 0.23142857142857143 0.005 0.01904761904761905
0 0.3557142857142857 0.21904761904761905 0.004285714285714286 0.018095238095238095
0 0.3464285714285714 0.2038095238095238 0.005714285714285714 0.01619047619047619
0 0.30714285714285716 0.19523809523809524 0.0064285714285714285 0.01619047619047619
0 0.3435714285714286 0.22095238095238096 0.005714285714285714 0.02095238095238095
1 0.3264285714285714 0.19333333333333333 0.015 0.01619047619047619
0 0.32071428571428573 0.17714285714285713 0.004285714285714286 0.012380952380952381
0 0.30857142857142855 0.1676190476190476 0.0035714285714285713 0.009523809523809525
0 0.30642857142857144 0.16095238095238096 0.004285714285714286 0.009523809523809525
0 0.2907142857142857 0.15428571428571428 0.002857142857142857 0.008571428571428572
0 0.2885714285714286 0.15523809523809523 0.0035714285714285713 0.009523809523809525
0 0.25642857142857145 0.15714285714285714 0.004285714285714286 0.011428571428571429
1 0.2592857142857143 0.1523809523809524 0.005714285714285714 0.010476190476190476
0 0.2907142857142857 0.18095238095238095 0.002142857142857143 0.010476190476190476
0 0.28714285714285714 0.1819047619047619 0.002857142857142857 0.011428571428571429
0 0.29642857142857143 0.16 0.002142857142857143 0.008571428571428572
0 0.2978571428571429 0.16 0.002857142857142857 0.009523809523809525
1 0.285 0.16952380952380952 0.024285714285714285 0.008571428571428572
1 0.285 0.1657142857142857 0.023571428571428573 0.008571428571428572
1 0.26071428571428573 0.19047619047619047 0.013571428571428571 0.01619047619047619
1 0.305 0.2761904761904762 0.05357142857142857 0.023809523809523808
1 0.30714285714285716 0.2723809523809524 0.055714285714285716 0.02761904761904762
1 0.30357142857142855 0.26 0.04 0.02666666666666667
1 0.295 0.26 0.04857142857142857 0.02666666666666667
0 0.32285714285714284 0.2542857142857143 0.007142857142857143 0.02095238095238095
1 0.29642857142857143 0.25047619047619046 0.04428571428571428 0.02
1 0.3057142857142857 0.24285714285714285 0.05357142857142857 0.02761904761904762
1 0.2957142857142857 0.23714285714285716 0.039285714285714285 0.021904761904761906
1 0.2957142857142857 0.2276190476190476 0.04 0.021904761904761906
1 0.295 0.22476190476190477 0.03785714285714286 0.02095238095238095
1 0.29285714285714287 0.22 0.03785714285714286 0.022857142857142857
1 0.295 0.21714285714285714 0.035 0.024761904761904763
1 0.28714285714285714 0.21047619047619048 0.035 0.01904761904761905
1 0.2885714285714286 0.20761904761904762 0.030714285714285715 0.02095238095238095
1 0.28714285714285714 0.2038095238095238 0.03428571428571429 0.021904761904761906
1 0.2885714285714286 0.2019047619047619 0.030714285714285715 0.02095238095238095
1 0.28785714285714287 0.19714285714285715 0.03142857142857143 0.01619047619047619
1 0.2864285714285714 0.19523809523809524 0.03214285714285714 0.015238095238095238
1 0.2857142857142857 0.19238095238095237 0.03 0.015238095238095238
1 0.2835714285714286 0.1895238095238095 0.027857142857142858 0.013333333333333334
1 0.3964285714285714 0.5476190476190477 0.13142857142857142 0.08571428571428572
1 0.3507142857142857 0.5057142857142857 0.12785714285714286 0.06666666666666667
1 0.3464285714285714 0.4676190476190476 0.08071428571428571 0.05523809523809524
1 0.34785714285714286 0.4361904761904762 0.09642857142857143 0.04857142857142857
1 0.34214285714285714 0.4142857142857143 0.09071428571428572 0.04857142857142857
1 0.33785714285714286 0.39904761904761904 0.09142857142857143 0.04666666666666667
1 0.33785714285714286 0.3819047619047619 0.08285714285714285 0.04476190476190476
1 0.3342857142857143 0.3638095238095238 0.07714285714285714 0.04
1 0.32857142857142857 0.3466666666666667 0.07785714285714286 0.03333333333333333
1 0.3171428571428571 0.3380952380952381 0.07357142857142857 0.03619047619047619
1 0.325 0.32857142857142857 0.06571428571428571 0.03619047619047619
1 0.32 0.3180952380952381 0.07142857142857142 0.03428571428571429
1 0.31214285714285717 0.3038095238095238 0.06285714285714286 0.022857142857142857
1 0.6842857142857143 0.6314285714285715 0.030714285714285715 0.06285714285714286
1 0.8835714285714286 0.7533333333333333 0.05785714285714286 0.10380952380952381
1 0.735 0.47904761904761906 0.08285714285714285 0.08095238095238096
1 0.71 0.40476190476190477 0.07785714285714286 0.07333333333333333
1 0.6992857142857143 0.3638095238095238 0.060714285714285714 0.05238095238095238
1 0.7428571428571429 0.35714285714285715 0.056428571428571425 0.04857142857142857
1 0.69 0.32571428571428573 0.05142857142857143 0.04380952380952381
1 0.6407142857142857 0.3019047619047619 0.041428571428571426 0.040952380952380955
1 0.6014285714285714 0.28285714285714286 0.03571428571428571 0.030476190476190476
1 0.55 0.3 0.03571428571428571 0.03238095238095238
1 0.5321428571428571 0.26285714285714284 0.027857142857142858 0.02666666666666667
1 0.5035714285714286 0.26666666666666666 0.02642857142857143 0.02666666666666667
1 0.5685714285714286 0.26 0.03428571428571429 0.03238095238095238
1 0.5585714285714286 0.22857142857142856 0.027857142857142858 0.021904761904761906
1 0.46 0.18761904761904763 0.016428571428571428 0.012380952380952381
1 0.45785714285714285 0.23142857142857143 0.020714285714285713 0.021904761904761906
1 0.4407142857142857 0.20476190476190476 0.016428571428571428 0.014285714285714285
1 0.43785714285714283 0.24857142857142858 0.02 0.022857142857142857
1 0.425 0.22476190476190477 0.017142857142857144 0.02
0 0.4328571428571429 0.26761904761904765 0.004285714285714286 0.01904761904761905
0 0.5285714285714286 0.31238095238095237 0.01 0.01904761904761905
1 0.5278571428571428 0.32 0.012142857142857143 0.022857142857142857
1 0.4328571428571429 0.2733333333333333 0.008571428571428572 0.01904761904761905
1 0.4085714285714286 0.24952380952380954 0.025 0.025714285714285714
1 0.3921428571428571 0.2038095238095238 0.017857142857142856 0.02095238095238095
1 0.9121428571428571 0.3057142857142857 0.05714285714285714 0.03333333333333333
1 0.9271428571428572 0.28095238095238095 0.04071428571428572 0.02761904761904762
1 0.9535714285714286 0.2904761904761905 0.04857142857142857 0.030476190476190476
1 0.9792857142857143 0.29523809523809524 0.04071428571428572 0.029523809523809525
0 0.8121428571428572 0.2571428571428571 0.009285714285714286 0.030476190476190476
0 0.7871428571428571 0.2695238095238095 0.007857142857142858 0.024761904761904763
0 0.7707142857142857 0.2733333333333333 0.009285714285714286 0.02666666666666667
0 0.7957142857142857 0.30095238095238097 0.011428571428571429 0.01904761904761905
1 0.7942857142857143 0.3057142857142857 0.02142857142857143 0.022857142857142857
0 0.705 0.2257142857142857 0.004285714285714286 0.01904761904761905
1 0.7235714285714285 0.2571428571428571 0.09071428571428572 0.06666666666666667
0 0.9257142857142857 0.2733333333333333 0.005 0.022857142857142857
0 0.6557142857142857 0.23333333333333334 0.005 0.015238095238095238
1 0.6535714285714286 0.2361904761904762 0.012142857142857143 0.012380952380952381
0 0.5792857142857143 0.21333333333333335 0.004285714285714286 0.011428571428571429
1 0.5792857142857143 0.21714285714285714 0.007857142857142858 0.007619047619047619
0 0.6092857142857143 0.2019047619047619 0.0035714285714285713 0.01619047619047619
0 0.6121428571428571 0.2 0.004285714285714286 0.013333333333333334
0 0.5871428571428572 0.19523809523809524 0.004285714285714286 0.012380952380952381
0 0.5671428571428572 0.1961904761904762 0.002857142857142857 0.013333333333333334
0 0.49857142857142855 0.16952380952380952 0.0014285714285714286 0.007619047619047619
1 0.49785714285714283 0.17047619047619048 0.005 0.004761904761904762
1 0.4114285714285714 0.1580952380952381 0.010714285714285714 0.011428571428571429
1 0.3964285714285714 0.1619047619047619 0.009285714285714286 0.010476190476190476
1 0.38642857142857145 0.15619047619047619 0.008571428571428572 0.008571428571428572
1 0.3807142857142857 0.15428571428571428 0.0064285714285714285 0.010476190476190476
1 0.37857142857142856 0.18095238095238095 0.025 0.03428571428571429
1 0.35428571428571426 0.19714285714285715 0.014285714285714285 0.018095238095238095
1 0.35214285714285715 0.18666666666666668 0.014285714285714285 0.01619047619047619
1 0.34285714285714286 0.13047619047619047 0.0035714285714285713 0.005714285714285714
1 0.3507142857142857 0.12761904761904763 0.0035714285714285713 0.005714285714285714
1 0.3578571428571429 0.1295238095238095 0.002857142857142857 0.004761904761904762
1 0.3914285714285714 0.1380952380952381 0.005 0.005714285714285714
1 0.37714285714285717 0.14476190476190476 0.007142857142857143 0.008571428571428572
1 0.385 0.1438095238095238 0.009285714285714286 0.01619047619047619
