1 0.40762004175365346 0.8636363636363636 0.04488517745302714 0.10018552875695733
1 0.4702505219206681 0.6512059369202227 0.029749478079331943 0.061224489795918366
1 0.68580375782881 0.25139146567717996 0.010438413361169102 0.023191094619666047
1 0.778705636743215 0.06771799628942486 0.012004175365344467 0.017625231910946195
1 0.8016701461377871 0.017625231910946195 0.006784968684759917 0.00927643784786642
0 0.8397703549060542 0.7467532467532467 0.008872651356993737 0.03432282003710575
0 0.32933194154488515 0.7282003710575139 0.005741127348643006 0.02411873840445269
0 0.30323590814196244 0.7634508348794063 0.005741127348643006 0.015769944341372914
0 0.3068893528183716 0.761595547309833 0.0041753653444676405 0.016697588126159554
0 0.2781837160751566 0.800556586270872 0.006263048016701462 0.013914656771799629
1 0.2776617954070981 0.8163265306122449 0.012004175365344467 0.021335807050092765
1 0.30636743215031315 0.7736549165120594 0.016701461377870562 0.016697588126159554
1 0.33089770354906056 0.7337662337662337 0.010438413361169102 0.029684601113172542
0 0.09446764091858037 0.9842300556586271 0.009394572025052192 0.02411873840445269
1 0.09551148225469729 0.9916512059369202 0.016179540709812108 0.013914656771799629
0 0.7927974947807933 0.023191094619666047 0.0026096033402922755 0.00927643784786642
1 0.8903966597077244 0.6567717996289425 0.010960334029227558 0.025974025974025976
