1 0.23538622129436326 0.22356215213358072 0.05897703549060543 0.05380333951762523
1 0.09968684759916492 0.48886827458256027 0.09707724425887265 0.07421150278293136
1 0.22129436325678498 0.5027829313543599 0.0662839248434238 0.04823747680890538
1 0.45407098121085593 0.5092764378478665 0.06263048016701461 0.05658627087198516
1 0.5156576200417536 0.5083487940630798 0.0360125260960334 0.04638218923933209
1 0.6664926931106472 0.512987012987013 0.06315240083507306 0.04452690166975881
1 0.7531315240083507 0.5204081632653061 0.06784968684759916 0.04823747680890538
1 0.8924843423799582 0.5185528756957328 0.06784968684759916 0.04823747680890538
0 0.5647181628392485 0.7152133580705009 0.010438413361169102 0.030612244897959183
1 0.21920668058455114 0.6920222634508348 0.07933194154488518 0.061224489795918366
1 0.10908141962421712 0.7838589981447124 0.0511482254697286 0.09925788497217068
1 0.20407098121085596 0.8163265306122449 0.07463465553235908 0.12987012987012986
1 0.26565762004175364 0.8144712430426716 0.050626304801670144 0.09833024118738404
1 0.17588726513569938 0.9359925788497218 0.04801670146137787 0.12523191094619665
1 0.22755741127348644 0.9165120593692022 0.044363256784968684 0.10667903525046382
1 0.44258872651356995 0.9025974025974026 0.048538622129436326 0.13172541743970315
1 0.7760960334029228 0.9183673469387755 0.04018789144050104 0.11410018552875696
1 0.8168058455114823 0.9100185528756958 0.048538622129436326 0.11966604823747681
1 0.8110647181628392 0.8831168831168831 0.022964509394572025 0.05194805194805195
1 0.627348643006263 0.5473098330241187 0.022964509394572025 0.021335807050092765
1 0.6289144050104384 0.14842300556586271 0.018789144050104383 0.01855287569573284
0 0.6310020876826722 0.14100185528756956 0.008350730688935281 0.02504638218923933
0 0.6278705636743215 0.14285714285714285 0.009394572025052192 0.030612244897959183
