1 0.09285714285714286 0.4561904761904762 0.04 0.1019047619047619
1 0.11928571428571429 0.6133333333333333 0.054285714285714284 0.09904761904761905
1 0.15785714285714286 0.7961904761904762 0.055 0.12666666666666668
1 0.03857142857142857 0.8257142857142857 0.06785714285714285 0.15142857142857144
1 0.02642857142857143 0.6742857142857143 0.05357142857142857 0.13333333333333333
1 0.2257142857142857 0.1761904761904762 0.03 0.06571428571428571
1 0.49142857142857144 0.025714285714285714 0.07285714285714286 0.05238095238095238
1 0.49785714285714283 0.06 0.07214285714285715 0.05714285714285714
1 0.5157142857142857 0.10857142857142857 0.07285714285714286 0.05142857142857143
1 0.44142857142857145 0.16666666666666666 0.07642857142857143 0.06952380952380953
1 0.535 0.14761904761904762 0.05785714285714286 0.05142857142857143
1 0.555 0.19142857142857142 0.07714285714285714 0.06190476190476191
1 0.5714285714285714 0.24 0.07571428571428572 0.06857142857142857
1 0.6035714285714285 0.34 0.08357142857142857 0.07142857142857142
1 0.6242857142857143 0.38666666666666666 0.08 0.07142857142857142
1 0.6392857142857142 0.4380952380952381 0.07571428571428572 0.06380952380952382
1 0.6628571428571428 0.48857142857142855 0.08285714285714285 0.06761904761904762
1 0.685 0.5638095238095238 0.125 0.0980952380952381
1 0.8257142857142857 0.9076190476190477 0.08285714285714285 0.14095238095238094
1 0.86 0.940952380952381 0.055714285714285716 0.05238095238095238
1 0.8692857142857143 0.9780952380952381 0.09071428571428572 0.04285714285714286
1 0.6664285714285715 0.049523809523809526 0.06714285714285714 0.07047619047619047
0 0.6064285714285714 0.04476190476190476 0.013571428571428571 0.039047619047619046
0 0.6592857142857143 0.15714285714285714 0.012142857142857143 0.03238095238095238
0 0.625 0.27904761904761904 0.01 0.03428571428571429
0 0.7328571428571429 0.13047619047619047 0.015714285714285715 0.03142857142857143
0 0.6878571428571428 0.3352380952380952 0.014285714285714285 0.03428571428571429
0 0.7057142857142857 0.32666666666666666 0.020714285714285713 0.03142857142857143
1 0.7985714285714286 0.3619047619047619 0.075 0.07714285714285714
1 0.7828571428571428 0.43238095238095237 0.022857142857142857 0.02761904761904762
0 0.795 0.4847619047619048 0.012142857142857143 0.017142857142857144
0 0.7585714285714286 0.58 0.016428571428571428 0.021904761904761906
0 0.7707142857142857 0.5742857142857143 0.013571428571428571 0.017142857142857144
0 0.7864285714285715 0.700952380952381 0.013571428571428571 0.018095238095238095
0 0.8192857142857143 0.6619047619047619 0.020714285714285713 0.018095238095238095
0 0.8635714285714285 0.7590476190476191 0.023571428571428573 0.01904761904761905
0 0.8521428571428571 0.5885714285714285 0.009285714285714286 0.018095238095238095
0 0.8592857142857143 0.6 0.015 0.01619047619047619
0 0.8778571428571429 0.5942857142857143 0.017857142857142856 0.015238095238095238
0 0.8871428571428571 0.5704761904761905 0.015714285714285715 0.017142857142857144
0 0.8985714285714286 0.5752380952380952 0.015714285714285715 0.011428571428571429
0 0.9085714285714286 0.5685714285714286 0.014285714285714285 0.01904761904761905
0 0.9314285714285714 0.56 0.017142857142857144 0.02095238095238095
0 0.9092857142857143 0.6180952380952381 0.013571428571428571 0.012380952380952381
0 0.895 0.6285714285714286 0.013571428571428571 0.017142857142857144
0 0.8585714285714285 0.6638095238095238 0.015714285714285715 0.021904761904761906
0 0.8764285714285714 0.6514285714285715 0.015 0.015238095238095238
0 0.8728571428571429 0.6980952380952381 0.013571428571428571 0.01619047619047619
0 0.895 0.6838095238095238 0.012142857142857143 0.013333333333333334
0 0.9028571428571428 0.699047619047619 0.015 0.021904761904761906
0 0.93 0.6628571428571428 0.015 0.017142857142857144
0 0.9371428571428572 0.6828571428571428 0.013571428571428571 0.017142857142857144
0 0.9171428571428571 0.6895238095238095 0.014285714285714285 0.02
0 0.91 0.74 0.02 0.018095238095238095
0 0.9078571428571428 0.7657142857142857 0.014285714285714285 0.02
0 0.93 0.7723809523809524 0.02142857142857143 0.024761904761904763
0 0.9292857142857143 0.7466666666666667 0.012142857142857143 0.01619047619047619
0 0.9464285714285714 0.7323809523809524 0.017142857142857144 0.017142857142857144
0 0.9642857142857143 0.7485714285714286 0.017857142857142856 0.015238095238095238
0 0.9814285714285714 0.7428571428571429 0.023571428571428573 0.017142857142857144
0 0.9728571428571429 0.7790476190476191 0.019285714285714285 0.018095238095238095
0 0.9671428571428572 0.8 0.019285714285714285 0.01619047619047619
0 0.9542857142857143 0.8161904761904762 0.01 0.015238095238095238
0 0.9492857142857143 0.8428571428571429 0.012857142857142857 0.02
0 0.9742857142857143 0.8971428571428571 0.015 0.021904761904761906
0 0.9692857142857143 0.8723809523809524 0.014285714285714285 0.018095238095238095
0 0.9878571428571429 0.9723809523809523 0.019285714285714285 0.01904761904761905
0 0.975 0.8152380952380952 0.014285714285714285 0.01619047619047619
0 0.9921428571428571 0.8114285714285714 0.012142857142857143 0.02095238095238095
0 0.9935714285714285 0.7847619047619048 0.012142857142857143 0.018095238095238095
