0 0.5264285714285715 0.4657142857142857 0.004285714285714286 0.017142857142857144
0 0.6092857142857143 0.5095238095238095 0.005 0.013333333333333334
0 0.6142857142857143 0.4961904761904762 0.005 0.018095238095238095
0 0.6057142857142858 0.5028571428571429 0.005 0.011428571428571429
0 0.6221428571428571 0.5247619047619048 0.007857142857142858 0.012380952380952381
0 0.13714285714285715 0.679047619047619 0.008571428571428572 0.02
0 0.1357142857142857 0.7342857142857143 0.011428571428571429 0.01904761904761905
0 0.11857142857142858 0.7295238095238096 0.010714285714285714 0.014285714285714285
0 0.4164285714285714 0.5342857142857143 0.0064285714285714285 0.017142857142857144
0 0.405 0.5085714285714286 0.007857142857142858 0.018095238095238095
0 0.42 0.48 0.007142857142857143 0.01619047619047619
0 0.5357142857142857 0.4533333333333333 0.005 0.01619047619047619
0 0.42 0.44285714285714284 0.007142857142857143 0.017142857142857144
0 0.425 0.47333333333333333 0.005714285714285714 0.017142857142857144
0 0.39071428571428574 0.4666666666666667 0.007857142857142858 0.02
0 0.38 0.4561904761904762 0.005714285714285714 0.01619047619047619
0 0.16714285714285715 0.518095238095238 0.007142857142857143 0.007619047619047619
0 0.265 0.4876190476190476 0.005 0.010476190476190476
0 0.17642857142857143 0.4961904761904762 0.0064285714285714285 0.015238095238095238
0 0.23 0.31333333333333335 0.005714285714285714 0.014285714285714285
0 0.235 0.2914285714285714 0.004285714285714286 0.009523809523809525
0 0.25285714285714284 0.2914285714285714 0.005 0.011428571428571429
0 0.25285714285714284 0.3466666666666667 0.007142857142857143 0.012380952380952381
0 0.23285714285714285 0.3514285714285714 0.004285714285714286 0.012380952380952381
0 0.35714285714285715 0.3304761904761905 0.0064285714285714285 0.017142857142857144
0 0.4085714285714286 0.2876190476190476 0.004285714285714286 0.011428571428571429
0 0.38571428571428573 0.35333333333333333 0.004285714285714286 0.014285714285714285
0 0.3985714285714286 0.3495238095238095 0.005 0.014285714285714285
0 0.38 0.35333333333333333 0.004285714285714286 0.015238095238095238
0 0.37714285714285717 0.3476190476190476 0.004285714285714286 0.015238095238095238
0 0.3942857142857143 0.34285714285714286 0.0064285714285714285 0.011428571428571429
0 0.3942857142857143 0.3361904761904762 0.0035714285714285713 0.011428571428571429
0 0.3921428571428571 0.3342857142857143 0.002857142857142857 0.011428571428571429
0 0.38285714285714284 0.3466666666666667 0.002857142857142857 0.013333333333333334
0 0.40285714285714286 0.3361904761904762 0.0035714285714285713 0.013333333333333334
0 0.5885714285714285 0.1580952380952381 0.004285714285714286 0.009523809523809525
0 0.5864285714285714 0.15619047619047619 0.002857142857142857 0.008571428571428572
0 0.7114285714285714 0.15619047619047619 0.005 0.009523809523809525
0 0.7907142857142857 0.16476190476190475 0.0035714285714285713 0.009523809523809525
0 0.7928571428571428 0.16380952380952382 0.0035714285714285713 0.008571428571428572
1 0.79 0.1657142857142857 0.013571428571428571 0.009523809523809525
1 0.7107142857142857 0.15904761904761905 0.01 0.008571428571428572
1 0.5857142857142857 0.16 0.01 0.007619047619047619
0 0.5178571428571429 0.1580952380952381 0.0035714285714285713 0.010476190476190476
0 0.06642857142857143 0.13142857142857142 0.005714285714285714 0.013333333333333334
0 0.15142857142857144 0.11333333333333333 0.005 0.012380952380952381
0 0.23 0.09523809523809523 0.0035714285714285713 0.011428571428571429
1 0.9478571428571428 0.12476190476190477 0.022857142857142857 0.015238095238095238
1 0.9478571428571428 0.11238095238095239 0.022857142857142857 0.015238095238095238
1 0.8678571428571429 0.11047619047619048 0.020714285714285713 0.011428571428571429
