1 0.2692857142857143 0.5723809523809524 0.041428571428571426 0.07333333333333333
0 0.7014285714285714 0.6504761904761904 0.039285714285714285 0.10666666666666667
0 0.7357142857142858 0.6628571428571428 0.039285714285714285 0.12
0 0.9835714285714285 0.6619047619047619 0.032857142857142856 0.1380952380952381
0 0.7871428571428571 0.5266666666666666 0.029285714285714286 0.07238095238095238
1 0.3385714285714286 0.5161904761904762 0.16857142857142857 0.09904761904761905
1 0.15928571428571428 0.47904761904761906 0.16214285714285714 0.10761904761904761
1 0.18428571428571427 0.5104761904761905 0.175 0.06380952380952382
1 0.2292857142857143 0.44285714285714284 0.31642857142857145 0.12666666666666668
1 0.04214285714285714 0.3933333333333333 0.06571428571428571 0.04666666666666667
0 0.585 0.4561904761904762 0.015714285714285715 0.0419047619047619
0 0.6 0.4552380952380952 0.017857142857142856 0.049523809523809526
0 0.7 0.4552380952380952 0.019285714285714285 0.047619047619047616
1 0.7207142857142858 0.4638095238095238 0.07785714285714286 0.04380952380952381
1 0.7385714285714285 0.3904761904761905 0.04285714285714286 0.0380952380952381
1 0.8078571428571428 0.38095238095238093 0.04428571428571428 0.0380952380952381
1 0.7757142857142857 0.3676190476190476 0.03857142857142857 0.030476190476190476
1 0.6978571428571428 0.37333333333333335 0.030714285714285715 0.03142857142857143
1 0.6978571428571428 0.35904761904761906 0.030714285714285715 0.02666666666666667
1 0.7507142857142857 0.3780952380952381 0.03357142857142857 0.03333333333333333
1 0.6578571428571428 0.35904761904761906 0.017857142857142856 0.02095238095238095
1 0.6635714285714286 0.35428571428571426 0.019285714285714285 0.02
1 0.68 0.3485714285714286 0.017857142857142856 0.017142857142857144
1 0.42857142857142855 0.3761904761904762 0.015714285714285715 0.014285714285714285
1 0.6478571428571429 0.34476190476190477 0.016428571428571428 0.01904761904761905
0 0.69 0.3438095238095238 0.004285714285714286 0.012380952380952381
0 0.7471428571428571 0.3457142857142857 0.005 0.015238095238095238
0 0.7178571428571429 0.3504761904761905 0.0035714285714285713 0.011428571428571429
1 0.7178571428571429 0.3523809523809524 0.007857142857142858 0.011428571428571429
0 0.8992857142857142 0.3523809523809524 0.005714285714285714 0.018095238095238095
0 0.8464285714285714 0.35619047619047617 0.007142857142857143 0.018095238095238095
1 0.845 0.36095238095238097 0.015 0.011428571428571429
0 0.7828571428571428 0.35333333333333333 0.007142857142857143 0.015238095238095238
0 0.7971428571428572 0.35428571428571426 0.007142857142857143 0.014285714285714285
0 0.8 0.35333333333333333 0.007142857142857143 0.015238095238095238
0 0.8071428571428572 0.35904761904761906 0.004285714285714286 0.017142857142857144
0 0.8064285714285714 0.35714285714285715 0.0064285714285714285 0.01904761904761905
0 0.8114285714285714 0.35714285714285715 0.005714285714285714 0.010476190476190476
0 0.8228571428571428 0.36 0.0064285714285714285 0.017142857142857144
0 0.8292857142857143 0.3580952380952381 0.0064285714285714285 0.015238095238095238
1 0.8242857142857143 0.3619047619047619 0.017142857142857144 0.012380952380952381
0 0.8171428571428572 0.3523809523809524 0.0064285714285714285 0.017142857142857144
0 0.8228571428571428 0.35333333333333333 0.005714285714285714 0.01619047619047619
1 0.8664285714285714 0.3961904761904762 0.05785714285714286 0.035238095238095235
1 0.8714285714285714 0.3838095238095238 0.047857142857142855 0.029523809523809525
1 0.9 0.3904761904761905 0.041428571428571426 0.03238095238095238
1 0.92 0.3761904761904762 0.041428571428571426 0.025714285714285714
1 0.8857142857142857 0.36952380952380953 0.045714285714285714 0.02666666666666667
1 0.9478571428571428 0.44666666666666666 0.10428571428571429 0.04476190476190476
1 0.9842857142857143 0.38571428571428573 0.03 0.02666666666666667
1 0.9757142857142858 0.37047619047619046 0.047142857142857146 0.022857142857142857
1 0.9728571428571429 0.35714285714285715 0.05357142857142857 0.0380952380952381
1 0.9635714285714285 0.35428571428571426 0.07285714285714286 0.04666666666666667
1 0.9814285714285714 0.4219047619047619 0.037142857142857144 0.03619047619047619
1 0.895 0.6028571428571429 0.03857142857142857 0.0761904761904762
0 0.8978571428571429 0.5876190476190476 0.032857142857142856 0.08666666666666667
