1 0.42928571428571427 0.5939086294416244 0.015 0.03680203045685279
1 0.505 0.6142131979695431 0.012857142857142857 0.03807106598984772
1 0.445 0.46446700507614214 0.01 0.025380710659898477
1 0.4664285714285714 0.4416243654822335 0.009285714285714286 0.02030456852791878
1 0.4735714285714286 0.3769035532994924 0.01 0.02030456852791878
1 0.47928571428571426 0.3401015228426396 0.007142857142857143 0.01649746192893401
1 0.475 0.29441624365482233 0.007857142857142858 0.017766497461928935
1 0.4657142857142857 0.2614213197969543 0.008571428571428572 0.017766497461928935
1 0.49142857142857144 0.23223350253807107 0.0064285714285714285 0.015228426395939087
1 0.5085714285714286 0.2398477157360406 0.007857142857142858 0.02030456852791878
1 0.5207142857142857 0.2563451776649746 0.007142857142857143 0.01903553299492386
1 0.4828571428571429 0.18401015228426396 0.0064285714285714285 0.015228426395939087
1 0.5085714285714286 0.18401015228426396 0.007142857142857143 0.015228426395939087
1 0.4878571428571429 0.1116751269035533 0.005714285714285714 0.011421319796954314
1 0.5107142857142857 0.08756345177664974 0.005714285714285714 0.012690355329949238
1 0.49 0.07614213197969544 0.005 0.01015228426395939
1 0.4828571428571429 0.06345177664974619 0.005 0.01015228426395939
1 0.4957142857142857 0.05583756345177665 0.005 0.01015228426395939
1 0.51 0.0583756345177665 0.005 0.012690355329949238
1 0.5164285714285715 0.01649746192893401 0.005 0.008883248730964468
1 0.485 0.021573604060913704 0.0035714285714285713 0.008883248730964468
1 0.5 0.0025380710659898475 0.005 0.005076142131979695
1 0.5178571428571429 0.06218274111675127 0.005 0.01649746192893401
1 0.45714285714285713 0.3248730964467005 0.007857142857142858 0.017766497461928935
1 0.5357142857142857 0.3946700507614213 0.007857142857142858 0.030456852791878174
1 0.5014285714285714 0.9428934010152284 0.017857142857142856 0.07614213197969544
1 0.45571428571428574 0.5380710659898477 0.012142857142857143 0.025380710659898477
1 0.4828571428571429 0.4720812182741117 0.015 0.030456852791878174
1 0.5064285714285715 0.3565989847715736 0.009285714285714286 0.02918781725888325
1 0.5264285714285715 0.21065989847715735 0.007142857142857143 0.02030456852791878
1 0.4692857142857143 0.20939086294416243 0.007142857142857143 0.01649746192893401
1 0.4735714285714286 0.17258883248730963 0.0064285714285714285 0.013959390862944163
1 0.49642857142857144 0.09263959390862944 0.004285714285714286 0.013959390862944163
1 0.5171428571428571 0.031725888324873094 0.005 0.011421319796954314
1 0.4878571428571429 0.011421319796954314 0.004285714285714286 0.008883248730964468
1 0.5228571428571429 0.47588832487309646 0.012142857142857143 0.05583756345177665
0 0.3407142857142857 0.3629441624365482 0.005714285714285714 0.02030456852791878
