1 0.66 0.6047619047619047 0.07357142857142857 0.06095238095238095
1 0.7807142857142857 0.6352380952380953 0.105 0.06666666666666667
1 0.4878571428571429 0.56 0.052142857142857144 0.04857142857142857
1 0.4342857142857143 0.5628571428571428 0.045 0.047619047619047616
1 0.4742857142857143 0.49238095238095236 0.03428571428571429 0.030476190476190476
1 0.47785714285714287 0.4676190476190476 0.030714285714285715 0.02666666666666667
1 0.365 0.4219047619047619 0.018571428571428572 0.01904761904761905
1 0.3442857142857143 0.4 0.012857142857142857 0.013333333333333334
1 0.31785714285714284 0.4276190476190476 0.016428571428571428 0.017142857142857144
1 0.3314285714285714 0.44095238095238093 0.018571428571428572 0.02
1 0.35285714285714287 0.4685714285714286 0.023571428571428573 0.024761904761904763
1 0.37 0.4857142857142857 0.023571428571428573 0.030476190476190476
1 0.38642857142857145 0.5057142857142857 0.025 0.03333333333333333
1 0.4092857142857143 0.5257142857142857 0.03785714285714286 0.037142857142857144
1 0.3992857142857143 0.47904761904761906 0.02642857142857143 0.02857142857142857
1 0.4207142857142857 0.4961904761904762 0.035 0.04
1 0.45285714285714285 0.52 0.03857142857142857 0.04666666666666667
1 0.9542857142857143 0.7952380952380952 0.09071428571428572 0.11047619047619048
0 0.2571428571428571 0.8104761904761905 0.02857142857142857 0.06285714285714286
1 0.2557142857142857 0.8295238095238096 0.019285714285714285 0.058095238095238096
