1 0.6 0.6104761904761905 0.03785714285714286 0.08666666666666667
1 0.5428571428571428 0.5876190476190476 0.03857142857142857 0.08761904761904762
1 0.47928571428571426 0.5323809523809524 0.03571428571428571 0.0761904761904762
0 0.4785714285714286 0.5095238095238095 0.029285714285714286 0.09428571428571429
0 0.5435714285714286 0.5561904761904762 0.03142857142857143 0.08952380952380952
0 0.5978571428571429 0.580952380952381 0.02857142857142857 0.09714285714285714
1 0.8585714285714285 0.5057142857142857 0.15714285714285714 0.1361904761904762
1 0.9507142857142857 0.4685714285714286 0.09785714285714285 0.13333333333333333
1 0.9192857142857143 0.38857142857142857 0.12214285714285714 0.08952380952380952
1 0.7664285714285715 0.3419047619047619 0.07928571428571428 0.06666666666666667
1 0.8057142857142857 0.3333333333333333 0.07357142857142857 0.07047619047619047
1 0.7292857142857143 0.35714285714285715 0.07571428571428572 0.08666666666666667
1 0.6014285714285714 0.3238095238095238 0.05928571428571429 0.06
1 0.645 0.29428571428571426 0.06142857142857143 0.05619047619047619
1 0.5242857142857142 0.22952380952380952 0.02642857142857143 0.030476190476190476
1 0.4521428571428571 0.24571428571428572 0.03357142857142857 0.04476190476190476
1 0.8892857142857142 0.3028571428571429 0.08285714285714285 0.05142857142857143
1 0.52 0.28 0.03642857142857143 0.058095238095238096
1 0.41714285714285715 0.2523809523809524 0.03214285714285714 0.04666666666666667
1 0.4042857142857143 0.2714285714285714 0.04357142857142857 0.06
1 0.5307142857142857 0.19428571428571428 0.018571428571428572 0.01619047619047619
1 0.56 0.19714285714285715 0.020714285714285713 0.01619047619047619
1 0.6064285714285714 0.26095238095238094 0.04428571428571428 0.03619047619047619
1 0.5964285714285714 0.23238095238095238 0.03785714285714286 0.03142857142857143
1 0.6278571428571429 0.22952380952380952 0.03571428571428571 0.024761904761904763
1 0.5942857142857143 0.21047619047619048 0.023571428571428573 0.022857142857142857
1 0.38571428571428573 0.23714285714285716 0.02642857142857143 0.02095238095238095
0 0.3392857142857143 0.25142857142857145 0.010714285714285714 0.03142857142857143
0 0.35 0.24952380952380954 0.011428571428571429 0.030476190476190476
0 0.3492857142857143 0.2276190476190476 0.007142857142857143 0.02666666666666667
0 0.355 0.23047619047619047 0.007142857142857143 0.01904761904761905
0 0.3578571428571429 0.23523809523809525 0.007857142857142858 0.02
0 0.355 0.2123809523809524 0.008571428571428572 0.02
0 0.34214285714285714 0.21904761904761905 0.009285714285714286 0.023809523809523808
1 0.34214285714285714 0.21904761904761905 0.008571428571428572 0.01619047619047619
0 0.39785714285714285 0.21333333333333335 0.008571428571428572 0.02
0 0.4564285714285714 0.22666666666666666 0.005714285714285714 0.017142857142857144
1 0.3985714285714286 0.21523809523809523 0.0064285714285714285 0.014285714285714285
1 0.385 0.18285714285714286 0.01 0.011428571428571429
1 0.38285714285714284 0.17523809523809525 0.008571428571428572 0.011428571428571429
1 0.4207142857142857 0.18095238095238095 0.01 0.010476190476190476
1 0.405 0.16285714285714287 0.007142857142857143 0.009523809523809525
1 0.44642857142857145 0.16952380952380952 0.005714285714285714 0.007619047619047619
1 0.44571428571428573 0.15904761904761905 0.0064285714285714285 0.008571428571428572
1 0.44 0.15714285714285714 0.005 0.005714285714285714
1 0.43 0.16 0.007857142857142858 0.010476190476190476
1 0.43714285714285717 0.18666666666666668 0.011428571428571429 0.012380952380952381
1 0.48214285714285715 0.17904761904761904 0.01 0.014285714285714285
1 0.47285714285714286 0.18 0.011428571428571429 0.012380952380952381
1 0.46 0.1761904761904762 0.009285714285714286 0.008571428571428572
1 0.47285714285714286 0.17809523809523808 0.01 0.011428571428571429
1 0.495 0.19047619047619047 0.014285714285714285 0.013333333333333334
1 0.4907142857142857 0.18666666666666668 0.012142857142857143 0.009523809523809525
1 0.4585714285714286 0.19523809523809524 0.032857142857142856 0.039047619047619046
1 0.5057142857142857 0.18095238095238095 0.027142857142857142 0.024761904761904763
0 0.4942857142857143 0.15904761904761905 0.002142857142857143 0.006666666666666667
0 0.49714285714285716 0.1580952380952381 0.002142857142857143 0.005714285714285714
0 0.4857142857142857 0.1580952380952381 0.002142857142857143 0.004761904761904762
1 0.4857142857142857 0.16 0.002857142857142857 0.004761904761904762
0 0.5014285714285714 0.15904761904761905 0.002857142857142857 0.007619047619047619
0 0.6185714285714285 0.18857142857142858 0.0035714285714285713 0.013333333333333334
0 0.6042857142857143 0.19238095238095237 0.007142857142857143 0.012380952380952381
0 0.5614285714285714 0.18 0.0035714285714285713 0.009523809523809525
1 0.5614285714285714 0.18285714285714286 0.005714285714285714 0.007619047619047619
1 0.6042857142857143 0.19523809523809524 0.007142857142857143 0.010476190476190476
1 0.6464285714285715 0.21047619047619048 0.047142857142857146 0.04476190476190476
1 0.7042857142857143 0.22 0.035 0.022857142857142857
1 0.7478571428571429 0.26666666666666666 0.047142857142857146 0.0380952380952381
1 0.7278571428571429 0.24857142857142858 0.04285714285714286 0.03333333333333333
1 0.9371428571428572 0.25142857142857145 0.02642857142857143 0.024761904761904763
1 0.7792857142857142 0.23142857142857143 0.11714285714285715 0.07238095238095238
0 0.6971428571428572 0.20095238095238097 0.0064285714285714285 0.014285714285714285
1 0.6957142857142857 0.20476190476190476 0.010714285714285714 0.011428571428571429
0 0.7064285714285714 0.2057142857142857 0.005714285714285714 0.015238095238095238
