0 0.5307142857142857 0.4085714285714286 0.0035714285714285713 0.014285714285714285
0 0.5885714285714285 0.3942857142857143 0.004285714285714286 0.012380952380952381
0 0.555 0.39904761904761904 0.0035714285714285713 0.013333333333333334
0 0.5535714285714286 0.4 0.0035714285714285713 0.012380952380952381
0 0.5642857142857143 0.40476190476190477 0.0064285714285714285 0.013333333333333334
0 0.5785714285714286 0.4180952380952381 0.007142857142857143 0.015238095238095238
0 0.5721428571428572 0.44 0.005714285714285714 0.01904761904761905
0 0.5914285714285714 0.40476190476190477 0.005 0.01619047619047619
0 0.5857142857142857 0.4057142857142857 0.0035714285714285713 0.014285714285714285
0 0.5764285714285714 0.40476190476190477 0.0064285714285714285 0.010476190476190476
0 0.5821428571428572 0.40190476190476193 0.004285714285714286 0.012380952380952381
0 0.5792857142857143 0.38952380952380955 0.0035714285714285713 0.014285714285714285
0 0.5642857142857143 0.38285714285714284 0.005 0.013333333333333334
0 0.56 0.38952380952380955 0.0064285714285714285 0.014285714285714285
0 0.5214285714285715 0.38095238095238093 0.002857142857142857 0.014285714285714285
0 0.5014285714285714 0.38 0.007142857142857143 0.01619047619047619
0 0.49214285714285716 0.3980952380952381 0.007142857142857143 0.012380952380952381
0 0.5307142857142857 0.41714285714285715 0.002857142857142857 0.013333333333333334
0 0.44357142857142856 0.3638095238095238 0.002857142857142857 0.013333333333333334
0 0.4564285714285714 0.35428571428571426 0.005 0.004761904761904762
0 0.04357142857142857 0.9038095238095238 0.020714285714285713 0.023809523809523808
0 0.11214285714285714 0.5752380952380952 0.01 0.011428571428571429
0 0.11285714285714285 0.5695238095238095 0.008571428571428572 0.022857142857142857
0 0.8235714285714286 0.7628571428571429 0.014285714285714285 0.024761904761904763
0 0.76 0.7133333333333334 0.017857142857142856 0.02095238095238095
