1 0.364 0.6666666666666666 0.0135 0.014
1 0.481 0.67 0.0305 0.025333333333333333
1 0.4735 0.686 0.0395 0.028
1 0.4635 0.7093333333333334 0.038 0.029333333333333333
1 0.4545 0.7286666666666667 0.0435 0.030666666666666665
1 0.6755 0.9253333333333333 0.019 0.024
1 0.643 0.876 0.007 0.024
1 0.65 0.8626666666666667 0.0145 0.014
1 0.6835 0.8013333333333333 0.015 0.01
1 0.6835 0.8113333333333334 0.0155 0.012
1 0.684 0.8206666666666667 0.0155 0.01
1 0.684 0.8333333333333334 0.0155 0.011333333333333334
1 0.6855 0.8433333333333334 0.016 0.011333333333333334
0 0.7115 0.832 0.007 0.016
1 0.713 0.8433333333333334 0.0065 0.016
1 0.704 0.8986666666666666 0.0225 0.06133333333333333
1 0.7035 0.9666666666666667 0.025 0.066
0 0.729 0.9446666666666667 0.0085 0.02
1 0.729 0.956 0.005 0.018666666666666668
1 0.7055 0.748 0.0175 0.037333333333333336
1 0.7075 0.7066666666666667 0.017 0.03933333333333333
1 0.7025 0.6333333333333333 0.0255 0.07266666666666667
1 0.7015 0.4766666666666667 0.0135 0.019333333333333334
1 0.703 0.496 0.014 0.02266666666666667
0 0.7245 0.592 0.0055 0.012
0 0.723 0.6073333333333333 0.006 0.019333333333333334
1 0.725 0.5973333333333334 0.003 0.010666666666666666
1 0.76 0.6253333333333333 0.017 0.03333333333333333
1 0.7585 0.5393333333333333 0.0145 0.028666666666666667
1 0.7465 0.41133333333333333 0.0115 0.019333333333333334
1 0.7625 0.44733333333333336 0.0125 0.021333333333333333
1 0.753 0.19533333333333333 0.006 0.004666666666666667
1 0.764 0.19733333333333333 0.005 0.006666666666666667
1 0.7725 0.19933333333333333 0.008 0.012666666666666666
1 0.7785 0.19466666666666665 0.004 0.007333333333333333
1 0.7815 0.20266666666666666 0.005 0.01
1 0.785 0.21133333333333335 0.0055 0.006
1 0.7865 0.21666666666666667 0.006 0.0026666666666666666
1 0.789 0.22533333333333333 0.0085 0.013333333333333334
1 0.7545 0.20133333333333334 0.006 0.004666666666666667
1 0.7555 0.208 0.004 0.006666666666666667
1 0.7625 0.20933333333333334 0.006 0.006
1 0.749 0.23133333333333334 0.008 0.010666666666666666
1 0.7555 0.21466666666666667 0.0055 0.006666666666666667
1 0.7585 0.22666666666666666 0.0065 0.006666666666666667
1 0.7645 0.218 0.005 0.006666666666666667
1 0.763 0.22333333333333333 0.0055 0.006666666666666667
1 0.772 0.22266666666666668 0.0055 0.006
1 0.7675 0.23 0.0055 0.006
1 0.753 0.23733333333333334 0.007 0.006
1 0.7625 0.24733333333333332 0.006 0.008
1 0.77 0.24133333333333334 0.0055 0.007333333333333333
1 0.772 0.25 0.006 0.006666666666666667
1 0.764 0.258 0.0075 0.009333333333333334
1 0.7875 0.248 0.0095 0.007333333333333333
0 0.7775 0.21 0.003 0.006
1 0.782 0.352 0.0105 0.011333333333333334
1 0.8105 0.35533333333333333 0.011 0.016666666666666666
1 0.7895 0.3293333333333333 0.0085 0.012666666666666666
1 0.776 0.31733333333333336 0.008 0.011333333333333334
1 0.7705 0.29333333333333333 0.0075 0.010666666666666666
1 0.7665 0.2733333333333333 0.0065 0.01
1 0.773 0.2613333333333333 0.006 0.008
1 0.7775 0.274 0.0075 0.009333333333333334
1 0.778 0.2853333333333333 0.0065 0.010666666666666666
1 0.7895 0.2853333333333333 0.0075 0.009333333333333334
1 0.78 0.298 0.0095 0.009333333333333334
1 0.792 0.29733333333333334 0.0085 0.009333333333333334
1 0.7855 0.30866666666666664 0.0085 0.009333333333333334
1 0.798 0.31466666666666665 0.0075 0.01
1 0.802 0.3353333333333333 0.0085 0.010666666666666666
1 0.817 0.30533333333333335 0.009 0.008666666666666666
1 0.818 0.31466666666666665 0.008 0.01
1 0.823 0.324 0.01 0.009333333333333334
1 0.8295 0.3333333333333333 0.011 0.012
1 0.795 0.3566666666666667 0.0105 0.012666666666666666
1 0.7125 0.38333333333333336 0.0105 0.015333333333333332
1 0.7135 0.36866666666666664 0.0105 0.012
1 0.7135 0.35 0.0085 0.02266666666666667
1 0.715 0.3253333333333333 0.012 0.027333333333333334
0 0.796 0.244 0.0025 0.0033333333333333335
1 0.796 0.24666666666666667 0.0015 0.004
1 0.784 0.2613333333333333 0.012 0.020666666666666667
0 0.7935 0.258 0.002 0.007333333333333333
0 0.7905 0.25933333333333336 0.0015 0.006
0 0.798 0.26866666666666666 0.0025 0.005333333333333333
1 0.798 0.2713333333333333 0.002 0.004
1 0.8025 0.26466666666666666 0.007 0.008
1 0.806 0.27666666666666667 0.008 0.016
0 0.8025 0.2906666666666667 0.0035 0.008
1 0.803 0.29333333333333333 0.002 0.004666666666666667
0 0.7275 0.358 0.005 0.012666666666666666
1 0.804 0.3953333333333333 0.012 0.014
1 0.817 0.392 0.011 0.013333333333333334
1 0.7985 0.4266666666666667 0.0115 0.014666666666666666
1 0.8165 0.4246666666666667 0.013 0.015333333333333332
1 0.822 0.4686666666666667 0.0145 0.016
1 0.8155 0.49466666666666664 0.0135 0.016
1 0.842 0.472 0.013 0.018666666666666668
0 0.826 0.3453333333333333 0.0025 0.005333333333333333
1 0.8265 0.348 0.002 0.006
1 0.8095 0.2886666666666667 0.005 0.007333333333333333
1 0.8325 0.24066666666666667 0.0125 0.008666666666666666
1 0.8415 0.3586666666666667 0.004 0.008666666666666666
1 0.8535 0.38133333333333336 0.013 0.012666666666666666
1 0.8635 0.4086666666666667 0.012 0.012
1 0.869 0.4206666666666667 0.013 0.013333333333333334
0 0.863 0.462 0.0045 0.006666666666666667
0 0.8685 0.46266666666666667 0.0035 0.009333333333333334
1 0.8625 0.4673333333333333 0.003 0.004666666666666667
1 0.8685 0.4686666666666667 0.003 0.008666666666666666
1 0.889 0.42866666666666664 0.007 0.007333333333333333
1 0.876 0.446 0.0135 0.017333333333333333
1 0.88 0.462 0.0125 0.018
0 0.869 0.502 0.004 0.009333333333333334
1 0.869 0.5073333333333333 0.007 0.011333333333333334
0 0.871 0.488 0.006 0.011333333333333334
1 0.8715 0.492 0.003 0.008
1 0.8825 0.49266666666666664 0.016 0.018666666666666668
1 0.8155 0.8293333333333334 0.023 0.05266666666666667
1 0.847 0.912 0.0265 0.05466666666666667
1 0.787 0.7026666666666667 0.019 0.03933333333333333
1 0.7935 0.5433333333333333 0.0145 0.026
1 0.924 0.5086666666666667 0.0105 0.011333333333333334
1 0.916 0.516 0.0115 0.010666666666666666
1 0.9105 0.5293333333333333 0.0145 0.008666666666666666
1 0.914 0.5346666666666666 0.0115 0.01
0 0.889 0.546 0.006 0.014
1 0.8895 0.5513333333333333 0.004 0.008666666666666666
1 0.8695 0.5866666666666667 0.018 0.024666666666666667
1 0.9075 0.56 0.019 0.022
1 0.92 0.5893333333333334 0.023 0.023333333333333334
0 0.913 0.618 0.007 0.012
0 0.9115 0.6233333333333333 0.006 0.014666666666666666
1 0.9295 0.618 0.024 0.028
1 0.9405 0.646 0.0235 0.030666666666666665
1 0.9505 0.6766666666666666 0.0255 0.030666666666666665
0 0.9335 0.6973333333333334 0.005 0.013333333333333334
1 0.9315 0.7013333333333334 0.008 0.016666666666666666
1 0.909 0.81 0.0275 0.04466666666666667
1 0.965 0.7173333333333334 0.0265 0.037333333333333336
1 0.979 0.7553333333333333 0.028 0.038
1 0.9885 0.7993333333333333 0.023 0.04533333333333334
1 0.85 0.6613333333333333 0.0195 0.030666666666666665
1 0.867 0.6346666666666667 0.0205 0.030666666666666665
0 0.9165 0.4633333333333333 0.0045 0.013333333333333334
1 0.6555 0.7346666666666667 0.0055 0.02266666666666667
0 0.7235 0.3233333333333333 0.003 0.01
