1 0.14857142857142858 0.7266666666666667 0.06571428571428571 0.13333333333333333
1 0.08642857142857142 0.6923809523809524 0.07785714285714286 0.16476190476190475
1 0.11785714285714285 0.5380952380952381 0.06928571428571428 0.1361904761904762
0 0.1707142857142857 0.5542857142857143 0.022857142857142857 0.0380952380952381
0 0.5471428571428572 0.49238095238095236 0.016428571428571428 0.03619047619047619
0 0.5578571428571428 0.4580952380952381 0.014285714285714285 0.03333333333333333
1 0.6128571428571429 0.5038095238095238 0.03142857142857143 0.0838095238095238
1 0.4564285714285714 0.8552380952380952 0.055714285714285716 0.16
1 0.45714285714285713 0.599047619047619 0.052142857142857144 0.14
1 0.4514285714285714 0.35619047619047617 0.045 0.11238095238095239
1 0.4585714285714286 0.24095238095238095 0.04214285714285714 0.09523809523809523
1 0.4057142857142857 0.24476190476190476 0.04 0.08857142857142856
1 0.44571428571428573 0.14095238095238094 0.04857142857142857 0.07142857142857142
0 0.37357142857142855 0.6285714285714286 0.017142857142857144 0.029523809523809525
1 0.37357142857142855 0.6352380952380953 0.015 0.05904761904761905
1 0.6107142857142858 0.6161904761904762 0.04214285714285714 0.045714285714285714
1 0.5785714285714286 0.5447619047619048 0.04071428571428572 0.04666666666666667
0 0.6421428571428571 0.7714285714285715 0.016428571428571428 0.03238095238095238
0 0.5278571428571428 0.5 0.015 0.037142857142857144
0 0.37357142857142855 0.19047619047619047 0.014285714285714285 0.04
1 0.3742857142857143 0.2 0.010714285714285714 0.039047619047619046
1 0.545 0.09904761904761905 0.017142857142857144 0.030476190476190476
1 0.5514285714285714 0.0761904761904762 0.013571428571428571 0.03333333333333333
0 0.225 0.12761904761904763 0.017142857142857144 0.0380952380952381
1 0.25 0.013333333333333334 0.07428571428571429 0.02666666666666667
