1 0.3292857142857143 0.4542857142857143 0.047142857142857146 0.0380952380952381
1 0.4 0.38666666666666666 0.041428571428571426 0.047619047619047616
1 0.42928571428571427 0.36952380952380953 0.005 0.012380952380952381
0 0.42928571428571427 0.3676190476190476 0.005 0.009523809523809525
1 0.6057142857142858 0.3466666666666667 0.032857142857142856 0.030476190476190476
1 0.6092857142857143 0.30857142857142855 0.007857142857142858 0.008571428571428572
1 0.495 0.3219047619047619 0.030714285714285715 0.02666666666666667
0 0.62 0.3161904761904762 0.002142857142857143 0.009523809523809525
0 0.58 0.3476190476190476 0.002857142857142857 0.009523809523809525
0 0.5607142857142857 0.37523809523809526 0.002857142857142857 0.011428571428571429
0 0.5642857142857143 0.37333333333333335 0.0035714285714285713 0.010476190476190476
1 0.9728571428571429 0.44095238095238093 0.03428571428571429 0.024761904761904763
1 0.9771428571428571 0.5038095238095238 0.03214285714285714 0.02666666666666667
1 0.8478571428571429 0.4247619047619048 0.027142857142857142 0.023809523809523808
1 0.9335714285714286 0.4095238095238095 0.027857142857142858 0.018095238095238095
0 0.7907142857142857 0.35619047619047617 0.005 0.008571428571428572
1 0.7907142857142857 0.36 0.005714285714285714 0.008571428571428572
1 0.7742857142857142 0.29333333333333333 0.014285714285714285 0.009523809523809525
1 0.7707142857142857 0.2914285714285714 0.015 0.010476190476190476
1 0.7964285714285714 0.2866666666666667 0.015 0.006666666666666667
1 0.795 0.29428571428571426 0.01 0.011428571428571429
1 0.7835714285714286 0.27714285714285714 0.007142857142857143 0.005714285714285714
1 0.7742857142857142 0.2780952380952381 0.007857142857142858 0.005714285714285714
0 0.7164285714285714 0.2914285714285714 0.002142857142857143 0.0038095238095238095
0 0.7192857142857143 0.2838095238095238 0.002142857142857143 0.005714285714285714
1 0.7164285714285714 0.2923809523809524 0.002857142857142857 0.004761904761904762
