1 0.25785714285714284 0.36952380952380953 0.11 0.08952380952380952
1 0.3335714285714286 0.20476190476190476 0.041428571428571426 0.08857142857142856
1 0.4328571428571429 0.2895238095238095 0.045714285714285714 0.12095238095238095
1 0.2542857142857143 0.24 0.03214285714285714 0.030476190476190476
1 0.2542857142857143 0.21904761904761905 0.02642857142857143 0.015238095238095238
1 0.26857142857142857 0.2038095238095238 0.02142857142857143 0.029523809523809525
1 0.35714285714285715 0.14476190476190476 0.03357142857142857 0.02857142857142857
0 0.3142857142857143 0.14285714285714285 0.015 0.045714285714285714
0 0.3392857142857143 0.09714285714285714 0.012142857142857143 0.0380952380952381
0 0.3435714285714286 0.05904761904761905 0.013571428571428571 0.037142857142857144
1 0.4857142857142857 0.3819047619047619 0.056428571428571425 0.13238095238095238
1 0.4042857142857143 0.1 0.03785714285714286 0.0761904761904762
1 0.455 0.13238095238095238 0.03571428571428571 0.07904761904761905
0 0.4785714285714286 0.14857142857142858 0.015714285714285715 0.039047619047619046
0 0.495 0.1457142857142857 0.017142857142857144 0.045714285714285714
0 0.4828571428571429 0.12285714285714286 0.010714285714285714 0.04380952380952381
1 0.45714285714285713 0.06476190476190476 0.030714285714285715 0.05619047619047619
1 0.41785714285714287 0.054285714285714284 0.035 0.05904761904761905
1 0.4592857142857143 0.023809523809523808 0.030714285714285715 0.04857142857142857
1 0.4235714285714286 0.012380952380952381 0.03142857142857143 0.025714285714285714
1 0.3192857142857143 0.4980952380952381 0.06714285714285714 0.16666666666666666
1 0.43357142857142855 0.5247619047619048 0.06357142857142857 0.1819047619047619
0 0.37857142857142856 0.5066666666666667 0.023571428571428573 0.05714285714285714
1 0.12571428571428572 0.7742857142857142 0.17 0.1419047619047619
1 0.1492857142857143 0.66 0.17285714285714285 0.10857142857142857
1 0.18071428571428572 0.5666666666666667 0.16428571428571428 0.09142857142857143
0 0.25 0.8095238095238095 0.027142857142857142 0.045714285714285714
0 0.2292857142857143 0.7923809523809524 0.02142857142857143 0.06
1 0.29285714285714287 0.9047619047619048 0.12285714285714286 0.18761904761904763
1 0.5035714285714286 0.7742857142857142 0.09785714285714285 0.3657142857142857
1 0.6535714285714286 0.023809523809523808 0.056428571428571425 0.04857142857142857
1 0.6814285714285714 0.11047619047619048 0.047142857142857146 0.06666666666666667
1 0.7535714285714286 0.07523809523809524 0.05142857142857143 0.05619047619047619
1 0.7271428571428571 0.030476190476190476 0.03642857142857143 0.047619047619047616
1 0.745 0.14952380952380953 0.05071428571428571 0.06476190476190476
1 0.785 0.1295238095238095 0.05714285714285714 0.058095238095238096
1 0.8142857142857143 0.2 0.06571428571428571 0.0761904761904762
1 0.8628571428571429 0.29428571428571426 0.07928571428571428 0.08761904761904762
0 0.7221428571428572 0.21523809523809523 0.015714285714285715 0.04476190476190476
0 0.9071428571428571 0.4361904761904762 0.02642857142857143 0.06190476190476191
1 0.9378571428571428 0.44571428571428573 0.09642857142857143 0.12095238095238095
