1 0.3757142857142857 0.10476190476190476 0.024285714285714285 0.04666666666666667
0 0.375 0.11047619047619048 0.005714285714285714 0.009523809523809525
1 0.44142857142857145 0.13714285714285715 0.047142857142857146 0.03428571428571429
1 0.42214285714285715 0.2019047619047619 0.04285714285714286 0.03238095238095238
1 0.39714285714285713 0.2752380952380952 0.054285714285714284 0.03619047619047619
1 0.4107142857142857 0.2276190476190476 0.05 0.03142857142857143
1 0.43857142857142856 0.16 0.04642857142857143 0.029523809523809525
1 0.3557142857142857 0.42857142857142855 0.03642857142857143 0.03428571428571429
1 0.3657142857142857 0.3961904761904762 0.03642857142857143 0.029523809523809525
1 0.035 0.7485714285714286 0.07071428571428572 0.0838095238095238
1 0.16642857142857143 0.7914285714285715 0.055 0.12476190476190477
1 0.13428571428571429 0.9219047619047619 0.06357142857142857 0.0980952380952381
1 0.30428571428571427 0.8609523809523809 0.05785714285714286 0.11142857142857143
1 0.2571428571428571 0.8914285714285715 0.015 0.049523809523809526
1 0.2642857142857143 0.8171428571428572 0.030714285714285715 0.018095238095238095
1 0.2557142857142857 0.8314285714285714 0.02857142857142857 0.021904761904761906
1 0.22142857142857142 0.8580952380952381 0.013571428571428571 0.04285714285714286
1 0.23 0.9133333333333333 0.02857142857142857 0.030476190476190476
1 0.28 0.7714285714285715 0.03 0.02
1 0.2692857142857143 0.7847619047619048 0.03 0.014285714285714285
1 0.4828571428571429 0.82 0.07214285714285715 0.07047619047619047
1 0.5057142857142857 0.7219047619047619 0.07 0.04857142857142857
1 0.5121428571428571 0.6704761904761904 0.07071428571428572 0.05238095238095238
1 0.5185714285714286 0.6247619047619047 0.062142857142857146 0.04857142857142857
1 0.5335714285714286 0.54 0.06285714285714286 0.045714285714285714
1 0.5378571428571428 0.4990476190476191 0.06285714285714286 0.04285714285714286
1 0.5985714285714285 0.10380952380952381 0.04285714285714286 0.0419047619047619
1 0.9278571428571428 0.4780952380952381 0.017142857142857144 0.03142857142857143
0 0.9271428571428572 0.47904761904761906 0.008571428571428572 0.018095238095238095
0 0.9264285714285714 0.4657142857142857 0.008571428571428572 0.010476190476190476
