1 0.4878571428571429 0.8223350253807107 0.03357142857142857 0.06852791878172589
1 0.5321428571428571 0.7296954314720813 0.03428571428571429 0.06091370558375635
1 0.575 0.6484771573604061 0.03357142857142857 0.06218274111675127
0 0.24071428571428571 0.6890862944162437 0.009285714285714286 0.01903553299492386
0 0.285 0.7538071065989848 0.01 0.0266497461928934
0 0.3585714285714286 0.5444162436548223 0.007142857142857143 0.0266497461928934
0 0.3657142857142857 0.5304568527918782 0.010714285714285714 0.01903553299492386
0 0.6385714285714286 0.37944162436548223 0.007857142857142858 0.02030456852791878
1 0.6242857142857143 0.29441624365482233 0.03428571428571429 0.04568527918781726
1 0.5692857142857143 0.22715736040609136 0.04214285714285714 0.07106598984771574
0 0.17642857142857143 0.13071065989847716 0.0064285714285714285 0.02030456852791878
