0 0.4705 0.3606666666666667 0.009 0.04066666666666666
0 0.436 0.36666666666666664 0.0135 0.038
0 0.431 0.39866666666666667 0.01 0.044
0 0.4205 0.424 0.0095 0.03133333333333333
0 0.413 0.42 0.012 0.05
0 0.413 0.528 0.0165 0.05
0 0.4 0.5913333333333334 0.0215 0.04933333333333333
0 0.4965 0.6653333333333333 0.022 0.05466666666666667
0 0.463 0.472 0.014 0.02666666666666667
0 0.473 0.484 0.015 0.029333333333333333
1 0.4775 0.5026666666666667 0.0115 0.05
1 0.4655 0.5513333333333333 0.019 0.052
1 0.533 0.7186666666666667 0.032 0.072
1 0.513 0.7866666666666666 0.0595 0.03933333333333333
1 0.4285 0.886 0.072 0.046
1 0.276 0.8613333333333333 0.071 0.03933333333333333
1 0.3985 0.61 0.0145 0.05533333333333333
1 0.4145 0.5353333333333333 0.0255 0.04733333333333333
1 0.3995 0.35 0.022 0.02
0 0.3965 0.344 0.0125 0.036
0 0.4325 0.8546666666666667 0.0235 0.06133333333333333
0 0.267 0.8426666666666667 0.0365 0.06733333333333333
0 0.2445 0.788 0.032 0.056666666666666664
0 0.1315 0.862 0.031 0.08466666666666667
1 0.145 0.8666666666666667 0.0795 0.05533333333333333
1 0.249 0.8086666666666666 0.0615 0.03866666666666667
1 0.5 0.684 0.0455 0.043333333333333335
1 0.605 0.6566666666666666 0.055 0.034
0 0.607 0.6526666666666666 0.022 0.06466666666666666
0 0.6405 0.7493333333333333 0.0225 0.078
0 0.7155 0.7813333333333333 0.0255 0.06933333333333333
0 0.538 0.8426666666666667 0.0165 0.058
0 0.5615 0.8566666666666667 0.0285 0.07
0 0.343 0.968 0.0265 0.064
0 0.3745 0.954 0.034 0.08333333333333333
0 0.3755 0.9053333333333333 0.0315 0.072
0 0.884 0.8653333333333333 0.0345 0.07333333333333333
0 0.97 0.8553333333333333 0.031 0.07133333333333333
0 0.965 0.736 0.037 0.07533333333333334
0 0.8705 0.9846666666666667 0.0345 0.030666666666666665
0 0.8725 0.964 0.028 0.072
0 0.9035 0.8566666666666667 0.0205 0.034666666666666665
1 0.842 0.5853333333333334 0.023 0.06133333333333333
1 0.783 0.6093333333333333 0.018 0.05333333333333334
0 0.827 0.6146666666666667 0.0245 0.06333333333333334
0 0.6375 0.5573333333333333 0.0225 0.064
0 0.658 0.5653333333333334 0.017 0.054
0 0.664 0.566 0.016 0.059333333333333335
1 0.9255 0.6813333333333333 0.149 0.11666666666666667
0 0.3655 0.582 0.016 0.05533333333333333
1 0.2655 0.7213333333333334 0.1735 0.09333333333333334
0 0.226 0.9306666666666666 0.038 0.086
0 0.07 0.958 0.059 0.07866666666666666
0 0.1335 0.33466666666666667 0.015 0.030666666666666665
0 0.3045 0.31666666666666665 0.013 0.034
0 0.2705 0.2926666666666667 0.01 0.032
0 0.2015 0.302 0.0095 0.024666666666666667
0 0.0995 0.3253333333333333 0.014 0.032
0 0.249 0.25866666666666666 0.01 0.02666666666666667
0 0.2515 0.24 0.0085 0.024666666666666667
0 0.259 0.23933333333333334 0.011 0.026
0 0.149 0.308 0.014 0.030666666666666665
0 0.135 0.312 0.012 0.03333333333333333
0 0.186 0.30466666666666664 0.013 0.028666666666666667
0 0.181 0.314 0.0065 0.016
0 0.0925 0.35333333333333333 0.0175 0.025333333333333333
0 0.031 0.4 0.017 0.028666666666666667
0 0.0125 0.41133333333333333 0.0165 0.02266666666666667
0 0.067 0.32866666666666666 0.0125 0.030666666666666665
0 0.311 0.29533333333333334 0.01 0.018666666666666668
0 0.349 0.2926666666666667 0.0085 0.017333333333333333
0 0.2295 0.38066666666666665 0.0135 0.020666666666666667
0 0.2395 0.138 0.0055 0.012
1 0.247 0.148 0.0255 0.015333333333333332
1 0.0705 0.14933333333333335 0.02 0.016666666666666666
1 0.0955 0.14866666666666667 0.021 0.011333333333333334
1 0.3775 0.206 0.0325 0.021333333333333333
1 0.355 0.214 0.0365 0.021333333333333333
1 0.326 0.21866666666666668 0.0215 0.023333333333333334
1 0.345 0.19 0.034 0.018666666666666668
1 0.277 0.184 0.028 0.017333333333333333
1 0.2305 0.18466666666666667 0.032 0.016
1 0.143 0.188 0.0295 0.016
1 0.252 0.21066666666666667 0.0395 0.017333333333333333
1 0.1955 0.20866666666666667 0.0325 0.017333333333333333
1 0.1685 0.21533333333333332 0.038 0.020666666666666667
1 0.2145 0.21 0.037 0.018666666666666668
1 0.2115 0.24866666666666667 0.04 0.024666666666666667
1 0.193 0.25466666666666665 0.0395 0.027333333333333334
1 0.175 0.26266666666666666 0.039 0.024666666666666667
1 0.1705 0.2693333333333333 0.04 0.028666666666666667
1 0.233 0.294 0.0355 0.036
1 0.119 0.30333333333333334 0.0605 0.032
1 0.2255 0.23 0.0365 0.030666666666666665
1 0.2155 0.236 0.046 0.028666666666666667
1 0.3495 0.24933333333333332 0.043 0.023333333333333334
1 0.2925 0.24666666666666667 0.025 0.032
1 0.27 0.27 0.023 0.030666666666666665
1 0.175 0.34 0.0485 0.042666666666666665
1 0.2245 0.3373333333333333 0.06 0.037333333333333336
1 0.237 0.3526666666666667 0.059 0.04466666666666667
1 0.3655 0.33 0.06 0.035333333333333335
1 0.369 0.352 0.055 0.034666666666666665
1 0.357 0.37066666666666664 0.065 0.037333333333333336
1 0.195 0.4226666666666667 0.085 0.048666666666666664
1 0.3015 0.35733333333333334 0.026 0.032
1 0.2395 0.392 0.0305 0.024
0 0.4215 0.36933333333333335 0.0125 0.04
1 0.4275 0.342 0.024 0.051333333333333335
