1 0.4405 0.744 0.0205 0.04666666666666667
1 0.4625 0.7526666666666667 0.02 0.052
1 0.491 0.7646666666666667 0.0215 0.050666666666666665
1 0.518 0.274 0.0255 0.018666666666666668
1 0.4845 0.264 0.0295 0.020666666666666667
1 0.387 0.23533333333333334 0.0225 0.018666666666666668
1 0.417 0.24666666666666667 0.031 0.023333333333333334
1 0.027 0.25133333333333335 0.0295 0.024666666666666667
1 0.0965 0.15 0.022 0.016
1 0.069 0.144 0.029 0.016666666666666666
1 0.042 0.138 0.028 0.02
1 0.0135 0.13066666666666665 0.0265 0.02
1 0.254 0.11533333333333333 0.016 0.03
1 0.2575 0.092 0.0135 0.017333333333333333
1 0.265 0.072 0.015 0.020666666666666667
1 0.1765 0.10666666666666667 0.0175 0.024666666666666667
1 0.1895 0.086 0.016 0.020666666666666667
1 0.2 0.06533333333333333 0.0175 0.020666666666666667
1 0.217 0.042666666666666665 0.02 0.021333333333333333
1 0.1445 0.09 0.017 0.021333333333333333
1 0.5735 0.16666666666666666 0.019 0.025333333333333333
1 0.5775 0.15466666666666667 0.02 0.028
1 0.5815 0.136 0.019 0.02
1 0.5885 0.122 0.0165 0.024
1 0.5905 0.10133333333333333 0.0175 0.022
1 0.5965 0.086 0.0175 0.024666666666666667
1 0.618 0.07933333333333334 0.014 0.028666666666666667
1 0.6025 0.072 0.0165 0.02266666666666667
1 0.631 0.302 0.027 0.018
1 0.6665 0.314 0.0305 0.024666666666666667
1 0.7085 0.326 0.031 0.022
1 0.7515 0.334 0.026 0.017333333333333333
1 0.7275 0.542 0.0355 0.026
1 0.7795 0.5566666666666666 0.0435 0.037333333333333336
1 0.8315 0.3526666666666667 0.0335 0.019333333333333334
1 0.8765 0.358 0.037 0.023333333333333334
1 0.911 0.38666666666666666 0.025 0.017333333333333333
1 0.9755 0.38866666666666666 0.035 0.024
1 0.877 0.5893333333333334 0.0365 0.02666666666666667
1 0.916 0.6 0.0325 0.02666666666666667
