0 0.31857142857142856 0.05523809523809524 0.03142857142857143 0.0838095238095238
0 0.44571428571428573 0.6971428571428572 0.047857142857142855 0.06095238095238095
0 0.5457142857142857 0.7142857142857143 0.06357142857142857 0.06190476190476191
0 0.7207142857142858 0.6647619047619048 0.07857142857142857 0.06952380952380953
0 0.5185714285714286 0.5561904761904762 0.062142857142857146 0.06666666666666667
0 0.5835714285714285 0.6257142857142857 0.04857142857142857 0.06190476190476191
0 0.6135714285714285 0.5819047619047619 0.03857142857142857 0.06
1 0.3092857142857143 0.41904761904761906 0.025 0.09047619047619047
1 0.62 0.38952380952380955 0.02642857142857143 0.10380952380952381
1 0.6564285714285715 0.43523809523809526 0.07571428571428572 0.05904761904761905
1 0.385 0.4361904761904762 0.07428571428571429 0.05904761904761905
1 0.4664285714285714 0.40285714285714286 0.03357142857142857 0.07714285714285714
1 0.4542857142857143 0.43238095238095237 0.039285714285714285 0.08952380952380952
