1 0.08071428571428571 0.0583756345177665 0.047857142857142855 0.09771573604060914
1 0.15785714285714286 0.25 0.054285714285714284 0.11294416243654823
0 0.17857142857142858 0.013959390862944163 0.01 0.02918781725888325
0 0.19142857142857142 0.011421319796954314 0.012142857142857143 0.024111675126903553
0 0.20142857142857143 0.03426395939086294 0.008571428571428572 0.031725888324873094
0 0.21071428571428572 0.030456852791878174 0.007857142857142858 0.03553299492385787
0 0.22 0.027918781725888325 0.008571428571428572 0.03553299492385787
0 0.2307142857142857 0.09263959390862944 0.012142857142857143 0.04187817258883249
0 0.24071428571428571 0.11548223350253807 0.009285714285714286 0.03299492385786802
0 0.2792857142857143 0.14593908629441624 0.009285714285714286 0.03807106598984772
0 0.275 0.15355329949238578 0.009285714285714286 0.03807106598984772
0 0.26571428571428574 0.16116751269035534 0.010714285714285714 0.03553299492385787
0 0.26285714285714284 0.17385786802030456 0.008571428571428572 0.03934010152284264
0 0.03214285714285714 0.751269035532995 0.022857142857142857 0.03934010152284264
0 0.041428571428571426 0.6941624365482234 0.02 0.03934010152284264
0 0.047142857142857146 0.684010152284264 0.020714285714285713 0.04314720812182741
0 0.07785714285714286 0.7373096446700508 0.02142857142857143 0.048223350253807105
0 0.12714285714285714 0.9213197969543148 0.023571428571428573 0.03426395939086294
0 0.12714285714285714 0.9403553299492385 0.024285714285714285 0.02918781725888325
0 0.13428571428571429 0.9708121827411168 0.02142857142857143 0.03426395939086294
1 0.5635714285714286 0.9403553299492385 0.10357142857142858 0.11548223350253807
1 0.8921428571428571 0.6725888324873096 0.08214285714285714 0.1218274111675127
1 0.7371428571428571 0.7081218274111675 0.12928571428571428 0.20050761421319796
0 0.6635714285714286 0.6814720812182741 0.012857142857142857 0.04060913705583756
0 0.6557142857142857 0.6903553299492385 0.011428571428571429 0.03807106598984772
0 0.6371428571428571 0.7081218274111675 0.010714285714285714 0.04949238578680203
0 0.5928571428571429 0.7131979695431472 0.009285714285714286 0.03553299492385787
0 0.6007142857142858 0.7017766497461929 0.012142857142857143 0.031725888324873094
0 0.6207142857142857 0.6713197969543148 0.012857142857142857 0.03807106598984772
0 0.6121428571428571 0.6395939086294417 0.010714285714285714 0.03553299492385787
0 0.6028571428571429 0.6548223350253807 0.009285714285714286 0.04314720812182741
0 0.5871428571428572 0.6776649746192893 0.010714285714285714 0.03807106598984772
0 0.5707142857142857 0.6713197969543148 0.009285714285714286 0.030456852791878174
0 0.5114285714285715 0.5139593908629442 0.014285714285714285 0.04060913705583756
0 0.4907142857142857 0.6421319796954315 0.012142857142857143 0.03934010152284264
0 0.4878571428571429 0.6370558375634517 0.0064285714285714285 0.01903553299492386
0 0.4592857142857143 0.6129441624365483 0.01 0.03807106598984772
0 0.45357142857142857 0.6586294416243654 0.008571428571428572 0.04314720812182741
0 0.43785714285714283 0.6243654822335025 0.008571428571428572 0.03934010152284264
0 0.45071428571428573 0.6408629441624365 0.008571428571428572 0.03934010152284264
0 0.41214285714285714 0.4581218274111675 0.012142857142857143 0.03934010152284264
1 0.3142857142857143 0.4949238578680203 0.06357142857142857 0.1281725888324873
1 0.25785714285714284 0.5279187817258884 0.06428571428571428 0.14086294416243655
0 0.3607142857142857 0.2982233502538071 0.009285714285714286 0.03807106598984772
0 0.3578571428571429 0.3096446700507614 0.008571428571428572 0.03680203045685279
0 0.36357142857142855 0.30456852791878175 0.009285714285714286 0.03426395939086294
0 0.37357142857142855 0.3565989847715736 0.015714285714285715 0.03934010152284264
0 0.3692857142857143 0.3756345177664975 0.009285714285714286 0.025380710659898477
0 0.37857142857142856 0.3489847715736041 0.007857142857142858 0.0266497461928934
