1 0.09603340292275574 0.4619666048237477 0.03496868475991649 0.11410018552875696
1 0.2896659707724426 0.48515769944341375 0.037056367432150315 0.12430426716141002
1 0.37160751565762007 0.512987012987013 0.031315240083507306 0.10760667903525047
1 0.5120041753653445 0.5306122448979592 0.026096033402922755 0.09833024118738404
1 0.6257828810020877 0.5593692022263451 0.03288100208768267 0.11781076066790352
1 0.7181628392484343 0.562152133580705 0.03496868475991649 0.1150278293135436
1 0.9384133611691023 0.4517625231910946 0.06732776617954071 0.05380333951762523
