1 0.36 0.9723809523809523 0.03428571428571429 0.05523809523809524
1 0.30857142857142855 0.9076190476190477 0.03857142857142857 0.09714285714285714
1 0.37285714285714283 0.8866666666666667 0.03571428571428571 0.09238095238095238
1 0.45071428571428573 0.8704761904761905 0.04 0.1019047619047619
1 0.3271428571428571 0.7761904761904762 0.045714285714285714 0.1019047619047619
1 0.4 0.6371428571428571 0.02857142857142857 0.0980952380952381
1 0.21928571428571428 0.840952380952381 0.05857142857142857 0.08666666666666667
1 0.09642857142857143 0.86 0.07642857142857143 0.04380952380952381
1 0.24071428571428571 0.700952380952381 0.05714285714285714 0.08
1 0.24928571428571428 0.6428571428571429 0.055714285714285716 0.08285714285714285
1 0.25857142857142856 0.5761904761904761 0.05357142857142857 0.07904761904761905
1 0.1357142857142857 0.6657142857142857 0.08214285714285714 0.05238095238095238
1 0.16785714285714284 0.4819047619047619 0.08285714285714285 0.04380952380952381
1 0.35285714285714287 0.5495238095238095 0.037142857142857144 0.09238095238095238
1 0.19214285714285714 0.3580952380952381 0.07428571428571429 0.047619047619047616
1 0.2664285714285714 0.43238095238095237 0.05142857142857143 0.07904761904761905
1 0.2864285714285714 0.32857142857142857 0.05857142857142857 0.08285714285714285
1 0.29285714285714287 0.2742857142857143 0.05357142857142857 0.07428571428571429
1 0.3092857142857143 0.23238095238095238 0.047857142857142855 0.06761904761904762
1 0.3657142857142857 0.4533333333333333 0.03571428571428571 0.08476190476190476
1 0.38142857142857145 0.35619047619047617 0.03571428571428571 0.07904761904761905
1 0.3892857142857143 0.26666666666666666 0.032857142857142856 0.08761904761904762
1 0.32571428571428573 0.06285714285714286 0.04071428571428572 0.06190476190476191
1 0.3157142857142857 0.18095238095238095 0.05142857142857143 0.07047619047619047
