1 0.6671428571428571 0.9809644670050761 0.018571428571428572 0.03426395939086294
1 0.7107142857142857 0.9035532994923858 0.02214285714285714 0.0583756345177665
1 0.705 0.7741116751269036 0.024285714285714285 0.048223350253807105
1 0.7557142857142857 0.6675126903553299 0.02857142857142857 0.044416243654822336
1 0.7807142857142857 0.5812182741116751 0.02 0.05583756345177665
1 0.8128571428571428 0.5520304568527918 0.020714285714285713 0.050761421319796954
1 0.8235714285714286 0.49746192893401014 0.02 0.05710659898477157
1 0.8021428571428572 0.4860406091370558 0.017857142857142856 0.04949238578680203
1 0.7657142857142857 0.5126903553299492 0.018571428571428572 0.048223350253807105
1 0.7528571428571429 0.5875634517766497 0.03642857142857143 0.10786802030456853
1 0.8321428571428572 0.44416243654822335 0.014285714285714285 0.048223350253807105
1 0.8114285714285714 0.39593908629441626 0.019285714285714285 0.05203045685279188
1 0.8385714285714285 0.3870558375634518 0.016428571428571428 0.0532994923857868
1 0.8435714285714285 0.3362944162436548 0.015714285714285715 0.04568527918781726
1 0.8485714285714285 0.2880710659898477 0.015714285714285715 0.04949238578680203
1 0.8528571428571429 0.233502538071066 0.017142857142857144 0.04949238578680203
1 0.81 0.2296954314720812 0.012857142857142857 0.04187817258883249
1 0.8092857142857143 0.17893401015228427 0.014285714285714285 0.046954314720812185
1 0.8564285714285714 0.18527918781725888 0.015714285714285715 0.046954314720812185
1 0.8721428571428571 0.021573604060913704 0.014285714285714285 0.044416243654822336
0 0.8857142857142857 0.1649746192893401 0.01 0.01649746192893401
1 0.925 0.1319796954314721 0.027142857142857142 0.0266497461928934
1 0.6707142857142857 0.6941624365482234 0.03 0.030456852791878174
1 0.6278571428571429 0.7106598984771574 0.02857142857142857 0.03426395939086294
1 0.56 0.6789340101522843 0.03142857142857143 0.031725888324873094
1 0.45285714285714285 0.6675126903553299 0.03214285714285714 0.031725888324873094
1 0.5135714285714286 0.616751269035533 0.02857142857142857 0.027918781725888325
1 0.3578571428571429 0.6154822335025381 0.039285714285714285 0.03934010152284264
1 0.26071428571428573 0.501269035532995 0.045714285714285714 0.04314720812182741
1 0.18571428571428572 0.46446700507614214 0.047857142857142855 0.046954314720812185
1 0.09642857142857143 0.41624365482233505 0.06857142857142857 0.0583756345177665
1 0.05142857142857143 0.5 0.02857142857142857 0.02918781725888325
