1 0.6142857142857143 0.8180952380952381 0.056428571428571425 0.08857142857142856
1 0.5485714285714286 0.7819047619047619 0.04928571428571429 0.07714285714285714
1 0.6221428571428571 0.7533333333333333 0.06142857142857143 0.08857142857142856
1 0.5507142857142857 0.719047619047619 0.05071428571428571 0.0761904761904762
1 0.495 0.680952380952381 0.045714285714285714 0.07523809523809524
1 0.495 0.6352380952380953 0.04357142857142857 0.058095238095238096
1 0.5257142857142857 0.6228571428571429 0.041428571428571426 0.05904761904761905
1 0.4392857142857143 0.6009523809523809 0.03785714285714286 0.058095238095238096
1 0.455 0.5638095238095238 0.037142857142857144 0.05714285714285714
1 0.41785714285714287 0.49333333333333335 0.035 0.058095238095238096
1 0.375 0.4342857142857143 0.03357142857142857 0.047619047619047616
1 0.34714285714285714 0.3923809523809524 0.025714285714285714 0.04
1 0.37714285714285717 0.38857142857142857 0.02642857142857143 0.039047619047619046
1 0.625 0.6666666666666666 0.11928571428571429 0.15904761904761905
1 0.5121428571428571 0.5428571428571428 0.10642857142857143 0.14
1 0.43357142857142855 0.4438095238095238 0.07571428571428572 0.10761904761904761
1 0.30428571428571427 0.32857142857142857 0.055 0.08857142857142856
1 0.9664285714285714 0.9285714285714286 0.06571428571428571 0.1419047619047619
1 0.22642857142857142 0.18285714285714286 0.019285714285714285 0.021904761904761906
1 0.5771428571428572 0.13523809523809524 0.02142857142857143 0.018095238095238095
1 0.5928571428571429 0.1361904761904762 0.017857142857142856 0.017142857142857144
1 0.9257142857142857 0.38095238095238093 0.03428571428571429 0.029523809523809525
0 0.8785714285714286 0.4057142857142857 0.007857142857142858 0.018095238095238095
1 0.6828571428571428 0.12571428571428572 0.06142857142857143 0.04476190476190476
1 0.6957142857142857 0.13428571428571429 0.056428571428571425 0.047619047619047616
1 0.6378571428571429 0.11619047619047619 0.05714285714285714 0.039047619047619046
1 0.2857142857142857 0.022857142857142857 0.009285714285714286 0.013333333333333334
1 0.4157142857142857 0.08666666666666667 0.012857142857142857 0.015238095238095238
0 0.425 0.08666666666666667 0.004285714285714286 0.010476190476190476
0 0.425 0.08 0.0035714285714285713 0.009523809523809525
1 0.2885714285714286 0.38857142857142857 0.01 0.01619047619047619
1 0.21 0.23809523809523808 0.007142857142857143 0.012380952380952381
1 0.16071428571428573 0.18 0.007142857142857143 0.011428571428571429
0 0.2864285714285714 0.38095238095238093 0.007142857142857143 0.015238095238095238
0 0.20857142857142857 0.23238095238095238 0.0064285714285714285 0.010476190476190476
0 0.15857142857142856 0.1742857142857143 0.005 0.012380952380952381
