1 0.026 0.55 0.0525 0.04733333333333333
1 0.103 0.5573333333333333 0.0795 0.05
1 0.2205 0.5893333333333334 0.06 0.04666666666666667
1 0.1195 0.208 0.022 0.021333333333333333
0 0.3015 0.2753333333333333 0.005 0.015333333333333332
0 0.3095 0.2753333333333333 0.006 0.017333333333333333
1 0.441 0.2693333333333333 0.0325 0.023333333333333334
1 0.498 0.2866666666666667 0.0315 0.024
1 0.452 0.23466666666666666 0.018 0.020666666666666667
1 0.3355 0.5986666666666667 0.0825 0.052
1 0.4375 0.5433333333333333 0.069 0.062
0 0.4805 0.52 0.0075 0.027333333333333334
0 0.4875 0.5206666666666667 0.0075 0.02666666666666667
0 0.495 0.516 0.007 0.029333333333333333
0 0.525 0.252 0.0045 0.017333333333333333
0 0.529 0.254 0.004 0.017333333333333333
1 0.52 0.20066666666666666 0.015 0.019333333333333334
1 0.5505 0.17933333333333334 0.0145 0.017333333333333333
1 0.5555 0.17266666666666666 0.009 0.014
1 0.5545 0.246 0.0175 0.024
1 0.5485 0.492 0.06 0.056666666666666664
1 0.6315 0.45866666666666667 0.0475 0.04066666666666666
1 0.6125 0.3313333333333333 0.0295 0.032
1 0.6345 0.33666666666666667 0.033 0.024666666666666667
1 0.655 0.3446666666666667 0.0365 0.03133333333333333
1 0.6905 0.42866666666666664 0.043 0.034
1 0.744 0.39466666666666667 0.046 0.036
1 0.7695 0.33 0.027 0.026
1 0.761 0.31 0.0345 0.022
1 0.7835 0.298 0.0435 0.03866666666666667
0 0.801 0.31533333333333335 0.008 0.011333333333333334
1 0.8495 0.306 0.0275 0.024666666666666667
1 0.8385 0.2833333333333333 0.0285 0.02266666666666667
1 0.8385 0.24333333333333335 0.02 0.019333333333333334
1 0.836 0.232 0.019 0.019333333333333334
1 0.8755 0.23866666666666667 0.018 0.019333333333333334
1 0.8445 0.33866666666666667 0.041 0.03866666666666667
1 0.895 0.31466666666666665 0.03 0.03266666666666666
1 0.937 0.28733333333333333 0.0275 0.03933333333333333
1 0.975 0.25933333333333336 0.031 0.034
1 0.7115 0.6053333333333333 0.0595 0.05
1 0.8725 0.21666666666666667 0.017 0.018666666666666668
1 0.8895 0.22 0.0145 0.015333333333333332
1 0.8615 0.25066666666666665 0.019 0.018666666666666668
1 0.924 0.22 0.0165 0.022
1 0.941 0.20466666666666666 0.0275 0.015333333333333332
1 0.9505 0.19933333333333333 0.0285 0.016666666666666666
1 0.956 0.14466666666666667 0.0135 0.012
1 0.978 0.148 0.0125 0.010666666666666666
1 0.9915 0.14866666666666667 0.011 0.011333333333333334
