1 0.08428571428571428 0.939047619047619 0.12285714285714286 0.1219047619047619
1 0.1657142857142857 0.8476190476190476 0.12214285714285714 0.1895238095238095
1 0.44285714285714284 0.939047619047619 0.1357142857142857 0.1219047619047619
1 0.8164285714285714 0.699047619047619 0.09071428571428572 0.13047619047619047
1 0.67 0.5009523809523809 0.06357142857142857 0.09142857142857143
1 0.2892857142857143 0.6057142857142858 0.03214285714285714 0.05333333333333334
0 0.3392857142857143 0.5380952380952381 0.016428571428571428 0.0419047619047619
0 0.35214285714285715 0.5476190476190477 0.017142857142857144 0.0419047619047619
0 0.42642857142857143 0.5485714285714286 0.015714285714285715 0.04380952380952381
0 0.4042857142857143 0.5285714285714286 0.015714285714285715 0.04
1 0.47 0.5752380952380952 0.07357142857142857 0.10857142857142857
1 0.4442857142857143 0.4238095238095238 0.04214285714285714 0.07047619047619047
1 0.3507142857142857 0.4361904761904762 0.02 0.04380952380952381
1 0.36428571428571427 0.3514285714285714 0.027857142857142858 0.02857142857142857
0 0.385 0.379047619047619 0.012857142857142857 0.040952380952380955
0 0.33714285714285713 0.36 0.015 0.03619047619047619
0 0.40714285714285714 0.31333333333333335 0.012857142857142857 0.03428571428571429
0 0.42857142857142855 0.24857142857142858 0.013571428571428571 0.03142857142857143
0 0.4007142857142857 0.15714285714285714 0.007857142857142858 0.02761904761904762
1 0.36642857142857144 0.21714285714285714 0.02142857142857143 0.01619047619047619
1 0.3678571428571429 0.20285714285714285 0.019285714285714285 0.01904761904761905
1 0.385 0.1980952380952381 0.016428571428571428 0.03428571428571429
1 0.375 0.14095238095238094 0.018571428571428572 0.011428571428571429
1 0.375 0.13333333333333333 0.020714285714285713 0.015238095238095238
0 0.3657142857142857 0.10285714285714286 0.0064285714285714285 0.01904761904761905
1 0.375 0.09904761904761905 0.015714285714285715 0.015238095238095238
1 0.375 0.09333333333333334 0.015714285714285715 0.015238095238095238
1 0.375 0.03619047619047619 0.015714285714285715 0.017142857142857144
1 0.37714285714285717 0.011428571428571429 0.015714285714285715 0.015238095238095238
1 0.3535714285714286 0.06857142857142857 0.017857142857142856 0.014285714285714285
1 0.4278571428571429 0.0980952380952381 0.020714285714285713 0.029523809523809525
1 0.4207142857142857 0.0761904761904762 0.02 0.03142857142857143
1 0.47214285714285714 0.14476190476190476 0.022857142857142857 0.03333333333333333
1 0.4635714285714286 0.08571428571428572 0.020714285714285713 0.023809523809523808
1 0.46785714285714286 0.11238095238095239 0.020714285714285713 0.037142857142857144
1 0.45285714285714285 0.0419047619047619 0.015714285714285715 0.024761904761904763
1 0.44642857142857145 0.014285714285714285 0.017142857142857144 0.029523809523809525
1 0.4735714285714286 0.014285714285714285 0.018571428571428572 0.02857142857142857
1 0.6035714285714285 0.22666666666666666 0.03857142857142857 0.047619047619047616
1 0.5628571428571428 0.13047619047619047 0.025 0.03142857142857143
1 0.5342857142857143 0.06666666666666667 0.022857142857142857 0.02666666666666667
1 0.5514285714285714 0.10666666666666667 0.025714285714285714 0.029523809523809525
1 0.5207142857142857 0.035238095238095235 0.02 0.024761904761904763
1 0.5135714285714286 0.02 0.017857142857142856 0.021904761904761906
1 0.5764285714285714 0.39714285714285713 0.047857142857142855 0.07904761904761905
1 0.5271428571428571 0.4076190476190476 0.04285714285714286 0.08
1 0.5485714285714286 0.5133333333333333 0.055 0.1
1 0.6785714285714286 0.38761904761904764 0.054285714285714284 0.07142857142857142
