0 0.7242857142857143 0.6323809523809524 0.005 0.02095238095238095
1 0.6635714285714286 0.5580952380952381 0.009285714285714286 0.012380952380952381
1 0.685 0.5580952380952381 0.010714285714285714 0.011428571428571429
