1 0.5214285714285715 0.7904761904761904 0.08142857142857143 0.06857142857142857
1 0.39285714285714285 0.7895238095238095 0.05357142857142857 0.07142857142857142
1 0.42142857142857143 0.719047619047619 0.04285714285714286 0.06285714285714286
1 0.45 0.6333333333333333 0.02642857142857143 0.04380952380952381
1 0.4685714285714286 0.5657142857142857 0.02 0.02857142857142857
1 0.2007142857142857 0.6685714285714286 0.04857142857142857 0.049523809523809526
1 0.056428571428571425 0.8104761904761905 0.08857142857142856 0.09619047619047619
1 0.027142857142857142 0.6704761904761904 0.035 0.047619047619047616
1 0.49 0.5009523809523809 0.018571428571428572 0.01619047619047619
1 0.5235714285714286 0.74 0.06928571428571428 0.04857142857142857
1 0.5314285714285715 0.7076190476190476 0.06285714285714286 0.035238095238095235
1 0.5414285714285715 0.6657142857142857 0.07071428571428572 0.03333333333333333
1 0.56 0.6371428571428571 0.06 0.02761904761904762
1 0.56 0.6133333333333333 0.056428571428571425 0.02666666666666667
1 0.5621428571428572 0.599047619047619 0.04214285714285714 0.024761904761904763
1 0.5664285714285714 0.5857142857142857 0.045 0.030476190476190476
1 0.5464285714285714 0.5666666666666667 0.05 0.025714285714285714
1 0.5471428571428572 0.5476190476190477 0.04214285714285714 0.029523809523809525
1 0.435 0.6780952380952381 0.03857142857142857 0.04380952380952381
1 0.11785714285714285 0.6009523809523809 0.045714285714285714 0.035238095238095235
1 0.17214285714285715 0.5733333333333334 0.025714285714285714 0.040952380952380955
1 0.49214285714285716 0.4895238095238095 0.022857142857142857 0.014285714285714285
1 0.495 0.48095238095238096 0.022857142857142857 0.014285714285714285
1 0.49857142857142855 0.4723809523809524 0.022857142857142857 0.014285714285714285
1 0.49857142857142855 0.4657142857142857 0.022857142857142857 0.014285714285714285
1 0.5007142857142857 0.46 0.022857142857142857 0.014285714285714285
1 0.5071428571428571 0.4561904761904762 0.017857142857142856 0.013333333333333334
1 0.5085714285714286 0.44952380952380955 0.017857142857142856 0.013333333333333334
1 0.5092857142857142 0.4438095238095238 0.017142857142857144 0.013333333333333334
1 0.46214285714285713 0.49523809523809526 0.017857142857142856 0.02
1 0.4714285714285714 0.4847619047619048 0.012857142857142857 0.015238095238095238
1 0.47785714285714287 0.4714285714285714 0.012857142857142857 0.015238095238095238
1 0.4764285714285714 0.5438095238095239 0.022857142857142857 0.030476190476190476
1 0.48428571428571426 0.5285714285714286 0.023571428571428573 0.023809523809523808
1 0.5564285714285714 0.539047619047619 0.03785714285714286 0.01904761904761905
1 0.5628571428571428 0.5304761904761904 0.03785714285714286 0.01904761904761905
1 0.5492857142857143 0.5219047619047619 0.03785714285714286 0.01904761904761905
1 0.55 0.5133333333333333 0.03785714285714286 0.01904761904761905
1 0.43214285714285716 0.5628571428571428 0.022857142857142857 0.024761904761904763
1 0.40285714285714286 0.5828571428571429 0.02642857142857143 0.030476190476190476
1 0.3707142857142857 0.6152380952380953 0.027142857142857142 0.0380952380952381
1 0.4 0.62 0.029285714285714286 0.037142857142857144
1 0.4442857142857143 0.5428571428571428 0.019285714285714285 0.022857142857142857
1 0.45285714285714285 0.5276190476190477 0.018571428571428572 0.02095238095238095
1 0.4 0.4542857142857143 0.016428571428571428 0.01904761904761905
1 0.4714285714285714 0.42095238095238097 0.010714285714285714 0.009523809523809525
1 0.4642857142857143 0.4085714285714286 0.01 0.009523809523809525
1 0.4521428571428571 0.4057142857142857 0.009285714285714286 0.010476190476190476
1 0.4328571428571429 0.40476190476190477 0.010714285714285714 0.009523809523809525
1 0.4035714285714286 0.43047619047619046 0.012857142857142857 0.013333333333333334
1 0.3892857142857143 0.4419047619047619 0.012142857142857143 0.012380952380952381
1 0.335 0.4828571428571429 0.018571428571428572 0.021904761904761906
1 0.30214285714285716 0.5095238095238095 0.02214285714285714 0.02666666666666667
1 0.18642857142857142 0.5523809523809524 0.03857142857142857 0.03428571428571429
1 0.21357142857142858 0.5323809523809524 0.03857142857142857 0.03428571428571429
1 0.24214285714285713 0.5190476190476191 0.029285714285714286 0.02857142857142857
1 0.2814285714285714 0.49523809523809526 0.02 0.024761904761904763
1 0.3 0.4866666666666667 0.02 0.024761904761904763
1 0.3407142857142857 0.46 0.023571428571428573 0.015238095238095238
1 0.3464285714285714 0.4533333333333333 0.023571428571428573 0.015238095238095238
1 0.35642857142857143 0.44666666666666666 0.023571428571428573 0.015238095238095238
1 0.40285714285714286 0.41619047619047617 0.019285714285714285 0.014285714285714285
0 0.017857142857142856 0.6457142857142857 0.012857142857142857 0.030476190476190476
1 0.14214285714285715 0.6752380952380952 0.05714285714285714 0.05619047619047619
1 0.14357142857142857 0.719047619047619 0.06285714285714286 0.06666666666666667
1 0.03642857142857143 0.7666666666666667 0.07357142857142857 0.0838095238095238
0 0.3242857142857143 0.5085714285714286 0.005 0.010476190476190476
1 0.4657142857142857 0.3904761904761905 0.005714285714285714 0.008571428571428572
1 0.47285714285714286 0.38761904761904764 0.0064285714285714285 0.007619047619047619
1 0.47 0.36952380952380953 0.005 0.005714285714285714
1 0.4742857142857143 0.379047619047619 0.004285714285714286 0.005714285714285714
1 0.465 0.379047619047619 0.0035714285714285713 0.005714285714285714
1 0.46714285714285714 0.38285714285714284 0.005 0.005714285714285714
0 0.5864285714285714 0.4980952380952381 0.005714285714285714 0.017142857142857144
0 0.6014285714285714 0.5019047619047619 0.005714285714285714 0.018095238095238095
0 0.5871428571428572 0.5533333333333333 0.005714285714285714 0.02
0 0.5985714285714285 0.5495238095238095 0.007142857142857143 0.021904761904761906
1 0.5957142857142858 0.5542857142857143 0.007142857142857143 0.02
0 0.5892857142857143 0.4657142857142857 0.005 0.015238095238095238
0 0.5792857142857143 0.43142857142857144 0.0035714285714285713 0.010476190476190476
1 0.5857142857142857 0.4561904761904762 0.005 0.010476190476190476
0 0.57 0.4266666666666667 0.002857142857142857 0.010476190476190476
0 0.5821428571428572 0.7914285714285715 0.011428571428571429 0.04476190476190476
1 0.6264285714285714 0.7057142857142857 0.027857142857142858 0.023809523809523808
1 0.6171428571428571 0.7428571428571429 0.019285714285714285 0.03142857142857143
0 0.5057142857142857 0.9133333333333333 0.017142857142857144 0.054285714285714284
0 0.36714285714285716 0.8771428571428571 0.015714285714285715 0.05333333333333334
0 0.3692857142857143 0.8666666666666667 0.009285714285714286 0.021904761904761906
0 0.6621428571428571 0.9457142857142857 0.020714285714285713 0.05047619047619047
0 0.69 0.9047619047619048 0.017142857142857144 0.05333333333333334
0 0.7128571428571429 0.8676190476190476 0.016428571428571428 0.054285714285714284
0 0.705 0.9733333333333334 0.015 0.05333333333333334
0 0.7407142857142858 0.9552380952380952 0.017142857142857144 0.054285714285714284
0 0.6257142857142857 0.9838095238095238 0.014285714285714285 0.030476190476190476
0 0.7357142857142858 0.979047619047619 0.016428571428571428 0.04
1 0.33714285714285713 0.9504761904761905 0.03428571428571429 0.03142857142857143
0 0.44642857142857145 0.9885714285714285 0.018571428571428572 0.021904761904761906
1 0.5114285714285715 0.9314285714285714 0.04857142857142857 0.045714285714285714
