1 0.32785714285714285 0.15862944162436549 0.02857142857142857 0.024111675126903553
1 0.36857142857142855 0.25 0.016428571428571428 0.0266497461928934
1 0.37857142857142856 0.2880710659898477 0.019285714285714285 0.03934010152284264
1 0.5285714285714286 0.2969543147208122 0.025714285714285714 0.11802030456852793
1 0.49714285714285716 0.05456852791878172 0.01 0.0266497461928934
1 0.3171428571428571 0.18401015228426396 0.025 0.021573604060913704
1 0.3557142857142857 0.2131979695431472 0.020714285714285713 0.03934010152284264
1 0.38357142857142856 0.5685279187817259 0.02 0.06472081218274112
1 0.3914285714285714 0.8921319796954315 0.02642857142857143 0.10152284263959391
1 0.7628571428571429 0.7182741116751269 0.052142857142857144 0.03934010152284264
1 0.38785714285714284 0.733502538071066 0.022857142857142857 0.07614213197969544
1 0.37285714285714283 0.42258883248730966 0.017142857142857144 0.04568527918781726
1 0.525 0.012690355329949238 0.008571428571428572 0.0266497461928934
1 0.5271428571428571 0.03299492385786802 0.01 0.030456852791878174
1 0.37142857142857144 0.383248730964467 0.014285714285714285 0.03553299492385787
1 0.3707142857142857 0.3413705583756345 0.015 0.03553299492385787
1 0.37714285714285717 0.5025380710659898 0.014285714285714285 0.03807106598984772
1 0.38142857142857145 0.6408629441624365 0.016428571428571428 0.04314720812182741
1 0.47785714285714287 0.04314720812182741 0.014285714285714285 0.06852791878172589
0 0.5457142857142857 0.03934010152284264 0.004285714285714286 0.017766497461928935
0 0.5464285714285714 0.02030456852791878 0.0035714285714285713 0.012690355329949238
0 0.5414285714285715 0.05203045685279188 0.004285714285714286 0.015228426395939087
0 0.6007142857142858 0.4619289340101523 0.005714285714285714 0.021573604060913704
0 0.5892857142857143 0.49746192893401014 0.0064285714285714285 0.024111675126903553
0 0.6007142857142858 0.5901015228426396 0.005714285714285714 0.027918781725888325
0 0.81 0.7182741116751269 0.009285714285714286 0.02030456852791878
