1 0.8028571428571428 0.9796954314720813 0.02214285714285714 0.03680203045685279
1 0.8642857142857143 0.881979695431472 0.027142857142857142 0.05964467005076142
1 0.7385714285714285 0.8388324873096447 0.023571428571428573 0.04314720812182741
1 0.9114285714285715 0.6802030456852792 0.027142857142857142 0.050761421319796954
1 0.42857142857142855 0.8236040609137056 0.014285714285714285 0.048223350253807105
1 0.5128571428571429 0.5317258883248731 0.025 0.0266497461928934
1 0.5357142857142857 0.49111675126903553 0.025 0.02918781725888325
1 0.6228571428571429 0.45050761421319796 0.020714285714285713 0.025380710659898477
1 0.6871428571428572 0.47081218274111675 0.023571428571428573 0.0266497461928934
1 0.7621428571428571 0.383248730964467 0.02214285714285714 0.025380710659898477
1 0.6414285714285715 0.35152284263959394 0.022857142857142857 0.025380710659898477
1 0.6264285714285714 0.33883248730964466 0.023571428571428573 0.02284263959390863
1 0.665 0.2880710659898477 0.055714285714285716 0.0532994923857868
0 0.5907142857142857 0.25380710659898476 0.0035714285714285713 0.007614213197969543
0 0.5707142857142857 0.2614213197969543 0.0035714285714285713 0.012690355329949238
1 0.45357142857142857 0.39086294416243655 0.03142857142857143 0.03553299492385787
0 0.45 0.37182741116751267 0.005 0.011421319796954314
1 0.3492857142857143 0.6091370558375635 0.027857142857142858 0.02918781725888325
1 0.3557142857142857 0.583756345177665 0.02642857142857143 0.030456852791878174
1 0.30857142857142855 0.5824873096446701 0.024285714285714285 0.0266497461928934
1 0.27 0.5583756345177665 0.022857142857142857 0.025380710659898477
1 0.30142857142857143 0.5368020304568528 0.04 0.04314720812182741
1 0.30214285714285716 0.46446700507614214 0.027857142857142858 0.027918781725888325
1 0.15 0.41116751269035534 0.015 0.03934010152284264
1 0.41928571428571426 0.02918781725888325 0.010714285714285714 0.02918781725888325
