1 0.05928571428571429 0.09047619047619047 0.04928571428571429 0.02761904761904762
1 0.11785714285714285 0.09523809523809523 0.04928571428571429 0.025714285714285714
0 0.22357142857142856 0.07523809523809524 0.009285714285714286 0.025714285714285714
0 0.3292857142857143 0.07904761904761905 0.012857142857142857 0.02666666666666667
1 0.20714285714285716 0.2123809523809524 0.05785714285714286 0.04380952380952381
1 0.28214285714285714 0.17809523809523808 0.06 0.04
1 0.2885714285714286 0.1180952380952381 0.12785714285714286 0.05523809523809524
1 0.27 0.2523809523809524 0.07642857142857143 0.039047619047619046
1 0.2892857142857143 0.22666666666666666 0.06714285714285714 0.0380952380952381
0 0.3742857142857143 0.2914285714285714 0.018571428571428572 0.0380952380952381
1 0.25642857142857145 0.3333333333333333 0.039285714285714285 0.024761904761904763
0 0.2592857142857143 0.3238095238095238 0.01 0.03333333333333333
1 0.10928571428571429 0.34285714285714286 0.21928571428571428 0.13142857142857142
1 0.045714285714285714 0.6885714285714286 0.09214285714285714 0.08
1 0.06142857142857143 0.6209523809523809 0.12357142857142857 0.08285714285714285
1 0.11214285714285714 0.5571428571428572 0.11285714285714285 0.07238095238095238
1 0.15285714285714286 0.5123809523809524 0.10571428571428572 0.06666666666666667
1 0.23214285714285715 0.4714285714285714 0.09571428571428571 0.06952380952380953
1 0.36714285714285716 0.4866666666666667 0.10285714285714286 0.06857142857142857
0 0.48857142857142855 0.5342857142857143 0.014285714285714285 0.045714285714285714
0 0.5528571428571428 0.5190476190476191 0.012857142857142857 0.037142857142857144
0 0.5528571428571428 0.5 0.011428571428571429 0.03428571428571429
1 0.5642857142857143 0.7695238095238095 0.054285714285714284 0.15428571428571428
1 0.6357142857142857 0.8609523809523809 0.02 0.08190476190476191
0 0.6357142857142857 0.8447619047619047 0.013571428571428571 0.037142857142857144
1 0.7485714285714286 0.6514285714285715 0.06642857142857143 0.18
1 0.6857142857142857 0.439047619047619 0.04071428571428572 0.09142857142857143
1 0.7142857142857143 0.26857142857142857 0.03642857142857143 0.07142857142857142
1 0.5507142857142857 0.32476190476190475 0.02642857142857143 0.024761904761904763
0 0.5585714285714286 0.3076190476190476 0.0064285714285714285 0.029523809523809525
0 0.5514285714285714 0.30857142857142855 0.007857142857142858 0.030476190476190476
0 0.5585714285714286 0.24 0.009285714285714286 0.03142857142857143
0 0.5464285714285714 0.24095238095238095 0.012142857142857143 0.030476190476190476
1 0.465 0.19142857142857142 0.05285714285714286 0.04380952380952381
1 0.38857142857142857 0.14761904761904762 0.047857142857142855 0.030476190476190476
0 0.5042857142857143 0.15619047619047619 0.009285714285714286 0.035238095238095235
0 0.5185714285714286 0.12 0.005 0.02857142857142857
0 0.5257142857142857 0.12095238095238095 0.007857142857142858 0.02857142857142857
0 0.5785714285714286 0.06761904761904762 0.0064285714285714285 0.02095238095238095
0 0.6021428571428571 0.01904761904761905 0.005714285714285714 0.022857142857142857
0 0.6078571428571429 0.04380952380952381 0.007857142857142858 0.02666666666666667
0 0.5271428571428571 0.09619047619047619 0.01 0.025714285714285714
0 0.4592857142857143 0.09619047619047619 0.008571428571428572 0.02857142857142857
1 0.6135714285714285 0.1657142857142857 0.008571428571428572 0.02095238095238095
0 0.6114285714285714 0.15428571428571428 0.005 0.02
1 0.8021428571428572 0.030476190476190476 0.019285714285714285 0.023809523809523808
1 0.8378571428571429 0.08476190476190476 0.022857142857142857 0.03333333333333333
1 0.775 0.1019047619047619 0.03357142857142857 0.04285714285714286
1 0.8 0.13904761904761906 0.03785714285714286 0.0419047619047619
1 0.8564285714285714 0.19047619047619047 0.05357142857142857 0.045714285714285714
0 0.775 0.054285714285714284 0.009285714285714286 0.024761904761904763
1 0.8871428571428571 0.03333333333333333 0.027857142857142858 0.035238095238095235
1 0.9557142857142857 0.6914285714285714 0.060714285714285714 0.040952380952380955
0 0.9571428571428572 0.6876190476190476 0.022857142857142857 0.05238095238095238
