1 0.5914285714285714 0.5552380952380952 0.03642857142857143 0.058095238095238096
1 0.66 0.9304761904761905 0.03857142857142857 0.1
1 0.5257142857142857 0.25333333333333335 0.016428571428571428 0.0380952380952381
1 0.5328571428571428 0.33714285714285713 0.014285714285714285 0.018095238095238095
1 0.5071428571428571 0.24571428571428572 0.007857142857142858 0.017142857142857144
1 0.51 0.2 0.007142857142857143 0.007619047619047619
1 0.6007142857142858 0.20761904761904762 0.018571428571428572 0.011428571428571429
1 0.6292857142857143 0.20476190476190476 0.010714285714285714 0.008571428571428572
1 0.6407142857142857 0.20285714285714285 0.010714285714285714 0.010476190476190476
1 0.6635714285714286 0.25047619047619046 0.02214285714285714 0.011428571428571429
1 0.6678571428571428 0.29333333333333333 0.014285714285714285 0.030476190476190476
1 0.63 0.27904761904761904 0.023571428571428573 0.013333333333333334
1 0.6357142857142857 0.2914285714285714 0.022857142857142857 0.014285714285714285
1 0.6307142857142857 0.26857142857142857 0.02214285714285714 0.014285714285714285
1 0.49142857142857144 0.14761904761904762 0.01 0.017142857142857144
1 0.48 0.1361904761904762 0.005 0.005714285714285714
1 0.4742857142857143 0.12095238095238095 0.004285714285714286 0.005714285714285714
1 0.48428571428571426 0.07809523809523809 0.005 0.007619047619047619
1 0.32071428571428573 0.4438095238095238 0.020714285714285713 0.02857142857142857
0 0.3914285714285714 0.579047619047619 0.004285714285714286 0.015238095238095238
0 0.7357142857142858 0.7761904761904762 0.007142857142857143 0.014285714285714285
1 0.7314285714285714 0.7838095238095238 0.01 0.029523809523809525
1 0.7092857142857143 0.34 0.03571428571428571 0.01904761904761905
1 0.785 0.38761904761904764 0.027142857142857142 0.015238095238095238
1 0.73 0.28476190476190477 0.02642857142857143 0.021904761904761906
1 0.7007142857142857 0.3076190476190476 0.012857142857142857 0.01904761904761905
1 0.7021428571428572 0.2752380952380952 0.019285714285714285 0.014285714285714285
1 0.44785714285714284 0.1819047619047619 0.0014285714285714286 0.007619047619047619
1 0.45071428571428573 0.1819047619047619 0.002857142857142857 0.006666666666666667
0 0.365 0.38095238095238093 0.0035714285714285713 0.011428571428571429
0 0.9114285714285715 0.7161904761904762 0.012142857142857143 0.022857142857142857
0 0.9235714285714286 0.7066666666666667 0.016428571428571428 0.024761904761904763
