1 0.7542857142857143 0.6357868020304569 0.17214285714285715 0.15862944162436549
1 0.8578571428571429 0.5368020304568528 0.05928571428571429 0.20939086294416243
1 0.755 0.4885786802030457 0.07928571428571428 0.1865482233502538
1 0.8071428571428572 0.3464467005076142 0.13071428571428573 0.12944162436548223
1 0.8335714285714285 0.22461928934010153 0.041428571428571426 0.02918781725888325
1 0.6871428571428572 0.0850253807106599 0.017857142857142856 0.02030456852791878
1 0.7007142857142857 0.08756345177664974 0.012142857142857143 0.017766497461928935
1 0.7085714285714285 0.09644670050761421 0.015714285714285715 0.017766497461928935
1 0.7164285714285714 0.10279187817258884 0.014285714285714285 0.017766497461928935
1 0.7242857142857143 0.10786802030456853 0.012857142857142857 0.01649746192893401
1 0.7321428571428571 0.11294416243654823 0.015 0.01903553299492386
1 0.7378571428571429 0.12309644670050761 0.014285714285714285 0.025380710659898477
1 0.5557142857142857 0.6015228426395939 0.19857142857142857 0.15736040609137056
1 0.42214285714285715 0.42258883248730966 0.11928571428571429 0.13578680203045684
1 0.38285714285714284 0.48350253807106597 0.11928571428571429 0.13578680203045684
1 0.515 0.43274111675126903 0.12428571428571429 0.13959390862944163
1 0.3078571428571429 0.36928934010152287 0.11 0.12309644670050761
1 0.20285714285714285 0.39720812182741116 0.11785714285714285 0.10406091370558376
1 0.34 0.30456852791878175 0.055 0.06598984771573604
1 0.38642857142857145 0.31218274111675126 0.03785714285714286 0.05710659898477157
