1 0.7157142857142857 0.8761904761904762 0.10714285714285714 0.20285714285714285
1 0.15642857142857142 0.9371428571428572 0.13071428571428573 0.12
1 0.31142857142857144 0.7457142857142857 0.13785714285714284 0.17714285714285713
1 0.7114285714285714 0.6847619047619048 0.16142857142857142 0.1361904761904762
1 0.32285714285714284 0.6152380952380953 0.14214285714285715 0.13428571428571429
1 0.3 0.4438095238095238 0.12714285714285714 0.10285714285714286
1 0.9107142857142857 0.74 0.1692857142857143 0.10571428571428572
1 0.8842857142857142 0.518095238095238 0.12714285714285714 0.11714285714285715
1 0.8514285714285714 0.4 0.06357142857142857 0.11142857142857143
1 0.8614285714285714 0.3361904761904762 0.06285714285714286 0.08761904761904762
1 0.9035714285714286 0.2419047619047619 0.05 0.07142857142857142
1 0.45285714285714285 0.3980952380952381 0.11857142857142858 0.0838095238095238
1 0.3457142857142857 0.3580952380952381 0.09428571428571429 0.08476190476190476
1 0.25214285714285717 0.3047619047619048 0.095 0.07047619047619047
1 0.15071428571428572 0.23523809523809525 0.05071428571428571 0.06761904761904762
1 0.5192857142857142 0.379047619047619 0.09857142857142857 0.06571428571428571
1 0.5778571428571428 0.3619047619047619 0.09714285714285714 0.06952380952380953
1 0.6164285714285714 0.319047619047619 0.10357142857142858 0.06666666666666667
1 0.6457142857142857 0.27714285714285714 0.09642857142857143 0.05904761904761905
1 0.6764285714285714 0.2257142857142857 0.08142857142857143 0.05047619047619047
1 0.9142857142857143 0.19142857142857142 0.06571428571428571 0.054285714285714284
1 0.9278571428571428 0.15142857142857144 0.04428571428571428 0.07047619047619047
1 0.9042857142857142 0.06761904761904762 0.04857142857142857 0.05333333333333334
1 0.97 0.0980952380952381 0.05785714285714286 0.049523809523809526
1 0.6928571428571428 0.2019047619047619 0.07285714285714286 0.05047619047619047
1 0.7092857142857143 0.18476190476190477 0.06785714285714285 0.06
1 0.7221428571428572 0.16857142857142857 0.060714285714285714 0.05142857142857143
1 0.7435714285714285 0.15523809523809523 0.07428571428571429 0.047619047619047616
1 0.7564285714285715 0.13238095238095238 0.07214285714285715 0.039047619047619046
1 0.77 0.11047619047619048 0.06428571428571428 0.035238095238095235
1 0.7878571428571428 0.09428571428571429 0.065 0.0419047619047619
1 0.7957142857142857 0.07523809523809524 0.05142857142857143 0.03619047619047619
1 0.8057142857142857 0.06190476190476191 0.05714285714285714 0.0380952380952381
1 0.8235714285714286 0.047619047619047616 0.05785714285714286 0.037142857142857144
1 0.8378571428571429 0.03428571428571429 0.05285714285714286 0.03333333333333333
1 0.8492857142857143 0.017142857142857144 0.07214285714285715 0.035238095238095235
1 0.985 0.045714285714285714 0.029285714285714286 0.040952380952380955
