1 0.29214285714285715 0.5697969543147208 0.016428571428571428 0.046954314720812185
1 0.2621428571428571 0.5951776649746193 0.015714285714285715 0.048223350253807105
1 0.2642857142857143 0.5406091370558376 0.015 0.03934010152284264
1 0.26857142857142857 0.3426395939086294 0.016428571428571428 0.030456852791878174
1 0.205 0.20558375634517767 0.011428571428571429 0.02030456852791878
1 0.2557142857142857 0.1700507614213198 0.010714285714285714 0.015228426395939087
1 0.27785714285714286 0.18274111675126903 0.012857142857142857 0.01903553299492386
1 0.25 0.13959390862944163 0.012857142857142857 0.012690355329949238
1 0.5971428571428572 0.5571065989847716 0.016428571428571428 0.03934010152284264
1 0.6064285714285714 0.4987309644670051 0.015714285714285715 0.04060913705583756
1 0.6657142857142857 0.3895939086294416 0.012857142857142857 0.031725888324873094
1 0.6342857142857142 0.48984771573604063 0.015 0.04060913705583756
1 0.6521428571428571 0.5977157360406091 0.015 0.04949238578680203
1 0.6207142857142857 0.600253807106599 0.017142857142857144 0.04568527918781726
1 0.6264285714285714 0.5545685279187818 0.015714285714285715 0.04060913705583756
1 0.7464285714285714 0.5875634517766497 0.018571428571428572 0.04187817258883249
1 0.7835714285714286 0.6903553299492385 0.017142857142857144 0.05203045685279188
1 0.8135714285714286 0.9733502538071066 0.027857142857142858 0.04949238578680203
1 0.6557142857142857 0.5355329949238579 0.019285714285714285 0.07741116751269035
1 0.5642857142857143 0.5634517766497462 0.016428571428571428 0.04314720812182741
1 0.365 0.4936548223350254 0.017142857142857144 0.03299492385786802
1 0.31642857142857145 0.3629441624365482 0.017857142857142856 0.04568527918781726
1 0.105 0.013959390862944163 0.01 0.011421319796954314
1 0.15857142857142856 0.0583756345177665 0.010714285714285714 0.011421319796954314
1 0.15714285714285714 0.04568527918781726 0.010714285714285714 0.011421319796954314
1 0.17857142857142858 0.06091370558375635 0.010714285714285714 0.012690355329949238
1 0.20642857142857143 0.08756345177664974 0.011428571428571429 0.012690355329949238
1 0.19642857142857142 0.09137055837563451 0.008571428571428572 0.012690355329949238
1 0.1357142857142857 0.04060913705583756 0.010714285714285714 0.012690355329949238
1 0.07928571428571428 0.006345177664974619 0.009285714285714286 0.008883248730964468
1 0.019285714285714285 0.0850253807106599 0.019285714285714285 0.011421319796954314
1 0.014285714285714285 0.08248730964467005 0.015 0.011421319796954314
1 0.02 0.09390862944162437 0.015714285714285715 0.012690355329949238
1 0.027142857142857142 0.09390862944162437 0.019285714285714285 0.013959390862944163
1 0.03214285714285714 0.10025380710659898 0.018571428571428572 0.013959390862944163
1 0.010714285714285714 0.41878172588832485 0.02214285714285714 0.02918781725888325
1 0.2057142857142857 0.11040609137055837 0.025714285714285714 0.03299492385786802
1 0.22142857142857142 0.49238578680203043 0.01 0.030456852791878174
0 0.5292857142857142 0.7144670050761421 0.0064285714285714285 0.021573604060913704
0 0.5178571428571429 0.6967005076142132 0.0064285714285714285 0.021573604060913704
1 0.53 0.7220812182741116 0.009285714285714286 0.025380710659898477
1 0.5171428571428571 0.7017766497461929 0.009285714285714286 0.021573604060913704
1 0.45071428571428573 0.0532994923857868 0.03571428571428571 0.025380710659898477
1 0.03 0.5088832487309645 0.03785714285714286 0.031725888324873094
1 0.024285714285714285 0.6763959390862944 0.04928571428571429 0.04314720812182741
1 0.016428571428571428 0.7093908629441624 0.032857142857142856 0.03934010152284264
0 0.0035714285714285713 0.4631979695431472 0.007857142857142858 0.030456852791878174
