1 0.495 0.007619047619047619 0.03428571428571429 0.01619047619047619
1 0.4942857142857143 0.02 0.032857142857142856 0.01904761904761905
1 0.5 0.03333333333333333 0.030714285714285715 0.02095238095238095
1 0.49642857142857144 0.04476190476190476 0.03 0.01904761904761905
1 0.4957142857142857 0.058095238095238096 0.03428571428571429 0.018095238095238095
1 0.49357142857142855 0.07047619047619047 0.03428571428571429 0.014285714285714285
1 0.4942857142857143 0.08476190476190476 0.03642857142857143 0.017142857142857144
1 0.49785714285714283 0.1019047619047619 0.03428571428571429 0.02
1 0.5228571428571429 0.06380952380952382 0.014285714285714285 0.03238095238095238
1 0.5 0.14952380952380953 0.04 0.021904761904761906
1 0.5014285714285714 0.16476190476190475 0.037142857142857144 0.018095238095238095
1 0.49642857142857144 0.18 0.047857142857142855 0.025714285714285714
1 0.5014285714285714 0.21714285714285714 0.030714285714285715 0.02666666666666667
1 0.51 0.259047619047619 0.052142857142857144 0.029523809523809525
1 0.5085714285714286 0.28095238095238095 0.047857142857142855 0.02761904761904762
1 0.5092857142857142 0.3028571428571429 0.04928571428571429 0.030476190476190476
1 0.5135714285714286 0.32476190476190475 0.05357142857142857 0.03428571428571429
1 0.5128571428571429 0.3495238095238095 0.05071428571428571 0.029523809523809525
1 0.5142857142857142 0.3742857142857143 0.04857142857142857 0.03333333333333333
1 0.5128571428571429 0.4057142857142857 0.04857142857142857 0.029523809523809525
1 0.515 0.43523809523809526 0.055714285714285716 0.03238095238095238
1 0.5228571428571429 0.46285714285714286 0.055 0.03333333333333333
1 0.5171428571428571 0.54 0.054285714285714284 0.03142857142857143
1 0.5221428571428571 0.5942857142857143 0.05714285714285714 0.039047619047619046
1 0.5292857142857142 0.6342857142857142 0.06357142857142857 0.037142857142857144
1 0.5235714285714286 0.6742857142857143 0.06142857142857143 0.04
1 0.5321428571428571 0.7161904761904762 0.06357142857142857 0.040952380952380955
1 0.5271428571428571 0.7542857142857143 0.07785714285714286 0.04476190476190476
0 0.5214285714285715 0.7790476190476191 0.007857142857142858 0.011428571428571429
1 0.5314285714285715 0.8019047619047619 0.06642857142857143 0.040952380952380955
1 0.5335714285714286 0.9047619047619048 0.07428571428571429 0.04666666666666667
1 0.5364285714285715 0.9647619047619047 0.07 0.05142857142857143
1 0.44 0.9761904761904762 0.03214285714285714 0.047619047619047616
1 0.415 0.940952380952381 0.047142857142857146 0.10285714285714286
1 0.37785714285714284 0.8095238095238095 0.03142857142857143 0.021904761904761906
1 0.4278571428571429 0.7742857142857142 0.027857142857142858 0.014285714285714285
1 0.3985714285714286 0.7695238095238095 0.02642857142857143 0.014285714285714285
1 0.42928571428571427 0.7609523809523809 0.02857142857142857 0.012380952380952381
1 0.42928571428571427 0.7514285714285714 0.027142857142857142 0.014285714285714285
1 0.4 0.7590476190476191 0.025 0.009523809523809525
1 0.4 0.7495238095238095 0.023571428571428573 0.011428571428571429
1 0.4007142857142857 0.7304761904761905 0.025 0.011428571428571429
1 0.4007142857142857 0.72 0.022857142857142857 0.010476190476190476
1 0.4007142857142857 0.7104761904761905 0.02642857142857143 0.011428571428571429
1 0.4014285714285714 0.6980952380952381 0.025714285714285714 0.011428571428571429
1 0.4014285714285714 0.6904761904761905 0.025 0.012380952380952381
1 0.4307142857142857 0.7304761904761905 0.02642857142857143 0.018095238095238095
1 0.43 0.7209523809523809 0.027142857142857142 0.013333333333333334
1 0.43142857142857144 0.7095238095238096 0.025714285714285714 0.014285714285714285
1 0.43214285714285716 0.7 0.024285714285714285 0.012380952380952381
1 0.43142857142857144 0.6885714285714286 0.025 0.018095238095238095
1 0.49214285714285716 0.6257142857142857 0.012857142857142857 0.04
1 0.43142857142857144 0.6495238095238095 0.024285714285714285 0.014285714285714285
1 0.43142857142857144 0.6352380952380953 0.024285714285714285 0.01619047619047619
1 0.4342857142857143 0.6076190476190476 0.025714285714285714 0.01619047619047619
1 0.4042857142857143 0.6561904761904762 0.024285714285714285 0.017142857142857144
1 0.4042857142857143 0.6457142857142857 0.025714285714285714 0.013333333333333334
1 0.4042857142857143 0.638095238095238 0.02642857142857143 0.011428571428571429
1 0.4042857142857143 0.6304761904761905 0.027142857142857142 0.011428571428571429
1 0.405 0.621904761904762 0.027142857142857142 0.012380952380952381
1 0.40785714285714286 0.5952380952380952 0.020714285714285713 0.012380952380952381
1 0.4085714285714286 0.5838095238095238 0.02142857142857143 0.014285714285714285
1 0.5092857142857142 0.5733333333333334 0.024285714285714285 0.01619047619047619
1 0.51 0.560952380952381 0.024285714285714285 0.014285714285714285
1 0.5257142857142857 0.8295238095238096 0.030714285714285715 0.018095238095238095
1 0.5378571428571428 0.518095238095238 0.019285714285714285 0.01619047619047619
1 0.5257142857142857 0.5095238095238095 0.024285714285714285 0.013333333333333334
1 0.5335714285714286 0.4990476190476191 0.02 0.01619047619047619
1 0.5335714285714286 0.4876190476190476 0.022857142857142857 0.017142857142857144
1 0.4235714285714286 0.2752380952380952 0.02 0.013333333333333334
1 0.4235714285714286 0.26476190476190475 0.02142857142857143 0.014285714285714285
1 0.4228571428571429 0.25333333333333335 0.02214285714285714 0.014285714285714285
1 0.4228571428571429 0.2438095238095238 0.020714285714285713 0.01619047619047619
0 0.5371428571428571 0.17809523809523808 0.004285714285714286 0.018095238095238095
1 0.5357142857142857 0.18095238095238095 0.010714285714285714 0.022857142857142857
1 0.5285714285714286 0.16666666666666666 0.009285714285714286 0.01619047619047619
1 0.5271428571428571 0.1295238095238095 0.014285714285714285 0.018095238095238095
1 0.48642857142857143 0.12 0.01 0.01619047619047619
0 0.4357142857142857 0.11523809523809524 0.0064285714285714285 0.02
0 0.5414285714285715 0.07904761904761905 0.005 0.01904761904761905
0 0.5471428571428572 0.08095238095238096 0.004285714285714286 0.02
0 0.5607142857142857 0.05142857142857143 0.005714285714285714 0.02
1 0.465 0.06476190476190476 0.015714285714285715 0.025714285714285714
1 0.5235714285714286 0.01904761904761905 0.015 0.029523809523809525
1 0.54 0.024761904761904763 0.016428571428571428 0.02761904761904762
1 0.4607142857142857 0.09047619047619047 0.015714285714285715 0.029523809523809525
1 0.4692857142857143 0.12666666666666668 0.017857142857142856 0.030476190476190476
0 0.57 0.08476190476190476 0.0035714285714285713 0.02095238095238095
1 0.575 0.1676190476190476 0.017857142857142856 0.03428571428571429
1 0.6092857142857143 0.16095238095238096 0.029285714285714286 0.02095238095238095
1 0.6035714285714285 0.18761904761904763 0.03571428571428571 0.022857142857142857
1 0.5928571428571429 0.30857142857142855 0.020714285714285713 0.01904761904761905
1 0.61 0.29428571428571426 0.023571428571428573 0.014285714285714285
0 0.585 0.46476190476190476 0.005714285714285714 0.017142857142857144
1 0.6478571428571429 0.6495238095238095 0.022857142857142857 0.01904761904761905
1 0.6521428571428571 0.6695238095238095 0.02 0.02
1 0.6435714285714286 0.7704761904761904 0.024285714285714285 0.024761904761904763
1 0.645 0.7866666666666666 0.020714285714285713 0.02666666666666667
1 0.6471428571428571 0.8114285714285714 0.017857142857142856 0.02666666666666667
1 0.6278571428571429 0.8047619047619048 0.012857142857142857 0.0380952380952381
1 0.6664285714285715 0.7495238095238095 0.02142857142857143 0.01904761904761905
1 0.6678571428571428 0.7619047619047619 0.023571428571428573 0.015238095238095238
1 0.67 0.7752380952380953 0.022857142857142857 0.017142857142857144
1 0.6721428571428572 0.7876190476190477 0.024285714285714285 0.014285714285714285
1 0.6735714285714286 0.800952380952381 0.02642857142857143 0.015238095238095238
1 0.675 0.8152380952380952 0.025 0.015238095238095238
1 0.6557142857142857 0.8714285714285714 0.02857142857142857 0.022857142857142857
1 0.655 0.8866666666666667 0.029285714285714286 0.017142857142857144
1 0.6571428571428571 0.900952380952381 0.029285714285714286 0.02
1 0.66 0.9133333333333333 0.03 0.02
1 0.6614285714285715 0.9285714285714286 0.03 0.01904761904761905
1 0.6842857142857143 0.8771428571428571 0.027142857142857142 0.013333333333333334
1 0.6857142857142857 0.8914285714285715 0.02642857142857143 0.013333333333333334
1 0.69 0.9019047619047619 0.027142857142857142 0.015238095238095238
1 0.6907142857142857 0.9133333333333333 0.02857142857142857 0.015238095238095238
1 0.6921428571428572 0.9276190476190476 0.027857142857142858 0.015238095238095238
1 0.6957142857142857 0.9428571428571428 0.029285714285714286 0.01619047619047619
1 0.67 0.9914285714285714 0.03214285714285714 0.01619047619047619
1 0.7021428571428572 0.9923809523809524 0.029285714285714286 0.014285714285714285
1 0.6642857142857143 0.9466666666666667 0.03142857142857143 0.017142857142857144
