1 0.43 0.8504761904761905 0.060714285714285714 0.16380952380952382
1 0.1407142857142857 0.8428571428571429 0.07642857142857143 0.17238095238095238
1 0.09785714285714285 0.9342857142857143 0.047142857142857146 0.030476190476190476
1 0.09428571428571429 0.9561904761904761 0.054285714285714284 0.03333333333333333
1 0.14857142857142858 0.6019047619047619 0.041428571428571426 0.02666666666666667
1 0.37785714285714284 0.3495238095238095 0.04357142857142857 0.11333333333333333
1 0.395 0.22095238095238096 0.045714285714285714 0.11904761904761904
1 0.2342857142857143 0.19714285714285715 0.10857142857142857 0.07047619047619047
1 0.25142857142857145 0.14095238095238094 0.09642857142857143 0.06476190476190476
1 0.18928571428571428 0.3 0.045 0.04
1 0.21571428571428572 0.319047619047619 0.032857142857142856 0.030476190476190476
1 0.6471428571428571 0.49523809523809526 0.05142857142857143 0.13523809523809524
1 0.6242857142857143 0.34476190476190477 0.04642857142857143 0.11142857142857143
1 0.6407142857142857 0.6704761904761904 0.055 0.15619047619047619
0 0.5892857142857143 0.9457142857142857 0.016428571428571428 0.03238095238095238
0 0.5728571428571428 0.9533333333333334 0.020714285714285713 0.021904761904761906
0 0.5757142857142857 0.3780952380952381 0.013571428571428571 0.030476190476190476
0 0.5864285714285714 0.38571428571428573 0.012142857142857143 0.022857142857142857
0 0.5978571428571429 0.38 0.011428571428571429 0.030476190476190476
