0 0.14785714285714285 0.434010152284264 0.0035714285714285713 0.011421319796954314
0 0.16142857142857142 0.4200507614213198 0.002857142857142857 0.013959390862944163
0 0.2042857142857143 0.41243654822335024 0.0035714285714285713 0.012690355329949238
0 0.36357142857142855 0.3629441624365482 0.0035714285714285713 0.011421319796954314
0 0.3992857142857143 0.35913705583756345 0.002857142857142857 0.012690355329949238
1 0.3757142857142857 0.4543147208121827 0.017142857142857144 0.017766497461928935
1 0.26 0.47588832487309646 0.02142857142857143 0.02030456852791878
1 0.045714285714285714 0.5076142131979695 0.025 0.02030456852791878
1 0.07285714285714286 0.567258883248731 0.02642857142857143 0.024111675126903553
1 0.17642857142857143 0.5304568527918782 0.025714285714285714 0.024111675126903553
1 0.016428571428571428 0.5774111675126904 0.03357142857142857 0.044416243654822336
1 0.007142857142857143 0.5596446700507615 0.014285714285714285 0.015228426395939087
1 0.12357142857142857 0.5253807106598984 0.037142857142857144 0.03934010152284264
0 0.07 0.4631979695431472 0.004285714285714286 0.008883248730964468
1 0.06928571428571428 0.467005076142132 0.007857142857142858 0.01015228426395939
1 0.25785714285714284 0.5038071065989848 0.03214285714285714 0.030456852791878174
1 0.32071428571428573 0.4860406091370558 0.017857142857142856 0.01903553299492386
1 0.4 0.4593908629441624 0.030714285714285715 0.03553299492385787
1 0.4471428571428571 0.41878172588832485 0.02 0.021573604060913704
1 0.4807142857142857 0.4365482233502538 0.02214285714285714 0.02030456852791878
1 0.5271428571428571 0.4276649746192893 0.02 0.02030456852791878
1 0.535 0.4010152284263959 0.019285714285714285 0.01649746192893401
1 0.5864285714285714 0.39720812182741116 0.025714285714285714 0.017766497461928935
1 0.6028571428571429 0.399746192893401 0.045714285714285714 0.03934010152284264
1 0.6407142857142857 0.4010152284263959 0.019285714285714285 0.01903553299492386
1 0.6571428571428571 0.383248730964467 0.02 0.01903553299492386
1 0.685 0.3350253807106599 0.030714285714285715 0.02030456852791878
1 0.7157142857142857 0.3680203045685279 0.018571428571428572 0.01649746192893401
0 0.5778571428571428 0.3096446700507614 0.002857142857142857 0.008883248730964468
0 0.6171428571428571 0.2614213197969543 0.0035714285714285713 0.012690355329949238
0 0.48857142857142855 0.33375634517766495 0.002857142857142857 0.01015228426395939
0 0.5228571428571429 0.3223350253807107 0.0035714285714285713 0.013959390862944163
0 0.4521428571428571 0.35152284263959394 0.002142857142857143 0.007614213197969543
1 0.4514285714285714 0.3553299492385787 0.0064285714285714285 0.01015228426395939
1 0.6807142857142857 0.6091370558375635 0.008571428571428572 0.012690355329949238
1 0.6757142857142857 0.6015228426395939 0.009285714285714286 0.012690355329949238
1 0.7571428571428571 0.37055837563451777 0.02214285714285714 0.021573604060913704
1 0.85 0.1802030456852792 0.011428571428571429 0.021573604060913704
1 0.8507142857142858 0.19796954314720813 0.011428571428571429 0.017766497461928935
1 0.8614285714285714 0.19416243654822335 0.01 0.02030456852791878
1 0.8764285714285714 0.20812182741116753 0.02 0.03553299492385787
1 0.8621428571428571 0.2131979695431472 0.010714285714285714 0.02030456852791878
1 0.8714285714285714 0.22715736040609136 0.011428571428571429 0.012690355329949238
1 0.8835714285714286 0.24238578680203046 0.018571428571428572 0.03299492385786802
1 0.8664285714285714 0.23223350253807107 0.011428571428571429 0.024111675126903553
1 0.88 0.2550761421319797 0.011428571428571429 0.02030456852791878
1 0.89 0.2753807106598985 0.010714285714285714 0.02284263959390863
1 0.8971428571428571 0.26903553299492383 0.01 0.01903553299492386
1 0.73 0.3096446700507614 0.016428571428571428 0.01649746192893401
1 0.745 0.3147208121827411 0.03142857142857143 0.025380710659898477
1 0.745 0.3426395939086294 0.016428571428571428 0.012690355329949238
1 0.7614285714285715 0.33121827411167515 0.015714285714285715 0.01015228426395939
1 0.7678571428571429 0.3413705583756345 0.019285714285714285 0.012690355329949238
1 0.7571428571428571 0.30583756345177665 0.015714285714285715 0.015228426395939087
1 0.7607142857142857 0.2969543147208122 0.017857142857142856 0.01015228426395939
1 0.7842857142857143 0.2956852791878173 0.015714285714285715 0.011421319796954314
1 0.7814285714285715 0.30583756345177665 0.015 0.012690355329949238
1 0.7764285714285715 0.315989847715736 0.017142857142857144 0.01649746192893401
1 0.7864285714285715 0.3248730964467005 0.02642857142857143 0.02284263959390863
1 0.7971428571428572 0.33375634517766495 0.023571428571428573 0.01903553299492386
1 0.7957142857142857 0.37055837563451777 0.05142857142857143 0.03553299492385787
1 0.8114285714285714 0.3248730964467005 0.015714285714285715 0.008883248730964468
1 0.8228571428571428 0.35152284263959394 0.015 0.01649746192893401
1 0.8242857142857143 0.3362944162436548 0.015 0.01649746192893401
1 0.8035714285714286 0.31725888324873097 0.015714285714285715 0.011421319796954314
1 0.7985714285714286 0.315989847715736 0.012142857142857143 0.015228426395939087
1 0.805 0.2956852791878173 0.015 0.012690355329949238
1 0.8142857142857143 0.3032994923857868 0.014285714285714285 0.011421319796954314
1 0.8228571428571428 0.3147208121827411 0.017857142857142856 0.015228426395939087
1 0.8314285714285714 0.3236040609137056 0.015714285714285715 0.01649746192893401
0 0.815 0.868020304568528 0.005714285714285714 0.013959390862944163
0 0.7828571428571428 0.8083756345177665 0.004285714285714286 0.013959390862944163
0 0.7785714285714286 0.799492385786802 0.0035714285714285713 0.01649746192893401
0 0.7742857142857142 0.7969543147208121 0.0035714285714285713 0.01649746192893401
0 0.7828571428571428 0.7969543147208121 0.004285714285714286 0.015228426395939087
0 0.9007142857142857 0.9657360406091371 0.005 0.011421319796954314
1 0.8985714285714286 0.9695431472081218 0.008571428571428572 0.02284263959390863
1 0.9521428571428572 0.36928934010152287 0.018571428571428572 0.01649746192893401
1 0.9178571428571428 0.3604060913705584 0.016428571428571428 0.015228426395939087
1 0.9885714285714285 0.35913705583756345 0.02142857142857143 0.015228426395939087
1 0.895 0.23730964467005075 0.024285714285714285 0.046954314720812185
1 0.9864285714285714 0.4796954314720812 0.027142857142857142 0.06472081218274112
1 0.9671428571428572 0.47715736040609136 0.018571428571428572 0.03426395939086294
