1 0.09857142857142857 0.11548223350253807 0.019285714285714285 0.044416243654822336
1 0.08571428571428572 0.26015228426395937 0.03857142857142857 0.025380710659898477
0 0.06 0.14974619289340102 0.008571428571428572 0.017766497461928935
1 0.1757142857142857 0.29314720812182743 0.04428571428571428 0.03299492385786802
1 0.21857142857142858 0.25380710659898476 0.037142857142857144 0.03299492385786802
1 0.12642857142857142 0.37944162436548223 0.04 0.027918781725888325
1 0.12714285714285714 0.41751269035532995 0.06142857142857143 0.03680203045685279
1 0.21285714285714286 0.3769035532994924 0.016428571428571428 0.01649746192893401
1 0.23214285714285715 0.4137055837563452 0.04 0.021573604060913704
1 0.34285714285714286 0.28045685279187815 0.03642857142857143 0.03426395939086294
1 0.32571428571428573 0.41116751269035534 0.032857142857142856 0.024111675126903553
1 0.3192857142857143 0.3756345177664975 0.03571428571428571 0.027918781725888325
1 0.37357142857142855 0.3730964467005076 0.03785714285714286 0.03299492385786802
1 0.3821428571428571 0.4137055837563452 0.037142857142857144 0.03553299492385787
1 0.245 0.008883248730964468 0.013571428571428571 0.01903553299492386
1 0.19428571428571428 0.45685279187817257 0.08357142857142857 0.05203045685279188
1 0.295 0.4530456852791878 0.03857142857142857 0.02918781725888325
1 0.46214285714285713 0.3616751269035533 0.095 0.06091370558375635
0 0.9028571428571428 0.7347715736040609 0.012142857142857143 0.011421319796954314
0 0.8564285714285714 0.7081218274111675 0.007142857142857143 0.011421319796954314
0 0.9342857142857143 0.4720812182741117 0.007857142857142858 0.01649746192893401
0 0.8428571428571429 0.12944162436548223 0.007142857142857143 0.01649746192893401
