1 0.5085714285714286 0.013959390862944163 0.016428571428571428 0.02918781725888325
1 0.58 0.06852791878172589 0.017857142857142856 0.06852791878172589
1 0.5614285714285714 0.2766497461928934 0.018571428571428572 0.07360406091370558
1 0.61 0.11294416243654823 0.017857142857142856 0.06345177664974619
1 0.6185714285714285 0.2563451776649746 0.016428571428571428 0.07360406091370558
1 0.5957142857142858 0.4796954314720812 0.019285714285714285 0.07233502538071065
1 0.59 0.2639593908629442 0.03 0.1751269035532995
1 0.6271428571428571 0.4302030456852792 0.03142857142857143 0.18781725888324874
0 0.6778571428571428 0.29441624365482233 0.0035714285714285713 0.01015228426395939
0 0.6807142857142857 0.29314720812182743 0.004285714285714286 0.012690355329949238
0 0.7042857142857143 0.6852791878172588 0.0064285714285714285 0.013959390862944163
0 0.6685714285714286 0.7855329949238579 0.005714285714285714 0.01015228426395939
1 0.6014285714285714 0.6586294416243654 0.017142857142857144 0.07106598984771574
1 0.5685714285714286 0.6091370558375635 0.016428571428571428 0.07487309644670051
1 0.49142857142857144 0.6091370558375635 0.017857142857142856 0.06598984771573604
1 0.6371428571428571 0.7081218274111675 0.029285714285714286 0.1916243654822335
1 0.6007142857142858 0.9238578680203046 0.023571428571428573 0.116751269035533
1 0.7221428571428572 0.9010152284263959 0.007142857142857143 0.011421319796954314
1 0.7271428571428571 0.9035532994923858 0.007857142857142858 0.01903553299492386
0 0.7214285714285714 0.9048223350253807 0.005714285714285714 0.012690355329949238
0 0.7292857142857143 0.9048223350253807 0.007142857142857143 0.01015228426395939
0 0.20285714285714285 0.7614213197969543 0.007857142857142858 0.011421319796954314
0 0.2764285714285714 0.748730964467005 0.004285714285714286 0.01015228426395939
