0 0.934 0.708 0.012 0.02266666666666667
0 0.986 0.744 0.0125 0.02
0 0.9885 0.7393333333333333 0.007 0.024666666666666667
0 0.9865 0.5046666666666667 0.009 0.018
0 0.788 0.516 0.008 0.02
0 0.8475 0.636 0.008 0.021333333333333333
0 0.8835 0.6393333333333333 0.013 0.021333333333333333
0 0.898 0.6406666666666667 0.007 0.011333333333333334
0 0.7625 0.5 0.0095 0.018
