1 0.9488517745302714 0.5964749536178108 0.055323590814196244 0.08256029684601113
1 0.35386221294363257 0.9090909090909091 0.05323590814196242 0.059369202226345084
1 0.32933194154488515 0.601113172541744 0.013569937369519834 0.04452690166975881
1 0.4509394572025052 0.5936920222634509 0.02661795407098121 0.10296846011131726
1 0.3935281837160752 0.5640074211502782 0.021920668058455117 0.030612244897959183
1 0.35490605427974947 0.46289424860853434 0.02035490605427975 0.022263450834879406
0 0.35908141962421714 0.47309833024118736 0.009394572025052192 0.036178107606679034
1 0.3575156576200417 0.44341372912801486 0.017745302713987474 0.02504638218923933
1 0.36012526096033404 0.41929499072356213 0.028183716075156576 0.03710575139146568
1 0.3663883089770355 0.39239332096474955 0.02870563674321503 0.026901669758812616
1 0.3653444676409186 0.38589981447124305 0.020876826722338204 0.01948051948051948
1 0.38674321503131526 0.35435992578849723 0.048538622129436326 0.036178107606679034
1 0.4535490605427975 0.3051948051948052 0.02348643006263048 0.06029684601113173
1 0.3862212943632568 0.19387755102040816 0.013048016701461378 0.01855287569573284
1 0.40501043841336115 0.19758812615955473 0.005741127348643006 0.023191094619666047
1 0.3924843423799583 0.19109461966604824 0.016701461377870562 0.017625231910946195
1 0.39979123173277664 0.15398886827458255 0.015657620041753653 0.017625231910946195
1 0.4024008350730689 0.13636363636363635 0.014613778705636743 0.014842300556586271
0 0.4144050104384134 0.07421150278293136 0.006263048016701462 0.015769944341372914
1 0.42379958246346555 0.11224489795918367 0.01826722338204593 0.041743970315398886
1 0.45407098121085593 0.12708719851576994 0.016179540709812108 0.039888682745825604
1 0.4572025052192067 0.075139146567718 0.014091858037578288 0.03432282003710575
1 0.471294363256785 0.08812615955473098 0.012004175365344467 0.029684601113172542
1 0.4859081419624217 0.05102040816326531 0.009394572025052192 0.026901669758812616
1 0.5156576200417536 0.036178107606679034 0.015657620041753653 0.025974025974025976
1 0.5213987473903967 0.08348794063079777 0.014613778705636743 0.029684601113172542
0 0.49582463465553234 0.08441558441558442 0.005219206680584551 0.014842300556586271
0 0.48643006263048016 0.11595547309833024 0.006784968684759917 0.015769944341372914
0 0.47286012526096033 0.14656771799628943 0.006784968684759917 0.02040816326530612
0 0.5161795407098121 0.1614100185528757 0.006263048016701462 0.017625231910946195
1 0.49582463465553234 0.08998144712430427 0.006263048016701462 0.017625231910946195
1 0.4869519832985386 0.12152133580705009 0.007828810020876827 0.01948051948051948
1 0.47286012526096033 0.150278293135436 0.006784968684759917 0.02040816326530612
1 0.5156576200417536 0.16697588126159554 0.006784968684759917 0.02040816326530612
1 0.5313152400835073 0.16419294990723562 0.015657620041753653 0.0287569573283859
1 0.5020876826722338 0.1660482374768089 0.012004175365344467 0.03432282003710575
1 0.48329853862212946 0.16048237476808905 0.013569937369519834 0.039888682745825604
1 0.5443632567849687 0.26159554730983303 0.022964509394572025 0.03432282003710575
1 0.5396659707724426 0.300556586270872 0.021920668058455117 0.05194805194805195
1 0.5897703549060542 0.2922077922077922 0.037578288100208766 0.04730983302411874
1 0.6153444676409185 0.3098330241187384 0.010960334029227558 0.029684601113172542
1 0.6111691022964509 0.3228200371057514 0.020876826722338204 0.02504638218923933
0 0.6153444676409185 0.34137291280148424 0.007828810020876827 0.0287569573283859
1 0.6461377870563675 0.3460111317254174 0.014613778705636743 0.013914656771799629
1 0.6492693110647182 0.37105751391465674 0.009916492693110648 0.03710575139146568
1 0.6096033402922756 0.3868274582560297 0.024530271398747392 0.06029684601113173
1 0.5553235908141962 0.39517625231910947 0.021920668058455117 0.05194805194805195
1 0.6654488517745303 0.38961038961038963 0.016701461377870562 0.023191094619666047
1 0.675365344467641 0.3682745825602968 0.009394572025052192 0.0287569573283859
1 0.6362212943632568 0.5102040816326531 0.011482254697286013 0.03432282003710575
1 0.6189979123173278 0.47680890538033394 0.02139874739039666 0.025974025974025976
1 0.569937369519833 0.49443413729128016 0.029749478079331943 0.0686456400742115
1 0.5464509394572025 0.6076066790352505 0.02139874739039666 0.07142857142857142
1 0.7019832985386222 0.6094619666048238 0.031837160751565764 0.06957328385899815
1 0.615866388308977 0.8126159554730983 0.028183716075156576 0.09740259740259741
0 0.5704592901878914 0.7820037105751392 0.013569937369519834 0.03432282003710575
1 0.5688935281837161 0.7847866419294991 0.013048016701461378 0.04916512059369202
0 0.23068893528183715 0.9712430426716141 0.016701461377870562 0.04267161410018553
1 0.6080375782881002 0.2504638218923933 0.049060542797494784 0.041743970315398886
1 0.5683716075156576 0.16326530612244897 0.01722338204592902 0.04081632653061224
1 0.5897703549060542 0.15584415584415584 0.0255741127348643 0.038033395176252316
1 0.5808977035490606 0.12244897959183673 0.031315240083507306 0.026901669758812616
1 0.5688935281837161 0.08256029684601113 0.027139874739039668 0.0287569573283859
1 0.5501043841336117 0.023191094619666047 0.006263048016701462 0.013914656771799629
