1 0.22285714285714286 0.018095238095238095 0.06357142857142857 0.03428571428571429
1 0.32 0.011428571428571429 0.02 0.021904761904761906
1 0.3921428571428571 0.02095238095238095 0.02 0.039047619047619046
1 0.41785714285714287 0.04857142857142857 0.02214285714285714 0.05523809523809524
1 0.40714285714285714 0.1657142857142857 0.02642857142857143 0.06380952380952382
1 0.3557142857142857 0.12571428571428572 0.007142857142857143 0.02857142857142857
0 0.35428571428571426 0.1219047619047619 0.01 0.02
0 0.2542857142857143 0.12476190476190477 0.012857142857142857 0.025714285714285714
1 0.30857142857142855 0.06 0.027142857142857142 0.06095238095238095
1 0.2985714285714286 0.13238095238095238 0.035 0.07714285714285714
1 0.25214285714285717 0.07238095238095238 0.029285714285714286 0.05714285714285714
1 0.2007142857142857 0.11428571428571428 0.05714285714285714 0.035238095238095235
1 0.19857142857142857 0.14666666666666667 0.05785714285714286 0.03619047619047619
1 0.18785714285714286 0.17523809523809525 0.04 0.03333333333333333
1 0.15214285714285714 0.2695238095238095 0.056428571428571425 0.06380952380952382
1 0.11428571428571428 0.319047619047619 0.009285714285714286 0.025714285714285714
1 0.2842857142857143 0.22285714285714286 0.03214285714285714 0.06761904761904762
1 0.395 0.2838095238095238 0.041428571428571426 0.10095238095238095
0 0.4542857142857143 0.4876190476190476 0.010714285714285714 0.018095238095238095
0 0.4664285714285714 0.4819047619047619 0.009285714285714286 0.017142857142857144
0 0.475 0.4942857142857143 0.007142857142857143 0.01904761904761905
1 0.19214285714285714 0.3495238095238095 0.03 0.05714285714285714
1 0.16785714285714284 0.4095238095238095 0.03428571428571429 0.04666666666666667
1 0.28214285714285714 0.5428571428571428 0.027142857142857142 0.013333333333333334
0 0.28 0.540952380952381 0.011428571428571429 0.017142857142857144
1 0.07071428571428572 0.3476190476190476 0.017857142857142856 0.02857142857142857
1 0.07285714285714286 0.37238095238095237 0.023571428571428573 0.02095238095238095
1 0.06428571428571428 0.38952380952380955 0.024285714285714285 0.013333333333333334
1 0.06642857142857143 0.40190476190476193 0.022857142857142857 0.014285714285714285
0 0.06785714285714285 0.41619047619047617 0.018571428571428572 0.02095238095238095
0 0.08214285714285714 0.4219047619047619 0.019285714285714285 0.018095238095238095
0 0.09214285714285714 0.48 0.018571428571428572 0.02
0 0.023571428571428573 0.44857142857142857 0.019285714285714285 0.01904761904761905
0 0.06428571428571428 0.518095238095238 0.020714285714285713 0.02
1 0.054285714285714284 0.4380952380952381 0.030714285714285715 0.021904761904761906
1 0.04285714285714286 0.5485714285714286 0.065 0.047619047619047616
1 0.4107142857142857 0.6019047619047619 0.07428571428571429 0.06285714285714286
0 0.010714285714285714 0.68 0.02214285714285714 0.01904761904761905
0 0.02142857142857143 0.8019047619047619 0.02 0.014285714285714285
0 0.07214285714285715 0.6961904761904761 0.018571428571428572 0.017142857142857144
1 0.13 0.7409523809523809 0.05357142857142857 0.09904761904761905
1 0.16214285714285714 0.8695238095238095 0.04857142857142857 0.11523809523809524
0 0.017142857142857144 0.8838095238095238 0.025714285714285714 0.014285714285714285
0 0.5121428571428571 0.7657142857142857 0.012142857142857143 0.014285714285714285
1 0.5678571428571428 0.5695238095238095 0.06785714285714285 0.040952380952380955
1 0.5542857142857143 0.6276190476190476 0.07071428571428572 0.04476190476190476
1 0.6885714285714286 0.6247619047619047 0.06357142857142857 0.04380952380952381
1 0.995 0.5142857142857142 0.01 0.02
0 0.9921428571428571 0.4980952380952381 0.015 0.02
1 0.5035714285714286 0.8438095238095238 0.018571428571428572 0.06571428571428571
