1 0.45571428571428574 0.7533333333333333 0.07928571428571428 0.06857142857142857
1 0.5585714285714286 0.5761904761904761 0.05785714285714286 0.040952380952380955
0 0.8171428571428572 0.48095238095238096 0.0064285714285714285 0.022857142857142857
1 0.8092857142857143 0.33714285714285713 0.029285714285714286 0.014285714285714285
1 0.76 0.3457142857142857 0.029285714285714286 0.010476190476190476
1 0.7614285714285715 0.3380952380952381 0.02 0.010476190476190476
0 0.44142857142857145 0.5704761904761905 0.005714285714285714 0.023809523809523808
1 0.35928571428571426 0.49333333333333335 0.024285714285714285 0.02761904761904762
1 0.24428571428571427 0.4876190476190476 0.05714285714285714 0.040952380952380955
1 0.22142857142857142 0.46476190476190476 0.05071428571428571 0.035238095238095235
1 0.19 0.4419047619047619 0.03214285714285714 0.021904761904761906
