1 0.4878571428571429 0.8489847715736041 0.008571428571428572 0.02918781725888325
1 0.5292857142857142 0.8223350253807107 0.012857142857142857 0.07614213197969544
1 0.5535714285714286 0.7728426395939086 0.011428571428571429 0.06979695431472081
1 0.5021428571428571 0.6637055837563451 0.0064285714285714285 0.01903553299492386
1 0.5471428571428572 0.5786802030456852 0.0064285714285714285 0.017766497461928935
1 0.5142857142857142 0.5228426395939086 0.010714285714285714 0.05456852791878172
1 0.54 0.5177664974619289 0.0064285714285714285 0.021573604060913704
1 0.5492857142857143 0.5317258883248731 0.007142857142857143 0.01649746192893401
1 0.5557142857142857 0.5050761421319797 0.005714285714285714 0.017766497461928935
1 0.5564285714285714 0.4619289340101523 0.0064285714285714285 0.02030456852791878
1 0.5485714285714286 0.467005076142132 0.0064285714285714285 0.02284263959390863
1 0.5514285714285714 0.4137055837563452 0.0064285714285714285 0.01903553299492386
1 0.5457142857142857 0.38578680203045684 0.007142857142857143 0.025380710659898477
1 0.5221428571428571 0.3743654822335025 0.0064285714285714285 0.013959390862944163
1 0.515 0.37817258883248733 0.0064285714285714285 0.012690355329949238
1 0.5135714285714286 0.36421319796954316 0.0064285714285714285 0.012690355329949238
1 0.5135714285714286 0.35279187817258884 0.005 0.011421319796954314
1 0.52 0.35152284263959394 0.005714285714285714 0.012690355329949238
1 0.54 0.35913705583756345 0.0064285714285714285 0.012690355329949238
1 0.5485714285714286 0.3553299492385787 0.0064285714285714285 0.012690355329949238
1 0.535 0.33121827411167515 0.0064285714285714285 0.015228426395939087
1 0.5421428571428571 0.315989847715736 0.005 0.013959390862944163
1 0.5657142857142857 0.2918781725888325 0.025 0.021573604060913704
1 0.5178571428571429 0.33883248730964466 0.0064285714285714285 0.011421319796954314
1 0.5114285714285715 0.3401015228426396 0.0064285714285714285 0.013959390862944163
1 0.505 0.34517766497461927 0.005714285714285714 0.01015228426395939
1 0.5042857142857143 0.33375634517766495 0.0064285714285714285 0.011421319796954314
1 0.51 0.3223350253807107 0.007857142857142858 0.01649746192893401
1 0.5164285714285715 0.3236040609137056 0.005714285714285714 0.013959390862944163
1 0.5028571428571429 0.3223350253807107 0.005 0.01015228426395939
1 0.49214285714285716 0.2982233502538071 0.015714285714285715 0.017766497461928935
1 0.5085714285714286 0.2956852791878173 0.009285714285714286 0.011421319796954314
1 0.5214285714285715 0.26649746192893403 0.0064285714285714285 0.012690355329949238
1 0.5128571428571429 0.25888324873096447 0.0064285714285714285 0.012690355329949238
1 0.5092857142857142 0.24873096446700507 0.005714285714285714 0.012690355329949238
1 0.5057142857142857 0.23730964467005075 0.005714285714285714 0.01015228426395939
1 0.5057142857142857 0.22461928934010153 0.007142857142857143 0.011421319796954314
1 0.49857142857142855 0.21192893401015228 0.0064285714285714285 0.011421319796954314
1 0.47785714285714287 0.1383248730964467 0.010714285714285714 0.024111675126903553
1 0.4685714285714286 0.13705583756345177 0.005 0.011421319796954314
1 0.07214285714285715 0.7106598984771574 0.012857142857142857 0.021573604060913704
1 0.10642857142857143 0.6370558375634517 0.014285714285714285 0.02030456852791878
1 0.11428571428571428 0.6205583756345178 0.011428571428571429 0.01903553299492386
1 0.07857142857142857 0.8515228426395939 0.02 0.01649746192893401
1 0.105 0.8401015228426396 0.019285714285714285 0.01649746192893401
1 0.15357142857142858 0.8477157360406091 0.019285714285714285 0.01903553299492386
1 0.3271428571428571 0.649746192893401 0.013571428571428571 0.03807106598984772
1 0.3292857142857143 0.7258883248730964 0.010714285714285714 0.02918781725888325
1 0.3342857142857143 0.7055837563451777 0.01 0.02030456852791878
1 0.3392857142857143 0.6878172588832487 0.01 0.02284263959390863
1 0.3492857142857143 0.6421319796954315 0.007857142857142858 0.017766497461928935
1 0.25785714285714284 0.31852791878172587 0.007142857142857143 0.011421319796954314
1 0.2671428571428571 0.31852791878172587 0.011428571428571429 0.02284263959390863
1 0.3271428571428571 0.40609137055837563 0.012857142857142857 0.01015228426395939
1 0.3342857142857143 0.40609137055837563 0.012142857142857143 0.008883248730964468
1 0.32357142857142857 0.44543147208121825 0.012142857142857143 0.01015228426395939
1 0.3357142857142857 0.4352791878172589 0.012857142857142857 0.01015228426395939
1 0.31 0.43147208121827413 0.012142857142857143 0.011421319796954314
1 0.3092857142857143 0.4416243654822335 0.011428571428571429 0.011421319796954314
1 0.3364285714285714 0.44543147208121825 0.012857142857142857 0.012690355329949238
