1 0.10785714285714286 0.8523809523809524 0.09357142857142857 0.1980952380952381
1 0.16357142857142856 0.9171428571428571 0.08142857142857143 0.1657142857142857
1 0.4707142857142857 0.4238095238095238 0.065 0.14095238095238094
0 0.24571428571428572 0.3961904761904762 0.027857142857142858 0.03142857142857143
0 0.2764285714285714 0.26095238095238094 0.018571428571428572 0.039047619047619046
1 0.2857142857142857 0.26761904761904765 0.05357142857142857 0.0380952380952381
0 0.7592857142857142 0.22380952380952382 0.017857142857142856 0.03142857142857143
1 0.7557142857142857 0.2342857142857143 0.010714285714285714 0.049523809523809526
1 0.9507142857142857 0.23333333333333334 0.09785714285714285 0.07428571428571429
1 0.9578571428571429 0.32476190476190475 0.08428571428571428 0.06857142857142857
1 0.9692857142857143 0.3980952380952381 0.05928571428571429 0.06285714285714286
1 0.9628571428571429 0.5333333333333333 0.07357142857142857 0.07238095238095238
1 0.9664285714285714 0.6238095238095238 0.06714285714285714 0.07523809523809524
1 0.9671428571428572 0.7114285714285714 0.065 0.07904761904761905
1 0.5985714285714285 0.9104761904761904 0.065 0.17809523809523808
0 0.8585714285714285 0.7552380952380953 0.027142857142857142 0.02857142857142857
