1 0.08214285714285714 0.21428571428571427 0.054285714285714284 0.040952380952380955
1 0.056428571428571425 0.2038095238095238 0.04857142857142857 0.0419047619047619
0 0.345 0.34476190476190477 0.007142857142857143 0.02
1 0.335 0.7533333333333333 0.07142857142857142 0.10095238095238095
0 0.05928571428571429 0.7533333333333333 0.009285714285714286 0.017142857142857144
0 0.10214285714285715 0.6961904761904761 0.007142857142857143 0.01619047619047619
1 0.24714285714285714 0.8714285714285714 0.09285714285714286 0.11523809523809524
0 0.009285714285714286 0.9038095238095238 0.008571428571428572 0.014285714285714285
1 0.4635714285714286 0.5314285714285715 0.07571428571428572 0.10761904761904761
0 0.4785714285714286 0.38761904761904764 0.0064285714285714285 0.022857142857142857
1 0.6921428571428572 0.1361904761904762 0.045 0.07333333333333333
1 0.7485714285714286 0.31523809523809526 0.04 0.06571428571428571
1 0.7792857142857142 0.4780952380952381 0.047857142857142855 0.0761904761904762
1 0.7435714285714285 0.5676190476190476 0.05357142857142857 0.08761904761904762
1 0.7542857142857143 0.7076190476190476 0.05142857142857143 0.09523809523809523
1 0.8171428571428572 0.4 0.045714285714285714 0.06857142857142857
1 0.8428571428571429 0.3333333333333333 0.039285714285714285 0.05523809523809524
1 0.8721428571428571 0.26095238095238094 0.03571428571428571 0.049523809523809526
1 0.8385714285714285 0.23142857142857143 0.035 0.047619047619047616
1 0.7992857142857143 0.18285714285714286 0.03642857142857143 0.05333333333333334
1 0.8628571428571429 0.17523809523809525 0.03357142857142857 0.04380952380952381
1 0.8971428571428571 0.19904761904761906 0.03428571428571429 0.045714285714285714
1 0.8707142857142857 0.1 0.047142857142857146 0.04
1 0.9335714285714286 0.07142857142857142 0.05 0.03238095238095238
