1 0.9092857142857143 0.5215736040609137 0.06142857142857143 0.07233502538071065
1 0.685 0.8274111675126904 0.04428571428571428 0.10279187817258884
1 0.3107142857142857 0.7233502538071066 0.047857142857142855 0.09390862944162437
1 0.26857142857142857 0.6408629441624365 0.06 0.10025380710659898
1 0.3807142857142857 0.4289340101522843 0.045714285714285714 0.07741116751269035
1 0.2042857142857143 0.766497461928934 0.065 0.11040609137055837
1 0.4785714285714286 0.1713197969543147 0.08571428571428572 0.07741116751269035
1 0.2571428571428571 0.23604060913705585 0.037142857142857144 0.05203045685279188
1 0.22142857142857142 0.28426395939086296 0.03571428571428571 0.05203045685279188
1 0.19357142857142856 0.33248730964467005 0.032857142857142856 0.048223350253807105
1 0.15071428571428572 0.3819796954314721 0.04357142857142857 0.07868020304568528
1 0.07 0.49619289340101524 0.05 0.07106598984771574
1 0.09 0.39847715736040606 0.056428571428571425 0.04949238578680203
1 0.16428571428571428 0.2868020304568528 0.06642857142857143 0.10025380710659898
1 0.02 0.5647208121827412 0.03571428571428571 0.1218274111675127
1 0.10642857142857143 0.8426395939086294 0.02642857142857143 0.03934010152284264
1 0.06428571428571428 0.899746192893401 0.032857142857142856 0.04060913705583756
1 0.054285714285714284 0.8654822335025381 0.025714285714285714 0.03807106598984772
1 0.020714285714285713 0.9276649746192893 0.024285714285714285 0.04060913705583756
1 0.8042857142857143 0.11928934010152284 0.055714285714285716 0.11548223350253807
1 0.4564285714285714 0.09263959390862944 0.08571428571428572 0.08121827411167512
1 0.485 0.06725888324873096 0.07571428571428572 0.08629441624365482
1 0.5842857142857143 0.07614213197969544 0.07214285714285715 0.08883248730964467
1 0.5535714285714286 0.0266497461928934 0.08428571428571428 0.04568527918781726
0 0.3792857142857143 0.18401015228426396 0.011428571428571429 0.024111675126903553
0 0.4257142857142857 0.2715736040609137 0.0064285714285714285 0.027918781725888325
0 0.4114285714285714 0.27284263959390864 0.01 0.027918781725888325
0 0.09714285714285714 0.7576142131979695 0.015714285714285715 0.031725888324873094
0 0.08642857142857142 0.7601522842639594 0.010714285714285714 0.02284263959390863
0 0.07928571428571428 0.7703045685279187 0.008571428571428572 0.02030456852791878
0 0.07571428571428572 0.7868020304568528 0.012857142857142857 0.02918781725888325
1 0.09285714285714286 0.7918781725888325 0.03214285714285714 0.03553299492385787
0 0.09142857142857143 0.7918781725888325 0.017857142857142856 0.02284263959390863
