1 0.17014613778705637 0.8970315398886828 0.050626304801670144 0.137291280148423
1 0.21085594989561587 0.8153988868274582 0.03966597077244259 0.04359925788497217
1 0.22755741127348644 0.7690166975881262 0.031315240083507306 0.04267161410018553
0 0.2630480167014614 0.6920222634508348 0.012004175365344467 0.05194805194805195
0 0.26356993736951984 0.6753246753246753 0.004697286012526096 0.02504638218923933
0 0.2938413361169102 0.6771799628942486 0.006263048016701462 0.027829313543599257
0 0.2980167014613779 0.6771799628942486 0.008350730688935281 0.05102040816326531
1 0.3168058455114823 0.6799628942486086 0.043319415448851775 0.075139146567718
0 0.33507306889352817 0.6743970315398887 0.006263048016701462 0.04081632653061224
1 0.2938413361169102 0.6094619666048238 0.07515657620041753 0.055658627087198514
1 0.29958246346555323 0.5565862708719852 0.024008350730688934 0.023191094619666047
1 0.3653444676409186 0.4137291280148423 0.017745302713987474 0.021335807050092765
1 0.3569937369519833 0.4044526901669759 0.01722338204592902 0.01948051948051948
0 0.4394572025052192 0.3534322820037106 0.005219206680584551 0.021335807050092765
1 0.4384133611691023 0.35992578849721707 0.008872651356993737 0.021335807050092765
0 0.4253653444676409 0.6456400742115028 0.010438413361169102 0.029684601113172542
1 0.4253653444676409 0.6595547309833024 0.007828810020876827 0.04638218923933209
1 0.5636743215031316 0.4749536178107607 0.017745302713987474 0.02411873840445269
1 0.5448851774530271 0.4322820037105751 0.027139874739039668 0.032467532467532464
1 0.5307933194154488 0.40816326530612246 0.016179540709812108 0.01855287569573284
1 0.5391440501043842 0.3784786641929499 0.013048016701461378 0.017625231910946195
1 0.5328810020876826 0.3673469387755102 0.013048016701461378 0.017625231910946195
1 0.3903966597077244 0.26716141001855287 0.02661795407098121 0.017625231910946195
1 0.43475991649269313 0.19387755102040816 0.0041753653444676405 0.011131725417439703
1 0.45563674321503134 0.1901669758812616 0.004697286012526096 0.014842300556586271
1 0.4431106471816284 0.24860853432282004 0.006784968684759917 0.023191094619666047
0 0.4431106471816284 0.24953617810760667 0.003131524008350731 0.011131725417439703
1 0.42484342379958245 0.22820037105751392 0.013048016701461378 0.029684601113172542
1 0.22964509394572025 0.9072356215213359 0.04384133611691023 0.03432282003710575
