1 0.49 0.49619289340101524 0.011428571428571429 0.0266497461928934
1 0.495 0.7538071065989848 0.013571428571428571 0.04949238578680203
1 0.5192857142857142 0.7956852791878173 0.017857142857142856 0.048223350253807105
1 0.5157142857142857 0.6928934010152284 0.015714285714285715 0.04187817258883249
1 0.49214285714285716 0.5812182741116751 0.012857142857142857 0.03680203045685279
1 0.5107142857142857 0.5824873096446701 0.012857142857142857 0.03680203045685279
1 0.4907142857142857 0.32741116751269034 0.01 0.017766497461928935
1 0.5 0.31852791878172587 0.007142857142857143 0.021573604060913704
1 0.49785714285714283 0.29314720812182743 0.008571428571428572 0.017766497461928935
1 0.495 0.23730964467005075 0.007857142857142858 0.01903553299492386
1 0.49142857142857144 0.1446700507614213 0.0064285714285714285 0.01015228426395939
1 0.4828571428571429 0.13071065989847716 0.005 0.008883248730964468
1 0.48428571428571426 0.1434010152284264 0.004285714285714286 0.01015228426395939
1 0.5092857142857142 0.5177664974619289 0.011428571428571429 0.03426395939086294
1 0.49857142857142855 0.9708121827411168 0.017857142857142856 0.05456852791878172
1 0.5342857142857143 0.9860406091370558 0.018571428571428572 0.024111675126903553
1 0.515 0.3946700507614213 0.009285714285714286 0.024111675126903553
1 0.5021428571428571 0.3426395939086294 0.007142857142857143 0.017766497461928935
1 0.48714285714285716 0.27411167512690354 0.007857142857142858 0.01649746192893401
1 0.4592857142857143 0.1967005076142132 0.0064285714285714285 0.012690355329949238
1 0.4692857142857143 0.18908629441624367 0.0064285714285714285 0.012690355329949238
1 0.4614285714285714 0.13959390862944163 0.005714285714285714 0.011421319796954314
1 0.46714285714285714 0.07487309644670051 0.007857142857142858 0.024111675126903553
1 0.455 0.10913705583756345 0.0035714285714285713 0.013959390862944163
1 0.4707142857142857 0.14213197969543148 0.005 0.012690355329949238
1 0.49 0.3616751269035533 0.007142857142857143 0.02284263959390863
1 0.49142857142857144 0.4416243654822335 0.01 0.031725888324873094
1 0.5042857142857143 0.41243654822335024 0.010714285714285714 0.030456852791878174
1 0.5078571428571429 0.4517766497461929 0.017142857142857144 0.07106598984771574
1 0.5878571428571429 0.4936548223350254 0.020714285714285713 0.08248730964467005
1 0.4942857142857143 0.20431472081218274 0.0064285714285714285 0.017766497461928935
1 0.4878571428571429 0.30076142131979694 0.008571428571428572 0.02030456852791878
1 0.5278571428571428 0.4885786802030457 0.014285714285714285 0.05456852791878172
1 0.505 0.36928934010152287 0.012857142857142857 0.04187817258883249
1 0.5378571428571428 0.14213197969543148 0.008571428571428572 0.013959390862944163
1 0.8528571428571429 0.39086294416243655 0.008571428571428572 0.01649746192893401
1 0.825 0.3489847715736041 0.014285714285714285 0.021573604060913704
