0 0.2978571428571429 0.9860406091370558 0.0035714285714285713 0.012690355329949238
0 0.30214285714285716 0.9822335025380711 0.0035714285714285713 0.006345177664974619
0 0.4785714285714286 0.383248730964467 0.0035714285714285713 0.012690355329949238
0 0.4642857142857143 0.4022842639593909 0.004285714285714286 0.012690355329949238
0 0.4607142857142857 0.41624365482233505 0.0035714285714285713 0.012690355329949238
0 0.3628571428571429 0.47081218274111675 0.004285714285714286 0.013959390862944163
0 0.3678571428571429 0.48350253807106597 0.005 0.011421319796954314
0 0.34714285714285714 0.5291878172588832 0.005714285714285714 0.013959390862944163
0 0.4442857142857143 0.4593908629441624 0.002142857142857143 0.013959390862944163
0 0.49714285714285716 0.38451776649746194 0.0035714285714285713 0.015228426395939087
0 0.46214285714285713 0.4682741116751269 0.005 0.013959390862944163
0 0.45285714285714285 0.4733502538071066 0.0064285714285714285 0.011421319796954314
0 0.5314285714285715 0.48096446700507617 0.005 0.01015228426395939
0 0.5071428571428571 0.39086294416243655 0.002857142857142857 0.011421319796954314
0 0.5021428571428571 0.3870558375634518 0.005 0.013959390862944163
0 0.3842857142857143 0.5190355329949239 0.002857142857142857 0.008883248730964468
0 0.38 0.5253807106598984 0.0035714285714285713 0.008883248730964468
0 0.37142857142857144 0.5177664974619289 0.004285714285714286 0.011421319796954314
0 0.37785714285714284 0.47715736040609136 0.0035714285714285713 0.011421319796954314
0 0.3657142857142857 0.5114213197969543 0.005 0.015228426395939087
0 0.37357142857142855 0.5431472081218274 0.0064285714285714285 0.012690355329949238
0 0.5471428571428572 0.4517766497461929 0.0064285714285714285 0.011421319796954314
0 0.5414285714285715 0.4619289340101523 0.005714285714285714 0.008883248730964468
0 0.4421428571428571 0.4543147208121827 0.004285714285714286 0.013959390862944163
0 0.45785714285714285 0.46954314720812185 0.004285714285714286 0.013959390862944163
0 0.37714285714285717 0.5038071065989848 0.0035714285714285713 0.01015228426395939
0 0.375 0.4949238578680203 0.005 0.008883248730964468
0 0.36357142857142855 0.4987309644670051 0.004285714285714286 0.011421319796954314
0 0.3557142857142857 0.5393401015228426 0.004285714285714286 0.008883248730964468
0 0.36142857142857143 0.5406091370558376 0.004285714285714286 0.012690355329949238
0 0.36857142857142855 0.5444162436548223 0.005 0.011421319796954314
0 0.35285714285714287 0.5380710659898477 0.005 0.01015228426395939
0 0.465 0.6637055837563451 0.005 0.01015228426395939
0 0.4614285714285714 0.6776649746192893 0.007857142857142858 0.008883248730964468
0 0.42428571428571427 0.6446700507614214 0.005 0.008883248730964468
0 0.4185714285714286 0.6649746192893401 0.005 0.008883248730964468
0 0.5492857142857143 0.7893401015228426 0.0064285714285714285 0.012690355329949238
0 0.46285714285714286 0.9568527918781726 0.0064285714285714285 0.008883248730964468
0 0.4421428571428571 0.9555837563451777 0.005 0.01015228426395939
0 0.4492857142857143 0.9682741116751269 0.0064285714285714285 0.011421319796954314
0 0.5528571428571428 0.28553299492385786 0.004285714285714286 0.012690355329949238
0 0.5557142857142857 0.2880710659898477 0.0035714285714285713 0.015228426395939087
0 0.5814285714285714 0.36548223350253806 0.002857142857142857 0.012690355329949238
0 0.5728571428571428 0.44289340101522845 0.004285714285714286 0.012690355329949238
0 0.5592857142857143 0.44289340101522845 0.004285714285714286 0.013959390862944163
0 0.5578571428571428 0.4784263959390863 0.005 0.008883248730964468
0 0.575 0.5152284263959391 0.002857142857142857 0.011421319796954314
0 0.5921428571428572 0.4720812182741117 0.004285714285714286 0.017766497461928935
0 0.5978571428571429 0.5456852791878173 0.005714285714285714 0.012690355329949238
0 0.6071428571428571 0.4479695431472081 0.005714285714285714 0.013959390862944163
0 0.6228571428571429 0.48984771573604063 0.0035714285714285713 0.01015228426395939
1 0.8871428571428571 0.3401015228426396 0.022857142857142857 0.08121827411167512
1 0.855 0.33756345177664976 0.015 0.044416243654822336
