1 0.5349686847599165 0.9332096474953617 0.055845511482254695 0.08534322820037106
1 0.5668058455114823 0.9656771799628943 0.05793319415448852 0.06586270871985157
1 0.049060542797494784 0.5890538033395176 0.04018789144050104 0.030612244897959183
1 0.05010438413361169 0.5714285714285714 0.03653444676409186 0.01948051948051948
1 0.07515657620041753 0.313543599257885 0.025052192066805846 0.021335807050092765
1 0.14144050104384134 0.310760667903525 0.0255741127348643 0.017625231910946195
1 0.08402922755741127 0.3079777365491651 0.024008350730688934 0.015769944341372914
1 0.08820459290187892 0.29777365491651203 0.022964509394572025 0.013914656771799629
1 0.09394572025052192 0.2912801484230056 0.017745302713987474 0.012059369202226345
1 0.10073068893528184 0.2820037105751391 0.02348643006263048 0.017625231910946195
1 0.11847599164926931 0.2588126159554731 0.020876826722338204 0.013914656771799629
1 0.12734864300626306 0.24489795918367346 0.02035490605427975 0.013914656771799629
1 0.19258872651356992 0.3450834879406308 0.01722338204592902 0.015769944341372914
1 0.17954070981210857 0.3395176252319109 0.02348643006263048 0.012059369202226345
1 0.16701461377870563 0.336734693877551 0.01826722338204593 0.015769944341372914
1 0.15866388308977036 0.33766233766233766 0.02035490605427975 0.02040816326530612
1 0.151356993736952 0.33302411873840443 0.0255741127348643 0.016697588126159554
1 0.14979123173277661 0.32560296846011133 0.024008350730688934 0.016697588126159554
1 0.1393528183716075 0.3051948051948052 0.025052192066805846 0.01855287569573284
1 0.1393528183716075 0.2940630797773655 0.020876826722338204 0.015769944341372914
1 0.4519832985386221 0.36178107606679033 0.013048016701461378 0.02040816326530612
1 0.4801670146137787 0.3608534322820037 0.013048016701461378 0.021335807050092765
1 0.49582463465553234 0.35714285714285715 0.013569937369519834 0.021335807050092765
1 0.5088726513569938 0.3562152133580705 0.013569937369519834 0.01948051948051948
1 0.5234864300626305 0.3534322820037106 0.013569937369519834 0.01948051948051948
1 0.5819415448851775 0.3450834879406308 0.016179540709812108 0.021335807050092765
1 0.5949895615866388 0.3460111317254174 0.015657620041753653 0.02040816326530612
1 0.6435281837160751 0.336734693877551 0.01722338204592902 0.021335807050092765
1 0.6957202505219207 0.33116883116883117 0.01722338204592902 0.01948051948051948
1 0.7186847599164927 0.3274582560296846 0.015135699373695199 0.01948051948051948
1 0.6941544885177453 0.30890538033395176 0.013569937369519834 0.017625231910946195
1 0.7468684759916493 0.32189239332096475 0.01826722338204593 0.01948051948051948
1 0.7609603340292276 0.3200371057513915 0.01826722338204593 0.02040816326530612
1 0.7828810020876826 0.31910946196660483 0.018789144050104383 0.02040816326530612
1 0.7922755741127349 0.3144712430426716 0.016179540709812108 0.017625231910946195
1 0.8058455114822547 0.31261595547309834 0.018789144050104383 0.017625231910946195
