1 0.05071428571428571 0.8142857142857143 0.10214285714285715 0.23809523809523808
1 0.47214285714285714 0.920952380952381 0.18714285714285714 0.15714285714285714
1 0.6264285714285714 0.7457142857142857 0.15928571428571428 0.22666666666666666
1 0.8464285714285714 0.6228571428571429 0.11571428571428571 0.14857142857142858
1 0.33071428571428574 0.5761904761904761 0.15 0.1457142857142857
1 0.4 0.52 0.12785714285714286 0.13238095238095238
1 0.5 0.4504761904761905 0.12785714285714286 0.10666666666666667
1 0.65 0.41714285714285715 0.11857142857142858 0.06190476190476191
1 0.6378571428571429 0.36952380952380953 0.10857142857142857 0.06476190476190476
1 0.6921428571428572 0.319047619047619 0.11142857142857143 0.07333333333333333
1 0.8385714285714285 0.4580952380952381 0.105 0.12476190476190477
1 0.9392857142857143 0.46 0.08071428571428571 0.09714285714285714
1 0.8271428571428572 0.2780952380952381 0.05714285714285714 0.06380952380952382
1 0.8921428571428571 0.37523809523809526 0.07285714285714286 0.09428571428571429
1 0.9142857142857143 0.32761904761904764 0.054285714285714284 0.06857142857142857
1 0.9728571428571429 0.37714285714285717 0.05285714285714286 0.0761904761904762
1 0.9435714285714286 0.26285714285714284 0.04428571428571428 0.05523809523809524
1 0.845 0.23714285714285716 0.04428571428571428 0.037142857142857144
1 0.8614285714285714 0.20761904761904762 0.03785714285714286 0.045714285714285714
1 0.8771428571428571 0.1742857142857143 0.03785714285714286 0.05047619047619047
1 0.8978571428571429 0.1438095238095238 0.03357142857142857 0.04666666666666667
1 0.9635714285714285 0.1761904761904762 0.03571428571428571 0.039047619047619046
1 0.9814285714285714 0.11714285714285715 0.027857142857142858 0.03428571428571429
0 0.9285714285714286 0.12285714285714286 0.010714285714285714 0.02761904761904762
0 0.9435714285714286 0.12666666666666668 0.012857142857142857 0.029523809523809525
1 0.9028571428571428 0.03142857142857143 0.016428571428571428 0.029523809523809525
