1 0.44642857142857145 0.1802030456852792 0.005 0.006345177664974619
1 0.45571428571428574 0.1916243654822335 0.0035714285714285713 0.007614213197969543
1 0.4607142857142857 0.233502538071066 0.005 0.007614213197969543
1 0.35214285714285715 0.4517766497461929 0.012142857142857143 0.012690355329949238
1 0.37 0.45050761421319796 0.011428571428571429 0.011421319796954314
1 0.38142857142857145 0.4530456852791878 0.019285714285714285 0.01649746192893401
1 0.37642857142857145 0.4631979695431472 0.014285714285714285 0.01015228426395939
1 0.3921428571428571 0.467005076142132 0.012857142857142857 0.012690355329949238
1 0.39714285714285713 0.4619289340101523 0.013571428571428571 0.01015228426395939
1 0.39285714285714285 0.4517766497461929 0.015 0.011421319796954314
1 0.41285714285714287 0.46446700507614214 0.014285714285714285 0.008883248730964468
1 0.4142857142857143 0.4606598984771574 0.012857142857142857 0.007614213197969543
1 0.41285714285714287 0.45558375634517767 0.013571428571428571 0.011421319796954314
1 0.4157142857142857 0.45050761421319796 0.014285714285714285 0.01015228426395939
1 0.5378571428571428 0.48350253807106597 0.014285714285714285 0.012690355329949238
1 0.555 0.48223350253807107 0.013571428571428571 0.011421319796954314
1 0.55 0.4682741116751269 0.037142857142857144 0.025380710659898477
1 0.5814285714285714 0.46954314720812185 0.017142857142857144 0.01903553299492386
1 0.5678571428571428 0.4593908629441624 0.03428571428571429 0.024111675126903553
1 0.5335714285714286 0.4631979695431472 0.02142857142857143 0.021573604060913704
1 0.43857142857142856 0.5253807106598984 0.0064285714285714285 0.015228426395939087
1 0.44857142857142857 0.5241116751269036 0.007142857142857143 0.017766497461928935
1 0.4564285714285714 0.5152284263959391 0.0064285714285714285 0.015228426395939087
1 0.4657142857142857 0.5190355329949239 0.0035714285714285713 0.01015228426395939
1 0.45714285714285713 0.5342639593908629 0.007857142857142858 0.015228426395939087
1 0.46714285714285714 0.5444162436548223 0.007142857142857143 0.015228426395939087
1 0.43857142857142856 0.5469543147208121 0.007142857142857143 0.01649746192893401
1 0.44785714285714284 0.5634517766497462 0.007142857142857143 0.01903553299492386
1 0.45785714285714285 0.5520304568527918 0.007142857142857143 0.01649746192893401
1 0.45785714285714285 0.5697969543147208 0.007142857142857143 0.02030456852791878
1 0.4585714285714286 0.5888324873096447 0.007142857142857143 0.01903553299492386
1 0.4664285714285714 0.565989847715736 0.007857142857142858 0.017766497461928935
1 0.47714285714285715 0.567258883248731 0.007857142857142858 0.01903553299492386
1 0.4685714285714286 0.5888324873096447 0.007142857142857143 0.02030456852791878
1 0.46785714285714286 0.6129441624365483 0.007857142857142858 0.02030456852791878
1 0.46 0.6027918781725888 0.005 0.012690355329949238
1 0.4592857142857143 0.6573604060913706 0.008571428571428572 0.024111675126903553
1 0.4692857142857143 0.6446700507614214 0.007857142857142858 0.02030456852791878
1 0.4714285714285714 0.6852791878172588 0.008571428571428572 0.021573604060913704
1 0.46214285714285713 0.7449238578680203 0.010714285714285714 0.02284263959390863
1 0.49 0.5101522842639594 0.008571428571428572 0.02030456852791878
1 0.5028571428571429 0.5139593908629442 0.008571428571428572 0.02284263959390863
1 0.5042857142857143 0.5583756345177665 0.01 0.021573604060913704
1 0.4957142857142857 0.583756345177665 0.008571428571428572 0.025380710659898477
1 0.49714285714285716 0.6383248730964467 0.010714285714285714 0.03807106598984772
1 0.51 0.6408629441624365 0.008571428571428572 0.021573604060913704
1 0.5021428571428571 0.7055837563451777 0.009285714285714286 0.025380710659898477
1 0.5135714285714286 0.6928934010152284 0.01 0.030456852791878174
1 0.5264285714285715 0.6916243654822335 0.016428571428571428 0.06091370558375635
1 0.5207142857142857 0.7944162436548223 0.010714285714285714 0.02918781725888325
1 0.475 0.8388324873096447 0.01 0.02918781725888325
1 0.4642857142857143 0.9517766497461929 0.015 0.06345177664974619
1 0.5157142857142857 0.9314720812182741 0.011428571428571429 0.03553299492385787
1 0.5314285714285715 0.9187817258883249 0.011428571428571429 0.03553299492385787
0 0.5521428571428572 0.751269035532995 0.0035714285714285713 0.015228426395939087
0 0.5428571428571428 0.7271573604060914 0.0035714285714285713 0.012690355329949238
0 0.5421428571428571 0.6954314720812182 0.0035714285714285713 0.012690355329949238
1 0.7628571428571429 0.7918781725888325 0.011428571428571429 0.027918781725888325
1 0.7835714285714286 0.7550761421319797 0.018571428571428572 0.0266497461928934
