1 0.05142857142857143 0.14857142857142858 0.032857142857142856 0.021904761904761906
1 0.07357142857142857 0.1295238095238095 0.03142857142857143 0.030476190476190476
1 0.29285714285714287 0.021904761904761906 0.035 0.03333333333333333
1 0.3442857142857143 0.017142857142857144 0.027857142857142858 0.03428571428571429
1 0.3314285714285714 0.04380952380952381 0.03428571428571429 0.04285714285714286
1 0.31357142857142856 0.07047619047619047 0.03642857142857143 0.05047619047619047
1 0.2892857142857143 0.11428571428571428 0.041428571428571426 0.05523809523809524
1 0.3392857142857143 0.09619047619047619 0.04285714285714286 0.05333333333333334
0 0.43642857142857144 0.02666666666666667 0.007857142857142858 0.029523809523809525
1 0.48 0.014285714285714285 0.04857142857142857 0.02857142857142857
1 0.25857142857142856 0.16666666666666666 0.05357142857142857 0.06571428571428571
1 0.21857142857142858 0.2342857142857143 0.07142857142857142 0.08666666666666667
1 0.2907142857142857 0.2038095238095238 0.054285714285714284 0.07809523809523809
1 0.17214285714285715 0.32571428571428573 0.075 0.08190476190476191
1 0.07785714285714286 0.3342857142857143 0.10142857142857142 0.1019047619047619
1 0.03214285714285714 0.42 0.065 0.05714285714285714
1 0.095 0.4419047619047619 0.10428571428571429 0.14952380952380953
1 0.235 0.5323809523809524 0.09357142857142857 0.15714285714285714
1 0.365 0.9228571428571428 0.09642857142857143 0.1523809523809524
1 0.39714285714285713 0.7171428571428572 0.08071428571428571 0.21714285714285714
1 0.42642857142857143 0.49523809523809526 0.05928571428571429 0.12761904761904763
1 0.3657142857142857 0.42857142857142855 0.06714285714285714 0.10761904761904761
1 0.44785714285714284 0.3457142857142857 0.04928571428571429 0.09047619047619047
1 0.33 0.26666666666666666 0.05785714285714286 0.08761904761904762
1 0.4614285714285714 0.25523809523809526 0.04357142857142857 0.07904761904761905
1 0.4714285714285714 0.18476190476190477 0.04 0.06571428571428571
1 0.47785714285714287 0.1219047619047619 0.03857142857142857 0.05238095238095238
1 0.49 0.045714285714285714 0.035 0.039047619047619046
1 0.48714285714285716 0.07809523809523809 0.032857142857142856 0.0380952380952381
1 0.5692857142857143 0.01619047619047619 0.023571428571428573 0.03238095238095238
1 0.615 0.018095238095238095 0.02642857142857143 0.03619047619047619
0 0.645 0.013333333333333334 0.01 0.02666666666666667
0 0.5385714285714286 0.12761904761904763 0.009285714285714286 0.03333333333333333
1 0.5885714285714285 0.1419047619047619 0.035 0.05142857142857143
0 0.6035714285714285 0.18 0.01 0.02857142857142857
1 0.5921428571428572 0.21619047619047618 0.04357142857142857 0.07809523809523809
1 0.5578571428571428 0.26857142857142857 0.04 0.03238095238095238
1 0.6121428571428571 0.2866666666666667 0.02 0.0419047619047619
1 0.6621428571428571 0.06857142857142857 0.01 0.029523809523809525
0 0.68 0.3057142857142857 0.017857142857142856 0.05142857142857143
0 0.7471428571428571 0.32476190476190475 0.024285714285714285 0.02761904761904762
0 0.5764285714285714 0.3923809523809524 0.015714285714285715 0.05142857142857143
1 0.5707142857142857 0.5152380952380953 0.025 0.06952380952380953
0 0.6757142857142857 0.47714285714285715 0.02 0.05619047619047619
1 0.7628571428571429 0.5161904761904762 0.024285714285714285 0.058095238095238096
1 0.6292857142857143 0.539047619047619 0.05785714285714286 0.05333333333333334
1 0.6714285714285714 0.900952380952381 0.15571428571428572 0.1980952380952381
