0 0.15285714285714286 0.9342857142857143 0.047857142857142855 0.13047619047619047
1 0.48928571428571427 0.8761904761904762 0.24928571428571428 0.17142857142857143
1 0.6614285714285715 0.9638095238095238 0.31785714285714284 0.07238095238095238
1 0.7892857142857143 0.6428571428571429 0.062142857142857146 0.047619047619047616
1 0.8657142857142858 0.5847619047619048 0.05785714285714286 0.030476190476190476
1 0.915 0.5561904761904762 0.030714285714285715 0.018095238095238095
1 0.8807142857142857 0.5523809523809524 0.03428571428571429 0.02095238095238095
1 0.7314285714285714 0.560952380952381 0.039285714285714285 0.02
1 0.6814285714285714 0.5352380952380953 0.025714285714285714 0.01619047619047619
1 0.6142857142857143 0.5714285714285714 0.04 0.02761904761904762
1 0.6457142857142857 0.5504761904761905 0.02642857142857143 0.02095238095238095
1 0.6542857142857142 0.5485714285714286 0.025714285714285714 0.02095238095238095
1 0.605 0.54 0.020714285714285713 0.013333333333333334
1 0.5764285714285714 0.539047619047619 0.02 0.014285714285714285
1 0.5564285714285714 0.5285714285714286 0.04 0.022857142857142857
1 0.5321428571428571 0.5285714285714286 0.013571428571428571 0.009523809523809525
1 0.4471428571428571 0.5638095238095238 0.02642857142857143 0.025714285714285714
1 0.5007142857142857 0.5266666666666666 0.015 0.012380952380952381
1 0.4392857142857143 0.518095238095238 0.01 0.008571428571428572
1 0.4085714285714286 0.5171428571428571 0.007857142857142858 0.006666666666666667
1 0.38285714285714284 0.5171428571428571 0.007142857142857143 0.007619047619047619
1 0.35428571428571426 0.5580952380952381 0.10214285714285715 0.05904761904761905
1 0.9871428571428571 0.5971428571428572 0.025714285714285714 0.03238095238095238
