1 0.26071428571428573 0.9365482233502538 0.013571428571428571 0.02918781725888325
1 0.25642857142857145 0.9822335025380711 0.019285714285714285 0.031725888324873094
1 0.36642857142857144 0.6967005076142132 0.014285714285714285 0.031725888324873094
1 0.32 0.8934010152284264 0.015 0.03680203045685279
1 0.3221428571428571 0.9238578680203046 0.023571428571428573 0.05710659898477157
1 0.37714285714285717 0.7918781725888325 0.03142857142857143 0.07741116751269035
1 0.31142857142857144 0.8274111675126904 0.015714285714285715 0.03426395939086294
1 0.3707142857142857 0.7195431472081218 0.017142857142857144 0.031725888324873094
1 0.42642857142857143 0.6751269035532995 0.013571428571428571 0.030456852791878174
1 0.4442857142857143 0.6294416243654822 0.013571428571428571 0.02918781725888325
1 0.37785714285714284 0.6294416243654822 0.03357142857142857 0.07741116751269035
1 0.46285714285714286 0.5875634517766497 0.011428571428571429 0.02030456852791878
1 0.47785714285714287 0.550761421319797 0.012142857142857143 0.025380710659898477
1 0.42714285714285716 0.5913705583756346 0.011428571428571429 0.0266497461928934
1 0.46 0.5558375634517766 0.017142857142857144 0.04187817258883249
1 0.42 0.5710659898477157 0.015714285714285715 0.03426395939086294
1 0.42857142857142855 0.6256345177664975 0.018571428571428572 0.03934010152284264
1 0.5085714285714286 0.4733502538071066 0.012857142857142857 0.021573604060913704
1 0.485 0.5 0.008571428571428572 0.021573604060913704
1 0.45714285714285713 0.4796954314720812 0.009285714285714286 0.017766497461928935
1 0.5057142857142857 0.41116751269035534 0.022857142857142857 0.048223350253807105
1 0.5271428571428571 0.4365482233502538 0.008571428571428572 0.02284263959390863
1 0.5371428571428571 0.38071065989847713 0.02 0.044416243654822336
1 0.5514285714285714 0.3819796954314721 0.012857142857142857 0.02284263959390863
1 0.5207142857142857 0.31852791878172587 0.007142857142857143 0.017766497461928935
1 0.5171428571428571 0.4302030456852792 0.012857142857142857 0.01649746192893401
1 0.5678571428571428 0.350253807106599 0.010714285714285714 0.017766497461928935
1 0.5642857142857143 0.3299492385786802 0.011428571428571429 0.01903553299492386
1 0.5528571428571428 0.3236040609137056 0.01 0.01903553299492386
1 0.5742857142857143 0.2766497461928934 0.010714285714285714 0.015228426395939087
1 0.54 0.4098984771573604 0.005714285714285714 0.011421319796954314
0 0.5407142857142857 0.4098984771573604 0.0035714285714285713 0.01015228426395939
1 0.5807142857142857 0.29949238578680204 0.010714285714285714 0.02284263959390863
1 0.5835714285714285 0.3210659898477157 0.010714285714285714 0.02284263959390863
1 0.6007142857142858 0.2868020304568528 0.011428571428571429 0.017766497461928935
1 0.6171428571428571 0.18781725888324874 0.009285714285714286 0.01649746192893401
1 0.55 0.23477157360406092 0.02 0.048223350253807105
1 0.6242857142857143 0.2182741116751269 0.020714285714285713 0.03553299492385787
1 0.6471428571428571 0.27411167512690354 0.012857142857142857 0.02030456852791878
0 0.6085714285714285 0.9352791878172588 0.0035714285714285713 0.006345177664974619
0 0.6171428571428571 0.9746192893401016 0.0035714285714285713 0.007614213197969543
0 0.6278571428571429 0.9467005076142132 0.0035714285714285713 0.006345177664974619
0 0.6307142857142857 0.934010152284264 0.002857142857142857 0.007614213197969543
0 0.6385714285714286 0.949238578680203 0.002857142857142857 0.006345177664974619
0 0.6314285714285715 0.9428934010152284 0.0035714285714285713 0.006345177664974619
1 0.5635714285714286 0.7093908629441624 0.04214285714285714 0.048223350253807105
1 0.5657142857142857 0.6890862944162437 0.03428571428571429 0.03934010152284264
1 0.5735714285714286 0.6751269035532995 0.041428571428571426 0.04187817258883249
0 0.6342857142857142 0.618020304568528 0.0035714285714285713 0.01015228426395939
1 0.6578571428571428 0.12944162436548223 0.008571428571428572 0.01649746192893401
1 0.6557142857142857 0.18908629441624367 0.013571428571428571 0.02284263959390863
1 0.6721428571428572 0.15101522842639595 0.008571428571428572 0.015228426395939087
1 0.7207142857142858 0.08248730964467005 0.007857142857142858 0.017766497461928935
1 0.6685714285714286 0.6713197969543148 0.027857142857142858 0.03426395939086294
1 0.6628571428571428 0.7220812182741116 0.029285714285714286 0.03299492385786802
1 0.7257142857142858 0.03934010152284264 0.015 0.0266497461928934
