1 0.21 0.8133333333333334 0.02642857142857143 0.024761904761904763
1 0.22142857142857142 0.7933333333333333 0.023571428571428573 0.023809523809523808
1 0.2342857142857143 0.7771428571428571 0.030714285714285715 0.03142857142857143
1 0.23857142857142857 0.7628571428571429 0.025714285714285714 0.02
1 0.24857142857142858 0.7485714285714286 0.022857142857142857 0.021904761904761906
1 0.3707142857142857 0.5552380952380952 0.032857142857142856 0.035238095238095235
1 0.405 0.5676190476190476 0.025 0.0419047619047619
1 0.41928571428571426 0.5742857142857143 0.022857142857142857 0.0419047619047619
1 0.42857142857142855 0.5895238095238096 0.01 0.01904761904761905
1 0.445 0.5847619047619048 0.02142857142857143 0.04380952380952381
1 0.45785714285714285 0.5923809523809523 0.023571428571428573 0.04476190476190476
1 0.4707142857142857 0.5961904761904762 0.025 0.047619047619047616
1 0.48428571428571426 0.6009523809523809 0.025714285714285714 0.05142857142857143
1 0.4992857142857143 0.6066666666666667 0.022857142857142857 0.049523809523809526
1 0.5271428571428571 0.6228571428571429 0.025 0.05047619047619047
1 0.6507142857142857 0.6123809523809524 0.03642857142857143 0.0380952380952381
1 0.4014285714285714 0.5190476190476191 0.02 0.01619047619047619
1 0.4107142857142857 0.5076190476190476 0.03214285714285714 0.029523809523809525
1 0.4407142857142857 0.4828571428571429 0.02 0.04
1 0.45571428571428574 0.49238095238095236 0.016428571428571428 0.03428571428571429
1 0.46714285714285714 0.49714285714285716 0.017857142857142856 0.03428571428571429
1 0.48142857142857143 0.5 0.017142857142857144 0.03238095238095238
1 0.4942857142857143 0.5028571428571429 0.018571428571428572 0.03142857142857143
1 0.505 0.5085714285714286 0.017142857142857144 0.0419047619047619
1 0.4278571428571429 0.37047619047619046 0.025714285714285714 0.02
1 0.4357142857142857 0.3647619047619048 0.024285714285714285 0.022857142857142857
1 0.39071428571428574 0.379047619047619 0.022857142857142857 0.021904761904761906
1 0.37857142857142856 0.43238095238095237 0.03 0.022857142857142857
1 0.3807142857142857 0.4266666666666667 0.029285714285714286 0.02666666666666667
1 0.38571428571428573 0.41904761904761906 0.030714285714285715 0.023809523809523808
1 0.44642857142857145 0.4180952380952381 0.023571428571428573 0.02857142857142857
1 0.4564285714285714 0.4257142857142857 0.019285714285714285 0.02857142857142857
1 0.5757142857142857 0.35714285714285715 0.015714285714285715 0.022857142857142857
1 0.6078571428571429 0.35523809523809524 0.007142857142857143 0.010476190476190476
1 0.6228571428571429 0.36952380952380953 0.027857142857142858 0.02095238095238095
1 0.6385714285714286 0.3628571428571429 0.012142857142857143 0.022857142857142857
1 0.6571428571428571 0.3647619047619048 0.010714285714285714 0.024761904761904763
1 0.6671428571428571 0.3647619047619048 0.01 0.023809523809523808
1 0.6757142857142857 0.3676190476190476 0.0064285714285714285 0.011428571428571429
1 0.64 0.3476190476190476 0.011428571428571429 0.007619047619047619
1 0.7092857142857143 0.35714285714285715 0.01 0.009523809523809525
1 0.75 0.36857142857142855 0.014285714285714285 0.011428571428571429
1 0.6521428571428571 0.3485714285714286 0.012142857142857143 0.007619047619047619
1 0.03142857142857143 0.40095238095238095 0.017142857142857144 0.009523809523809525
1 0.03642857142857143 0.3933333333333333 0.017857142857142856 0.009523809523809525
1 0.041428571428571426 0.38857142857142857 0.014285714285714285 0.007619047619047619
1 0.060714285714285714 0.3838095238095238 0.014285714285714285 0.008571428571428572
1 0.06857142857142857 0.3780952380952381 0.017142857142857144 0.009523809523809525
1 0.15 0.3352380952380952 0.010714285714285714 0.008571428571428572
1 0.20285714285714285 0.2980952380952381 0.009285714285714286 0.008571428571428572
1 0.12857142857142856 0.3466666666666667 0.012857142857142857 0.010476190476190476
1 0.13785714285714284 0.3438095238095238 0.011428571428571429 0.008571428571428572
1 0.14357142857142857 0.33904761904761904 0.010714285714285714 0.008571428571428572
1 0.15571428571428572 0.3323809523809524 0.009285714285714286 0.007619047619047619
1 0.16214285714285714 0.32761904761904764 0.010714285714285714 0.008571428571428572
1 0.2907142857142857 0.26666666666666666 0.007142857142857143 0.006666666666666667
1 0.3342857142857143 0.23333333333333334 0.009285714285714286 0.006666666666666667
1 0.5828571428571429 0.04 0.0064285714285714285 0.009523809523809525
1 0.6071428571428571 0.021904761904761906 0.004285714285714286 0.008571428571428572
