1 0.29958246346555323 0.4424860853432282 0.013569937369519834 0.026901669758812616
1 0.33402922755741127 0.6280148423005566 0.026096033402922755 0.05287569573283859
1 0.30845511482254695 0.39239332096474955 0.010438413361169102 0.025974025974025976
1 0.3162839248434238 0.42115027829313545 0.012526096033402923 0.017625231910946195
1 0.3094989561586639 0.3395176252319109 0.007828810020876827 0.013914656771799629
1 0.29227557411273486 0.336734693877551 0.008872651356993737 0.013914656771799629
1 0.30532359081419624 0.30890538033395176 0.005741127348643006 0.01020408163265306
1 0.24164926931106473 0.3395176252319109 0.007306889352818371 0.013914656771799629
1 0.22494780793319416 0.3423005565862709 0.009394572025052192 0.021335807050092765
1 0.22860125260960334 0.33116883116883117 0.009916492693110648 0.015769944341372914
1 0.23225469728601253 0.310760667903525 0.008872651356993737 0.015769944341372914
1 0.23434237995824633 0.2949907235621521 0.006784968684759917 0.008348794063079777
1 0.2881002087682672 0.2894248608534323 0.007306889352818371 0.013914656771799629
1 0.2802713987473904 0.3246753246753247 0.006263048016701462 0.015769944341372914
1 0.2980167014613779 0.2690166975881262 0.005741127348643006 0.011131725417439703
1 0.2886221294363257 0.27736549165120594 0.006263048016701462 0.01020408163265306
1 0.2860125260960334 0.2541743970315399 0.005741127348643006 0.0027829313543599257
1 0.2964509394572025 0.25139146567717996 0.0036534446764091857 0.008348794063079777
1 0.2839248434237996 0.24582560296846012 0.006784968684759917 0.00927643784786642
1 0.2938413361169102 0.24304267161410018 0.005219206680584551 0.012059369202226345
1 0.2807933194154488 0.22263450834879406 0.005219206680584551 0.00927643784786642
1 0.28653444676409184 0.22448979591836735 0.0026096033402922755 0.0055658627087198514
0 0.5626304801670147 0.6651205936920223 0.008872651356993737 0.0074211502782931356
0 0.5365344467640919 0.6159554730983302 0.005741127348643006 0.011131725417439703
0 0.5365344467640919 0.5992578849721707 0.005219206680584551 0.008348794063079777
0 0.49582463465553234 0.5231910946196661 0.005219206680584551 0.00927643784786642
0 0.453027139874739 0.461038961038961 0.006784968684759917 0.006493506493506494
1 0.5652400835073069 0.6836734693877551 0.008350730688935281 0.01948051948051948
1 0.535490605427975 0.6317254174397031 0.011482254697286013 0.01855287569573284
1 0.5386221294363257 0.6131725417439703 0.007828810020876827 0.01020408163265306
1 0.4963465553235908 0.5380333951762524 0.007306889352818371 0.012987012987012988
1 0.4535490605427975 0.47217068645640076 0.007306889352818371 0.008348794063079777
1 0.2896659707724426 0.19851576994434136 0.010960334029227558 0.012059369202226345
1 0.3048016701461378 0.21521335807050093 0.0036534446764091857 0.008348794063079777
0 0.21085594989561587 0.5742115027829313 0.007306889352818371 0.012987012987012988
1 0.21137787056367432 0.5853432282003711 0.008350730688935281 0.014842300556586271
0 0.21816283924843424 0.9090909090909091 0.010960334029227558 0.012059369202226345
1 0.2186847599164927 0.9313543599257885 0.014091858037578288 0.022263450834879406
