0 0.022857142857142857 0.6228571428571429 0.024285714285714285 0.022857142857142857
0 0.05 0.6161904761904762 0.027857142857142858 0.023809523809523808
0 0.04285714285714286 0.6009523809523809 0.030714285714285715 0.025714285714285714
0 0.07071428571428572 0.6028571428571429 0.029285714285714286 0.029523809523809525
0 0.075 0.5857142857142857 0.029285714285714286 0.024761904761904763
0 0.1357142857142857 0.6323809523809524 0.022857142857142857 0.024761904761904763
0 0.15357142857142858 0.68 0.029285714285714286 0.024761904761904763
0 0.2785714285714286 0.7047619047619048 0.024285714285714285 0.023809523809523808
0 0.265 0.7247619047619047 0.022857142857142857 0.023809523809523808
0 0.2671428571428571 0.7504761904761905 0.02642857142857143 0.02666666666666667
0 0.015714285714285715 0.5828571428571429 0.03142857142857143 0.03238095238095238
0 0.12857142857142856 0.5123809523809524 0.024285714285714285 0.023809523809523808
0 0.14214285714285715 0.49047619047619045 0.02642857142857143 0.025714285714285714
0 0.18785714285714286 0.5676190476190476 0.020714285714285713 0.023809523809523808
0 0.19428571428571428 0.5533333333333333 0.017857142857142856 0.025714285714285714
0 0.19 0.5380952380952381 0.019285714285714285 0.023809523809523808
0 0.23 0.49142857142857144 0.020714285714285713 0.025714285714285714
0 0.27714285714285714 0.49047619047619045 0.017142857142857144 0.023809523809523808
0 0.27714285714285714 0.4857142857142857 0.014285714285714285 0.021904761904761906
1 0.19857142857142857 0.44857142857142857 0.03428571428571429 0.03428571428571429
0 0.195 0.44095238095238093 0.017142857142857144 0.02095238095238095
0 0.18928571428571428 0.44571428571428573 0.019285714285714285 0.018095238095238095
0 0.18642857142857142 0.44952380952380955 0.02142857142857143 0.021904761904761906
0 0.2042857142857143 0.3838095238095238 0.012857142857142857 0.02857142857142857
0 0.195 0.38285714285714284 0.015 0.02666666666666667
0 0.33285714285714285 0.5904761904761905 0.018571428571428572 0.024761904761904763
0 0.335 0.5647619047619048 0.017857142857142856 0.029523809523809525
0 0.32285714285714284 0.5552380952380952 0.015 0.025714285714285714
0 0.32357142857142857 0.5419047619047619 0.017142857142857144 0.02761904761904762
0 0.3892857142857143 0.4980952380952381 0.011428571428571429 0.023809523809523808
0 0.3892857142857143 0.4895238095238095 0.013571428571428571 0.022857142857142857
0 0.4185714285714286 0.5533333333333333 0.015714285714285715 0.025714285714285714
0 0.4307142857142857 0.5723809523809524 0.017142857142857144 0.030476190476190476
0 0.42142857142857143 0.5838095238095238 0.020714285714285713 0.025714285714285714
0 0.42 0.6676190476190477 0.018571428571428572 0.024761904761904763
0 0.5457142857142857 0.6742857142857143 0.023571428571428573 0.025714285714285714
0 0.5471428571428572 0.7047619047619048 0.017142857142857144 0.023809523809523808
0 0.545 0.7371428571428571 0.014285714285714285 0.01904761904761905
0 0.6235714285714286 0.8504761904761905 0.015714285714285715 0.030476190476190476
0 0.6057142857142858 0.9142857142857143 0.015 0.03333333333333333
0 0.6035714285714285 0.9923809523809524 0.012857142857142857 0.014285714285714285
0 0.5171428571428571 0.32857142857142857 0.009285714285714286 0.02857142857142857
0 0.5457142857142857 0.28285714285714286 0.015714285714285715 0.02761904761904762
1 0.5442857142857143 0.2866666666666667 0.02142857142857143 0.024761904761904763
0 0.6285714285714286 0.2571428571428571 0.013571428571428571 0.02857142857142857
0 0.5185714285714286 0.16380952380952382 0.0064285714285714285 0.02857142857142857
0 0.6478571428571429 0.2123809523809524 0.012142857142857143 0.03238095238095238
0 0.6492857142857142 0.20095238095238097 0.007857142857142858 0.024761904761904763
0 0.6778571428571428 0.19523809523809524 0.010714285714285714 0.030476190476190476
0 0.6835714285714286 0.29333333333333333 0.015 0.03333333333333333
0 0.6864285714285714 0.26095238095238094 0.014285714285714285 0.029523809523809525
0 0.6842857142857143 0.2542857142857143 0.014285714285714285 0.029523809523809525
0 0.7392857142857143 0.2980952380952381 0.014285714285714285 0.03142857142857143
0 0.7264285714285714 0.29428571428571426 0.014285714285714285 0.02761904761904762
0 0.7285714285714285 0.28 0.011428571428571429 0.025714285714285714
0 0.715 0.28285714285714286 0.015 0.02857142857142857
0 0.7092857142857143 0.2752380952380952 0.012857142857142857 0.02857142857142857
0 0.7064285714285714 0.26761904761904765 0.012857142857142857 0.030476190476190476
0 0.7614285714285715 0.24 0.014285714285714285 0.03142857142857143
0 0.7721428571428571 0.2523809523809524 0.017857142857142856 0.030476190476190476
0 0.79 0.2638095238095238 0.019285714285714285 0.030476190476190476
0 0.8207142857142857 0.20666666666666667 0.017142857142857144 0.025714285714285714
0 0.8228571428571428 0.21523809523809523 0.013571428571428571 0.025714285714285714
0 0.8242857142857143 0.22285714285714286 0.014285714285714285 0.025714285714285714
0 0.8314285714285714 0.23047619047619047 0.015 0.02666666666666667
0 0.8357142857142857 0.23714285714285716 0.015714285714285715 0.02857142857142857
0 0.8557142857142858 0.24952380952380954 0.015714285714285715 0.022857142857142857
0 0.8535714285714285 0.24571428571428572 0.015714285714285715 0.02761904761904762
0 0.8892857142857142 0.8276190476190476 0.039285714285714285 0.02666666666666667
0 0.8821428571428571 0.7552380952380953 0.03142857142857143 0.023809523809523808
0 0.8814285714285715 0.741904761904762 0.03214285714285714 0.02
0 0.9307142857142857 0.719047619047619 0.03785714285714286 0.024761904761904763
0 0.9428571428571428 0.76 0.03142857142857143 0.02
0 0.9714285714285714 0.8114285714285714 0.03642857142857143 0.022857142857142857
0 0.9657142857142857 0.7914285714285715 0.035 0.023809523809523808
0 0.9642857142857143 0.7123809523809523 0.03214285714285714 0.02761904761904762
