1 0.9817327766179541 0.826530612244898 0.03496868475991649 0.10482374768089053
1 0.9039665970772442 0.8042671614100185 0.0360125260960334 0.10018552875695733
1 0.8345511482254697 0.7838589981447124 0.04540709812108559 0.08905380333951762
1 0.7938413361169102 0.7773654916512059 0.031837160751565764 0.09833024118738404
1 0.5944676409185804 0.738404452690167 0.027139874739039668 0.09925788497217068
1 0.453027139874739 0.7050092764378478 0.030793319415448852 0.09369202226345083
1 0.3011482254697286 0.7087198515769945 0.03966597077244259 0.08719851576994433
1 0.33402922755741127 0.5547309833024119 0.031837160751565764 0.08163265306122448
1 0.3794363256784969 0.30612244897959184 0.043319415448851775 0.041743970315398886
1 0.2150313152400835 0.5324675324675324 0.031315240083507306 0.07699443413729128
1 0.1873695198329854 0.5278293135435993 0.037578288100208766 0.08256029684601113
1 0.4618997912317328 0.18831168831168832 0.016179540709812108 0.041743970315398886
1 0.4660751565762004 0.14471243042671614 0.019832985386221295 0.04730983302411874
1 0.38413361169102295 0.12523191094619665 0.029749478079331943 0.026901669758812616
1 0.38883089770354906 0.10575139146567718 0.033402922755741124 0.025974025974025976
1 0.4034446764091858 0.06771799628942486 0.03549060542797495 0.029684601113172542
1 0.418580375782881 0.05009276437847866 0.019832985386221295 0.027829313543599257
1 0.3935281837160752 0.04267161410018553 0.01722338204592902 0.026901669758812616
1 0.3684759916492693 0.05844155844155844 0.02348643006263048 0.029684601113172542
1 0.36116910229645094 0.07606679035250463 0.03496868475991649 0.0287569573283859
