1 0.93 0.8038095238095239 0.06142857142857143 0.037142857142857144
1 0.9821428571428571 0.8257142857142857 0.035 0.037142857142857144
1 0.9264285714285714 0.699047619047619 0.04214285714285714 0.021904761904761906
1 0.24214285714285713 0.9047619047619048 0.03857142857142857 0.07047619047619047
1 0.015714285714285715 0.9580952380952381 0.03214285714285714 0.06476190476190476
