0 0.081419624217119 0.49907235621521334 0.004697286012526096 0.02040816326530612
0 0.10125260960334029 0.48886827458256027 0.005219206680584551 0.023191094619666047
0 0.1174321503131524 0.4897959183673469 0.006784968684759917 0.023191094619666047
0 0.07463465553235908 0.6484230055658627 0.012004175365344467 0.04916512059369202
0 0.2546972860125261 0.5936920222634509 0.014091858037578288 0.04359925788497217
0 0.43580375782881003 0.5853432282003711 0.009916492693110648 0.03432282003710575
0 0.6163883089770354 0.6020408163265306 0.005741127348643006 0.036178107606679034
0 0.6216075156576201 0.5974025974025974 0.008872651356993737 0.03432282003710575
0 0.5589770354906054 0.6743970315398887 0.012526096033402923 0.0640074211502783
0 0.5501043841336117 0.6706864564007421 0.009394572025052192 0.061224489795918366
0 0.5673277661795407 0.6660482374768089 0.009916492693110648 0.05844155844155844
0 0.5793319415448852 0.6716141001855288 0.009916492693110648 0.05009276437847866
0 0.5855949895615866 0.6614100185528757 0.008872651356993737 0.03896103896103896
0 0.5887265135699373 0.6743970315398887 0.010960334029227558 0.06215213358070501
0 0.8048016701461378 0.637291280148423 0.009916492693110648 0.03525046382189239
0 0.7061586638830898 0.5862708719851577 0.006784968684759917 0.03896103896103896
0 0.6711899791231732 0.6066790352504638 0.008350730688935281 0.04267161410018553
0 0.7776617954070981 0.5074211502782932 0.009394572025052192 0.022263450834879406
0 0.767223382045929 0.47866419294990725 0.004697286012526096 0.015769944341372914
0 0.7760960334029228 0.474025974025974 0.005219206680584551 0.017625231910946195
0 0.7729645093945721 0.4675324675324675 0.0026096033402922755 0.013914656771799629
0 0.7776617954070981 0.4647495361781076 0.0026096033402922755 0.00927643784786642
0 0.7818371607515657 0.461038961038961 0.0036534446764091857 0.014842300556586271
1 0.7818371607515657 0.46289424860853434 0.0041753653444676405 0.012059369202226345
