1 0.9671189979123174 0.7922077922077922 0.029227557411273485 0.09369202226345083
1 0.9639874739039666 0.6873840445269017 0.030793319415448852 0.08070500927643785
1 0.965553235908142 0.5955473098330241 0.030271398747390398 0.0686456400742115
1 0.9613778705636743 0.5315398886827458 0.026096033402922755 0.0686456400742115
0 0.6069937369519833 0.5602968460111317 0.008350730688935281 0.027829313543599257
0 0.5600208768267223 0.5658627087198516 0.007306889352818371 0.025974025974025976
1 0.5015657620041754 0.6261595547309833 0.04801670146137787 0.05287569573283859
1 0.528705636743215 0.536178107606679 0.04697286012526096 0.059369202226345084
1 0.5495824634655533 0.4749536178107607 0.020876826722338204 0.05844155844155844
0 0.5234864300626305 0.17717996289424862 0.005219206680584551 0.01948051948051948
1 0.5882045929018789 0.10018552875695733 0.029227557411273485 0.025974025974025976
1 0.5866388308977035 0.08534322820037106 0.030793319415448852 0.02504638218923933
0 0.16858037578288101 0.25510204081632654 0.004697286012526096 0.01948051948051948
1 0.19102296450939457 0.12523191094619665 0.029749478079331943 0.03525046382189239
1 0.2139874739039666 0.05658627087198516 0.02661795407098121 0.03432282003710575
1 0.19363256784968685 0.038033395176252316 0.025052192066805846 0.03153988868274583
1 0.17640918580375783 0.03432282003710575 0.025052192066805846 0.0287569573283859
1 0.162839248434238 0.03153988868274583 0.024530271398747392 0.03153988868274583
1 0.13778705636743216 0.09554730983302412 0.029749478079331943 0.030612244897959183
