1 0.2621428571428571 0.7380952380952381 0.11071428571428571 0.06190476190476191
1 0.2664285714285714 0.6847619047619048 0.09428571428571429 0.05904761904761905
1 0.27714285714285714 0.6371428571428571 0.09357142857142857 0.05619047619047619
1 0.2885714285714286 0.5514285714285714 0.06857142857142857 0.04666666666666667
1 0.2914285714285714 0.33714285714285713 0.032857142857142856 0.06095238095238095
1 0.3264285714285714 0.3314285714285714 0.030714285714285715 0.05904761904761905
1 0.36142857142857143 0.3314285714285714 0.029285714285714286 0.06190476190476191
1 0.24 0.32857142857142857 0.035 0.06
1 0.25285714285714284 0.4066666666666667 0.05714285714285714 0.04285714285714286
1 0.3407142857142857 0.10666666666666667 0.045714285714285714 0.0380952380952381
1 0.2935714285714286 0.44666666666666666 0.035 0.06380952380952382
1 0.3464285714285714 0.38571428571428573 0.07071428571428572 0.06380952380952382
0 0.3107142857142857 0.5961904761904762 0.017857142857142856 0.03142857142857143
0 0.3485714285714286 0.8142857142857143 0.02214285714285714 0.0419047619047619
0 0.32571428571428573 0.7733333333333333 0.016428571428571428 0.03619047619047619
0 0.3292857142857143 0.6323809523809524 0.012857142857142857 0.029523809523809525
0 0.34785714285714286 0.719047619047619 0.015714285714285715 0.03333333333333333
0 0.3485714285714286 0.7657142857142857 0.014285714285714285 0.040952380952380955
0 0.32785714285714285 0.7076190476190476 0.014285714285714285 0.035238095238095235
0 0.3292857142857143 0.6076190476190476 0.012857142857142857 0.025714285714285714
0 0.34285714285714286 0.6066666666666667 0.012857142857142857 0.03333333333333333
0 0.3535714285714286 0.6457142857142857 0.011428571428571429 0.03619047619047619
0 0.3692857142857143 0.6066666666666667 0.011428571428571429 0.035238095238095235
0 0.355 0.6066666666666667 0.012142857142857143 0.03619047619047619
1 0.43142857142857144 0.7161904761904762 0.04285714285714286 0.11904761904761904
1 0.4564285714285714 0.5961904761904762 0.041428571428571426 0.1180952380952381
1 0.43214285714285716 0.5133333333333333 0.03357142857142857 0.0838095238095238
1 0.4764285714285714 0.5238095238095238 0.016428571428571428 0.040952380952380955
1 0.4407142857142857 0.4342857142857143 0.03214285714285714 0.07523809523809524
1 0.43857142857142856 0.36666666666666664 0.02857142857142857 0.06095238095238095
1 0.44 0.30666666666666664 0.027857142857142858 0.06
1 0.43785714285714283 0.2523809523809524 0.023571428571428573 0.05047619047619047
1 0.44142857142857145 0.2123809523809524 0.020714285714285713 0.047619047619047616
1 0.43785714285714283 0.16857142857142857 0.027857142857142858 0.045714285714285714
1 0.4207142857142857 0.14285714285714285 0.02857142857142857 0.040952380952380955
0 0.48642857142857143 0.12571428571428572 0.005 0.024761904761904763
1 0.39714285714285713 0.06 0.04214285714285714 0.02857142857142857
1 0.36142857142857143 0.045714285714285714 0.05714285714285714 0.03333333333333333
0 0.5514285714285714 0.2342857142857143 0.008571428571428572 0.022857142857142857
1 0.5414285714285715 0.21523809523809523 0.017142857142857144 0.024761904761904763
1 0.5357142857142857 0.1580952380952381 0.024285714285714285 0.03619047619047619
1 0.5685714285714286 0.13523809523809524 0.041428571428571426 0.07238095238095238
1 0.65 0.06095238095238095 0.03857142857142857 0.023809523809523808
1 0.5435714285714286 0.28476190476190477 0.024285714285714285 0.05333333333333334
1 0.5521428571428572 0.3438095238095238 0.03214285714285714 0.05619047619047619
1 0.5628571428571428 0.40476190476190477 0.03214285714285714 0.06095238095238095
1 0.5764285714285714 0.4828571428571429 0.032857142857142856 0.06761904761904762
1 0.5857142857142857 0.5676190476190476 0.04214285714285714 0.08761904761904762
1 0.5978571428571429 0.6666666666666666 0.04642857142857143 0.1019047619047619
1 0.6035714285714285 0.7885714285714286 0.047857142857142855 0.12666666666666668
1 0.6364285714285715 0.9495238095238095 0.062142857142857146 0.10095238095238095
1 0.7171428571428572 0.08 0.035 0.021904761904761906
1 0.8157142857142857 0.08666666666666667 0.04071428571428572 0.02761904761904762
0 0.7885714285714286 0.0980952380952381 0.007142857142857143 0.02095238095238095
0 0.8235714285714286 0.10476190476190476 0.009285714285714286 0.02
0 0.8742857142857143 0.13714285714285715 0.011428571428571429 0.023809523809523808
0 0.8678571428571429 0.13428571428571429 0.009285714285714286 0.02095238095238095
1 0.8407142857142857 0.1361904761904762 0.05 0.035238095238095235
1 0.8535714285714285 0.15333333333333332 0.04071428571428572 0.025714285714285714
1 0.8564285714285714 0.16857142857142857 0.05071428571428571 0.024761904761904763
0 0.9407142857142857 0.1295238095238095 0.007857142857142858 0.021904761904761906
0 0.9442857142857143 0.1180952380952381 0.008571428571428572 0.018095238095238095
1 0.92 0.011428571428571429 0.03357142857142857 0.023809523809523808
0 0.9578571428571429 0.13047619047619047 0.01 0.02095238095238095
1 0.9671428571428572 0.14285714285714285 0.05071428571428571 0.030476190476190476
1 0.9771428571428571 0.15428571428571428 0.045 0.02857142857142857
1 0.9764285714285714 0.15333333333333332 0.045 0.02857142857142857
1 0.21571428571428572 0.3314285714285714 0.02642857142857143 0.05238095238095238
