1 0.125 0.27411167512690354 0.005714285714285714 0.012690355329949238
0 0.15714285714285714 0.15736040609137056 0.002857142857142857 0.012690355329949238
0 0.18071428571428572 0.15609137055837563 0.0035714285714285713 0.012690355329949238
0 0.17714285714285713 0.1484771573604061 0.004285714285714286 0.013959390862944163
0 0.15142857142857144 0.2626903553299492 0.005714285714285714 0.017766497461928935
0 0.18285714285714286 0.13578680203045684 0.005 0.015228426395939087
0 0.15357142857142858 0.25253807106598986 0.005 0.011421319796954314
1 0.21 0.2626903553299492 0.019285714285714285 0.04568527918781726
1 0.21071428571428572 0.16878172588832488 0.020714285714285713 0.048223350253807105
1 0.25785714285714284 0.0532994923857868 0.015714285714285715 0.03299492385786802
1 0.25642857142857145 0.26776649746192893 0.025 0.06091370558375635
1 0.15071428571428572 0.5126903553299492 0.024285714285714285 0.05456852791878172
1 0.4514285714285714 0.01649746192893401 0.029285714285714286 0.03426395939086294
1 0.12142857142857143 0.6357868020304569 0.009285714285714286 0.031725888324873094
0 0.12 0.6357868020304569 0.009285714285714286 0.015228426395939087
1 0.5571428571428572 0.9048223350253807 0.07214285714285715 0.1649746192893401
1 0.5407142857142857 0.6954314720812182 0.02 0.06852791878172589
1 0.5342857142857143 0.5862944162436549 0.017142857142857144 0.06472081218274112
1 0.5085714285714286 0.5482233502538071 0.012142857142857143 0.05964467005076142
1 0.5171428571428571 0.3147208121827411 0.016428571428571428 0.04314720812182741
1 0.5028571428571429 0.46446700507614214 0.015 0.06091370558375635
1 0.5307142857142857 0.47715736040609136 0.017857142857142856 0.08121827411167512
1 0.5264285714285715 0.399746192893401 0.014285714285714285 0.0532994923857868
1 0.49785714285714283 0.39213197969543145 0.014285714285714285 0.05456852791878172
1 0.7414285714285714 0.09898477157360407 0.02642857142857143 0.04187817258883249
1 0.615 0.01015228426395939 0.010714285714285714 0.02030456852791878
1 0.49142857142857144 0.30456852791878175 0.017142857142857144 0.05456852791878172
1 0.48857142857142855 0.03934010152284264 0.023571428571428573 0.03553299492385787
1 0.49357142857142855 0.01649746192893401 0.027142857142857142 0.03299492385786802
