1 0.49947807933194155 0.8562152133580705 0.06471816283924843 0.0862708719851577
1 0.49478079331941544 0.7736549165120594 0.04645093945720251 0.08534322820037106
1 0.5600208768267223 0.725417439703154 0.055845511482254695 0.07142857142857142
1 0.430062630480167 0.8302411873840445 0.0662839248434238 0.09090909090909091
1 0.5292275574112735 0.7040816326530612 0.013569937369519834 0.03153988868274583
0 0.44154488517745305 0.7217068645640075 0.008872651356993737 0.036178107606679034
0 0.4525052192066806 0.7161410018552876 0.005741127348643006 0.03710575139146568
0 0.6492693110647182 0.5769944341372912 0.006263048016701462 0.02411873840445269
0 0.6534446764091858 0.5816326530612245 0.007306889352818371 0.014842300556586271
0 0.6503131524008351 0.5695732838589982 0.006263048016701462 0.021335807050092765
1 0.6737995824634656 0.5714285714285714 0.01722338204592902 0.01948051948051948
1 0.38883089770354906 0.800556586270872 0.009394572025052192 0.036178107606679034
1 0.708768267223382 0.5927643784786641 0.05167014613778706 0.0640074211502783
1 0.7995824634655533 0.5046382189239332 0.027139874739039668 0.05009276437847866
1 0.7531315240083507 0.5510204081632653 0.038622129436325675 0.05009276437847866
0 0.7505219206680585 0.5139146567717996 0.009394572025052192 0.023191094619666047
1 0.8888308977035491 0.6159554730983302 0.09551148225469729 0.14100185528756956
1 0.9733820459290188 0.5352504638218923 0.0511482254697286 0.13172541743970315
1 0.4144050104384134 0.7838589981447124 0.02244258872651357 0.03525046382189239
1 0.7160751565762005 0.5500927643784786 0.01826722338204593 0.023191094619666047
1 0.7301670146137788 0.5343228200371057 0.012004175365344467 0.030612244897959183
1 0.8188935281837161 0.46660482374768086 0.018789144050104383 0.023191094619666047
1 0.8079331941544885 0.4536178107606679 0.009394572025052192 0.025974025974025976
1 0.5464509394572025 0.6920222634508348 0.01722338204592902 0.029684601113172542
1 0.40396659707724425 0.7903525046382189 0.013048016701461378 0.032467532467532464
1 0.7072025052192067 0.5176252319109462 0.014091858037578288 0.014842300556586271
1 0.7165970772442589 0.512987012987013 0.007828810020876827 0.012987012987012988
0 0.7082463465553236 0.5074211502782932 0.006263048016701462 0.014842300556586271
0 0.7160751565762005 0.5009276437847866 0.006263048016701462 0.016697588126159554
1 0.1884133611691023 0.9387755102040817 0.04123173277661795 0.04638218923933209
1 0.1847599164926931 0.924860853432282 0.037578288100208766 0.04823747680890538
