0 0.7955 0.7966666666666666 0.014 0.030666666666666665
1 0.6685 0.7233333333333334 0.024 0.027333333333333334
1 0.6345 0.67 0.02 0.018666666666666668
1 0.6245 0.66 0.0265 0.026
1 0.7215 0.8166666666666667 0.093 0.07466666666666667
1 0.5795 0.9586666666666667 0.0705 0.082
0 0.5845 0.586 0.009 0.03133333333333333
1 0.564 0.6266666666666667 0.037 0.04733333333333333
1 0.379 0.954 0.054 0.09133333333333334
1 0.3685 0.7593333333333333 0.0525 0.078
1 0.359 0.678 0.033 0.06
1 0.3505 0.606 0.0265 0.038
1 0.351 0.5593333333333333 0.024 0.03866666666666667
1 0.443 0.556 0.0255 0.034
1 0.4875 0.5233333333333333 0.03 0.028
1 0.4655 0.492 0.023 0.022
1 0.408 0.4593333333333333 0.02 0.024
1 0.4605 0.452 0.0195 0.021333333333333333
1 0.5205 0.538 0.0165 0.015333333333333332
1 0.3775 0.582 0.017 0.03933333333333333
0 0.545 0.496 0.0035 0.018666666666666668
0 0.5435 0.5106666666666667 0.0065 0.02266666666666667
0 0.5405 0.5173333333333333 0.0055 0.022
0 0.534 0.514 0.008 0.021333333333333333
0 0.526 0.516 0.0065 0.020666666666666667
1 0.5065 0.5106666666666667 0.0145 0.017333333333333333
0 0.503 0.49466666666666664 0.005 0.020666666666666667
1 0.492 0.49333333333333335 0.0145 0.037333333333333336
1 0.4815 0.496 0.0055 0.016
0 0.482 0.49333333333333335 0.006 0.018666666666666668
1 0.5255 0.44333333333333336 0.0245 0.022
0 0.5315 0.444 0.0065 0.011333333333333334
0 0.5405 0.44733333333333336 0.0045 0.016666666666666666
1 0.4925 0.6153333333333333 0.044 0.056
0 0.1785 0.6046666666666667 0.0085 0.02666666666666667
1 0.2175 0.49266666666666664 0.0065 0.014666666666666666
0 0.2175 0.4866666666666667 0.006 0.014
1 0.218 0.618 0.047 0.02666666666666667
1 0.2255 0.5933333333333334 0.055 0.03
1 0.228 0.5766666666666667 0.054 0.029333333333333333
1 0.243 0.534 0.045 0.027333333333333334
1 0.2485 0.5133333333333333 0.0395 0.028
1 0.246 0.37866666666666665 0.017 0.011333333333333334
1 0.2635 0.376 0.011 0.013333333333333334
1 0.2435 0.392 0.0125 0.014
1 0.2845 0.382 0.023 0.02
1 0.281 0.398 0.0295 0.013333333333333334
1 0.274 0.4186666666666667 0.027 0.013333333333333334
1 0.275 0.4106666666666667 0.027 0.012666666666666666
1 0.2775 0.404 0.026 0.016
1 0.268 0.42933333333333334 0.026 0.020666666666666667
1 0.306 0.47533333333333333 0.016 0.032
1 0.3655 0.47533333333333333 0.0045 0.015333333333333332
0 0.3655 0.4713333333333333 0.0055 0.016
1 0.3465 0.49333333333333335 0.017 0.03666666666666667
1 0.344 0.4653333333333333 0.015 0.027333333333333334
1 0.3435 0.44866666666666666 0.0165 0.021333333333333333
1 0.339 0.43 0.0145 0.019333333333333334
1 0.339 0.418 0.015 0.017333333333333333
1 0.336 0.384 0.0105 0.013333333333333334
1 0.3355 0.4026666666666667 0.0155 0.02666666666666667
0 0.3865 0.4046666666666667 0.005 0.014
1 0.3565 0.398 0.004 0.009333333333333334
0 0.3565 0.3953333333333333 0.004 0.01
1 0.3355 0.36666666666666664 0.01 0.011333333333333334
1 0.3365 0.3586666666666667 0.0095 0.012666666666666666
1 0.339 0.3426666666666667 0.014 0.01
1 0.3305 0.33866666666666667 0.0065 0.008666666666666666
1 0.3385 0.336 0.0065 0.007333333333333333
1 0.335 0.32 0.0065 0.008666666666666666
0 0.343 0.31933333333333336 0.0015 0.008666666666666666
1 0.364 0.324 0.012 0.009333333333333334
0 0.361 0.31933333333333336 0.001 0.007333333333333333
1 0.3435 0.304 0.0055 0.006
1 0.35 0.314 0.0055 0.006666666666666667
0 0.358 0.3 0.002 0.006
0 0.355 0.308 0.0025 0.006
1 0.3585 0.30733333333333335 0.0085 0.006
1 0.3735 0.32066666666666666 0.007 0.008
0 0.4515 0.396 0.0035 0.013333333333333334
0 0.4455 0.39666666666666667 0.003 0.014
0 0.444 0.428 0.0035 0.015333333333333332
1 0.4415 0.42733333333333334 0.025 0.016
1 0.434 0.4186666666666667 0.026 0.016
1 0.4195 0.4166666666666667 0.023 0.015333333333333332
1 0.434 0.4073333333333333 0.0265 0.016
1 0.4275 0.4033333333333333 0.03 0.015333333333333332
1 0.4265 0.398 0.0265 0.015333333333333332
1 0.4205 0.3933333333333333 0.027 0.015333333333333332
1 0.4165 0.39 0.025 0.014
1 0.414 0.37933333333333336 0.0255 0.011333333333333334
1 0.406 0.372 0.018 0.012666666666666666
1 0.406 0.368 0.021 0.011333333333333334
0 0.4025 0.3606666666666667 0.0035 0.010666666666666666
1 0.4075 0.362 0.0085 0.009333333333333334
1 0.3895 0.35733333333333334 0.017 0.012666666666666666
1 0.3955 0.35333333333333333 0.0205 0.010666666666666666
1 0.3865 0.3526666666666667 0.0165 0.008
1 0.3865 0.3473333333333333 0.015 0.009333333333333334
1 0.379 0.3453333333333333 0.0075 0.009333333333333334
1 0.388 0.34 0.0165 0.009333333333333334
1 0.3885 0.33666666666666667 0.015 0.008666666666666666
1 0.3825 0.336 0.0125 0.009333333333333334
1 0.3835 0.3293333333333333 0.008 0.006666666666666667
1 0.385 0.33266666666666667 0.006 0.007333333333333333
