0 0.28714285714285714 0.6752380952380952 0.02642857142857143 0.06571428571428571
0 0.09642857142857143 0.3057142857142857 0.020714285714285713 0.049523809523809526
1 0.09214285714285714 0.3171428571428571 0.03142857142857143 0.0419047619047619
0 0.14785714285714285 0.23809523809523808 0.017142857142857144 0.03238095238095238
0 0.26071428571428573 0.12761904761904763 0.009285714285714286 0.02095238095238095
0 0.2671428571428571 0.12285714285714286 0.009285714285714286 0.035238095238095235
0 0.2571428571428571 0.07904761904761905 0.016428571428571428 0.03428571428571429
0 0.2857142857142857 0.04666666666666667 0.007142857142857143 0.024761904761904763
0 0.2357142857142857 0.06 0.011428571428571429 0.03238095238095238
1 0.6107142857142858 0.4142857142857143 0.12071428571428572 0.07047619047619047
1 0.4907142857142857 0.5380952380952381 0.05928571428571429 0.13142857142857142
1 0.3357142857142857 0.5371428571428571 0.07714285714285714 0.13523809523809524
1 0.8328571428571429 0.39714285714285713 0.05357142857142857 0.03238095238095238
1 0.77 0.5295238095238095 0.08357142857142857 0.14285714285714285
1 0.9221428571428572 0.5333333333333333 0.09428571428571429 0.14952380952380953
1 0.09428571428571429 0.5752380952380952 0.16071428571428573 0.0838095238095238
1 0.23785714285714285 0.8866666666666667 0.15214285714285714 0.2257142857142857
1 0.5707142857142857 0.9019047619047619 0.085 0.1961904761904762
1 0.6764285714285714 0.900952380952381 0.10142857142857142 0.1980952380952381
0 0.41214285714285714 0.2019047619047619 0.02 0.039047619047619046
0 0.4857142857142857 0.2857142857142857 0.01 0.037142857142857144
