0 0.45785714285714285 0.7923809523809524 0.009285714285714286 0.014285714285714285
1 0.5528571428571428 0.7571428571428571 0.015 0.017142857142857144
0 0.6085714285714285 0.7342857142857143 0.007857142857142858 0.013333333333333334
0 0.6057142857142858 0.6571428571428571 0.016428571428571428 0.01904761904761905
1 0.5442857142857143 0.6533333333333333 0.019285714285714285 0.03238095238095238
0 0.4521428571428571 0.7066666666666667 0.007142857142857143 0.007619047619047619
0 0.4135714285714286 0.6933333333333334 0.007857142857142858 0.011428571428571429
0 0.4157142857142857 0.6838095238095238 0.0064285714285714285 0.008571428571428572
0 0.5271428571428571 0.6190476190476191 0.009285714285714286 0.011428571428571429
0 0.47285714285714286 0.5961904761904762 0.007142857142857143 0.009523809523809525
0 0.45357142857142857 0.5466666666666666 0.005 0.005714285714285714
0 0.44142857142857145 0.5323809523809524 0.005714285714285714 0.007619047619047619
0 0.53 0.5333333333333333 0.0064285714285714285 0.014285714285714285
0 0.54 0.5419047619047619 0.007142857142857143 0.009523809523809525
1 0.59 0.5923809523809523 0.06714285714285714 0.07047619047619047
1 0.6085714285714285 0.5457142857142857 0.065 0.07428571428571429
1 0.2835714285714286 0.7323809523809524 0.022857142857142857 0.014285714285714285
0 0.3221428571428571 0.660952380952381 0.009285714285714286 0.012380952380952381
0 0.3142857142857143 0.6276190476190476 0.012142857142857143 0.012380952380952381
0 0.30357142857142855 0.6228571428571429 0.01 0.009523809523809525
0 0.28714285714285714 0.62 0.014285714285714285 0.009523809523809525
0 0.3 0.5723809523809524 0.012857142857142857 0.013333333333333334
0 0.2742857142857143 0.5123809523809524 0.01 0.010476190476190476
0 0.2542857142857143 0.4742857142857143 0.011428571428571429 0.013333333333333334
0 0.35714285714285715 0.4123809523809524 0.011428571428571429 0.013333333333333334
0 0.23142857142857143 0.8676190476190476 0.012857142857142857 0.014285714285714285
0 0.2671428571428571 0.8466666666666667 0.012857142857142857 0.015238095238095238
0 0.27785714285714286 0.8180952380952381 0.012857142857142857 0.013333333333333334
0 0.23285714285714285 0.8438095238095238 0.015714285714285715 0.02095238095238095
0 0.175 0.7895238095238095 0.017857142857142856 0.018095238095238095
0 0.18 0.7038095238095238 0.015714285714285715 0.015238095238095238
1 0.11285714285714285 0.7771428571428571 0.012142857142857143 0.035238095238095235
0 0.11071428571428571 0.7476190476190476 0.017142857142857144 0.01904761904761905
0 0.05785714285714286 0.8752380952380953 0.018571428571428572 0.015238095238095238
0 0.5328571428571428 0.23809523809523808 0.009285714285714286 0.01619047619047619
1 0.5692857142857143 0.2123809523809524 0.04928571428571429 0.08190476190476191
0 0.5192857142857142 0.12857142857142856 0.013571428571428571 0.02
