1 0.153 0.93 0.162 0.13933333333333334
1 0.558 0.968 0.18 0.05733333333333333
1 0.6155 0.6753333333333333 0.175 0.14133333333333334
1 0.2435 0.536 0.1015 0.08266666666666667
1 0.288 0.486 0.099 0.06866666666666667
1 0.356 0.4713333333333333 0.0975 0.06666666666666667
1 0.41 0.43933333333333335 0.093 0.06933333333333333
1 0.6695 0.316 0.083 0.043333333333333335
1 0.659 0.3473333333333333 0.0915 0.044
1 0.452 0.37333333333333335 0.0985 0.058666666666666666
1 0.6555 0.38133333333333336 0.1015 0.07466666666666667
1 0.6765 0.24733333333333332 0.0705 0.03866666666666667
1 0.6835 0.17333333333333334 0.0565 0.03866666666666667
1 0.6715 0.216 0.062 0.03933333333333333
1 0.695 0.158 0.0525 0.027333333333333334
1 0.6935 0.146 0.0465 0.02
1 0.69 0.134 0.059 0.024
1 0.702 0.10466666666666667 0.035 0.026
1 0.6885 0.11733333333333333 0.0435 0.026
1 0.69 0.09466666666666666 0.043 0.024666666666666667
1 0.544 0.17866666666666667 0.0365 0.024
1 0.581 0.15933333333333333 0.014 0.018
1 0.597 0.059333333333333335 0.0245 0.020666666666666667
1 0.61 0.042666666666666665 0.0255 0.022
1 0.6 0.035333333333333335 0.027 0.023333333333333334
1 0.711 0.06133333333333333 0.0425 0.022
1 0.7005 0.046 0.0405 0.017333333333333333
1 0.6335 0.023333333333333334 0.013 0.017333333333333333
1 0.7005 0.034666666666666665 0.029 0.018666666666666668
1 0.7095 0.02266666666666667 0.0265 0.013333333333333334
1 0.7085 0.015333333333333332 0.0295 0.012666666666666666
1 0.7085 0.008 0.0325 0.014
1 0.653 0.018666666666666668 0.014 0.020666666666666667
1 0.6415 0.01 0.0155 0.013333333333333334
1 0.9775 0.15933333333333333 0.045 0.086
1 0.916 0.05333333333333334 0.025 0.032
