1 0.885 0.9371428571428572 0.07 0.12476190476190477
0 0.7135714285714285 0.5257142857142857 0.023571428571428573 0.04
1 0.6642857142857143 0.5333333333333333 0.030714285714285715 0.049523809523809526
0 0.6685714285714286 0.5257142857142857 0.023571428571428573 0.03238095238095238
1 0.6835714285714286 0.46285714285714286 0.03642857142857143 0.05238095238095238
1 0.6385714285714286 0.41523809523809524 0.03571428571428571 0.05238095238095238
0 0.6371428571428571 0.41333333333333333 0.02214285714285714 0.04285714285714286
1 0.4928571428571429 0.44285714285714284 0.10071428571428571 0.13714285714285715
1 0.4257142857142857 0.32095238095238093 0.08285714285714285 0.12476190476190477
1 0.37214285714285716 0.22285714285714286 0.07285714285714286 0.11333333333333333
0 0.335 0.04666666666666667 0.012142857142857143 0.04380952380952381
1 0.21857142857142858 0.035238095238095235 0.07428571428571429 0.07047619047619047
