1 0.15928571428571428 0.9304761904761905 0.2935714285714286 0.1380952380952381
1 0.21571428571428572 0.8438095238095238 0.2342857142857143 0.14476190476190476
1 0.2785714285714286 0.7495238095238095 0.20357142857142857 0.1219047619047619
1 0.32357142857142857 0.6485714285714286 0.13714285714285715 0.08571428571428572
1 0.3385714285714286 0.6133333333333333 0.1492857142857143 0.07238095238095238
1 0.36857142857142855 0.518095238095238 0.11428571428571428 0.05619047619047619
1 0.3657142857142857 0.5009523809523809 0.10785714285714286 0.05238095238095238
1 0.5492857142857143 0.4533333333333333 0.04642857142857143 0.0380952380952381
1 0.5107142857142857 0.4266666666666667 0.047142857142857146 0.0419047619047619
1 0.4764285714285714 0.4123809523809524 0.035 0.03428571428571429
1 0.44785714285714284 0.40190476190476193 0.035 0.03142857142857143
1 0.4042857142857143 0.43714285714285717 0.032857142857142856 0.037142857142857144
1 0.37642857142857145 0.4180952380952381 0.027857142857142858 0.03428571428571429
1 0.32857142857142857 0.3819047619047619 0.035 0.03619047619047619
1 0.45571428571428574 0.38095238095238093 0.039285714285714285 0.02761904761904762
1 0.3342857142857143 0.35904761904761906 0.04071428571428572 0.02761904761904762
1 0.27214285714285713 0.37523809523809526 0.032857142857142856 0.03428571428571429
