0 0.3557142857142857 0.3028571428571429 0.007857142857142858 0.02
0 0.3407142857142857 0.30095238095238097 0.01 0.01619047619047619
0 0.3364285714285714 0.32 0.007857142857142858 0.018095238095238095
0 0.3242857142857143 0.3438095238095238 0.013571428571428571 0.014285714285714285
0 0.275 0.23238095238095238 0.010714285714285714 0.017142857142857144
0 0.2914285714285714 0.22 0.008571428571428572 0.01904761904761905
0 0.2757142857142857 0.19238095238095237 0.01 0.02
0 0.8414285714285714 0.26285714285714284 0.010714285714285714 0.015238095238095238
0 0.8528571428571429 0.24952380952380954 0.009285714285714286 0.017142857142857144
0 0.9228571428571428 0.3219047619047619 0.011428571428571429 0.01619047619047619
0 0.7835714285714286 0.3180952380952381 0.009285714285714286 0.018095238095238095
0 0.7792857142857142 0.31238095238095237 0.010714285714285714 0.017142857142857144
0 0.7271428571428571 0.2761904761904762 0.012142857142857143 0.018095238095238095
0 0.7514285714285714 0.2180952380952381 0.010714285714285714 0.018095238095238095
0 0.7614285714285715 0.19714285714285715 0.010714285714285714 0.018095238095238095
0 0.6714285714285714 0.12380952380952381 0.0064285714285714285 0.008571428571428572
0 0.8785714285714286 0.06857142857142857 0.010714285714285714 0.02
0 0.7842857142857143 0.08 0.008571428571428572 0.017142857142857144
0 0.9028571428571428 0.06 0.011428571428571429 0.017142857142857144
0 0.915 0.035238095238095235 0.013571428571428571 0.017142857142857144
0 0.895 0.05047619047619047 0.008571428571428572 0.018095238095238095
0 0.8671428571428571 0.05523809523809524 0.010714285714285714 0.018095238095238095
0 0.8571428571428571 0.037142857142857144 0.011428571428571429 0.02095238095238095
0 0.8992857142857142 0.03333333333333333 0.01 0.018095238095238095
0 0.8828571428571429 0.045714285714285714 0.01 0.017142857142857144
0 0.8871428571428571 0.04380952380952381 0.01 0.018095238095238095
0 0.9028571428571428 0.02666666666666667 0.009285714285714286 0.014285714285714285
0 0.8564285714285714 0.03428571428571429 0.009285714285714286 0.017142857142857144
0 0.8721428571428571 0.010476190476190476 0.010714285714285714 0.021904761904761906
0 0.9728571428571429 0.3038095238095238 0.016428571428571428 0.013333333333333334
0 0.29214285714285715 0.96 0.016428571428571428 0.013333333333333334
0 0.35214285714285715 0.5752380952380952 0.014285714285714285 0.015238095238095238
1 0.35 0.5723809523809524 0.008571428571428572 0.02666666666666667
0 0.9764285714285714 0.4380952380952381 0.017142857142857144 0.01619047619047619
0 0.9764285714285714 0.4514285714285714 0.013571428571428571 0.010476190476190476
0 0.99 0.44285714285714284 0.017857142857142856 0.014285714285714285
0 0.9764285714285714 0.4828571428571429 0.01 0.008571428571428572
