1 0.40714285714285714 0.8076190476190476 0.03642857142857143 0.10952380952380952
1 0.36642857142857144 0.5742857142857143 0.016428571428571428 0.039047619047619046
1 0.575 0.5904761904761905 0.03785714285714286 0.02761904761904762
1 0.4064285714285714 0.4847619047619048 0.02214285714285714 0.06476190476190476
1 0.44785714285714284 0.3485714285714286 0.010714285714285714 0.018095238095238095
1 0.41285714285714287 0.3361904761904762 0.005714285714285714 0.013333333333333334
1 0.99 0.31238095238095237 0.019285714285714285 0.01619047619047619
0 0.7242857142857143 0.29619047619047617 0.005714285714285714 0.012380952380952381
0 0.7021428571428572 0.29428571428571426 0.005 0.013333333333333334
