1 0.6247390396659708 0.5983302411873841 0.048538622129436326 0.05380333951762523
1 0.5302713987473904 0.3423005565862709 0.03549060542797495 0.039888682745825604
1 0.4551148225469729 0.24860853432282004 0.021920668058455117 0.027829313543599257
1 0.4154488517745303 0.17625231910946196 0.015135699373695199 0.02411873840445269
1 0.11586638830897704 0.23747680890538034 0.03444676409185804 0.027829313543599257
1 0.09394572025052192 0.1836734693877551 0.026096033402922755 0.02504638218923933
1 0.011482254697286013 0.24768089053803338 0.02244258872651357 0.036178107606679034
0 0.1069937369519833 0.13821892393320964 0.004697286012526096 0.016697588126159554
0 0.24425887265135698 0.150278293135436 0.0041753653444676405 0.013914656771799629
0 0.18006263048016702 0.08998144712430427 0.0041753653444676405 0.0074211502782931356
0 0.20876826722338204 0.07606679035250463 0.004697286012526096 0.012987012987012988
0 0.3298538622129436 0.07421150278293136 0.0041753653444676405 0.014842300556586271
0 0.3465553235908142 0.05473098330241188 0.0036534446764091857 0.008348794063079777
0 0.5036534446764092 0.2662337662337662 0.0041753653444676405 0.013914656771799629
1 0.10751565762004175 0.1437847866419295 0.007828810020876827 0.008348794063079777
1 0.18006263048016702 0.09647495361781076 0.008350730688935281 0.006493506493506494
1 0.20876826722338204 0.08441558441558442 0.006784968684759917 0.00927643784786642
1 0.24425887265135698 0.15955473098330242 0.0041753653444676405 0.006493506493506494
1 0.34603340292275575 0.061224489795918366 0.0036534446764091857 0.0074211502782931356
1 0.5046972860125261 0.2727272727272727 0.008350730688935281 0.012059369202226345
0 0.47390396659707723 0.23562152133580705 0.0036534446764091857 0.012059369202226345
0 0.4707724425887265 0.23098330241187384 0.0041753653444676405 0.012059369202226345
1 0.4723382045929019 0.24025974025974026 0.013048016701461378 0.014842300556586271
