1 0.4228571428571429 0.7906091370558376 0.03142857142857143 0.05964467005076142
1 0.5442857142857143 0.6065989847715736 0.027142857142857142 0.050761421319796954
1 0.43714285714285717 0.5558375634517766 0.027142857142857142 0.048223350253807105
1 0.5064285714285715 0.8020304568527918 0.03142857142857143 0.06091370558375635
1 0.43714285714285717 0.39086294416243655 0.020714285714285713 0.03553299492385787
1 0.325 0.4606598984771574 0.018571428571428572 0.031725888324873094
1 0.315 0.4289340101522843 0.018571428571428572 0.031725888324873094
1 0.36 0.5710659898477157 0.019285714285714285 0.04060913705583756
1 0.3892857142857143 0.8248730964467005 0.02642857142857143 0.06218274111675127
1 0.4992857142857143 0.9378172588832487 0.04928571428571429 0.06218274111675127
1 0.43642857142857144 0.9631979695431472 0.03857142857142857 0.07106598984771574
1 0.32571428571428573 0.5558375634517766 0.02 0.03680203045685279
1 0.295 0.434010152284264 0.016428571428571428 0.03426395939086294
1 0.3057142857142857 0.3248730964467005 0.027142857142857142 0.021573604060913704
1 0.3992857142857143 0.7208121827411168 0.023571428571428573 0.0532994923857868
1 0.235 0.33375634517766495 0.03 0.02284263959390863
1 0.18857142857142858 0.33375634517766495 0.03214285714285714 0.024111675126903553
1 0.1992857142857143 0.3223350253807107 0.027857142857142858 0.02030456852791878
1 0.14214285714285715 0.3616751269035533 0.029285714285714286 0.021573604060913704
1 0.02 0.3934010152284264 0.03142857142857143 0.021573604060913704
1 0.37642857142857145 0.3769035532994924 0.02142857142857143 0.03426395939086294
1 0.38357142857142856 0.6472081218274112 0.020714285714285713 0.048223350253807105
1 0.615 0.618020304568528 0.02857142857142857 0.044416243654822336
1 0.8407142857142857 0.6218274111675127 0.030714285714285715 0.02918781725888325
1 0.8414285714285714 0.5558375634517766 0.03428571428571429 0.04314720812182741
1 0.36428571428571427 0.5 0.02 0.03807106598984772
1 0.3485714285714286 0.44923857868020306 0.025 0.05456852791878172
1 0.335 0.41878172588832485 0.013571428571428571 0.02918781725888325
1 0.3442857142857143 0.5228426395939086 0.02142857142857143 0.04060913705583756
1 0.26785714285714285 0.2880710659898477 0.020714285714285713 0.021573604060913704
1 0.2742857142857143 0.25 0.01 0.024111675126903553
1 0.26142857142857145 0.19035532994923857 0.013571428571428571 0.021573604060913704
1 0.7385714285714285 0.682741116751269 0.041428571428571426 0.04949238578680203
0 0.8 0.9695431472081218 0.009285714285714286 0.03426395939086294
0 0.7578571428571429 0.9137055837563451 0.008571428571428572 0.030456852791878174
0 0.7578571428571429 0.9035532994923858 0.005714285714285714 0.025380710659898477
0 0.7607142857142857 0.9010152284263959 0.0064285714285714285 0.027918781725888325
0 0.9171428571428571 0.6205583756345178 0.009285714285714286 0.025380710659898477
0 0.8635714285714285 0.6522842639593909 0.01 0.02030456852791878
0 0.86 0.6421319796954315 0.0064285714285714285 0.01903553299492386
0 0.935 0.5888324873096447 0.004285714285714286 0.025380710659898477
0 0.9457142857142857 0.583756345177665 0.005714285714285714 0.01649746192893401
0 0.6178571428571429 0.6776649746192893 0.007142857142857143 0.025380710659898477
0 0.5857142857142857 0.6065989847715736 0.007142857142857143 0.025380710659898477
0 0.5 0.45558375634517767 0.0064285714285714285 0.01649746192893401
