1 0.6564285714285715 0.9263959390862944 0.052142857142857144 0.1434010152284264
1 0.3871428571428571 0.4149746192893401 0.05142857142857143 0.1700507614213198
1 0.3514285714285714 0.09263959390862944 0.03857142857142857 0.10532994923857868
1 0.2807142857142857 0.6967005076142132 0.039285714285714285 0.10913705583756345
1 0.3271428571428571 0.5888324873096447 0.03214285714285714 0.08629441624365482
1 0.4307142857142857 0.32614213197969544 0.02642857142857143 0.08375634517766498
1 0.5764285714285714 0.4403553299492386 0.029285714285714286 0.10406091370558376
1 0.5457142857142857 0.7195431472081218 0.035 0.1218274111675127
1 0.5264285714285715 0.22842639593908629 0.023571428571428573 0.06725888324873096
1 0.5607142857142857 0.1065989847715736 0.022857142857142857 0.08248730964467005
1 0.4357142857142857 0.0850253807106599 0.022857142857142857 0.06345177664974619
1 0.9164285714285715 0.5444162436548223 0.10214285714285715 0.22715736040609136
