0 0.41285714285714287 0.979047619047619 0.010714285714285714 0.01904761904761905
0 0.4257142857142857 0.9828571428571429 0.011428571428571429 0.014285714285714285
1 0.5557142857142857 0.9533333333333334 0.015 0.0380952380952381
0 0.5557142857142857 0.9561904761904761 0.012142857142857143 0.022857142857142857
0 0.5628571428571428 0.9742857142857143 0.009285714285714286 0.02095238095238095
0 0.4542857142857143 0.8961904761904762 0.009285714285714286 0.021904761904761906
0 0.43 0.9028571428571428 0.010714285714285714 0.013333333333333334
0 0.40214285714285714 0.9019047619047619 0.01 0.02
1 0.4157142857142857 0.9476190476190476 0.02857142857142857 0.01619047619047619
1 0.3757142857142857 0.9828571428571429 0.010714285714285714 0.03428571428571429
0 0.43142857142857144 0.839047619047619 0.02 0.015238095238095238
0 0.41214285714285714 0.8276190476190476 0.011428571428571429 0.017142857142857144
0 0.4114285714285714 0.8047619047619048 0.012142857142857143 0.015238095238095238
0 0.46285714285714286 0.7685714285714286 0.010714285714285714 0.018095238095238095
1 0.545 0.7914285714285715 0.03142857142857143 0.08190476190476191
0 0.5785714285714286 0.8266666666666667 0.013571428571428571 0.014285714285714285
1 0.3842857142857143 0.741904761904762 0.018571428571428572 0.01619047619047619
1 0.38642857142857145 0.7247619047619047 0.018571428571428572 0.012380952380952381
1 0.38857142857142857 0.7085714285714285 0.020714285714285713 0.015238095238095238
0 0.4785714285714286 0.540952380952381 0.007857142857142858 0.011428571428571429
1 0.5864285714285714 0.7114285714285714 0.03 0.017142857142857144
1 0.59 0.6828571428571428 0.02142857142857143 0.015238095238095238
1 0.5864285714285714 0.62 0.014285714285714285 0.02666666666666667
1 0.6028571428571429 0.6019047619047619 0.019285714285714285 0.017142857142857144
1 0.5907142857142857 0.5980952380952381 0.023571428571428573 0.024761904761904763
1 0.5871428571428572 0.5866666666666667 0.02214285714285714 0.018095238095238095
0 0.5942857142857143 0.56 0.014285714285714285 0.013333333333333334
0 0.6092857142857143 0.5704761904761905 0.008571428571428572 0.011428571428571429
0 0.4657142857142857 0.4866666666666667 0.007857142857142858 0.015238095238095238
0 0.5214285714285715 0.47904761904761906 0.012142857142857143 0.013333333333333334
0 0.5542857142857143 0.49714285714285716 0.010714285714285714 0.015238095238095238
0 0.5471428571428572 0.49047619047619045 0.011428571428571429 0.015238095238095238
0 0.6028571428571429 0.539047619047619 0.010714285714285714 0.012380952380952381
0 0.47714285714285715 0.44 0.010714285714285714 0.010476190476190476
1 0.43142857142857144 0.45714285714285713 0.05357142857142857 0.03142857142857143
1 0.43714285714285717 0.41333333333333333 0.06571428571428571 0.035238095238095235
1 0.4328571428571429 0.35523809523809524 0.06428571428571428 0.06190476190476191
1 0.5835714285714285 0.4066666666666667 0.030714285714285715 0.09142857142857143
1 0.6157142857142858 0.3923809523809524 0.012142857142857143 0.029523809523809525
1 0.6228571428571429 0.39904761904761904 0.010714285714285714 0.025714285714285714
0 0.33214285714285713 0.4095238095238095 0.012142857142857143 0.009523809523809525
1 0.5064285714285715 0.3352380952380952 0.010714285714285714 0.04
0 0.5057142857142857 0.3342857142857143 0.01 0.018095238095238095
0 0.5457142857142857 0.31333333333333335 0.010714285714285714 0.015238095238095238
0 0.5242857142857142 0.2704761904761905 0.01 0.025714285714285714
0 0.5792857142857143 0.3047619047619048 0.007857142857142858 0.015238095238095238
0 0.5871428571428572 0.3047619047619048 0.007142857142857143 0.017142857142857144
1 0.6578571428571428 0.28 0.027142857142857142 0.024761904761904763
1 0.6664285714285715 0.19238095238095237 0.05928571428571429 0.04
1 0.4064285714285714 0.23714285714285716 0.041428571428571426 0.09047619047619047
1 0.4307142857142857 0.17238095238095238 0.04285714285714286 0.08285714285714285
0 0.465 0.19142857142857142 0.005714285714285714 0.01619047619047619
0 0.47214285714285714 0.1895238095238095 0.007142857142857143 0.011428571428571429
0 0.47214285714285714 0.17714285714285713 0.008571428571428572 0.012380952380952381
0 0.5171428571428571 0.17523809523809525 0.010714285714285714 0.02
0 0.48928571428571427 0.11428571428571428 0.01 0.022857142857142857
0 0.5428571428571428 0.15142857142857144 0.01 0.01904761904761905
0 0.545 0.1295238095238095 0.009285714285714286 0.015238095238095238
0 0.5685714285714286 0.1295238095238095 0.008571428571428572 0.010476190476190476
1 0.3842857142857143 0.13904761904761906 0.03357142857142857 0.09142857142857143
1 0.285 0.36952380952380953 0.060714285714285714 0.0380952380952381
1 0.30357142857142855 0.44095238095238093 0.05142857142857143 0.047619047619047616
1 0.24428571428571427 0.26761904761904765 0.06785714285714285 0.0380952380952381
1 0.3157142857142857 0.2695238095238095 0.060714285714285714 0.040952380952380955
1 0.04642857142857143 0.43142857142857144 0.03571428571428571 0.07809523809523809
1 0.025714285714285714 0.259047619047619 0.05142857142857143 0.0419047619047619
