1 0.46 0.428 0.0035 0.004
1 0.4715 0.43266666666666664 0.0035 0.004666666666666667
1 0.473 0.438 0.0035 0.004
1 0.4615 0.436 0.003 0.004
1 0.4935 0.456 0.0045 0.006
1 0.4635 0.4533333333333333 0.0045 0.005333333333333333
1 0.4655 0.4633333333333333 0.009 0.019333333333333334
1 0.501 0.4706666666666667 0.012 0.018
1 0.5065 0.484 0.0065 0.008
1 0.4655 0.5086666666666667 0.0095 0.019333333333333334
1 0.4745 0.5666666666666667 0.012 0.02266666666666667
1 0.4765 0.6073333333333333 0.0145 0.028666666666666667
1 0.4895 0.5706666666666667 0.013 0.018666666666666668
1 0.495 0.5906666666666667 0.015 0.020666666666666667
1 0.497 0.61 0.016 0.02266666666666667
1 0.5415 0.566 0.0165 0.015333333333333332
1 0.538 0.5526666666666666 0.013 0.013333333333333334
1 0.5295 0.5346666666666666 0.011 0.013333333333333334
1 0.534 0.5433333333333333 0.012 0.014
1 0.5785 0.502 0.0195 0.01
1 0.5785 0.5166666666666667 0.0185 0.01
1 0.6245 0.4766666666666667 0.017 0.008666666666666666
0 0.633 0.4766666666666667 0.0015 0.008
1 0.6365 0.4846666666666667 0.0175 0.008666666666666666
1 0.646 0.48933333333333334 0.0185 0.008666666666666666
0 0.656 0.5006666666666667 0.003 0.010666666666666666
1 0.677 0.49266666666666664 0.0125 0.01
1 0.6885 0.494 0.013 0.01
1 0.695 0.508 0.0165 0.012
0 0.702 0.5073333333333333 0.0025 0.010666666666666666
0 0.7025 0.502 0.0025 0.012
1 0.709 0.5113333333333333 0.0145 0.012
1 0.715 0.49666666666666665 0.012 0.012
1 0.732 0.49866666666666665 0.011 0.010666666666666666
1 0.742 0.49933333333333335 0.009 0.01
1 0.7585 0.5033333333333333 0.0115 0.010666666666666666
1 0.772 0.5026666666666667 0.0095 0.011333333333333334
1 0.79 0.502 0.009 0.01
1 0.8105 0.5066666666666667 0.015 0.01
1 0.8265 0.5073333333333333 0.0125 0.010666666666666666
1 0.879 0.508 0.025 0.012
1 0.923 0.5053333333333333 0.0265 0.011333333333333334
1 0.9395 0.5233333333333333 0.0265 0.014666666666666666
1 0.9875 0.5213333333333333 0.025 0.012
1 0.988 0.5033333333333333 0.0225 0.011333333333333334
1 0.992 0.49733333333333335 0.0155 0.009333333333333334
0 0.9585 0.546 0.0045 0.01
1 0.931 0.6313333333333333 0.043 0.022
1 0.869 0.6333333333333333 0.041 0.024
0 0.8665 0.6086666666666667 0.0045 0.017333333333333333
0 0.8605 0.61 0.006 0.018666666666666668
0 0.8155 0.558 0.0035 0.007333333333333333
0 0.71 0.5486666666666666 0.0045 0.009333333333333334
0 0.7155 0.552 0.0025 0.010666666666666666
0 0.728 0.5526666666666666 0.004 0.008666666666666666
0 0.735 0.554 0.0045 0.009333333333333334
0 0.7525 0.5513333333333333 0.007 0.011333333333333334
0 0.7555 0.5473333333333333 0.003 0.008666666666666666
0 0.8125 0.5706666666666667 0.005 0.016666666666666666
0 0.6495 0.5426666666666666 0.0035 0.014666666666666666
1 0.724 0.6353333333333333 0.008 0.016
0 0.724 0.6306666666666667 0.007 0.022
0 0.6355 0.9573333333333334 0.0125 0.03933333333333333
1 0.6345 0.9633333333333334 0.0165 0.04733333333333333
1 0.31 0.6366666666666667 0.037 0.03266666666666666
0 0.3035 0.6533333333333333 0.007 0.021333333333333333
0 0.317 0.65 0.006 0.022
1 0.173 0.7166666666666667 0.057 0.032
1 0.0295 0.8913333333333333 0.059 0.05266666666666667
1 0.055 0.6626666666666666 0.048 0.027333333333333334
0 0.0065 0.664 0.0075 0.021333333333333333
0 0.856 0.504 0.003 0.011333333333333334
1 0.601 0.49 0.016 0.009333333333333334
1 0.5945 0.4866666666666667 0.0185 0.008
1 0.591 0.48333333333333334 0.0165 0.008
1 0.58 0.47533333333333333 0.015 0.008666666666666666
1 0.5735 0.4693333333333333 0.019 0.007333333333333333
1 0.5785 0.4713333333333333 0.015 0.007333333333333333
1 0.61 0.4706666666666667 0.0165 0.008666666666666666
1 0.607 0.4666666666666667 0.0155 0.006666666666666667
1 0.6005 0.4646666666666667 0.0145 0.01
1 0.5925 0.458 0.014 0.006666666666666667
1 0.5825 0.452 0.0135 0.005333333333333333
1 0.5655 0.4633333333333333 0.0135 0.006
1 0.561 0.4613333333333333 0.0145 0.007333333333333333
1 0.5795 0.4493333333333333 0.014 0.007333333333333333
1 0.5745 0.44866666666666666 0.0155 0.008
1 0.5705 0.44266666666666665 0.013 0.007333333333333333
