0 0.22285714285714286 0.9114285714285715 0.008571428571428572 0.02095238095238095
0 0.20214285714285715 0.9076190476190477 0.010714285714285714 0.022857142857142857
1 0.22714285714285715 0.9104761904761904 0.02142857142857143 0.03428571428571429
1 0.20357142857142857 0.9047619047619048 0.019285714285714285 0.03333333333333333
1 0.047142857142857146 0.919047619047619 0.095 0.1295238095238095
1 0.5185714285714286 0.38857142857142857 0.05285714285714286 0.0838095238095238
1 0.575 0.32285714285714284 0.022857142857142857 0.03428571428571429
0 0.555 0.6238095238095238 0.007857142857142858 0.015238095238095238
0 0.605 0.5266666666666666 0.0035714285714285713 0.011428571428571429
0 0.5314285714285715 0.6723809523809524 0.005714285714285714 0.014285714285714285
1 0.5292857142857142 0.680952380952381 0.011428571428571429 0.015238095238095238
1 0.5557142857142857 0.6276190476190476 0.012857142857142857 0.023809523809523808
1 0.6021428571428571 0.5314285714285715 0.007142857142857143 0.013333333333333334
1 0.6078571428571429 0.44571428571428573 0.012142857142857143 0.012380952380952381
1 0.6092857142857143 0.47333333333333333 0.010714285714285714 0.017142857142857144
1 0.6607142857142857 0.41333333333333333 0.007857142857142858 0.010476190476190476
0 0.6085714285714285 0.44285714285714284 0.007142857142857143 0.014285714285714285
0 0.6092857142857143 0.4666666666666667 0.0064285714285714285 0.017142857142857144
0 0.6621428571428571 0.4076190476190476 0.005 0.015238095238095238
0 0.6128571428571429 0.5266666666666666 0.005 0.013333333333333334
0 0.27071428571428574 0.5466666666666666 0.005 0.02095238095238095
0 0.2807142857142857 0.5495238095238095 0.005714285714285714 0.02
0 0.6707142857142857 0.3380952380952381 0.005714285714285714 0.013333333333333334
0 0.6892857142857143 0.3342857142857143 0.005714285714285714 0.011428571428571429
1 0.6878571428571428 0.34095238095238095 0.0064285714285714285 0.014285714285714285
1 0.67 0.34476190476190477 0.007142857142857143 0.013333333333333334
1 0.6114285714285714 0.2714285714285714 0.017142857142857144 0.022857142857142857
1 0.645 0.2257142857142857 0.016428571428571428 0.01904761904761905
1 0.6671428571428571 0.20285714285714285 0.02142857142857143 0.03142857142857143
0 0.62 0.24761904761904763 0.005 0.010476190476190476
0 0.68 0.18476190476190477 0.0035714285714285713 0.007619047619047619
0 0.7042857142857143 0.1580952380952381 0.002857142857142857 0.006666666666666667
1 0.7042857142857143 0.16095238095238096 0.004285714285714286 0.006666666666666667
1 0.6792857142857143 0.18761904761904763 0.004285714285714286 0.008571428571428572
1 0.62 0.25333333333333335 0.005714285714285714 0.007619047619047619
0 0.6328571428571429 0.16 0.002857142857142857 0.010476190476190476
1 0.645 0.15142857142857144 0.011428571428571429 0.015238095238095238
1 0.6714285714285714 0.14 0.010714285714285714 0.013333333333333334
0 0.6957142857142857 0.1523809523809524 0.004285714285714286 0.010476190476190476
0 0.6921428571428572 0.1523809523809524 0.002857142857142857 0.011428571428571429
0 0.6892857142857143 0.1580952380952381 0.002142857142857143 0.009523809523809525
0 0.6871428571428572 0.1619047619047619 0.0035714285714285713 0.010476190476190476
0 0.6807142857142857 0.15047619047619049 0.004285714285714286 0.010476190476190476
1 0.6671428571428571 0.1295238095238095 0.012857142857142857 0.01619047619047619
1 0.6921428571428572 0.13714285714285715 0.011428571428571429 0.01619047619047619
1 0.7178571428571429 0.11523809523809524 0.008571428571428572 0.014285714285714285
1 0.7257142857142858 0.10952380952380952 0.008571428571428572 0.012380952380952381
1 0.7964285714285714 0.11142857142857143 0.004285714285714286 0.009523809523809525
0 0.7957142857142857 0.10952380952380952 0.002142857142857143 0.005714285714285714
0 0.7228571428571429 0.08952380952380952 0.002142857142857143 0.008571428571428572
1 0.8135714285714286 0.07333333333333333 0.009285714285714286 0.015238095238095238
1 0.8357142857142857 0.035238095238095235 0.007857142857142858 0.012380952380952381
1 0.8521428571428571 0.1180952380952381 0.010714285714285714 0.011428571428571429
1 0.8628571428571429 0.08857142857142856 0.014285714285714285 0.007619047619047619
1 0.865 0.08095238095238096 0.013571428571428571 0.005714285714285714
1 0.8271428571428572 0.03619047619047619 0.007142857142857143 0.007619047619047619
1 0.775 0.04 0.025 0.014285714285714285
0 0.7771428571428571 0.1838095238095238 0.004285714285714286 0.013333333333333334
1 0.9571428571428572 0.13047619047619047 0.020714285714285713 0.012380952380952381
