0 0.11071428571428571 0.42095238095238097 0.035 0.05047619047619047
0 0.4521428571428571 0.40095238095238095 0.017142857142857144 0.04285714285714286
0 0.6135714285714285 0.24666666666666667 0.017142857142857144 0.039047619047619046
0 0.41214285714285714 0.18 0.015 0.03333333333333333
0 0.4057142857142857 0.14476190476190476 0.015714285714285715 0.035238095238095235
0 0.385 0.15714285714285714 0.013571428571428571 0.03238095238095238
0 0.3221428571428571 0.14857142857142858 0.012857142857142857 0.03142857142857143
0 0.15285714285714286 0.0838095238095238 0.012857142857142857 0.01904761904761905
0 0.2042857142857143 0.11238095238095239 0.009285714285714286 0.022857142857142857
0 0.1957142857142857 0.09047619047619047 0.01 0.023809523809523808
0 0.24928571428571428 0.15904761904761905 0.012857142857142857 0.029523809523809525
0 0.31285714285714283 0.14761904761904762 0.009285714285714286 0.03333333333333333
0 0.20142857142857143 0.11428571428571428 0.008571428571428572 0.021904761904761906
0 0.38857142857142857 0.20666666666666667 0.012142857142857143 0.03428571428571429
0 0.44857142857142857 0.19333333333333333 0.005 0.022857142857142857
0 0.45285714285714285 0.1980952380952381 0.011428571428571429 0.024761904761904763
1 0.45285714285714285 0.20476190476190476 0.018571428571428572 0.02666666666666667
1 0.39071428571428574 0.21142857142857144 0.03428571428571429 0.02761904761904762
0 0.5528571428571428 0.17238095238095238 0.010714285714285714 0.021904761904761906
1 0.5535714285714286 0.18285714285714286 0.018571428571428572 0.023809523809523808
1 0.5042857142857143 0.22666666666666666 0.056428571428571425 0.054285714285714284
0 0.6392857142857142 0.11333333333333333 0.010714285714285714 0.025714285714285714
0 0.6592857142857143 0.21619047619047618 0.012142857142857143 0.03142857142857143
0 0.7085714285714285 0.22285714285714286 0.010714285714285714 0.040952380952380955
0 0.6985714285714286 0.24095238095238095 0.007142857142857143 0.039047619047619046
0 0.6914285714285714 0.24476190476190476 0.008571428571428572 0.039047619047619046
0 0.6835714285714286 0.25142857142857145 0.013571428571428571 0.04476190476190476
0 0.9492857142857143 0.30857142857142855 0.012142857142857143 0.030476190476190476
1 0.945 0.3180952380952381 0.03642857142857143 0.02761904761904762
1 0.8628571428571429 0.3647619047619048 0.2735714285714286 0.14285714285714285
1 0.5035714285714286 0.3161904761904762 0.08714285714285715 0.06380952380952382
1 0.4228571428571429 0.3457142857142857 0.08428571428571428 0.05238095238095238
1 0.3392857142857143 0.26857142857142857 0.06428571428571428 0.05238095238095238
1 0.27071428571428574 0.3638095238095238 0.07071428571428572 0.05904761904761905
1 0.2092857142857143 0.5657142857142857 0.10785714285714286 0.13047619047619047
1 0.21214285714285713 0.21047619047619048 0.05857142857142857 0.0419047619047619
1 0.09642857142857143 0.15047619047619049 0.04857142857142857 0.035238095238095235
1 0.12214285714285714 0.17714285714285713 0.04857142857142857 0.039047619047619046
1 0.12714285714285714 0.2638095238095238 0.05857142857142857 0.05238095238095238
1 0.08071428571428571 0.30095238095238097 0.062142857142857146 0.049523809523809526
1 0.035 0.32666666666666666 0.06928571428571428 0.05619047619047619
1 0.055 0.22857142857142856 0.05785714285714286 0.049523809523809526
1 0.03428571428571429 0.26761904761904765 0.054285714285714284 0.047619047619047616
1 0.015 0.19904761904761906 0.02857142857142857 0.05238095238095238
1 0.02857142857142857 0.08952380952380952 0.05714285714285714 0.06857142857142857
1 0.12857142857142856 0.9238095238095239 0.19857142857142857 0.15142857142857144
0 0.2621428571428571 0.2838095238095238 0.017142857142857144 0.035238095238095235
1 0.26285714285714284 0.2895238095238095 0.03642857142857143 0.03428571428571429
0 0.07642857142857143 0.6685714285714286 0.03642857142857143 0.03619047619047619
1 0.08857142857142856 0.68 0.025714285714285714 0.06380952380952382
0 0.24571428571428572 0.11523809523809524 0.011428571428571429 0.025714285714285714
0 0.4042857142857143 0.06857142857142857 0.010714285714285714 0.024761904761904763
0 0.4542857142857143 0.07523809523809524 0.008571428571428572 0.02666666666666667
0 0.4592857142857143 0.07238095238095238 0.0064285714285714285 0.029523809523809525
0 0.4642857142857143 0.07047619047619047 0.009285714285714286 0.03428571428571429
0 0.4785714285714286 0.08095238095238096 0.009285714285714286 0.029523809523809525
0 0.515 0.0838095238095238 0.007857142857142858 0.025714285714285714
0 0.51 0.08761904761904762 0.009285714285714286 0.022857142857142857
0 0.6207142857142857 0.08476190476190476 0.009285714285714286 0.024761904761904763
