0 0.56 0.8933333333333333 0.005 0.022
0 0.5695 0.84 0.007 0.020666666666666667
0 0.5635 0.8033333333333333 0.007 0.012666666666666666
0 0.627 0.7493333333333333 0.0045 0.017333333333333333
0 0.5915 0.7213333333333334 0.004 0.013333333333333334
0 0.599 0.7193333333333334 0.004 0.013333333333333334
0 0.6305 0.6533333333333333 0.0045 0.012
0 0.6195 0.608 0.003 0.008666666666666666
0 0.628 0.6026666666666667 0.0025 0.008666666666666666
0 0.6105 0.582 0.002 0.008666666666666666
0 0.612 0.5813333333333334 0.0025 0.008666666666666666
0 0.601 0.5953333333333334 0.003 0.009333333333333334
0 0.6425 0.6006666666666667 0.0035 0.008666666666666666
0 0.6475 0.5586666666666666 0.0015 0.007333333333333333
0 0.6495 0.5586666666666666 0.002 0.007333333333333333
0 0.6505 0.5586666666666666 0.002 0.006666666666666667
0 0.6515 0.5626666666666666 0.002 0.006
1 0.6655 0.5266666666666666 0.0105 0.015333333333333332
1 0.6625 0.5173333333333333 0.006 0.008
1 0.669 0.5133333333333333 0.005 0.005333333333333333
1 0.674 0.5073333333333333 0.0075 0.008666666666666666
