0 0.3915 0.958 0.041 0.06466666666666666
0 0.255 0.78 0.0355 0.059333333333333335
0 0.2425 0.9166666666666666 0.025 0.03866666666666667
0 0.215 0.8433333333333334 0.042 0.06266666666666666
0 0.09 0.7766666666666666 0.0525 0.054
0 0.0815 0.8926666666666667 0.05 0.059333333333333335
0 0.281 0.494 0.029 0.064
0 0.113 0.49933333333333335 0.032 0.054
0 0.0855 0.5193333333333333 0.0365 0.06466666666666666
0 0.0765 0.5106666666666667 0.021 0.024
0 0.4685 0.522 0.02 0.06333333333333334
0 0.5595 0.6773333333333333 0.0305 0.06866666666666667
0 0.627 0.464 0.0195 0.05266666666666667
0 0.53 0.5113333333333333 0.0195 0.06266666666666666
0 0.5265 0.498 0.0125 0.03
0 0.5115 0.47733333333333333 0.016 0.06133333333333333
0 0.537 0.4573333333333333 0.014 0.05333333333333334
0 0.9585 0.31533333333333335 0.015 0.037333333333333336
0 0.824 0.36933333333333335 0.018 0.058
0 0.9775 0.32266666666666666 0.033 0.04533333333333334
1 0.1475 0.15866666666666668 0.0875 0.042666666666666665
1 0.1485 0.18733333333333332 0.0945 0.04066666666666666
1 0.1455 0.222 0.1025 0.050666666666666665
1 0.2155 0.14133333333333334 0.0795 0.04133333333333333
1 0.1375 0.10866666666666666 0.036 0.05
1 0.0645 0.13066666666666665 0.049 0.06866666666666667
1 0.0215 0.14666666666666667 0.043 0.052
1 0.041 0.10066666666666667 0.046 0.03133333333333333
1 0.0705 0.064 0.0385 0.042666666666666665
1 0.094 0.02266666666666667 0.0285 0.04533333333333334
1 0.5175 0.22266666666666668 0.0975 0.06666666666666667
1 0.5875 0.26066666666666666 0.064 0.10266666666666667
1 0.6315 0.3413333333333333 0.086 0.096
1 0.428 0.3873333333333333 0.0625 0.126
1 0.617 0.8606666666666667 0.1685 0.2786666666666667
1 0.1215 0.4013333333333333 0.0915 0.098
0 0.3055 0.31066666666666665 0.018 0.029333333333333333
0 0.3645 0.2966666666666667 0.0125 0.03333333333333333
0 0.3645 0.28 0.013 0.027333333333333334
0 0.3645 0.26466666666666666 0.017 0.02266666666666667
0 0.347 0.2733333333333333 0.0145 0.03333333333333333
0 0.4795 0.15933333333333333 0.0125 0.029333333333333333
1 0.4785 0.17 0.0125 0.034
1 0.3425 0.44 0.05 0.03666666666666667
