1 0.17714285714285713 0.9876190476190476 0.062142857142857146 0.024761904761904763
1 0.2864285714285714 0.98 0.027857142857142858 0.04
1 0.4092857142857143 0.9838095238095238 0.025714285714285714 0.03238095238095238
1 0.4785714285714286 0.98 0.025714285714285714 0.039047619047619046
1 0.17857142857142858 0.9142857142857143 0.056428571428571425 0.037142857142857144
1 0.17857142857142858 0.878095238095238 0.055714285714285716 0.035238095238095235
1 0.2892857142857143 0.9142857142857143 0.02642857142857143 0.07142857142857142
1 0.28714285714285714 0.7876190476190477 0.052142857142857144 0.035238095238095235
1 0.18642857142857142 0.7961904761904762 0.056428571428571425 0.03142857142857143
1 0.12571428571428572 0.7342857142857143 0.020714285714285713 0.012380952380952381
1 0.13 0.7142857142857143 0.022857142857142857 0.015238095238095238
1 0.13357142857142856 0.6457142857142857 0.02214285714285714 0.015238095238095238
1 0.13285714285714287 0.6314285714285715 0.025714285714285714 0.012380952380952381
1 0.13285714285714287 0.6123809523809524 0.022857142857142857 0.01904761904761905
1 0.18785714285714286 0.6485714285714286 0.054285714285714284 0.0419047619047619
1 0.195 0.5676190476190476 0.056428571428571425 0.03619047619047619
1 0.29642857142857143 0.6276190476190476 0.05285714285714286 0.03333333333333333
0 0.23642857142857143 0.6295238095238095 0.009285714285714286 0.010476190476190476
0 0.24642857142857144 0.6304761904761905 0.01 0.013333333333333334
1 0.20785714285714285 0.5228571428571429 0.054285714285714284 0.04
1 0.31785714285714284 0.3742857142857143 0.025714285714285714 0.06666666666666667
1 0.32285714285714284 0.3 0.022857142857142857 0.06761904761904762
1 0.10785714285714286 0.3161904761904762 0.05785714285714286 0.03333333333333333
1 0.10928571428571429 0.28095238095238095 0.05857142857142857 0.03333333333333333
1 0.1792857142857143 0.29619047619047617 0.02642857142857143 0.06666666666666667
1 0.22 0.2742857142857143 0.055 0.02857142857142857
1 0.32357142857142857 0.21714285714285714 0.025714285714285714 0.07047619047619047
1 0.22142857142857142 0.18 0.05142857142857143 0.03619047619047619
1 0.10071428571428571 0.18571428571428572 0.055 0.035238095238095235
1 0.09785714285714285 0.14857142857142858 0.052142857142857144 0.02761904761904762
1 0.1742857142857143 0.14857142857142858 0.027142857142857142 0.06380952380952382
1 0.08642857142857142 0.06571428571428571 0.06142857142857143 0.0380952380952381
1 0.21714285714285714 0.09714285714285714 0.05357142857142857 0.037142857142857144
1 0.21928571428571428 0.06 0.05142857142857143 0.03619047619047619
1 0.21714285714285714 0.022857142857142857 0.05857142857142857 0.037142857142857144
1 0.32571428571428573 0.05523809523809524 0.025 0.06666666666666667
1 0.32357142857142857 0.13047619047619047 0.024285714285714285 0.07428571428571429
0 0.5 0.5619047619047619 0.008571428571428572 0.013333333333333334
1 0.5 0.560952380952381 0.007857142857142858 0.024761904761904763
1 0.6235714285714286 0.960952380952381 0.008571428571428572 0.025714285714285714
0 0.6228571428571429 0.9638095238095238 0.007857142857142858 0.013333333333333334
1 0.6907142857142857 0.9542857142857143 0.054285714285714284 0.035238095238095235
0 0.7057142857142857 0.9238095238095239 0.009285714285714286 0.013333333333333334
1 0.7735714285714286 0.8761904761904762 0.012142857142857143 0.029523809523809525
1 0.6 0.8076190476190476 0.03642857142857143 0.07142857142857142
1 0.6164285714285714 0.76 0.02142857142857143 0.0419047619047619
1 0.5942857142857143 0.7352380952380952 0.025714285714285714 0.06666666666666667
1 0.595 0.6542857142857142 0.020714285714285713 0.06190476190476191
1 0.6021428571428571 0.579047619047619 0.022857142857142857 0.06571428571428571
1 0.6192857142857143 0.47333333333333333 0.025 0.058095238095238096
1 0.6114285714285714 0.3923809523809524 0.027142857142857142 0.09428571428571429
0 0.5421428571428571 0.37047619047619046 0.0064285714285714285 0.017142857142857144
1 0.6085714285714285 0.32 0.024285714285714285 0.018095238095238095
1 0.6114285714285714 0.3038095238095238 0.02214285714285714 0.015238095238095238
0 0.625 0.29428571428571426 0.007857142857142858 0.015238095238095238
0 0.6521428571428571 0.19428571428571428 0.007857142857142858 0.014285714285714285
0 0.6328571428571429 0.18571428571428572 0.005714285714285714 0.017142857142857144
1 0.6164285714285714 0.15333333333333332 0.014285714285714285 0.0419047619047619
1 0.6521428571428571 0.7390476190476191 0.011428571428571429 0.023809523809523808
0 0.6528571428571428 0.7380952380952381 0.011428571428571429 0.014285714285714285
1 0.7078571428571429 0.7704761904761904 0.019285714285714285 0.02
1 0.7264285714285714 0.7885714285714286 0.022857142857142857 0.02095238095238095
0 0.7221428571428572 0.741904761904762 0.012142857142857143 0.012380952380952381
1 0.7242857142857143 0.7076190476190476 0.016428571428571428 0.013333333333333334
0 0.6664285714285715 0.41714285714285715 0.012857142857142857 0.01619047619047619
