1 0.3092857142857143 0.8066666666666666 0.07714285714285714 0.12380952380952381
1 0.38142857142857145 0.7057142857142857 0.07142857142857142 0.1
1 0.12785714285714286 0.8657142857142858 0.10928571428571429 0.08571428571428572
1 0.3364285714285714 0.920952380952381 0.056428571428571425 0.09904761904761905
1 0.43 0.6276190476190476 0.06642857142857143 0.09714285714285714
1 0.27785714285714286 0.5247619047619048 0.05857142857142857 0.04857142857142857
1 0.30857142857142855 0.49523809523809526 0.07357142857142857 0.05238095238095238
1 0.32857142857142857 0.43714285714285717 0.06 0.06571428571428571
1 0.39357142857142857 0.4076190476190476 0.06571428571428571 0.045714285714285714
1 0.4957142857142857 0.5295238095238095 0.05285714285714286 0.07047619047619047
1 0.5428571428571428 0.45904761904761904 0.04428571428571428 0.05714285714285714
1 0.49357142857142855 0.2895238095238095 0.047857142857142855 0.025714285714285714
1 0.5171428571428571 0.2619047619047619 0.041428571428571426 0.025714285714285714
1 0.55 0.23333333333333334 0.03857142857142857 0.022857142857142857
1 0.5642857142857143 0.22380952380952382 0.03428571428571429 0.021904761904761906
1 0.58 0.21142857142857144 0.03428571428571429 0.02
1 0.6085714285714285 0.17904761904761904 0.022857142857142857 0.014285714285714285
1 0.6157142857142858 0.1742857142857143 0.024285714285714285 0.017142857142857144
1 0.6228571428571429 0.16380952380952382 0.023571428571428573 0.013333333333333334
1 0.6007142857142858 0.19142857142857142 0.022857142857142857 0.017142857142857144
1 0.59 0.12095238095238095 0.014285714285714285 0.02
1 0.605 0.12285714285714286 0.016428571428571428 0.02
1 0.575 0.12 0.013571428571428571 0.017142857142857144
1 0.6364285714285715 0.1438095238095238 0.02214285714285714 0.014285714285714285
1 0.6471428571428571 0.13428571428571429 0.02 0.013333333333333334
1 0.6592857142857143 0.12666666666666668 0.020714285714285713 0.013333333333333334
1 0.6671428571428571 0.1219047619047619 0.020714285714285713 0.013333333333333334
1 0.5742857142857143 0.40285714285714286 0.03571428571428571 0.04666666666666667
1 0.5942857142857143 0.3676190476190476 0.03785714285714286 0.037142857142857144
1 0.6142857142857143 0.3380952380952381 0.03214285714285714 0.04380952380952381
1 0.6307142857142857 0.3161904761904762 0.030714285714285715 0.0380952380952381
1 0.6428571428571429 0.2914285714285714 0.027142857142857142 0.029523809523809525
1 0.6592857142857143 0.2723809523809524 0.025 0.02857142857142857
1 0.6707142857142857 0.24857142857142858 0.023571428571428573 0.023809523809523808
1 0.6821428571428572 0.23238095238095238 0.02214285714285714 0.025714285714285714
1 0.6921428571428572 0.21904761904761905 0.019285714285714285 0.023809523809523808
1 0.6971428571428572 0.2 0.027142857142857142 0.02761904761904762
1 0.7214285714285714 0.06571428571428571 0.014285714285714285 0.011428571428571429
1 0.755 0.12380952380952381 0.012142857142857143 0.013333333333333334
1 0.7828571428571428 0.08 0.01 0.006666666666666667
1 0.8171428571428572 0.02666666666666667 0.009285714285714286 0.007619047619047619
1 0.6964285714285714 0.0761904761904762 0.012857142857142857 0.009523809523809525
1 0.8178571428571428 0.02 0.007857142857142858 0.008571428571428572
1 0.7857142857142857 0.07238095238095238 0.011428571428571429 0.010476190476190476
1 0.7492857142857143 0.13333333333333333 0.013571428571428571 0.01619047619047619
1 0.8257142857142857 0.2561904761904762 0.019285714285714285 0.02761904761904762
1 0.8207142857142857 0.18 0.018571428571428572 0.024761904761904763
1 0.845 0.06285714285714286 0.009285714285714286 0.011428571428571429
1 0.8607142857142858 0.049523809523809526 0.008571428571428572 0.009523809523809525
1 0.8807142857142857 0.030476190476190476 0.0064285714285714285 0.008571428571428572
1 0.8742857142857143 0.005714285714285714 0.007142857142857143 0.009523809523809525
1 0.8892857142857142 0.0038095238095238095 0.005714285714285714 0.007619047619047619
1 0.8785714285714286 0.06571428571428571 0.007142857142857143 0.009523809523809525
1 0.8892857142857142 0.05142857142857143 0.007857142857142858 0.009523809523809525
1 0.8857142857142857 0.07333333333333333 0.009285714285714286 0.011428571428571429
1 0.9085714285714286 0.1838095238095238 0.015714285714285715 0.02095238095238095
1 0.9835714285714285 0.1619047619047619 0.015714285714285715 0.01619047619047619
1 0.9492857142857143 0.09428571428571429 0.010714285714285714 0.010476190476190476
1 0.8621428571428571 0.002857142857142857 0.007857142857142858 0.005714285714285714
1 0.8821428571428571 0.002857142857142857 0.005714285714285714 0.006666666666666667
1 0.9614285714285714 0.10285714285714286 0.004285714285714286 0.012380952380952381
1 0.98 0.2057142857142857 0.005714285714285714 0.01619047619047619
1 0.995 0.23142857142857143 0.007142857142857143 0.017142857142857144
0 0.9614285714285714 0.1 0.0035714285714285713 0.006666666666666667
0 0.98 0.2019047619047619 0.005714285714285714 0.006666666666666667
0 0.9957142857142857 0.2276190476190476 0.004285714285714286 0.011428571428571429
