1 0.3692857142857143 0.7690355329949239 0.027142857142857142 0.06345177664974619
1 0.4142857142857143 0.4631979695431472 0.018571428571428572 0.03934010152284264
1 0.43 0.3210659898477157 0.02142857142857143 0.06979695431472081
1 0.44285714285714284 0.2017766497461929 0.015 0.0532994923857868
1 0.39357142857142857 0.1598984771573604 0.029285714285714286 0.03426395939086294
1 0.6221428571428571 0.7538071065989848 0.022857142857142857 0.06598984771573604
1 0.6378571428571429 0.6370558375634517 0.03428571428571429 0.11040609137055837
