1 0.117 0.6573333333333333 0.072 0.17733333333333334
1 0.249 0.7893333333333333 0.069 0.20133333333333334
1 0.2385 0.5206666666666667 0.05 0.146
1 0.526 0.87 0.0805 0.208
0 0.8625 0.932 0.028 0.027333333333333334
0 0.8795 0.934 0.03 0.026
0 0.8155 0.858 0.027 0.04066666666666666
0 0.7575 0.7966666666666666 0.0235 0.03333333333333333
1 0.786 0.918 0.0555 0.05533333333333333
0 0.7815 0.888 0.0285 0.034
0 0.745 0.7213333333333334 0.027 0.034
0 0.732 0.7666666666666667 0.0145 0.03666666666666667
1 0.677 0.7713333333333333 0.018 0.06333333333333334
0 0.6745 0.77 0.0305 0.028
1 0.7105 0.7793333333333333 0.0635 0.15
1 0.6185 0.736 0.0905 0.15933333333333333
1 0.5425 0.594 0.063 0.12733333333333333
0 0.596 0.5813333333333334 0.0165 0.04466666666666667
0 0.64 0.586 0.015 0.042666666666666665
1 0.8895 0.44333333333333336 0.0895 0.072
1 0.9585 0.506 0.083 0.09
1 0.9765 0.404 0.0395 0.02666666666666667
1 0.763 0.38 0.022 0.028
1 0.716 0.38333333333333336 0.061 0.068
0 0.5955 0.362 0.012 0.038
1 0.5455 0.42 0.059 0.096
1 0.736 0.43866666666666665 0.031 0.034
0 0.7385 0.43066666666666664 0.016 0.02266666666666667
0 0.73 0.43466666666666665 0.015 0.027333333333333334
0 0.446 0.316 0.012 0.03666666666666667
0 0.479 0.2693333333333333 0.008 0.035333333333333335
1 0.4965 0.132 0.02 0.02666666666666667
1 0.4735 0.26 0.058 0.058666666666666666
1 0.45 0.216 0.059 0.054
1 0.415 0.2 0.057 0.048
1 0.4425 0.15333333333333332 0.064 0.043333333333333335
1 0.4235 0.12933333333333333 0.0665 0.03933333333333333
1 0.418 0.10466666666666667 0.059 0.03933333333333333
1 0.474 0.051333333333333335 0.0135 0.020666666666666667
1 0.402 0.084 0.059 0.03933333333333333
1 0.3905 0.06266666666666666 0.0545 0.034
1 0.3805 0.022 0.0535 0.030666666666666665
1 0.236 0.39466666666666667 0.047 0.10466666666666667
1 0.222 0.2786666666666667 0.0415 0.07933333333333334
1 0.223 0.21066666666666667 0.04 0.06066666666666667
0 0.176 0.132 0.0135 0.034666666666666665
1 0.1415 0.142 0.012 0.02266666666666667
1 0.2105 0.144 0.044 0.08066666666666666
1 0.217 0.104 0.029 0.044
1 0.215 0.042 0.0255 0.04066666666666666
1 0.2855 0.07266666666666667 0.0305 0.04533333333333334
1 0.2455 0.074 0.01 0.024
0 0.245 0.06666666666666667 0.011 0.03
1 0.0285 0.4033333333333333 0.0575 0.056666666666666664
1 0.033 0.36933333333333335 0.066 0.05
1 0.035 0.308 0.07 0.064
1 0.0645 0.22733333333333333 0.072 0.04933333333333333
1 0.071 0.192 0.068 0.048666666666666664
1 0.0795 0.152 0.0665 0.051333333333333335
1 0.0835 0.13733333333333334 0.0715 0.043333333333333335
1 0.0855 0.114 0.059 0.03866666666666667
1 0.014 0.08466666666666667 0.0285 0.036
1 0.026 0.026 0.0345 0.036
