1 0.12642857142857142 0.07142857142857142 0.023571428571428573 0.023809523809523808
1 0.32357142857142857 0.018095238095238095 0.047142857142857146 0.03428571428571429
1 0.305 0.030476190476190476 0.06142857142857143 0.04
1 0.29928571428571427 0.06 0.03857142857142857 0.0380952380952381
1 0.2757142857142857 0.09333333333333334 0.03785714285714286 0.05047619047619047
1 0.2542857142857143 0.14095238095238094 0.045714285714285714 0.05714285714285714
1 0.17642857142857143 0.15714285714285714 0.05285714285714286 0.049523809523809526
1 0.22428571428571428 0.1980952380952381 0.056428571428571425 0.07142857142857142
1 0.11214285714285714 0.22857142857142856 0.07642857142857143 0.06571428571428571
0 0.3414285714285714 0.3142857142857143 0.010714285714285714 0.04380952380952381
1 0.18642857142857142 0.2561904761904762 0.06714285714285714 0.0838095238095238
1 0.21 0.31523809523809526 0.07285714285714286 0.1019047619047619
1 0.13 0.35619047619047617 0.08428571428571428 0.10952380952380952
1 0.04357142857142857 0.3047619047619048 0.08785714285714286 0.08
1 0.06357142857142857 0.4238095238095238 0.030714285714285715 0.024761904761904763
1 0.05357142857142857 0.4961904761904762 0.10785714285714286 0.15047619047619049
1 0.07357142857142857 0.6171428571428571 0.13214285714285715 0.1980952380952381
1 0.5578571428571428 0.799047619047619 0.07357142857142857 0.05619047619047619
1 0.36642857142857144 0.7742857142857142 0.08428571428571428 0.2219047619047619
1 0.4035714285714286 0.539047619047619 0.07 0.15619047619047619
0 0.52 0.5514285714285714 0.020714285714285713 0.049523809523809526
1 0.41928571428571426 0.38095238095238093 0.052142857142857144 0.11523809523809524
1 0.43714285714285717 0.26666666666666666 0.03357142857142857 0.08476190476190476
1 0.44785714285714284 0.1961904761904762 0.037142857142857144 0.05904761904761905
1 0.44285714285714284 0.12761904761904763 0.06714285714285714 0.05619047619047619
1 0.48428571428571426 0.007619047619047619 0.04357142857142857 0.015238095238095238
1 0.5657142857142857 0.13333333333333333 0.03214285714285714 0.05047619047619047
1 0.6292857142857143 0.13428571428571429 0.03785714285714286 0.05238095238095238
1 0.6035714285714285 0.4095238095238095 0.05928571428571429 0.10666666666666667
1 0.7028571428571428 0.2342857142857143 0.015 0.0419047619047619
1 0.72 0.29619047619047617 0.030714285714285715 0.035238095238095235
1 0.6307142857142857 0.5133333333333333 0.018571428571428572 0.06190476190476191
1 0.6192857142857143 0.6314285714285715 0.07785714285714286 0.18285714285714286
1 0.6635714285714286 0.8552380952380952 0.04428571428571428 0.08857142857142856
0 0.7471428571428571 0.5980952380952381 0.03 0.07238095238095238
