1 0.02642857142857143 0.8299492385786802 0.037142857142857144 0.09517766497461928
1 0.3157142857142857 0.04568527918781726 0.027857142857142858 0.0583756345177665
1 0.04428571428571428 0.044416243654822336 0.03571428571428571 0.03553299492385787
1 0.05285714285714286 0.027918781725888325 0.03428571428571429 0.03680203045685279
1 0.3514285714285714 0.9581218274111675 0.04357142857142857 0.0799492385786802
1 0.32285714285714284 0.9644670050761421 0.039285714285714285 0.06852791878172589
1 0.4228571428571429 0.9644670050761421 0.04428571428571428 0.06852791878172589
1 0.39714285714285713 0.983502538071066 0.030714285714285715 0.030456852791878174
1 0.2935714285714286 0.9809644670050761 0.03142857142857143 0.03426395939086294
1 0.37142857142857144 0.9200507614213198 0.041428571428571426 0.10532994923857868
1 0.4421428571428571 0.9251269035532995 0.07285714285714286 0.14720812182741116
1 0.4085714285714286 0.7880710659898477 0.05357142857142857 0.07741116751269035
1 0.4342857142857143 0.8096446700507615 0.041428571428571426 0.06218274111675127
1 0.39357142857142857 0.6776649746192893 0.13285714285714287 0.18401015228426396
1 0.43142857142857144 0.7119289340101523 0.05285714285714286 0.0799492385786802
1 0.4564285714285714 0.7347715736040609 0.05357142857142857 0.07741116751269035
1 0.4742857142857143 0.766497461928934 0.047857142857142855 0.07233502538071065
1 0.4157142857142857 0.5964467005076142 0.04285714285714286 0.06979695431472081
1 0.7957142857142857 0.9314720812182741 0.054285714285714284 0.07487309644670051
1 0.9235714285714286 0.7766497461928934 0.045 0.06345177664974619
0 0.9564285714285714 0.8274111675126904 0.012142857142857143 0.025380710659898477
0 0.7664285714285715 0.4251269035532995 0.007142857142857143 0.021573604060913704
0 0.7592857142857142 0.42258883248730966 0.007142857142857143 0.02030456852791878
0 0.715 0.45050761421319796 0.007857142857142858 0.01903553299492386
0 0.7271428571428571 0.434010152284264 0.0064285714285714285 0.01649746192893401
0 0.7071428571428572 0.36548223350253806 0.005 0.024111675126903553
1 0.665 0.567258883248731 0.10642857142857143 0.20431472081218274
1 0.6178571428571429 0.565989847715736 0.06714285714285714 0.13578680203045684
1 0.5657142857142857 0.6243654822335025 0.055 0.12309644670050761
1 0.5364285714285715 0.47081218274111675 0.09 0.18908629441624367
1 0.4714285714285714 0.36421319796954316 0.047857142857142855 0.10913705583756345
1 0.33785714285714286 0.03426395939086294 0.039285714285714285 0.06979695431472081
1 0.17785714285714285 0.027918781725888325 0.03 0.05203045685279188
1 0.19714285714285715 0.03553299492385787 0.02642857142857143 0.04568527918781726
1 0.52 0.31091370558375636 0.03428571428571429 0.06091370558375635
1 0.4757142857142857 0.2296954314720812 0.032857142857142856 0.05710659898477157
1 0.5535714285714286 0.37055837563451777 0.03642857142857143 0.06979695431472081
1 0.5935714285714285 0.4467005076142132 0.03857142857142857 0.07360406091370558
1 0.475 0.282994923857868 0.03214285714285714 0.06218274111675127
1 0.5035714285714286 0.35152284263959394 0.03642857142857143 0.06725888324873096
1 0.5592857142857143 0.45685279187817257 0.03571428571428571 0.07360406091370558
1 0.3414285714285714 0.10025380710659898 0.02642857142857143 0.0532994923857868
1 0.36642857142857144 0.13959390862944163 0.029285714285714286 0.05203045685279188
1 0.3892857142857143 0.18781725888324874 0.029285714285714286 0.0583756345177665
1 0.4164285714285714 0.23857868020304568 0.03571428571428571 0.08756345177664974
1 0.43785714285714283 0.21446700507614214 0.03428571428571429 0.07106598984771574
1 0.40285714285714286 0.14974619289340102 0.030714285714285715 0.06218274111675127
1 0.43 0.13705583756345177 0.03 0.06345177664974619
1 0.4042857142857143 0.09390862944162437 0.027142857142857142 0.06345177664974619
1 0.36714285714285716 0.08121827411167512 0.02857142857142857 0.06218274111675127
1 0.4807142857142857 0.4619289340101523 0.03214285714285714 0.07487309644670051
1 0.5135714285714286 0.5368020304568528 0.037142857142857144 0.07487309644670051
0 0.705 0.42258883248730966 0.0064285714285714285 0.02284263959390863
0 0.5264285714285715 0.20304568527918782 0.0035714285714285713 0.024111675126903553
0 0.5235714285714286 0.20431472081218274 0.004285714285714286 0.021573604060913704
1 0.011428571428571429 0.07233502538071065 0.022857142857142857 0.03299492385786802
