1 0.5678571428571428 0.6933333333333334 0.03428571428571429 0.047619047619047616
1 0.66 0.8314285714285714 0.052142857142857144 0.06571428571428571
1 0.7092857142857143 0.9657142857142857 0.08571428571428572 0.06857142857142857
1 0.22642857142857142 0.8752380952380953 0.08214285714285714 0.10761904761904761
1 0.9528571428571428 0.8 0.08785714285714286 0.1180952380952381
1 0.915 0.7476190476190476 0.09357142857142857 0.13523809523809524
0 0.9692857142857143 0.6580952380952381 0.03428571428571429 0.039047619047619046
1 0.825 0.6438095238095238 0.08142857142857143 0.12095238095238095
1 0.7842857142857143 0.580952380952381 0.07214285714285715 0.10285714285714286
1 0.7378571428571429 0.5352380952380953 0.07357142857142857 0.09142857142857143
1 0.6992857142857143 0.4866666666666667 0.07642857142857143 0.08666666666666667
1 0.6607142857142857 0.44476190476190475 0.075 0.08952380952380952
1 0.6278571428571429 0.40285714285714286 0.07285714285714286 0.08952380952380952
1 0.5885714285714285 0.36666666666666664 0.075 0.08190476190476191
1 0.5635714285714286 0.32857142857142857 0.06285714285714286 0.07238095238095238
1 0.535 0.29714285714285715 0.07285714285714286 0.07809523809523809
1 0.5 0.259047619047619 0.07214285714285715 0.07523809523809524
1 0.4707142857142857 0.23047619047619047 0.07071428571428572 0.08
1 0.475 0.19047619047619047 0.024285714285714285 0.03238095238095238
1 0.47785714285714287 0.1742857142857143 0.025714285714285714 0.02857142857142857
1 0.43714285714285717 0.1895238095238095 0.06571428571428571 0.06857142857142857
1 0.41785714285714287 0.14761904761904762 0.07071428571428572 0.07142857142857142
1 0.3985714285714286 0.10666666666666667 0.02642857142857143 0.03238095238095238
0 0.4 0.10095238095238095 0.015714285714285715 0.029523809523809525
0 0.395 0.10666666666666667 0.013571428571428571 0.024761904761904763
0 0.3914285714285714 0.10571428571428572 0.016428571428571428 0.02857142857142857
0 0.5007142857142857 0.1657142857142857 0.010714285714285714 0.035238095238095235
0 0.51 0.16380952380952382 0.008571428571428572 0.03333333333333333
0 0.5028571428571429 0.14952380952380953 0.009285714285714286 0.02761904761904762
0 0.5121428571428571 0.14476190476190476 0.01 0.030476190476190476
0 0.4992857142857143 0.12761904761904763 0.014285714285714285 0.03142857142857143
0 0.5257142857142857 0.11619047619047619 0.012142857142857143 0.014285714285714285
0 0.5407142857142857 0.13238095238095238 0.01 0.014285714285714285
0 0.5421428571428571 0.11714285714285715 0.012857142857142857 0.015238095238095238
0 0.5542857142857143 0.16380952380952382 0.012142857142857143 0.02095238095238095
0 0.57 0.16285714285714287 0.012857142857142857 0.021904761904761906
0 0.5892857142857143 0.13523809523809524 0.009285714285714286 0.024761904761904763
1 0.8828571428571429 0.43714285714285717 0.02642857142857143 0.03619047619047619
1 0.8978571428571429 0.44666666666666666 0.025714285714285714 0.037142857142857144
1 0.7871428571428571 0.3304761904761905 0.020714285714285713 0.04285714285714286
1 0.24571428571428572 0.08952380952380952 0.07428571428571429 0.07333333333333333
1 0.305 0.039047619047619046 0.06285714285714286 0.05904761904761905
1 0.2692857142857143 0.02666666666666667 0.08928571428571429 0.05333333333333334
1 0.3092857142857143 0.06095238095238095 0.030714285714285715 0.04666666666666667
1 0.345 0.0419047619047619 0.023571428571428573 0.0380952380952381
0 0.21928571428571428 0.14095238095238094 0.012142857142857143 0.035238095238095235
0 0.20642857142857143 0.14 0.015 0.03619047619047619
