0 0.1 0.3504761904761905 0.027857142857142858 0.04380952380952381
0 0.3364285714285714 0.3914285714285714 0.012857142857142857 0.04476190476190476
0 0.3221428571428571 0.5009523809523809 0.022857142857142857 0.0419047619047619
0 0.2642857142857143 0.5019047619047619 0.020714285714285713 0.03619047619047619
0 0.225 0.48857142857142855 0.027857142857142858 0.0380952380952381
0 0.175 0.4828571428571429 0.025 0.04476190476190476
0 0.12857142857142856 0.47333333333333333 0.027857142857142858 0.03428571428571429
0 0.09142857142857143 0.4514285714285714 0.024285714285714285 0.0419047619047619
0 0.03142857142857143 0.4523809523809524 0.030714285714285715 0.047619047619047616
0 0.04 0.5714285714285714 0.03142857142857143 0.03238095238095238
0 0.10571428571428572 0.5628571428571428 0.030714285714285715 0.03142857142857143
0 0.1957142857142857 0.5761904761904761 0.022857142857142857 0.03333333333333333
0 0.24642857142857144 0.6019047619047619 0.018571428571428572 0.035238095238095235
0 0.31285714285714283 0.6104761904761905 0.020714285714285713 0.047619047619047616
0 0.18142857142857144 0.7238095238095238 0.03214285714285714 0.040952380952380955
0 0.1357142857142857 0.7057142857142857 0.035 0.0419047619047619
0 0.054285714285714284 0.9419047619047619 0.04 0.035238095238095235
0 0.3914285714285714 0.08 0.012857142857142857 0.0380952380952381
0 0.5478571428571428 0.3495238095238095 0.015714285714285715 0.047619047619047616
0 0.5257142857142857 0.3961904761904762 0.011428571428571429 0.04
0 0.5278571428571428 0.37238095238095237 0.016428571428571428 0.03333333333333333
0 0.5278571428571428 0.35714285714285715 0.018571428571428572 0.039047619047619046
0 0.40785714285714286 0.5142857142857142 0.023571428571428573 0.05238095238095238
0 0.72 0.6323809523809524 0.015714285714285715 0.0380952380952381
0 0.7014285714285714 0.6276190476190476 0.017142857142857144 0.0419047619047619
0 0.7692857142857142 0.47333333333333333 0.02214285714285714 0.04380952380952381
0 0.7935714285714286 0.4666666666666667 0.02142857142857143 0.04
0 0.7835714285714286 0.44857142857142857 0.019285714285714285 0.04
0 0.7714285714285715 0.4523809523809524 0.017142857142857144 0.04285714285714286
0 0.635 0.3238095238095238 0.013571428571428571 0.039047619047619046
0 0.6478571428571429 0.32666666666666666 0.013571428571428571 0.0419047619047619
0 0.7542857142857143 0.1819047619047619 0.013571428571428571 0.037142857142857144
0 0.6871428571428572 0.10571428571428572 0.012857142857142857 0.04666666666666667
0 0.7514285714285714 0.1961904761904762 0.015 0.04380952380952381
0 0.7914285714285715 0.16380952380952382 0.014285714285714285 0.04380952380952381
0 0.9607142857142857 0.7076190476190476 0.03214285714285714 0.04
