0 0.005 0.7817258883248731 0.010714285714285714 0.01649746192893401
1 0.085 0.8197969543147208 0.04928571428571429 0.046954314720812185
1 0.18214285714285713 0.815989847715736 0.047142857142857146 0.04568527918781726
1 0.5057142857142857 0.6370558375634517 0.04357142857142857 0.04314720812182741
1 0.6185714285714285 0.5545685279187818 0.04285714285714286 0.04949238578680203
1 0.7871428571428571 0.43908629441624364 0.03642857142857143 0.03934010152284264
1 0.9592857142857143 0.3883248730964467 0.03571428571428571 0.04187817258883249
1 0.9835714285714285 0.2652284263959391 0.032857142857142856 0.04314720812182741
1 0.9128571428571428 0.3819796954314721 0.05928571428571429 0.06852791878172589
1 0.9257142857142857 0.31725888324873097 0.08214285714285714 0.10152284263959391
0 0.9435714285714286 0.19543147208121828 0.009285714285714286 0.01903553299492386
0 0.9935714285714285 0.19543147208121828 0.01 0.017766497461928935
1 0.9192857142857143 0.11040609137055837 0.013571428571428571 0.021573604060913704
0 0.7478571428571429 0.1751269035532995 0.005714285714285714 0.01903553299492386
0 0.7514285714285714 0.1814720812182741 0.002857142857142857 0.012690355329949238
0 0.855 0.33375634517766495 0.008571428571428572 0.01649746192893401
