1 0.5085714285714286 0.6695238095238095 0.02214285714285714 0.05238095238095238
1 0.58 0.6952380952380952 0.02142857142857143 0.01619047619047619
1 0.545 0.4504761904761905 0.012142857142857143 0.01904761904761905
1 0.5221428571428571 0.40095238095238095 0.016428571428571428 0.010476190476190476
1 0.5785714285714286 0.4228571428571429 0.020714285714285713 0.013333333333333334
1 0.5507142857142857 0.41619047619047617 0.02 0.013333333333333334
0 0.4278571428571429 0.5247619047619048 0.0035714285714285713 0.014285714285714285
1 0.5957142857142858 0.43142857142857144 0.019285714285714285 0.01619047619047619
1 0.6292857142857143 0.4276190476190476 0.024285714285714285 0.014285714285714285
1 0.645 0.36952380952380953 0.013571428571428571 0.008571428571428572
1 0.655 0.38 0.013571428571428571 0.008571428571428572
1 0.6414285714285715 0.4676190476190476 0.012857142857142857 0.01619047619047619
1 0.6235714285714286 0.5076190476190476 0.013571428571428571 0.017142857142857144
1 0.6242857142857143 0.5323809523809524 0.014285714285714285 0.021904761904761906
1 0.6278571428571429 0.5638095238095238 0.017142857142857144 0.021904761904761906
1 0.6285714285714286 0.599047619047619 0.017857142857142856 0.030476190476190476
1 0.695 0.439047619047619 0.02214285714285714 0.013333333333333334
1 0.6707142857142857 0.42952380952380953 0.02642857142857143 0.011428571428571429
1 0.5607142857142857 0.3904761904761905 0.016428571428571428 0.012380952380952381
1 0.6978571428571428 0.3923809523809524 0.012857142857142857 0.012380952380952381
1 0.6535714285714286 0.46190476190476193 0.0035714285714285713 0.010476190476190476
1 0.655 0.47333333333333333 0.005 0.010476190476190476
1 0.6878571428571428 0.6228571428571429 0.005 0.014285714285714285
1 0.7157142857142857 0.8238095238095238 0.0064285714285714285 0.025714285714285714
1 0.6957142857142857 0.8247619047619048 0.010714285714285714 0.02857142857142857
0 0.7907142857142857 0.660952380952381 0.004285714285714286 0.021904761904761906
0 0.725 0.539047619047619 0.005 0.015238095238095238
0 0.7185714285714285 0.5352380952380953 0.005 0.014285714285714285
0 0.7171428571428572 0.8133333333333334 0.005 0.010476190476190476
0 0.6957142857142857 0.8142857142857143 0.007857142857142858 0.015238095238095238
0 0.5792857142857143 0.6904761904761905 0.009285714285714286 0.008571428571428572
0 0.6885714285714286 0.6209523809523809 0.005 0.009523809523809525
0 0.6535714285714286 0.45904761904761904 0.002857142857142857 0.004761904761904762
0 0.655 0.4704761904761905 0.0035714285714285713 0.006666666666666667
1 0.6221428571428571 0.49142857142857144 0.011428571428571429 0.013333333333333334
1 0.6235714285714286 0.4676190476190476 0.017857142857142856 0.03619047619047619
