0 0.07928571428571428 0.5647208121827412 0.013571428571428571 0.03807106598984772
0 0.3457142857142857 0.8147208121827412 0.011428571428571429 0.04060913705583756
0 0.3414285714285714 0.8134517766497462 0.008571428571428572 0.03807106598984772
0 0.305 0.932741116751269 0.015 0.030456852791878174
0 0.4164285714285714 0.44416243654822335 0.007857142857142858 0.031725888324873094
0 0.2092857142857143 0.7347715736040609 0.012857142857142857 0.03553299492385787
0 0.23714285714285716 0.6535532994923858 0.008571428571428572 0.027918781725888325
1 0.10642857142857143 0.7347715736040609 0.052142857142857144 0.0901015228426396
1 0.175 0.45050761421319796 0.07857142857142857 0.16243654822335024
1 0.25 0.2436548223350254 0.052142857142857144 0.11548223350253807
1 0.25642857142857145 0.39086294416243655 0.03 0.05583756345177665
1 0.13857142857142857 0.2614213197969543 0.02642857142857143 0.04060913705583756
1 0.24142857142857144 0.19289340101522842 0.025 0.02918781725888325
1 0.27285714285714285 0.1802030456852792 0.03428571428571429 0.030456852791878174
0 0.31 0.22208121827411167 0.004285714285714286 0.01903553299492386
0 0.31285714285714283 0.217005076142132 0.005714285714285714 0.0266497461928934
0 0.4057142857142857 0.23477157360406092 0.005714285714285714 0.025380710659898477
0 0.4092857142857143 0.2766497461928934 0.007142857142857143 0.02030456852791878
0 0.4035714285714286 0.3083756345177665 0.007142857142857143 0.017766497461928935
0 0.4057142857142857 0.30456852791878175 0.005714285714285714 0.02030456852791878
0 0.32857142857142857 0.24111675126903553 0.007857142857142858 0.0266497461928934
0 0.17714285714285713 0.16370558375634517 0.005 0.01649746192893401
1 0.08428571428571428 0.19035532994923857 0.08 0.05583756345177665
1 0.12357142857142857 0.07233502538071065 0.037142857142857144 0.031725888324873094
1 0.11785714285714285 0.06218274111675127 0.03428571428571429 0.02918781725888325
1 0.14642857142857144 0.015228426395939087 0.024285714285714285 0.030456852791878174
1 0.07714285714285714 0.04568527918781726 0.024285714285714285 0.03426395939086294
1 0.3585714285714286 0.08375634517766498 0.016428571428571428 0.031725888324873094
1 0.3871428571428571 0.06345177664974619 0.02857142857142857 0.025380710659898477
1 0.3892857142857143 0.050761421319796954 0.027142857142857142 0.02030456852791878
1 0.39285714285714285 0.03299492385786802 0.027142857142857142 0.021573604060913704
1 0.39714285714285713 0.024111675126903553 0.02642857142857143 0.02284263959390863
1 0.3992857142857143 0.013959390862944163 0.025 0.017766497461928935
1 0.5121428571428571 0.2715736040609137 0.02857142857142857 0.0850253807106599
1 0.6871428571428572 0.04949238578680203 0.025714285714285714 0.0532994923857868
1 0.8407142857142857 0.6218274111675127 0.15 0.3362944162436548
1 0.7285714285714285 0.550761421319797 0.05 0.11548223350253807
1 0.62 0.4251269035532995 0.03785714285714286 0.0901015228426396
1 0.56 0.3134517766497462 0.032857142857142856 0.06598984771573604
1 0.5807142857142857 0.05710659898477157 0.018571428571428572 0.03426395939086294
1 0.5192857142857142 0.03299492385786802 0.02214285714285714 0.05964467005076142
