1 0.7223382045929019 0.5538033395176253 0.061064718162839246 0.07235621521335807
1 0.6414405010438413 0.5046382189239332 0.01826722338204593 0.04916512059369202
1 0.5532359081419624 0.5538033395176253 0.029749478079331943 0.06679035250463822
1 0.5224425887265136 0.5584415584415584 0.025052192066805846 0.06493506493506493
1 0.4979123173277662 0.5686456400742115 0.02870563674321503 0.07050092764378478
1 0.44467640918580376 0.5807050092764379 0.02035490605427975 0.0640074211502783
1 0.342901878914405 0.6391465677179963 0.027661795407098122 0.07699443413729128
1 0.2536534446764092 0.6762523191094619 0.02661795407098121 0.08070500927643785
1 0.19467640918580376 0.7003710575139147 0.027139874739039668 0.08348794063079777
1 0.16231732776617955 0.7115027829313544 0.027661795407098122 0.08441558441558442
1 0.12734864300626306 0.7263450834879406 0.030271398747390398 0.08719851576994433
1 0.06315240083507306 0.7653061224489796 0.037056367432150315 0.08812615955473098
1 0.16805845511482254 0.1150278293135436 0.031837160751565764 0.032467532467532464
1 0.2265135699373695 0.09925788497217068 0.030271398747390398 0.026901669758812616
1 0.11899791231732777 0.12987012987012986 0.03496868475991649 0.03896103896103896
