1 0.5142857142857142 0.6611675126903553 0.047857142857142855 0.04949238578680203
1 0.5128571428571429 0.5824873096446701 0.05142857142857143 0.06218274111675127
1 0.5157142857142857 0.5063451776649747 0.04428571428571428 0.04060913705583756
1 0.43714285714285717 0.4606598984771574 0.025 0.06598984771573604
1 0.53 0.41751269035532995 0.041428571428571426 0.03553299492385787
1 0.48642857142857143 0.35913705583756345 0.02142857142857143 0.0532994923857868
1 0.5285714285714286 0.3769035532994924 0.03785714285714286 0.050761421319796954
1 0.5357142857142857 0.3032994923857868 0.04 0.031725888324873094
1 0.5328571428571428 0.22715736040609136 0.035 0.03426395939086294
1 0.5757142857142857 0.2918781725888325 0.015714285714285715 0.04568527918781726
1 0.6171428571428571 0.3895939086294416 0.03857142857142857 0.03299492385786802
1 0.6435714285714286 0.3489847715736041 0.032857142857142856 0.046954314720812185
1 0.6871428571428572 0.30583756345177665 0.019285714285714285 0.0583756345177665
1 0.6357142857142857 0.25 0.04285714285714286 0.03680203045685279
1 0.6335714285714286 0.21446700507614214 0.035 0.027918781725888325
1 0.6307142857142857 0.12563451776649745 0.03428571428571429 0.02918781725888325
1 0.6371428571428571 0.09898477157360407 0.024285714285714285 0.025380710659898477
1 0.7007142857142857 0.13451776649746192 0.015714285714285715 0.04060913705583756
1 0.7135714285714285 0.40609137055837563 0.04857142857142857 0.04060913705583756
1 0.7285714285714285 0.567258883248731 0.04857142857142857 0.04060913705583756
1 0.6242857142857143 0.8413705583756346 0.052142857142857144 0.04568527918781726
1 0.6421428571428571 0.800761421319797 0.056428571428571425 0.04314720812182741
1 0.6321428571428571 0.7106598984771574 0.047142857142857146 0.04568527918781726
1 0.63 0.6700507614213198 0.047142857142857146 0.04060913705583756
1 0.6292857142857143 0.631979695431472 0.04857142857142857 0.04568527918781726
1 0.6285714285714286 0.5964467005076142 0.05142857142857143 0.046954314720812185
1 0.6235714285714286 0.5596446700507615 0.04285714285714286 0.03680203045685279
1 0.6185714285714285 0.5101522842639594 0.03571428571428571 0.03426395939086294
1 0.6207142857142857 0.48350253807106597 0.04642857142857143 0.04187817258883249
1 0.2742857142857143 0.6751269035532995 0.047857142857142855 0.04568527918781726
1 0.2864285714285714 0.5748730964467005 0.05142857142857143 0.04187817258883249
1 0.3171428571428571 0.4619289340101523 0.05 0.031725888324873094
1 0.21428571428571427 0.9048223350253807 0.05785714285714286 0.048223350253807105
1 0.32357142857142857 0.7296954314720813 0.037142857142857144 0.13071065989847716
1 0.37285714285714283 0.916243654822335 0.039285714285714285 0.11548223350253807
1 0.35214285714285715 0.2753807106598985 0.06 0.1916243654822335
1 0.3914285714285714 0.06852791878172589 0.032857142857142856 0.025380710659898477
1 0.4135714285714286 0.01903553299492386 0.017142857142857144 0.03680203045685279
1 0.4357142857142857 0.10786802030456853 0.015714285714285715 0.04568527918781726
1 0.5428571428571428 0.116751269035533 0.035 0.0266497461928934
1 0.5428571428571428 0.06345177664974619 0.03142857142857143 0.02918781725888325
1 0.5342857142857143 0.18908629441624367 0.04428571428571428 0.05456852791878172
1 0.6342857142857142 0.9771573604060914 0.05857142857142857 0.04314720812182741
1 0.6371428571428571 0.9314720812182741 0.03785714285714286 0.05203045685279188
1 0.6864285714285714 0.05203045685279188 0.013571428571428571 0.03680203045685279
1 0.63 0.07106598984771574 0.03142857142857143 0.02284263959390863
1 0.6207142857142857 0.05203045685279188 0.030714285714285715 0.027918781725888325
1 0.7085714285714285 0.031725888324873094 0.017857142857142856 0.03426395939086294
1 0.6928571428571428 0.0799492385786802 0.017142857142857144 0.04060913705583756
0 0.5028571428571429 0.16116751269035534 0.005714285714285714 0.015228426395939087
0 0.4928571428571429 0.39847715736040606 0.005 0.013959390862944163
1 0.5021428571428571 0.16751269035532995 0.005714285714285714 0.02030456852791878
1 0.49357142857142855 0.40482233502538073 0.005714285714285714 0.02284263959390863
0 0.5014285714285714 0.3934010152284264 0.005 0.0266497461928934
0 0.5121428571428571 0.31218274111675126 0.004285714285714286 0.021573604060913704
0 0.6521428571428571 0.04949238578680203 0.005714285714285714 0.021573604060913704
0 0.6 0.013959390862944163 0.005714285714285714 0.015228426395939087
1 0.6164285714285714 0.02918781725888325 0.03428571428571429 0.03553299492385787
0 0.6728571428571428 0.12690355329949238 0.005 0.024111675126903553
0 0.6871428571428572 0.1383248730964467 0.0064285714285714285 0.021573604060913704
0 0.66 0.12944162436548223 0.005 0.021573604060913704
0 0.6642857142857143 0.12563451776649745 0.005714285714285714 0.02284263959390863
0 0.7135714285714285 0.17893401015228427 0.005714285714285714 0.01903553299492386
1 0.725 0.2068527918781726 0.007857142857142858 0.027918781725888325
1 0.7128571428571429 0.20812182741116753 0.007142857142857143 0.02284263959390863
1 0.7085714285714285 0.44289340101522845 0.013571428571428571 0.01903553299492386
0 0.6821428571428572 0.36548223350253806 0.007857142857142858 0.02284263959390863
0 0.7085714285714285 0.6307106598984772 0.007142857142857143 0.0266497461928934
0 0.6792857142857143 0.7170050761421319 0.007857142857142858 0.02284263959390863
0 0.7021428571428572 0.8032994923857868 0.009285714285714286 0.02284263959390863
0 0.7057142857142857 0.8553299492385786 0.007142857142857143 0.02284263959390863
1 0.7278571428571429 0.8045685279187818 0.010714285714285714 0.03807106598984772
1 0.6378571428571429 0.881979695431472 0.022857142857142857 0.02030456852791878
1 0.5178571428571429 0.9428934010152284 0.024285714285714285 0.03553299492385787
1 0.515 0.9682741116751269 0.025714285714285714 0.03299492385786802
0 0.7371428571428571 0.9441624365482234 0.007857142857142858 0.02284263959390863
0 0.7371428571428571 0.9746192893401016 0.010714285714285714 0.02284263959390863
0 0.4642857142857143 0.6624365482233503 0.007857142857142858 0.024111675126903553
1 0.4635714285714286 0.6700507614213198 0.005714285714285714 0.030456852791878174
1 0.21 0.9796954314720813 0.05357142857142857 0.03299492385786802
1 0.5992857142857143 0.2512690355329949 0.02 0.05203045685279188
1 0.5378571428571428 0.27284263959390864 0.03857142857142857 0.03426395939086294
