1 0.12928571428571428 0.9581218274111675 0.09571428571428571 0.0583756345177665
1 0.3992857142857143 0.9454314720812182 0.05785714285714286 0.05203045685279188
1 0.5157142857142857 0.7017766497461929 0.017142857142857144 0.05456852791878172
1 0.4592857142857143 0.549492385786802 0.03142857142857143 0.11548223350253807
1 0.5157142857142857 0.5456852791878173 0.014285714285714285 0.050761421319796954
1 0.5185714285714286 0.3032994923857868 0.013571428571428571 0.04187817258883249
1 0.4692857142857143 0.3350253807106599 0.018571428571428572 0.07106598984771574
1 0.5221428571428571 0.09898477157360407 0.013571428571428571 0.050761421319796954
