1 0.48857142857142855 0.40476190476190477 0.23857142857142857 0.4257142857142857
0 0.3992857142857143 0.7247619047619047 0.025714285714285714 0.06
1 0.4257142857142857 0.1219047619047619 0.06285714285714286 0.10666666666666667
1 0.5207142857142857 0.06 0.05714285714285714 0.09333333333333334
1 0.8521428571428571 0.16476190476190475 0.12 0.08
0 0.24142857142857144 0.05142857142857143 0.024285714285714285 0.0419047619047619
1 0.24285714285714285 0.06857142857142857 0.03428571428571429 0.037142857142857144
0 0.5771428571428572 0.2438095238095238 0.017142857142857144 0.049523809523809526
0 0.5571428571428572 0.19904761904761906 0.023571428571428573 0.04476190476190476
0 0.5764285714285714 0.08285714285714285 0.02142857142857143 0.03428571428571429
0 0.7014285714285714 0.1980952380952381 0.020714285714285713 0.054285714285714284
1 0.6971428571428572 0.21047619047619048 0.025 0.04476190476190476
1 0.5771428571428572 0.24857142857142858 0.018571428571428572 0.04666666666666667
1 0.5592857142857143 0.20476190476190476 0.03142857142857143 0.04476190476190476
1 0.5742857142857143 0.09238095238095238 0.020714285714285713 0.039047619047619046
0 0.7428571428571429 0.15428571428571428 0.023571428571428573 0.06190476190476191
0 0.7678571428571429 0.18476190476190477 0.025 0.06285714285714286
0 0.6785714285714286 0.06380952380952382 0.011428571428571429 0.04
0 0.6814285714285714 0.05142857142857143 0.012857142857142857 0.040952380952380955
0 0.6771428571428572 0.037142857142857144 0.012857142857142857 0.04857142857142857
0 0.6678571428571428 0.04 0.013571428571428571 0.0380952380952381
1 0.72 0.02761904761904762 0.05714285714285714 0.05619047619047619
1 0.885 0.1295238095238095 0.11142857142857143 0.07809523809523809
1 0.8857142857142857 0.08285714285714285 0.09714285714285714 0.054285714285714284
1 0.9057142857142857 0.06 0.10857142857142857 0.06
1 0.92 0.02761904761904762 0.09642857142857143 0.054285714285714284
1 0.965 0.7876190476190477 0.07 0.13714285714285715
