0 0.7625 0.9826666666666667 0.02 0.024666666666666667
0 0.7805 0.9333333333333333 0.0245 0.020666666666666667
1 0.352 0.762 0.0735 0.27266666666666667
1 0.459 0.7686666666666667 0.0195 0.046
1 0.5635 0.7173333333333334 0.015 0.05
0 0.5635 0.714 0.0145 0.023333333333333334
1 0.609 0.7046666666666667 0.055 0.13466666666666666
0 0.4385 0.7526666666666667 0.019 0.02
0 0.4055 0.7313333333333333 0.0105 0.02266666666666667
0 0.4145 0.7153333333333334 0.0085 0.014
0 0.458 0.716 0.011 0.022
0 0.4695 0.7106666666666667 0.0135 0.024
0 0.4855 0.6733333333333333 0.0095 0.024666666666666667
0 0.4585 0.6953333333333334 0.0135 0.023333333333333334
1 0.508 0.5713333333333334 0.0165 0.06133333333333333
0 0.5085 0.574 0.0145 0.02666666666666667
0 0.4685 0.5493333333333333 0.0095 0.027333333333333334
1 0.444 0.5046666666666667 0.041 0.13733333333333334
0 0.467 0.5013333333333333 0.0115 0.024666666666666667
1 0.49 0.482 0.0115 0.035333333333333335
0 0.49 0.47 0.012 0.026
1 0.4485 0.376 0.035 0.102
1 0.598 0.3873333333333333 0.0745 0.08533333333333333
1 0.5605 0.32266666666666666 0.036 0.07533333333333334
0 0.461 0.24266666666666667 0.01 0.03333333333333333
1 0.5185 0.2866666666666667 0.0115 0.030666666666666665
0 0.5185 0.2886666666666667 0.0085 0.016
0 0.5185 0.278 0.011 0.022
1 0.432 0.26466666666666666 0.015 0.03333333333333333
0 0.4315 0.23533333333333334 0.0095 0.02
0 0.5375 0.174 0.0135 0.021333333333333333
1 0.5285 0.134 0.031 0.07066666666666667
0 0.4695 0.14266666666666666 0.008 0.030666666666666665
0 0.461 0.142 0.0105 0.032
0 0.4475 0.18066666666666667 0.0125 0.03133333333333333
1 0.4015 0.15333333333333332 0.069 0.054
1 0.4505 0.154 0.0085 0.023333333333333334
0 0.4505 0.148 0.0075 0.019333333333333334
1 0.4385 0.09533333333333334 0.0255 0.058666666666666666
1 0.502 0.09866666666666667 0.0085 0.026
0 0.5025 0.09133333333333334 0.008 0.023333333333333334
1 0.4845 0.06066666666666667 0.0125 0.03
0 0.484 0.052 0.01 0.016666666666666666
1 0.4945 0.03 0.0095 0.026
0 0.4945 0.026 0.009 0.025333333333333333
0 0.5075 0.014666666666666666 0.006 0.03
1 0.446 0.04733333333333333 0.007 0.024
0 0.4465 0.042666666666666665 0.01 0.030666666666666665
0 0.432 0.04733333333333333 0.0085 0.028
1 0.4125 0.036 0.0555 0.04066666666666666
1 0.4585 0.015333333333333332 0.0225 0.030666666666666665
