1 0.45785714285714285 0.559047619047619 0.025 0.05714285714285714
1 0.6492857142857142 0.6857142857142857 0.052142857142857144 0.06952380952380953
1 0.7892857142857143 0.6361904761904762 0.06642857142857143 0.03428571428571429
1 0.5878571428571429 0.25047619047619046 0.013571428571428571 0.030476190476190476
1 0.49857142857142855 0.2885714285714286 0.02142857142857143 0.035238095238095235
1 0.49857142857142855 0.5485714285714286 0.020714285714285713 0.06476190476190476
1 0.32285714285714284 0.7523809523809524 0.03571428571428571 0.07333333333333333
1 0.31285714285714283 0.6876190476190476 0.05071428571428571 0.037142857142857144
1 0.26571428571428574 0.8361904761904762 0.024285714285714285 0.01619047619047619
1 0.24714285714285714 0.8942857142857142 0.023571428571428573 0.018095238095238095
1 0.2257142857142857 0.9628571428571429 0.02142857142857143 0.014285714285714285
1 0.3792857142857143 0.5142857142857142 0.027142857142857142 0.05619047619047619
1 0.39571428571428574 0.44571428571428573 0.023571428571428573 0.049523809523809526
1 0.41928571428571426 0.34476190476190477 0.024285714285714285 0.0419047619047619
1 0.5678571428571428 0.38761904761904764 0.017142857142857144 0.040952380952380955
1 0.5342857142857143 0.22666666666666666 0.013571428571428571 0.030476190476190476
1 0.5842857142857143 0.11238095238095239 0.012142857142857143 0.02095238095238095
1 0.5321428571428571 0.10476190476190476 0.014285714285714285 0.024761904761904763
1 0.5292857142857142 0.06761904761904762 0.011428571428571429 0.02095238095238095
1 0.45357142857142857 0.19428571428571428 0.018571428571428572 0.030476190476190476
1 0.4664285714285714 0.13238095238095238 0.013571428571428571 0.02857142857142857
1 0.49142857142857144 0.06095238095238095 0.016428571428571428 0.01904761904761905
1 0.5535714285714286 0.03428571428571429 0.01 0.018095238095238095
0 0.4107142857142857 0.11428571428571428 0.0035714285714285713 0.013333333333333334
1 0.5014285714285714 0.02095238095238095 0.002857142857142857 0.009523809523809525
1 0.505 0.03142857142857143 0.0035714285714285713 0.010476190476190476
1 0.5 0.04285714285714286 0.0035714285714285713 0.012380952380952381
1 0.505 0.04380952380952381 0.002857142857142857 0.012380952380952381
1 0.4807142857142857 0.1523809523809524 0.005714285714285714 0.010476190476190476
1 0.47714285714285715 0.1438095238095238 0.004285714285714286 0.013333333333333334
1 0.5392857142857143 0.1676190476190476 0.015 0.03142857142857143
1 0.44642857142857145 0.004761904761904762 0.004285714285714286 0.007619047619047619
0 0.5014285714285714 0.01904761904761905 0.002857142857142857 0.004761904761904762
0 0.5057142857142857 0.029523809523809525 0.0035714285714285713 0.004761904761904762
0 0.5 0.04 0.002142857142857143 0.006666666666666667
0 0.505 0.0419047619047619 0.002857142857142857 0.002857142857142857
0 0.4764285714285714 0.14095238095238094 0.002857142857142857 0.007619047619047619
0 0.48214285714285715 0.15142857142857144 0.002857142857142857 0.007619047619047619
0 0.44642857142857145 0.0019047619047619048 0.0035714285714285713 0.004761904761904762
0 0.6657142857142857 0.9457142857142857 0.0064285714285714285 0.024761904761904763
0 0.6571428571428571 0.46285714285714286 0.007142857142857143 0.015238095238095238
0 0.6692857142857143 0.4676190476190476 0.007142857142857143 0.014285714285714285
0 0.6742857142857143 0.4866666666666667 0.004285714285714286 0.013333333333333334
0 0.6185714285714285 0.011428571428571429 0.002857142857142857 0.006666666666666667
0 0.625 0.10095238095238095 0.0035714285714285713 0.010476190476190476
0 0.6221428571428571 0.15904761904761905 0.004285714285714286 0.010476190476190476
1 0.6185714285714285 0.01619047619047619 0.004285714285714286 0.015238095238095238
1 0.625 0.10571428571428572 0.005714285714285714 0.018095238095238095
1 0.6221428571428571 0.1619047619047619 0.004285714285714286 0.015238095238095238
1 0.6578571428571428 0.4723809523809524 0.012857142857142857 0.017142857142857144
1 0.6678571428571428 0.4780952380952381 0.017142857142857144 0.017142857142857144
1 0.6707142857142857 0.49523809523809526 0.017857142857142856 0.018095238095238095
1 0.6664285714285715 0.9571428571428572 0.012142857142857143 0.04285714285714286
0 0.7492857142857143 0.3780952380952381 0.004285714285714286 0.01619047619047619
0 0.7421428571428571 0.37523809523809526 0.005 0.018095238095238095
1 0.6521428571428571 0.31333333333333335 0.015 0.03238095238095238
1 0.6421428571428571 0.19428571428571428 0.016428571428571428 0.02666666666666667
1 0.6378571428571429 0.12476190476190477 0.015 0.02
1 0.6328571428571429 0.06476190476190476 0.012857142857142857 0.018095238095238095
0 0.6257142857142857 0.011428571428571429 0.0035714285714285713 0.010476190476190476
