1 0.22428571428571428 0.7233502538071066 0.04928571428571429 0.08248730964467005
1 0.20285714285714285 0.8464467005076142 0.06571428571428571 0.10786802030456853
1 0.42142857142857143 0.8540609137055838 0.03142857142857143 0.0799492385786802
1 0.48642857142857143 0.7106598984771574 0.02214285714285714 0.05583756345177665
1 0.4664285714285714 0.3553299492385787 0.016428571428571428 0.02918781725888325
1 0.44 0.24873096446700507 0.018571428571428572 0.013959390862944163
1 0.5207142857142857 0.21954314720812182 0.017142857142857144 0.015228426395939087
1 0.5907142857142857 0.20431472081218274 0.014285714285714285 0.012690355329949238
1 0.032857142857142856 0.7208121827411168 0.030714285714285715 0.02918781725888325
