1 0.5592857142857143 0.7828571428571428 0.07857142857142857 0.07238095238095238
1 0.4642857142857143 0.7371428571428571 0.07357142857142857 0.07142857142857142
1 0.85 0.9361904761904762 0.11214285714285714 0.1
1 0.8342857142857143 0.8580952380952381 0.09357142857142857 0.08571428571428572
1 0.6857142857142857 0.8571428571428571 0.08785714285714286 0.08857142857142856
1 0.7114285714285714 0.8038095238095239 0.08857142857142856 0.08190476190476191
1 0.6871428571428572 0.7304761904761905 0.07857142857142857 0.06761904761904762
1 0.605 0.7476190476190476 0.07357142857142857 0.06666666666666667
1 0.5128571428571429 0.7057142857142857 0.065 0.06571428571428571
1 0.44142857142857145 0.6714285714285714 0.07 0.06
1 0.375 0.6819047619047619 0.07071428571428572 0.06571428571428571
1 0.3607142857142857 0.6209523809523809 0.05714285714285714 0.05904761904761905
1 0.3078571428571429 0.6247619047619047 0.06428571428571428 0.06476190476190476
1 0.30142857142857143 0.5676190476190476 0.05928571428571429 0.06095238095238095
1 0.24428571428571427 0.5847619047619048 0.055 0.05238095238095238
1 0.18571428571428572 0.5523809523809524 0.05285714285714286 0.049523809523809526
1 0.14285714285714285 0.518095238095238 0.041428571428571426 0.04380952380952381
1 0.18214285714285713 0.5076190476190476 0.047142857142857146 0.039047619047619046
1 0.105 0.5028571428571429 0.045 0.040952380952380955
1 0.10714285714285714 0.4742857142857143 0.05 0.039047619047619046
1 0.5071428571428571 0.6447619047619048 0.23214285714285715 0.14
0 0.13428571428571429 0.4257142857142857 0.009285714285714286 0.02095238095238095
0 0.14285714285714285 0.4219047619047619 0.009285714285714286 0.023809523809523808
0 0.18642857142857142 0.42952380952380953 0.01 0.021904761904761906
0 0.2057142857142857 0.4257142857142857 0.014285714285714285 0.02
0 0.9664285714285714 0.7533333333333333 0.017857142857142856 0.03333333333333333
1 0.9542857142857143 0.20761904761904762 0.013571428571428571 0.015238095238095238
1 0.9642857142857143 0.21904761904761905 0.014285714285714285 0.015238095238095238
1 0.9721428571428572 0.22857142857142856 0.015 0.015238095238095238
1 0.985 0.24095238095238095 0.015714285714285715 0.01619047619047619
1 0.875 0.13714285714285715 0.009285714285714286 0.011428571428571429
1 0.8685714285714285 0.12857142857142856 0.009285714285714286 0.009523809523809525
1 0.885 0.13714285714285715 0.007857142857142858 0.014285714285714285
