1 0.9655 0.8266666666666667 0.0685 0.10933333333333334
1 0.4165 0.9093333333333333 0.1075 0.164
1 0.63 0.44333333333333336 0.0455 0.052
1 0.4905 0.37333333333333335 0.0445 0.05466666666666667
1 0.153 0.9166666666666666 0.1465 0.166
1 0.0475 0.6666666666666666 0.0955 0.07733333333333334
1 0.126 0.8166666666666667 0.161 0.18266666666666667
1 0.4155 0.47533333333333333 0.061 0.08066666666666666
1 0.5695 0.31866666666666665 0.084 0.122
1 0.695 0.2833333333333333 0.0405 0.04933333333333333
1 0.6115 0.23 0.0355 0.03666666666666667
1 0.755 0.16666666666666666 0.0225 0.024666666666666667
1 0.7365 0.15866666666666668 0.0195 0.022
1 0.668 0.164 0.051 0.05466666666666667
1 0.7005 0.126 0.034 0.043333333333333335
1 0.7235 0.09866666666666667 0.0295 0.03266666666666666
1 0.7065 0.15666666666666668 0.0205 0.021333333333333333
1 0.7265 0.13066666666666665 0.019 0.018666666666666668
1 0.741 0.08133333333333333 0.017 0.023333333333333334
1 0.747 0.06466666666666666 0.0195 0.03133333333333333
1 0.8545 0.104 0.026 0.015333333333333332
1 0.8225 0.1 0.029 0.014666666666666666
0 0.8385 0.102 0.006 0.012666666666666666
1 0.802 0.06933333333333333 0.0105 0.010666666666666666
1 0.7675 0.07466666666666667 0.011 0.012666666666666666
1 0.781 0.056666666666666664 0.01 0.010666666666666666
1 0.755 0.068 0.01 0.011333333333333334
1 0.756 0.06266666666666666 0.01 0.008666666666666666
1 0.7615 0.06266666666666666 0.01 0.011333333333333334
1 0.7665 0.04933333333333333 0.0185 0.028666666666666667
1 0.774 0.050666666666666665 0.01 0.011333333333333334
1 0.7745 0.04 0.016 0.02
1 0.8745 0.042 0.0185 0.011333333333333334
0 0.8385 0.050666666666666665 0.004 0.010666666666666666
1 0.794 0.036 0.013 0.018666666666666668
1 0.786 0.03333333333333333 0.007 0.008
1 0.7985 0.030666666666666665 0.0095 0.01
1 0.788 0.027333333333333334 0.008 0.010666666666666666
