0 0.265 0.8695238095238095 0.0064285714285714285 0.006666666666666667
0 0.2985714285714286 0.8809523809523809 0.0064285714285714285 0.006666666666666667
0 0.2835714285714286 0.8104761904761905 0.0064285714285714285 0.004761904761904762
1 0.30214285714285716 0.8723809523809524 0.007857142857142858 0.014285714285714285
1 0.18928571428571428 0.679047619047619 0.027857142857142858 0.017142857142857144
1 0.19285714285714287 0.659047619047619 0.027857142857142858 0.018095238095238095
1 0.14357142857142857 0.6476190476190476 0.030714285714285715 0.01904761904761905
1 0.20357142857142857 0.5980952380952381 0.024285714285714285 0.01619047619047619
1 0.1492857142857143 0.5904761904761905 0.02857142857142857 0.014285714285714285
1 0.2092857142857143 0.5533333333333333 0.025714285714285714 0.015238095238095238
1 0.15571428571428572 0.5676190476190476 0.03 0.01619047619047619
1 0.15642857142857142 0.5476190476190477 0.03142857142857143 0.022857142857142857
1 0.15857142857142856 0.5285714285714286 0.023571428571428573 0.014285714285714285
1 0.16142857142857142 0.5095238095238095 0.023571428571428573 0.015238095238095238
1 0.225 0.44952380952380955 0.023571428571428573 0.014285714285714285
1 0.22857142857142856 0.4276190476190476 0.023571428571428573 0.015238095238095238
1 0.23214285714285715 0.4095238095238095 0.022857142857142857 0.01619047619047619
1 0.1757142857142857 0.4228571428571429 0.02642857142857143 0.013333333333333334
1 0.18071428571428572 0.40095238095238095 0.024285714285714285 0.01619047619047619
1 0.24642857142857144 0.2876190476190476 0.023571428571428573 0.017142857142857144
1 0.25 0.2723809523809524 0.017857142857142856 0.013333333333333334
1 0.25 0.2561904761904762 0.02214285714285714 0.014285714285714285
1 0.25285714285714284 0.24095238095238095 0.022857142857142857 0.015238095238095238
1 0.20214285714285715 0.26857142857142857 0.023571428571428573 0.015238095238095238
1 0.20642857142857143 0.25333333333333335 0.023571428571428573 0.013333333333333334
1 0.20857142857142857 0.24 0.022857142857142857 0.011428571428571429
1 0.21214285714285713 0.21428571428571427 0.02214285714285714 0.013333333333333334
1 0.215 0.2 0.024285714285714285 0.013333333333333334
1 0.2557142857142857 0.2180952380952381 0.02142857142857143 0.013333333333333334
1 0.2571428571428571 0.20285714285714285 0.023571428571428573 0.014285714285714285
1 0.26 0.18666666666666668 0.02214285714285714 0.014285714285714285
1 0.26357142857142857 0.16476190476190475 0.02 0.014285714285714285
1 0.26357142857142857 0.15142857142857144 0.02 0.014285714285714285
1 0.22214285714285714 0.14761904761904762 0.018571428571428572 0.012380952380952381
1 0.16785714285714284 0.18666666666666668 0.022857142857142857 0.013333333333333334
1 0.23642857142857143 0.10095238095238095 0.011428571428571429 0.025714285714285714
1 0.24785714285714286 0.10095238095238095 0.01 0.02095238095238095
1 0.2592857142857143 0.10095238095238095 0.012142857142857143 0.024761904761904763
1 0.2735714285714286 0.0980952380952381 0.010714285714285714 0.023809523809523808
1 0.11785714285714285 0.008571428571428572 0.012142857142857143 0.017142857142857144
1 0.12142857142857143 0.06095238095238095 0.011428571428571429 0.022857142857142857
1 0.11142857142857143 0.029523809523809525 0.011428571428571429 0.018095238095238095
1 0.10571428571428572 0.05333333333333334 0.012857142857142857 0.021904761904761906
1 0.1 0.07523809523809524 0.012857142857142857 0.022857142857142857
1 0.095 0.0980952380952381 0.012857142857142857 0.022857142857142857
1 0.08857142857142856 0.12 0.012857142857142857 0.022857142857142857
1 0.08285714285714285 0.1457142857142857 0.014285714285714285 0.022857142857142857
1 0.07642857142857143 0.1742857142857143 0.013571428571428571 0.023809523809523808
1 0.06714285714285714 0.2019047619047619 0.017142857142857144 0.029523809523809525
0 0.08071428571428571 0.19333333333333333 0.0035714285714285713 0.004761904761904762
1 0.08214285714285714 0.19714285714285715 0.005 0.008571428571428572
1 0.06142857142857143 0.23238095238095238 0.015 0.024761904761904763
1 0.04642857142857143 0.2885714285714286 0.015 0.02666666666666667
1 0.054285714285714284 0.2571428571428571 0.015714285714285715 0.02761904761904762
1 0.03785714285714286 0.3180952380952381 0.017142857142857144 0.030476190476190476
1 0.030714285714285715 0.3495238095238095 0.015714285714285715 0.02761904761904762
1 0.023571428571428573 0.38095238095238093 0.015714285714285715 0.02761904761904762
1 0.015 0.41619047619047617 0.015714285714285715 0.02857142857142857
1 0.007142857142857143 0.4523809523809524 0.014285714285714285 0.030476190476190476
1 0.3821428571428571 0.10666666666666667 0.012857142857142857 0.025714285714285714
0 0.385 0.43142857142857144 0.0035714285714285713 0.005714285714285714
0 0.37714285714285717 0.43523809523809526 0.0035714285714285713 0.005714285714285714
0 0.3792857142857143 0.4266666666666667 0.005714285714285714 0.004761904761904762
0 0.29285714285714287 0.66 0.005 0.002857142857142857
0 0.2892857142857143 0.6619047619047619 0.004285714285714286 0.0038095238095238095
