0 0.896 0.5266666666666666 0.0075 0.02666666666666667
0 0.693 0.658 0.0095 0.03266666666666666
0 0.6815 0.6453333333333333 0.0065 0.029333333333333333
0 0.7175 0.586 0.01 0.03133333333333333
0 0.664 0.5966666666666667 0.008 0.029333333333333333
1 0.617 0.592 0.0425 0.08066666666666666
1 0.5655 0.7006666666666667 0.037 0.07733333333333334
1 0.5535 0.6473333333333333 0.034 0.06466666666666666
1 0.5895 0.49 0.0235 0.03
1 0.599 0.5246666666666666 0.0265 0.034666666666666665
1 0.556 0.546 0.0285 0.035333333333333335
1 0.5245 0.592 0.0575 0.036
1 0.514 0.572 0.0625 0.035333333333333335
1 0.5085 0.5506666666666666 0.054 0.03
1 0.512 0.534 0.0545 0.032
1 0.5065 0.5126666666666667 0.0495 0.026
1 0.5055 0.498 0.051 0.02666666666666667
1 0.4995 0.484 0.047 0.024666666666666667
1 0.5005 0.4726666666666667 0.0455 0.024
1 0.501 0.4573333333333333 0.0455 0.024666666666666667
1 0.5035 0.44866666666666666 0.042 0.021333333333333333
1 0.505 0.438 0.0425 0.021333333333333333
1 0.456 0.372 0.0155 0.02
1 0.499 0.30133333333333334 0.0255 0.016
1 0.4985 0.2986666666666667 0.025 0.014666666666666666
1 0.5005 0.29333333333333333 0.0245 0.015333333333333332
1 0.496 0.2826666666666667 0.024 0.013333333333333334
1 0.4925 0.2886666666666667 0.0235 0.016666666666666666
1 0.496 0.2793333333333333 0.024 0.012
1 0.494 0.2753333333333333 0.022 0.011333333333333334
1 0.53 0.24666666666666667 0.0095 0.012666666666666666
1 0.5245 0.236 0.0095 0.011333333333333334
1 0.5225 0.232 0.0085 0.008666666666666666
1 0.503 0.24066666666666667 0.007 0.013333333333333334
1 0.499 0.23733333333333334 0.007 0.009333333333333334
1 0.497 0.23266666666666666 0.007 0.01
1 0.5055 0.21466666666666667 0.0085 0.009333333333333334
1 0.5035 0.21133333333333335 0.008 0.008666666666666666
1 0.4855 0.22466666666666665 0.0155 0.01
1 0.4835 0.22133333333333333 0.017 0.011333333333333334
1 0.4865 0.21466666666666667 0.007 0.009333333333333334
1 0.482 0.212 0.0065 0.008
1 0.477 0.206 0.0065 0.007333333333333333
1 0.4735 0.20266666666666666 0.0055 0.007333333333333333
1 0.47 0.2 0.005 0.006
1 0.493 0.20333333333333334 0.008 0.007333333333333333
1 0.489 0.20066666666666666 0.007 0.007333333333333333
1 0.481 0.192 0.011 0.006666666666666667
1 0.478 0.17666666666666667 0.01 0.006
1 0.4595 0.17466666666666666 0.012 0.006666666666666667
1 0.4435 0.17333333333333334 0.0125 0.007333333333333333
