1 0.1457142857142857 0.815989847715736 0.10357142857142858 0.07868020304568528
1 0.15285714285714286 0.751269035532995 0.08857142857142856 0.07487309644670051
1 0.18285714285714286 0.6967005076142132 0.08357142857142857 0.07233502538071065
1 0.1957142857142857 0.6522842639593909 0.075 0.05583756345177665
1 0.21357142857142858 0.6053299492385786 0.07071428571428572 0.050761421319796954
1 0.22285714285714286 0.5545685279187818 0.06928571428571428 0.048223350253807105
1 0.23357142857142857 0.516497461928934 0.06714285714285714 0.06345177664974619
1 0.24785714285714286 0.48223350253807107 0.06714285714285714 0.048223350253807105
1 0.25357142857142856 0.44289340101522845 0.05928571428571429 0.0532994923857868
1 0.36642857142857144 0.6903553299492385 0.037142857142857144 0.12055837563451777
1 0.405 0.7017766497461929 0.02642857142857143 0.07360406091370558
1 0.6742857142857143 0.8934010152284264 0.045 0.0850253807106599
1 0.715 0.8883248730964467 0.04428571428571428 0.08375634517766498
1 0.78 0.8121827411167513 0.08714285714285715 0.09137055837563451
1 0.8035714285714286 0.7703045685279187 0.07642857142857143 0.08629441624365482
1 0.8164285714285714 0.7347715736040609 0.07642857142857143 0.09137055837563451
1 0.8471428571428572 0.682741116751269 0.13 0.15609137055837563
1 0.8621428571428571 0.6053299492385786 0.08142857142857143 0.0901015228426396
1 0.875 0.5736040609137056 0.06 0.07487309644670051
0 0.9778571428571429 0.6560913705583756 0.02142857142857143 0.03680203045685279
1 0.8635714285714285 0.46954314720812185 0.06428571428571428 0.05964467005076142
1 0.715 0.46573604060913704 0.07 0.050761421319796954
1 0.6392857142857142 0.5799492385786802 0.03357142857142857 0.09517766497461928
1 0.6028571428571429 0.583756345177665 0.032857142857142856 0.07741116751269035
1 0.565 0.583756345177665 0.03214285714285714 0.08756345177664974
1 0.5321428571428571 0.5799492385786802 0.027142857142857142 0.10152284263959391
1 0.5557142857142857 0.4479695431472081 0.06571428571428571 0.06345177664974619
