1 0.35714285714285715 0.7017766497461929 0.039285714285714285 0.1446700507614213
1 0.415 0.39593908629441626 0.02857142857142857 0.08375634517766498
1 0.42142857142857143 0.048223350253807105 0.023571428571428573 0.025380710659898477
1 0.6128571428571429 0.49746192893401014 0.02 0.04949238578680203
