0 0.7505 0.562 0.042 0.09533333333333334
1 0.684 0.5433333333333333 0.0655 0.072
0 0.6895 0.5306666666666666 0.036 0.08466666666666667
1 0.6115 0.506 0.077 0.06733333333333333
0 0.618 0.482 0.0235 0.08666666666666667
0 0.7595 0.43533333333333335 0.0215 0.06133333333333333
0 0.778 0.42866666666666664 0.037 0.08533333333333333
1 0.817 0.4066666666666667 0.0395 0.048
0 0.8215 0.396 0.0265 0.050666666666666665
1 0.734 0.38466666666666666 0.042 0.054
0 0.7385 0.368 0.0305 0.062
1 0.945 0.438 0.0685 0.056666666666666664
0 0.9585 0.43066666666666664 0.024 0.05733333333333333
0 0.953 0.4226666666666667 0.041 0.076
1 0.925 0.36466666666666664 0.15 0.106
1 0.84 0.3253333333333333 0.027 0.051333333333333335
1 0.78 0.334 0.0165 0.05266666666666667
0 0.7585 0.31933333333333336 0.0235 0.059333333333333335
0 0.664 0.314 0.0225 0.058666666666666666
0 0.661 0.31533333333333335 0.012 0.04533333333333334
0 0.6405 0.30733333333333335 0.019 0.06066666666666667
1 0.5815 0.43333333333333335 0.0655 0.07
0 0.585 0.42933333333333334 0.0345 0.08466666666666667
0 0.418 0.5546666666666666 0.037 0.108
0 0.486 0.48333333333333334 0.0345 0.10066666666666667
0 0.36 0.5306666666666666 0.027 0.10133333333333333
0 0.3745 0.5126666666666667 0.0275 0.102
0 0.361 0.48533333333333334 0.034 0.09466666666666666
0 0.337 0.556 0.028 0.104
0 0.5355 0.39866666666666667 0.027 0.08466666666666667
1 0.526 0.398 0.0335 0.059333333333333335
1 0.4945 0.37533333333333335 0.047 0.056
0 0.49 0.36133333333333334 0.0285 0.06933333333333333
0 0.437 0.37333333333333335 0.019 0.08266666666666667
0 0.458 0.3373333333333333 0.019 0.06733333333333333
1 0.4675 0.3426666666666667 0.049 0.04733333333333333
1 0.382 0.36666666666666664 0.022 0.05333333333333334
0 0.385 0.3526666666666667 0.0295 0.06666666666666667
0 0.449 0.30466666666666664 0.0195 0.058666666666666666
1 0.456 0.31 0.0185 0.05333333333333334
1 0.469 0.282 0.0145 0.046
0 0.465 0.2793333333333333 0.016 0.024666666666666667
1 0.401 0.29933333333333334 0.028 0.04533333333333334
0 0.398 0.2926666666666667 0.019 0.05533333333333333
0 0.355 0.334 0.019 0.059333333333333335
0 0.418 0.24066666666666667 0.0095 0.03333333333333333
0 0.409 0.234 0.011 0.043333333333333335
0 0.409 0.22933333333333333 0.013 0.044
0 0.423 0.22733333333333333 0.01 0.043333333333333335
1 0.432 0.21533333333333332 0.031 0.026
0 0.431 0.21 0.0125 0.034
1 0.42 0.198 0.0285 0.04466666666666667
1 0.3595 0.20333333333333334 0.054 0.03866666666666667
1 0.3525 0.196 0.0555 0.03933333333333333
0 0.1965 0.486 0.0165 0.074
0 0.1055 0.468 0.0345 0.08866666666666667
0 0.061 0.4653333333333333 0.041 0.08666666666666667
0 0.0305 0.5093333333333333 0.0365 0.102
0 0.024 0.48933333333333334 0.038 0.09666666666666666
1 0.251 0.398 0.183 0.09133333333333334
1 0.179 0.24066666666666667 0.089 0.051333333333333335
1 0.2285 0.23 0.0285 0.028
0 0.219 0.226 0.012 0.028666666666666667
1 0.2235 0.20666666666666667 0.0685 0.044
1 0.223 0.17666666666666667 0.0375 0.03333333333333333
0 0.2975 0.20933333333333334 0.01 0.03
0 0.3055 0.20933333333333334 0.009 0.027333333333333334
1 0.2925 0.21066666666666667 0.027 0.032
0 0.2955 0.18933333333333333 0.012 0.03133333333333333
0 0.305 0.18266666666666667 0.01 0.015333333333333332
0 0.264 0.17866666666666667 0.014 0.03133333333333333
0 0.0775 0.21133333333333335 0.0125 0.026
0 0.105 0.204 0.012 0.029333333333333333
0 0.088 0.19733333333333333 0.013 0.032
0 0.122 0.18866666666666668 0.0095 0.028
0 0.1335 0.18733333333333332 0.009 0.028
1 0.11 0.18533333333333332 0.0665 0.04
1 0.157 0.17066666666666666 0.0455 0.024666666666666667
1 0.164 0.16333333333333333 0.043 0.027333333333333334
0 0.194 0.16733333333333333 0.0095 0.030666666666666665
0 0.222 0.15866666666666668 0.007 0.022
0 0.23 0.15933333333333333 0.008 0.024666666666666667
0 0.2495 0.152 0.008 0.024
1 0.255 0.16266666666666665 0.0205 0.025333333333333333
1 0.283 0.15533333333333332 0.0285 0.03133333333333333
1 0.2975 0.14866666666666667 0.021 0.023333333333333334
1 0.228 0.14266666666666666 0.045 0.030666666666666665
1 0.197 0.15733333333333333 0.046 0.021333333333333333
1 0.204 0.14933333333333335 0.0505 0.03666666666666667
1 0.134 0.12666666666666668 0.0325 0.015333333333333332
1 0.155 0.14133333333333334 0.0355 0.02
1 0.2225 0.12466666666666666 0.0325 0.016
1 0.2465 0.136 0.038 0.018
1 0.276 0.132 0.04 0.018666666666666668
1 0.267 0.12466666666666666 0.0275 0.016666666666666666
1 0.3415 0.15133333333333332 0.042 0.03133333333333333
