1 0.5171428571428571 0.5456852791878173 0.025 0.0850253807106599
1 0.5121428571428571 0.4200507614213198 0.024285714285714285 0.08121827411167512
1 0.47285714285714286 0.4086294416243655 0.023571428571428573 0.0850253807106599
1 0.5071428571428571 0.31091370558375636 0.02 0.08121827411167512
1 0.5664285714285714 0.1751269035532995 0.020714285714285713 0.07106598984771574
1 0.5114285714285715 0.1116751269035533 0.017857142857142856 0.07233502538071065
1 0.4735714285714286 0.12436548223350254 0.02142857142857143 0.07360406091370558
1 0.5185714285714286 0.7677664974619289 0.027857142857142858 0.11294416243654823
1 0.47785714285714287 0.9289340101522843 0.03142857142857143 0.12309644670050761
1 0.8207142857142857 0.6789340101522843 0.039285714285714285 0.08375634517766498
1 0.6864285714285714 0.6218274111675127 0.027857142857142858 0.1116751269035533
1 0.3242857142857143 0.11548223350253807 0.04071428571428572 0.05964467005076142
1 0.18 0.14720812182741116 0.027857142857142858 0.07360406091370558
1 0.039285714285714285 0.1598984771573604 0.024285714285714285 0.06725888324873096
1 0.08357142857142857 0.1434010152284264 0.03142857142857143 0.06725888324873096
1 0.14714285714285713 0.12690355329949238 0.025714285714285714 0.05964467005076142
1 0.11785714285714285 0.13324873096446702 0.023571428571428573 0.07868020304568528
1 0.011428571428571429 0.19416243654822335 0.023571428571428573 0.06852791878172589
1 0.4092857142857143 0.7753807106598984 0.04357142857142857 0.21573604060913706
1 0.21214285714285713 0.13451776649746192 0.02642857142857143 0.07614213197969544
1 0.05714285714285714 0.01903553299492386 0.025 0.03807106598984772
1 0.08357142857142857 0.017766497461928935 0.025 0.03680203045685279
1 0.11071428571428571 0.015228426395939087 0.020714285714285713 0.031725888324873094
1 0.16285714285714287 0.01649746192893401 0.025714285714285714 0.03426395939086294
1 0.19 0.012690355329949238 0.02 0.025380710659898477
1 0.5085714285714286 0.20558375634517767 0.022857142857142857 0.07614213197969544
0 0.37214285714285716 0.2563451776649746 0.01 0.027918781725888325
0 0.3578571428571429 0.25380710659898476 0.007857142857142858 0.02284263959390863
1 0.4735714285714286 0.5748730964467005 0.022857142857142857 0.09137055837563451
