0 0.5642857142857143 0.5504761904761905 0.012857142857142857 0.06857142857142857
0 0.6114285714285714 0.4847619047619048 0.020714285714285713 0.06190476190476191
0 0.5442857142857143 0.3619047619047619 0.010714285714285714 0.04
0 0.5871428571428572 0.31047619047619046 0.011428571428571429 0.037142857142857144
0 0.4857142857142857 0.3304761904761905 0.007857142857142858 0.03333333333333333
0 0.4757142857142857 0.32476190476190475 0.010714285714285714 0.03238095238095238
0 0.48 0.3038095238095238 0.008571428571428572 0.035238095238095235
0 0.43642857142857144 0.31238095238095237 0.012142857142857143 0.03619047619047619
0 0.425 0.31333333333333335 0.010714285714285714 0.024761904761904763
0 0.37142857142857144 0.31523809523809526 0.01 0.035238095238095235
0 0.3807142857142857 0.3171428571428571 0.013571428571428571 0.03238095238095238
0 0.43 0.2714285714285714 0.011428571428571429 0.03142857142857143
0 0.2571428571428571 0.3314285714285714 0.012857142857142857 0.03619047619047619
1 0.32071428571428573 0.3161904761904762 0.024285714285714285 0.025714285714285714
0 0.32357142857142857 0.28476190476190477 0.012857142857142857 0.03238095238095238
0 0.32857142857142857 0.28285714285714286 0.011428571428571429 0.030476190476190476
0 0.24142857142857144 0.3038095238095238 0.015 0.03619047619047619
0 0.2092857142857143 0.29619047619047617 0.01 0.030476190476190476
0 0.22 0.2923809523809524 0.016428571428571428 0.035238095238095235
0 0.23285714285714285 0.29428571428571426 0.010714285714285714 0.03142857142857143
0 0.24714285714285714 0.29428571428571426 0.010714285714285714 0.029523809523809525
0 0.24571428571428572 0.2923809523809524 0.007142857142857143 0.03238095238095238
0 0.46285714285714286 0.2361904761904762 0.008571428571428572 0.03428571428571429
0 0.44142857142857145 0.23238095238095238 0.008571428571428572 0.03333333333333333
0 0.4857142857142857 0.23904761904761904 0.008571428571428572 0.029523809523809525
0 0.4807142857142857 0.22952380952380952 0.005714285714285714 0.02857142857142857
0 0.42142857142857143 0.23047619047619047 0.007142857142857143 0.02857142857142857
0 0.2692857142857143 0.34 0.011428571428571429 0.03142857142857143
0 0.27214285714285713 0.33714285714285713 0.012857142857142857 0.03333333333333333
0 0.29642857142857143 0.3485714285714286 0.012142857142857143 0.029523809523809525
0 0.3057142857142857 0.3457142857142857 0.014285714285714285 0.03142857142857143
0 0.305 0.3219047619047619 0.012857142857142857 0.03142857142857143
0 0.2907142857142857 0.3171428571428571 0.011428571428571429 0.03619047619047619
0 0.3485714285714286 0.26761904761904765 0.011428571428571429 0.02095238095238095
0 0.4114285714285714 0.2866666666666667 0.015 0.022857142857142857
0 0.41 0.3028571428571429 0.011428571428571429 0.024761904761904763
