1 0.11659513590844063 0.5381679389312977 0.05007153075822604 0.05629770992366412
1 0.2067238912732475 0.5076335877862596 0.04363376251788269 0.05534351145038168
1 0.3190271816881259 0.4685114503816794 0.05507868383404864 0.04007633587786259
1 0.8361945636623748 0.6879770992366412 0.09227467811158799 0.05725190839694656
1 0.82689556509299 0.5305343511450382 0.07224606580829757 0.046755725190839696
1 0.1630901287553648 0.4217557251908397 0.04005722460658083 0.042938931297709926
1 0.0736766809728183 0.45133587786259544 0.03648068669527897 0.04103053435114504
1 0.016452074391988557 0.4847328244274809 0.032904148783977114 0.04866412213740458
1 0.023605150214592276 0.40458015267175573 0.04792560801144492 0.04103053435114504
0 0.08941344778254649 0.375 0.009298998569384835 0.02194656488549618
0 0.3798283261802575 0.6374045801526718 0.013590844062947067 0.033396946564885496
0 0.3726752503576538 0.6412213740458015 0.010014306151645207 0.03721374045801527
0 0.3626609442060086 0.6030534351145038 0.015021459227467811 0.035305343511450385
0 0.3698140200286123 0.5725190839694656 0.011444921316165951 0.033396946564885496
1 0.32474964234620884 0.14790076335877864 0.007868383404864092 0.008587786259541985
1 0.31616595135908443 0.1765267175572519 0.008583690987124463 0.012404580152671756
1 0.2503576537911302 0.183206106870229 0.012875536480686695 0.016221374045801526
1 0.17453505007153075 0.3387404580152672 0.04220314735336195 0.05916030534351145
1 0.4234620886981402 0.1851145038167939 0.013590844062947067 0.013358778625954198
0 0.41416309012875535 0.19751908396946566 0.004291845493562232 0.011450381679389313
0 0.40486409155937053 0.26240458015267176 0.00357653791130186 0.015267175572519083
1 0.4492131616595136 0.42843511450381677 0.022889842632331903 0.02194656488549618
1 0.3361945636623748 0.5267175572519084 0.02503576537911302 0.022900763358778626
1 0.3290414878397711 0.38645038167938933 0.005722460658082976 0.020038167938931296
1 0.5608011444921316 0.46469465648854963 0.02503576537911302 0.01717557251908397
0 0.3383404864091559 0.5219465648854962 0.012875536480686695 0.035305343511450385
0 0.5600858369098712 0.4580152671755725 0.008583690987124463 0.02194656488549618
0 0.5679542203147353 0.4570610687022901 0.01072961373390558 0.025763358778625955
0 0.32761087267525035 0.38263358778625955 0.009298998569384835 0.020038167938931296
1 0.04148783977110158 0.3301526717557252 0.017167381974248927 0.011450381679389313
1 0.5200286123032904 0.3988549618320611 0.058655221745350504 0.030534351145038167
0 0.6337625178826896 0.4169847328244275 0.006437768240343348 0.020038167938931296
