1 0.655 0.5561904761904762 0.035 0.09428571428571429
1 0.5735714285714286 0.35904761904761906 0.027142857142857142 0.07238095238095238
1 0.43714285714285717 0.43047619047619046 0.03357142857142857 0.09047619047619047
1 0.49142857142857144 0.8219047619047619 0.047857142857142855 0.14
1 0.3078571428571429 0.7304761904761905 0.08285714285714285 0.1180952380952381
1 0.1457142857142857 0.9304761904761905 0.09571428571428571 0.11904761904761904
1 0.6214285714285714 0.23142857142857143 0.024285714285714285 0.05523809523809524
1 0.47285714285714286 0.16952380952380952 0.022857142857142857 0.05047619047619047
1 0.5364285714285715 0.30666666666666664 0.03571428571428571 0.08571428571428572
1 0.6764285714285714 0.20857142857142857 0.025 0.05333333333333334
1 0.515 0.10380952380952381 0.025 0.05619047619047619
1 0.4957142857142857 0.023809523809523808 0.02214285714285714 0.04857142857142857
1 0.5535714285714286 0.014285714285714285 0.024285714285714285 0.029523809523809525
1 0.7021428571428572 0.9323809523809524 0.05357142857142857 0.13333333333333333
1 0.8507142857142858 0.7780952380952381 0.022857142857142857 0.05714285714285714
0 0.8521428571428571 0.7752380952380953 0.015 0.0380952380952381
0 0.7464285714285714 0.17142857142857143 0.009285714285714286 0.02
0 0.77 0.17238095238095238 0.010714285714285714 0.01904761904761905
1 0.7714285714285715 0.18095238095238095 0.01 0.02761904761904762
1 0.7478571428571429 0.1819047619047619 0.009285714285714286 0.02666666666666667
1 0.42642857142857143 0.27714285714285714 0.012857142857142857 0.023809523809523808
0 0.42642857142857143 0.26761904761904765 0.011428571428571429 0.022857142857142857
