1 0.05714285714285714 0.8742857142857143 0.020714285714285713 0.02857142857142857
1 0.05 0.8047619047619048 0.024285714285714285 0.021904761904761906
1 0.08142857142857143 0.21428571428571427 0.015714285714285715 0.030476190476190476
1 0.09571428571428571 0.26476190476190475 0.02642857142857143 0.018095238095238095
1 0.09357142857142857 0.28095238095238095 0.024285714285714285 0.018095238095238095
1 0.08928571428571429 0.2980952380952381 0.024285714285714285 0.017142857142857144
1 0.08785714285714286 0.3161904761904762 0.025 0.017142857142857144
1 0.017857142857142856 0.32476190476190475 0.02142857142857143 0.023809523809523808
1 0.029285714285714286 0.2885714285714286 0.022857142857142857 0.01904761904761905
1 0.02642857142857143 0.26857142857142857 0.03 0.022857142857142857
1 0.03 0.24761904761904763 0.022857142857142857 0.01619047619047619
1 0.03642857142857143 0.21333333333333335 0.022857142857142857 0.018095238095238095
1 0.13785714285714284 0.4114285714285714 0.022857142857142857 0.018095238095238095
1 0.19 0.4 0.02142857142857143 0.02095238095238095
1 0.21214285714285713 0.4123809523809524 0.018571428571428572 0.02761904761904762
1 0.19642857142857142 0.44 0.019285714285714285 0.024761904761904763
1 0.23857142857142857 0.4361904761904762 0.015714285714285715 0.02857142857142857
1 0.24928571428571428 0.44 0.015 0.029523809523809525
1 0.2592857142857143 0.44285714285714284 0.013571428571428571 0.029523809523809525
1 0.09357142857142857 0.520952380952381 0.022857142857142857 0.024761904761904763
1 0.19642857142857142 0.5466666666666666 0.02214285714285714 0.02666666666666667
1 0.18357142857142858 0.5914285714285714 0.02 0.025714285714285714
1 0.22857142857142856 0.5771428571428572 0.02142857142857143 0.025714285714285714
1 0.23357142857142857 0.6485714285714286 0.020714285714285713 0.025714285714285714
1 0.24928571428571428 0.6057142857142858 0.020714285714285713 0.02857142857142857
1 0.2907142857142857 0.5714285714285714 0.023571428571428573 0.021904761904761906
1 0.2842857142857143 0.7 0.023571428571428573 0.02666666666666667
1 0.3392857142857143 0.5676190476190476 0.020714285714285713 0.023809523809523808
1 0.4278571428571429 0.6104761904761905 0.016428571428571428 0.02857142857142857
1 0.45571428571428574 0.5371428571428571 0.015 0.02761904761904762
1 0.4421428571428571 0.5752380952380952 0.02142857142857143 0.04
1 0.4807142857142857 0.4714285714285714 0.014285714285714285 0.02666666666666667
1 0.5 0.4123809523809524 0.015 0.03238095238095238
1 0.5592857142857143 0.2523809523809524 0.013571428571428571 0.02666666666666667
1 0.5728571428571428 0.21523809523809523 0.016428571428571428 0.02761904761904762
1 0.5864285714285714 0.18 0.013571428571428571 0.02666666666666667
1 0.4928571428571429 0.16095238095238096 0.02 0.021904761904761906
1 0.5528571428571428 0.16095238095238096 0.02214285714285714 0.021904761904761906
1 0.5021428571428571 0.1438095238095238 0.02142857142857143 0.02095238095238095
1 0.5271428571428571 0.16476190476190475 0.02142857142857143 0.021904761904761906
1 0.5407142857142857 0.14 0.023571428571428573 0.01904761904761905
1 0.5964285714285714 0.14857142857142858 0.012857142857142857 0.023809523809523808
1 0.6085714285714285 0.12095238095238095 0.014285714285714285 0.02857142857142857
1 0.6242857142857143 0.06952380952380953 0.015 0.024761904761904763
1 0.6378571428571429 0.0419047619047619 0.013571428571428571 0.02761904761904762
1 0.6214285714285714 0.009523809523809525 0.01 0.02
1 0.6492857142857142 0.012380952380952381 0.018571428571428572 0.025714285714285714
1 0.5828571428571429 0.839047619047619 0.017857142857142856 0.02761904761904762
1 0.6057142857142858 0.9876190476190476 0.022857142857142857 0.023809523809523808
1 0.015714285714285715 0.38095238095238093 0.03214285714285714 0.03619047619047619
