0 0.755 0.9323809523809524 0.030714285714285715 0.08571428571428572
0 0.7357142857142858 0.92 0.03142857142857143 0.08952380952380952
0 0.7714285714285715 0.6361904761904762 0.024285714285714285 0.040952380952380955
0 0.8078571428571428 0.49714285714285716 0.03 0.03333333333333333
0 0.03142857142857143 0.5323809523809524 0.03142857142857143 0.03333333333333333
0 0.052142857142857144 0.54 0.024285714285714285 0.03333333333333333
0 0.10571428571428572 0.540952380952381 0.027857142857142858 0.0419047619047619
0 0.2392857142857143 0.47714285714285715 0.020714285714285713 0.01904761904761905
0 0.19142857142857142 0.31238095238095237 0.012142857142857143 0.025714285714285714
0 0.2292857142857143 0.3142857142857143 0.013571428571428571 0.01904761904761905
0 0.2692857142857143 0.40190476190476193 0.013571428571428571 0.015238095238095238
0 0.23357142857142857 0.38761904761904764 0.013571428571428571 0.02095238095238095
0 0.19714285714285715 0.39904761904761904 0.011428571428571429 0.02857142857142857
0 0.1992857142857143 0.3923809523809524 0.011428571428571429 0.02666666666666667
0 0.29714285714285715 0.4780952380952381 0.02 0.047619047619047616
0 0.3264285714285714 0.3923809523809524 0.012857142857142857 0.045714285714285714
0 0.31357142857142856 0.18761904761904763 0.005 0.01904761904761905
0 0.32285714285714284 0.19142857142857142 0.005 0.01619047619047619
0 0.27214285714285713 0.5352380952380953 0.02 0.05142857142857143
0 0.25785714285714284 0.6780952380952381 0.029285714285714286 0.06666666666666667
0 0.22 0.6019047619047619 0.027142857142857142 0.06285714285714286
0 0.1457142857142857 0.5076190476190476 0.024285714285714285 0.05333333333333334
0 0.1657142857142857 0.5228571428571429 0.027142857142857142 0.058095238095238096
0 0.30357142857142855 0.5228571428571429 0.017142857142857144 0.04857142857142857
0 0.35285714285714287 0.5095238095238095 0.013571428571428571 0.0419047619047619
0 0.3535714285714286 0.4876190476190476 0.012857142857142857 0.029523809523809525
0 0.36142857142857143 0.49142857142857144 0.015 0.03238095238095238
0 0.315 0.5257142857142857 0.017857142857142856 0.029523809523809525
0 0.24214285714285713 0.5523809523809524 0.025714285714285714 0.03619047619047619
0 0.305 0.5219047619047619 0.016428571428571428 0.03142857142857143
0 0.6371428571428571 0.38571428571428573 0.008571428571428572 0.03428571428571429
