1 0.7207142857142858 0.8723809523809524 0.14214285714285715 0.2542857142857143
1 0.41928571428571426 0.8771428571428571 0.16357142857142856 0.24476190476190476
1 0.08285714285714285 0.4980952380952381 0.1657142857142857 0.10476190476190476
1 0.6642857142857143 0.3761904761904762 0.052142857142857144 0.12
1 0.495 0.4742857142857143 0.06785714285714285 0.10476190476190476
1 0.4135714285714286 0.4676190476190476 0.08142857142857143 0.12857142857142856
1 0.21214285714285713 0.35523809523809524 0.125 0.08
1 0.45 0.36095238095238097 0.062142857142857146 0.10952380952380952
1 0.23714285714285716 0.319047619047619 0.11642857142857142 0.0761904761904762
1 0.28714285714285714 0.2733333333333333 0.10214285714285715 0.07333333333333333
1 0.3842857142857143 0.24 0.07857142857142857 0.05142857142857143
1 0.5385714285714286 0.29428571428571426 0.05357142857142857 0.07047619047619047
1 0.5592857142857143 0.22285714285714286 0.04642857142857143 0.05714285714285714
1 0.6792857142857143 0.22095238095238096 0.041428571428571426 0.05714285714285714
1 0.36142857142857143 0.21523809523809523 0.06785714285714285 0.039047619047619046
1 0.3807142857142857 0.18666666666666668 0.08714285714285715 0.04285714285714286
1 0.51 0.23142857142857143 0.05285714285714286 0.07904761904761905
1 0.895 0.5923809523809523 0.065 0.06285714285714286
1 0.52 0.1819047619047619 0.029285714285714286 0.047619047619047616
1 0.5207142857142857 0.15714285714285714 0.03 0.024761904761904763
1 0.5285714285714286 0.13047619047619047 0.02642857142857143 0.035238095238095235
1 0.5578571428571428 0.12666666666666668 0.029285714285714286 0.037142857142857144
1 0.5671428571428572 0.18571428571428572 0.03142857142857143 0.049523809523809526
1 0.5207142857142857 0.0838095238095238 0.022857142857142857 0.02857142857142857
1 0.5214285714285715 0.04666666666666667 0.02 0.024761904761904763
1 0.47285714285714286 0.06666666666666667 0.018571428571428572 0.02857142857142857
1 0.4685714285714286 0.08571428571428572 0.018571428571428572 0.03333333333333333
1 0.46285714285714286 0.10857142857142857 0.023571428571428573 0.03333333333333333
1 0.4592857142857143 0.14476190476190476 0.03142857142857143 0.04666666666666667
1 0.7157142857142857 0.19333333333333333 0.06142857142857143 0.039047619047619046
1 0.7135714285714285 0.17714285714285713 0.05785714285714286 0.040952380952380955
1 0.7057142857142857 0.16952380952380952 0.06785714285714285 0.04380952380952381
1 0.69 0.16 0.07428571428571429 0.03619047619047619
1 0.6907142857142857 0.14476190476190476 0.06928571428571428 0.039047619047619046
1 0.665 0.11714285714285715 0.06357142857142857 0.02761904761904762
1 0.6542857142857142 0.10761904761904761 0.05714285714285714 0.029523809523809525
1 0.6535714285714286 0.10476190476190476 0.05142857142857143 0.029523809523809525
1 0.6392857142857142 0.08476190476190476 0.04928571428571429 0.024761904761904763
1 0.625 0.0761904761904762 0.04357142857142857 0.02095238095238095
1 0.6242857142857143 0.06952380952380953 0.05 0.02857142857142857
1 0.6135714285714285 0.05523809523809524 0.03785714285714286 0.01904761904761905
1 0.6057142857142858 0.04666666666666667 0.04357142857142857 0.02095238095238095
1 0.5964285714285714 0.035238095238095235 0.03571428571428571 0.01619047619047619
1 0.5935714285714285 0.04380952380952381 0.032857142857142856 0.01904761904761905
1 0.8271428571428572 0.7961904761904762 0.04357142857142857 0.10761904761904761
1 0.9178571428571428 0.7695238095238095 0.06928571428571428 0.0980952380952381
1 0.9328571428571428 0.7619047619047619 0.07571428571428572 0.08285714285714285
1 0.9621428571428572 0.7571428571428571 0.07571428571428572 0.10666666666666667
