1 0.5535714285714286 0.7076190476190476 0.14857142857142858 0.20285714285714285
1 0.37214285714285716 0.5933333333333334 0.023571428571428573 0.03142857142857143
0 0.37357142857142855 0.5904761904761905 0.008571428571428572 0.01904761904761905
1 0.35714285714285715 0.5485714285714286 0.014285714285714285 0.021904761904761906
0 0.3557142857142857 0.5438095238095239 0.007857142857142858 0.012380952380952381
1 0.37285714285714283 0.5238095238095238 0.027142857142857142 0.03428571428571429
1 0.32142857142857145 0.4676190476190476 0.022857142857142857 0.02761904761904762
1 0.3057142857142857 0.4866666666666667 0.025 0.023809523809523808
1 0.2571428571428571 0.47714285714285715 0.012142857142857143 0.018095238095238095
0 0.2592857142857143 0.47619047619047616 0.005 0.011428571428571429
1 0.11428571428571428 0.37333333333333335 0.018571428571428572 0.011428571428571429
1 0.16214285714285714 0.35523809523809524 0.02 0.022857142857142857
1 0.20142857142857143 0.32761904761904764 0.010714285714285714 0.005714285714285714
1 0.16785714285714284 0.3238095238095238 0.009285714285714286 0.010476190476190476
1 0.08571428571428572 0.32666666666666666 0.008571428571428572 0.006666666666666667
1 0.22142857142857142 0.28095238095238095 0.04928571428571429 0.013333333333333334
1 0.8764285714285714 0.4980952380952381 0.03642857142857143 0.021904761904761906
1 0.7278571428571429 0.44666666666666666 0.017142857142857144 0.015238095238095238
1 0.45071428571428573 0.43714285714285717 0.020714285714285713 0.01619047619047619
1 0.40214285714285714 0.4085714285714286 0.02 0.02095238095238095
1 0.09357142857142857 0.5352380952380953 0.032857142857142856 0.015238095238095238
1 0.825 0.5342857142857143 0.04428571428571428 0.02857142857142857
1 0.8007142857142857 0.5761904761904761 0.04214285714285714 0.025714285714285714
1 0.8171428571428572 0.6314285714285715 0.28714285714285714 0.17904761904761904
0 0.9792857142857143 0.5523809523809524 0.01 0.022857142857142857
0 0.9121428571428571 0.5133333333333333 0.007142857142857143 0.021904761904761906
