1 0.13785714285714284 0.7944162436548223 0.04428571428571428 0.06598984771573604
1 0.30428571428571427 0.48096446700507617 0.030714285714285715 0.04568527918781726
1 0.34785714285714286 0.5177664974619289 0.029285714285714286 0.0532994923857868
1 0.3657142857142857 0.4022842639593909 0.02642857142857143 0.03680203045685279
1 0.365 0.3616751269035533 0.02642857142857143 0.03299492385786802
1 0.4442857142857143 0.3616751269035533 0.02142857142857143 0.03553299492385787
1 0.40714285714285714 0.2906091370558376 0.02 0.02918781725888325
1 0.4514285714285714 0.20431472081218274 0.017857142857142856 0.02284263959390863
1 0.4785714285714286 0.18274111675126903 0.015 0.02284263959390863
1 0.5035714285714286 0.12563451776649745 0.012142857142857143 0.01903553299492386
1 0.52 0.06218274111675127 0.010714285714285714 0.017766497461928935
1 0.53 0.04187817258883249 0.012142857142857143 0.01903553299492386
1 0.5228571428571429 0.17766497461928935 0.015 0.031725888324873094
1 0.48857142857142855 0.21446700507614214 0.015714285714285715 0.030456852791878174
1 0.43357142857142855 0.24111675126903553 0.018571428571428572 0.0266497461928934
1 0.4757142857142857 0.14974619289340102 0.015714285714285715 0.0266497461928934
1 0.5264285714285715 0.07614213197969544 0.012142857142857143 0.02030456852791878
1 0.5735714285714286 0.031725888324873094 0.010714285714285714 0.02284263959390863
1 0.26142857142857145 0.7614213197969543 0.04428571428571428 0.09263959390862944
0 0.3821428571428571 0.8515228426395939 0.008571428571428572 0.03426395939086294
0 0.30428571428571427 0.9263959390862944 0.008571428571428572 0.03299492385786802
0 0.3792857142857143 0.8439086294416244 0.008571428571428572 0.03553299492385787
1 0.21928571428571428 0.6294416243654822 0.052142857142857144 0.09771573604060914
0 0.20214285714285715 0.549492385786802 0.008571428571428572 0.027918781725888325
0 0.43357142857142855 0.16370558375634517 0.004285714285714286 0.015228426395939087
0 0.43857142857142856 0.16243654822335024 0.0035714285714285713 0.013959390862944163
0 0.44142857142857145 0.16243654822335024 0.0035714285714285713 0.012690355329949238
0 0.4471428571428571 0.16243654822335024 0.002857142857142857 0.011421319796954314
0 0.455 0.1281725888324873 0.002857142857142857 0.013959390862944163
0 0.45714285714285713 0.1281725888324873 0.0035714285714285713 0.01015228426395939
0 0.44357142857142856 0.15736040609137056 0.002857142857142857 0.012690355329949238
