1 0.45571428571428574 0.5666666666666667 0.18214285714285713 0.20666666666666667
1 0.3821428571428571 0.7428571428571429 0.205 0.25333333333333335
1 0.2814285714285714 0.8714285714285714 0.18285714285714286 0.2438095238095238
1 0.7914285714285715 0.8047619047619048 0.175 0.25142857142857145
1 0.71 0.20761904761904762 0.11928571428571429 0.1742857142857143
1 0.515 0.07333333333333333 0.12928571428571428 0.14761904761904762
1 0.38642857142857145 0.32571428571428573 0.04 0.1
1 0.415 0.36952380952380953 0.047857142857142855 0.054285714285714284
0 0.7057142857142857 0.5066666666666667 0.03571428571428571 0.04380952380952381
0 0.7157142857142857 0.4438095238095238 0.03428571428571429 0.049523809523809526
0 0.6664285714285715 0.4876190476190476 0.025714285714285714 0.047619047619047616
0 0.49214285714285716 0.29333333333333333 0.022857142857142857 0.06285714285714286
0 0.44 0.9238095238095239 0.03357142857142857 0.04476190476190476
