1 0.3564718162839248 0.6892393320964749 0.05323590814196242 0.12708719851576994
1 0.2719206680584551 0.5983302411873841 0.030271398747390398 0.08905380333951762
1 0.4337160751565762 0.6799628942486086 0.026096033402922755 0.0640074211502783
1 0.44363256784968685 0.6493506493506493 0.013048016701461378 0.04267161410018553
1 0.41179540709812107 0.49814471243042674 0.016701461377870562 0.04359925788497217
1 0.4405010438413361 0.5037105751391465 0.011482254697286013 0.04267161410018553
0 0.3914405010438413 0.461038961038961 0.010960334029227558 0.038033395176252316
0 0.4326722338204593 0.4536178107606679 0.008872651356993737 0.038033395176252316
0 0.40866388308977036 0.4387755102040816 0.013048016701461378 0.04081632653061224
1 0.4211899791231733 0.4267161410018553 0.012526096033402923 0.04267161410018553
1 0.3987473903966597 0.3172541743970315 0.02139874739039666 0.025974025974025976
1 0.5062630480167014 0.4165120593692022 0.018789144050104383 0.036178107606679034
1 0.5146137787056367 0.4452690166975881 0.028183716075156576 0.07142857142857142
1 0.5083507306889353 0.33302411873840443 0.012526096033402923 0.04359925788497217
1 0.5026096033402923 0.5593692022263451 0.019311064718162838 0.0575139146567718
0 0.5307933194154488 0.7337662337662337 0.012526096033402923 0.03710575139146568
0 0.5307933194154488 0.7263450834879406 0.009916492693110648 0.032467532467532464
1 0.5307933194154488 0.7448979591836735 0.009394572025052192 0.0575139146567718
1 0.6962421711899791 0.787569573283859 0.032359081419624215 0.038033395176252316
1 0.8220250521920668 0.8033395176252319 0.03288100208768267 0.041743970315398886
1 0.708768267223382 0.7207792207792207 0.021920668058455117 0.04359925788497217
1 0.6993736951983298 0.7003710575139147 0.0255741127348643 0.036178107606679034
1 0.6957202505219207 0.6651205936920223 0.026096033402922755 0.032467532467532464
1 0.6586638830897703 0.6020408163265306 0.038100208768267224 0.09833024118738404
1 0.6951983298538622 0.6001855287569573 0.016701461377870562 0.05844155844155844
1 0.680062630480167 0.5463821892393321 0.02870563674321503 0.06493506493506493
1 0.7729645093945721 0.5946196660482375 0.012004175365344467 0.04916512059369202
1 0.7453027139874739 0.5500927643784786 0.012004175365344467 0.05102040816326531
1 0.7583507306889353 0.5565862708719852 0.013569937369519834 0.04730983302411874
1 0.7677453027139874 0.5547309833024119 0.014091858037578288 0.04730983302411874
0 0.662839248434238 0.49165120593692024 0.017745302713987474 0.03896103896103896
1 0.6633611691022965 0.474025974025974 0.060542797494780795 0.08719851576994433
0 0.6654488517745303 0.4712430426716141 0.013048016701461378 0.021335807050092765
1 0.6701461377870563 0.45083487940630795 0.010960334029227558 0.03432282003710575
0 0.6779749478079332 0.4461966604823748 0.012004175365344467 0.0287569573283859
1 0.7025052192066806 0.44063079777365494 0.012526096033402923 0.038033395176252316
1 0.7364300626304802 0.44063079777365494 0.019311064718162838 0.03153988868274583
1 0.7343423799582464 0.3942486085343228 0.019832985386221295 0.027829313543599257
1 0.6477035490605428 0.32838589981447125 0.024530271398747392 0.05844155844155844
1 0.6576200417536534 0.22356215213358072 0.010438413361169102 0.0287569573283859
1 0.6346555323590815 0.23933209647495363 0.017745302713987474 0.05194805194805195
0 0.6826722338204593 0.23191094619666047 0.008350730688935281 0.022263450834879406
0 0.6769311064718163 0.20500927643784786 0.006263048016701462 0.02504638218923933
0 0.6993736951983298 0.20408163265306123 0.006263048016701462 0.017625231910946195
0 0.697286012526096 0.20222634508348794 0.010438413361169102 0.02411873840445269
0 0.6764091858037579 0.19109461966604824 0.008350730688935281 0.030612244897959183
0 0.6623173277661796 0.21150278293135436 0.006784968684759917 0.03153988868274583
0 0.6508350730688935 0.19573283858998144 0.008350730688935281 0.032467532467532464
1 0.6362212943632568 0.21335807050092764 0.015657620041753653 0.032467532467532464
1 0.6362212943632568 0.20408163265306123 0.016179540709812108 0.016697588126159554
1 0.6362212943632568 0.19758812615955473 0.015657620041753653 0.016697588126159554
0 0.6362212943632568 0.19109461966604824 0.008872651356993737 0.030612244897959183
1 0.6263048016701461 0.14100185528756956 0.017745302713987474 0.038033395176252316
1 0.6231732776617954 0.12244897959183673 0.02244258872651357 0.041743970315398886
0 0.6242171189979123 0.08812615955473098 0.006784968684759917 0.025974025974025976
0 0.6231732776617954 0.08719851576994433 0.006784968684759917 0.022263450834879406
1 0.6236951983298539 0.09090909090909091 0.009394572025052192 0.021335807050092765
1 0.5798538622129437 0.15955473098330242 0.018789144050104383 0.04916512059369202
1 0.5944676409185804 0.14471243042671614 0.007828810020876827 0.02504638218923933
0 0.593945720250522 0.13636363636363635 0.007306889352818371 0.021335807050092765
1 0.5991649269311065 0.10018552875695733 0.01826722338204593 0.03896103896103896
0 0.5381002087682673 0.0686456400742115 0.005741127348643006 0.02411873840445269
1 0.5375782881002088 0.07421150278293136 0.007828810020876827 0.023191094619666047
1 0.5276617954070981 0.04267161410018553 0.009394572025052192 0.026901669758812616
1 0.5255741127348643 0.10946196660482375 0.013048016701461378 0.036178107606679034
1 0.4968684759916493 0.15862708719851576 0.016179540709812108 0.023191094619666047
1 0.6049060542797495 0.045454545454545456 0.019311064718162838 0.04452690166975881
1 0.5026096033402923 0.1345083487940631 0.017745302713987474 0.021335807050092765
1 0.4629436325678497 0.08905380333951762 0.012004175365344467 0.023191094619666047
1 0.4525052192066806 0.08812615955473098 0.006784968684759917 0.021335807050092765
0 0.4321503131524008 0.08998144712430427 0.006784968684759917 0.02504638218923933
1 0.4405010438413361 0.08441558441558442 0.010438413361169102 0.016697588126159554
1 0.4618997912317328 0.06307977736549165 0.012004175365344467 0.016697588126159554
1 0.45772442588726514 0.04823747680890538 0.015135699373695199 0.017625231910946195
1 0.4582463465553236 0.04730983302411874 0.012526096033402923 0.017625231910946195
1 0.4431106471816284 0.18645640074211503 0.027139874739039668 0.05844155844155844
1 0.40657620041753656 0.2606679035250464 0.02035490605427975 0.03153988868274583
1 0.45876826722338204 0.023191094619666047 0.015135699373695199 0.015769944341372914
1 0.4592901878914405 0.01855287569573284 0.011482254697286013 0.016697588126159554
1 0.5088726513569938 0.026901669758812616 0.01826722338204593 0.038033395176252316
1 0.5975991649269311 0.017625231910946195 0.012526096033402923 0.030612244897959183
1 0.6477035490605428 0.01948051948051948 0.012526096033402923 0.013914656771799629
