0 0.07714285714285714 0.9289340101522843 0.02142857142857143 0.031725888324873094
0 0.105 0.08883248730964467 0.012857142857142857 0.030456852791878174
0 0.11071428571428571 0.0850253807106599 0.01 0.03299492385786802
0 0.18428571428571427 0.6510152284263959 0.015 0.03553299492385787
1 0.18642857142857142 0.6522842639593909 0.024285714285714285 0.050761421319796954
1 0.5271428571428571 0.8071065989847716 0.039285714285714285 0.19416243654822335
1 0.5992857142857143 0.4733502538071066 0.047857142857142855 0.2398477157360406
1 0.95 0.666243654822335 0.052142857142857144 0.09898477157360407
1 0.9271428571428572 0.4873096446700508 0.03642857142857143 0.09390862944162437
1 0.9428571428571428 0.4213197969543147 0.03571428571428571 0.08375634517766498
1 0.9671428571428572 0.3477157360406091 0.035 0.08629441624365482
1 0.9828571428571429 0.2753807106598985 0.03357142857142857 0.07106598984771574
0 0.23642857142857143 0.4403553299492386 0.008571428571428572 0.03553299492385787
