1 0.5778571428571428 0.03619047619047619 0.018571428571428572 0.047619047619047616
1 0.5907142857142857 0.12857142857142856 0.017857142857142856 0.04380952380952381
1 0.6178571428571429 0.1761904761904762 0.0064285714285714285 0.02095238095238095
1 0.6378571428571429 0.2361904761904762 0.014285714285714285 0.006666666666666667
1 0.6392857142857142 0.24476190476190476 0.015714285714285715 0.010476190476190476
1 0.6407142857142857 0.3171428571428571 0.007142857142857143 0.024761904761904763
1 0.6542857142857142 0.36 0.015 0.013333333333333334
1 0.605 0.2980952380952381 0.020714285714285713 0.05238095238095238
1 0.635 0.45714285714285713 0.029285714285714286 0.049523809523809526
1 0.5471428571428572 0.4247619047619048 0.020714285714285713 0.054285714285714284
1 0.49857142857142855 0.4895238095238095 0.047142857142857146 0.03238095238095238
0 0.665 0.5428571428571428 0.008571428571428572 0.012380952380952381
1 0.7007142857142857 0.49333333333333335 0.017142857142857144 0.0419047619047619
1 0.7257142857142858 0.5076190476190476 0.007142857142857143 0.02666666666666667
1 0.7435714285714285 0.5085714285714286 0.007857142857142858 0.021904761904761906
1 0.8014285714285714 0.5552380952380952 0.04 0.030476190476190476
1 0.7792857142857142 0.5771428571428572 0.05 0.04
1 0.8257142857142857 0.5276190476190477 0.007857142857142858 0.02095238095238095
1 0.855 0.5685714285714286 0.04857142857142857 0.03238095238095238
1 0.9171428571428571 0.5780952380952381 0.05857142857142857 0.037142857142857144
1 0.9842857142857143 0.5933333333333334 0.030714285714285715 0.03333333333333333
1 0.8278571428571428 0.6333333333333333 0.02214285714285714 0.011428571428571429
0 0.8292857142857143 0.6323809523809524 0.008571428571428572 0.010476190476190476
0 0.835 0.6342857142857142 0.007857142857142858 0.009523809523809525
1 0.855 0.9133333333333333 0.056428571428571425 0.037142857142857144
1 0.675 0.8495238095238096 0.05 0.03238095238095238
1 0.66 0.88 0.03857142857142857 0.025714285714285714
1 0.5721428571428572 0.9638095238095238 0.020714285714285713 0.013333333333333334
1 0.5357142857142857 0.9180952380952381 0.024285714285714285 0.013333333333333334
1 0.5042857142857143 0.8885714285714286 0.004285714285714286 0.025714285714285714
1 0.4992857142857143 0.8333333333333334 0.054285714285714284 0.03238095238095238
1 0.3692857142857143 0.8076190476190476 0.05285714285714286 0.03333333333333333
1 0.2835714285714286 0.7895238095238095 0.05714285714285714 0.035238095238095235
1 0.22785714285714287 0.7771428571428571 0.05285714285714286 0.03619047619047619
1 0.3 0.7352380952380952 0.020714285714285713 0.011428571428571429
1 0.3507142857142857 0.7266666666666667 0.02 0.011428571428571429
0 0.3492857142857143 0.7247619047619047 0.008571428571428572 0.010476190476190476
0 0.2985714285714286 0.7342857142857143 0.009285714285714286 0.010476190476190476
1 0.02214285714285714 0.7342857142857143 0.04428571428571428 0.03333333333333333
1 0.017857142857142856 0.6676190476190477 0.03571428571428571 0.04285714285714286
1 0.07785714285714286 0.6076190476190476 0.06142857142857143 0.035238095238095235
1 0.020714285714285713 0.5228571428571429 0.04214285714285714 0.030476190476190476
1 0.032857142857142856 0.4847619047619048 0.04928571428571429 0.03142857142857143
1 0.04642857142857143 0.44857142857142857 0.055 0.03142857142857143
0 0.03571428571428571 0.4180952380952381 0.004285714285714286 0.011428571428571429
0 0.030714285714285715 0.41619047619047617 0.005 0.010476190476190476
1 0.03357142857142857 0.4180952380952381 0.020714285714285713 0.010476190476190476
0 0.10714285714285714 0.43333333333333335 0.009285714285714286 0.011428571428571429
1 0.10785714285714286 0.43333333333333335 0.019285714285714285 0.012380952380952381
1 0.11928571428571429 0.4704761904761905 0.05 0.03238095238095238
1 0.09571428571428571 0.49714285714285716 0.04428571428571428 0.02857142857142857
1 0.07 0.5371428571428571 0.05142857142857143 0.03428571428571429
1 0.14642857142857144 0.5485714285714286 0.10214285714285715 0.06
1 0.15214285714285714 0.5085714285714286 0.04357142857142857 0.030476190476190476
1 0.185 0.4819047619047619 0.055 0.03238095238095238
1 0.21 0.5238095238095238 0.04285714285714286 0.03142857142857143
1 0.14214285714285715 0.4180952380952381 0.047142857142857146 0.030476190476190476
1 0.19357142857142856 0.4266666666666667 0.05 0.025714285714285714
1 0.2764285714285714 0.4095238095238095 0.007142857142857143 0.025714285714285714
1 0.27285714285714285 0.5323809523809524 0.06571428571428571 0.04285714285714286
0 0.2785714285714286 0.6285714285714286 0.01 0.011428571428571429
0 0.4064285714285714 0.5266666666666666 0.009285714285714286 0.011428571428571429
0 0.44357142857142856 0.6104761904761905 0.007142857142857143 0.010476190476190476
0 0.43785714285714283 0.6104761904761905 0.007142857142857143 0.008571428571428572
1 0.2764285714285714 0.6295238095238095 0.020714285714285713 0.009523809523809525
1 0.43857142857142856 0.6114285714285714 0.019285714285714285 0.009523809523809525
1 0.405 0.5247619047619048 0.017142857142857144 0.011428571428571429
0 0.4707142857142857 0.5028571428571429 0.005714285714285714 0.009523809523809525
1 0.44642857142857145 0.4828571428571429 0.04428571428571428 0.02857142857142857
1 0.39285714285714285 0.4685714285714286 0.047857142857142855 0.03142857142857143
1 0.3335714285714286 0.45714285714285713 0.04857142857142857 0.03238095238095238
1 0.33071428571428574 0.4238095238095238 0.008571428571428572 0.025714285714285714
1 0.34214285714285714 0.4257142857142857 0.01 0.02666666666666667
