1 0.3585714285714286 0.8629441624365483 0.020714285714285713 0.04314720812182741
1 0.3492857142857143 0.7614213197969543 0.02 0.03680203045685279
1 0.42928571428571427 0.8604060913705583 0.02142857142857143 0.0532994923857868
1 0.3707142857142857 0.6395939086294417 0.013571428571428571 0.027918781725888325
1 0.4392857142857143 0.5977157360406091 0.012142857142857143 0.02918781725888325
1 0.4328571428571429 0.7411167512690355 0.014285714285714285 0.03299492385786802
1 0.33785714285714286 0.5977157360406091 0.020714285714285713 0.02918781725888325
1 0.3392857142857143 0.5913705583756346 0.02 0.021573604060913704
1 0.3442857142857143 0.5786802030456852 0.02142857142857143 0.01903553299492386
0 0.3392857142857143 0.684010152284264 0.004285714285714286 0.02030456852791878
0 0.33071428571428574 0.7144670050761421 0.0035714285714285713 0.021573604060913704
0 0.32357142857142857 0.7436548223350253 0.004285714285714286 0.013959390862944163
0 0.3264285714285714 0.7436548223350253 0.004285714285714286 0.011421319796954314
0 0.3221428571428571 0.7347715736040609 0.005 0.021573604060913704
0 0.325 0.7398477157360406 0.005 0.01903553299492386
0 0.3292857142857143 0.7322335025380711 0.005 0.02284263959390863
1 0.3792857142857143 0.6027918781725888 0.012142857142857143 0.02030456852791878
1 0.48642857142857143 0.6154822335025381 0.005 0.017766497461928935
0 0.48714285714285716 0.6116751269035533 0.0035714285714285713 0.01649746192893401
1 0.5214285714285715 0.49746192893401014 0.012142857142857143 0.03680203045685279
1 0.3964285714285714 0.4860406091370558 0.016428571428571428 0.050761421319796954
0 0.35714285714285715 0.5431472081218274 0.002857142857142857 0.013959390862944163
0 0.36642857142857144 0.5609137055837563 0.005 0.012690355329949238
0 0.36357142857142855 0.5317258883248731 0.002142857142857143 0.01015228426395939
0 0.37785714285714284 0.5038071065989848 0.002857142857142857 0.012690355329949238
0 0.3807142857142857 0.5038071065989848 0.002142857142857143 0.011421319796954314
1 0.44285714285714284 0.4720812182741117 0.008571428571428572 0.013959390862944163
1 0.41785714285714287 0.4403553299492386 0.007857142857142858 0.012690355329949238
1 0.49357142857142855 0.4289340101522843 0.007142857142857143 0.01649746192893401
1 0.4642857142857143 0.43274111675126903 0.011428571428571429 0.03426395939086294
1 0.4235714285714286 0.3870558375634518 0.009285714285714286 0.0266497461928934
1 0.5914285714285714 0.3413705583756345 0.0064285714285714285 0.01015228426395939
1 0.5985714285714285 0.3350253807106599 0.004285714285714286 0.01015228426395939
1 0.605 0.3210659898477157 0.007142857142857143 0.006345177664974619
1 0.585 0.33121827411167515 0.004285714285714286 0.007614213197969543
1 0.5864285714285714 0.32614213197969544 0.004285714285714286 0.007614213197969543
1 0.4607142857142857 0.3464467005076142 0.0064285714285714285 0.01015228426395939
1 0.44642857142857145 0.399746192893401 0.007857142857142858 0.01015228426395939
1 0.4707142857142857 0.3413705583756345 0.005714285714285714 0.011421319796954314
1 0.43642857142857144 0.3743654822335025 0.007857142857142858 0.02030456852791878
1 0.44857142857142857 0.35279187817258884 0.0064285714285714285 0.01015228426395939
1 0.45 0.315989847715736 0.005 0.007614213197969543
1 0.4421428571428571 0.29949238578680204 0.005 0.008883248730964468
1 0.4607142857142857 0.31091370558375636 0.0035714285714285713 0.008883248730964468
1 0.4614285714285714 0.30456852791878175 0.004285714285714286 0.005076142131979695
1 0.4942857142857143 0.33375634517766495 0.004285714285714286 0.007614213197969543
1 0.4685714285714286 0.31218274111675126 0.005714285714285714 0.017766497461928935
1 0.42928571428571427 0.233502538071066 0.004285714285714286 0.005076142131979695
1 0.43142857142857144 0.23604060913705585 0.002857142857142857 0.0038071065989847717
1 0.43785714285714283 0.2398477157360406 0.005 0.005076142131979695
1 0.44571428571428573 0.24619289340101522 0.0035714285714285713 0.0038071065989847717
1 0.45071428571428573 0.2512690355329949 0.002857142857142857 0.007614213197969543
1 0.4614285714285714 0.26015228426395937 0.0035714285714285713 0.006345177664974619
1 0.4585714285714286 0.2715736040609137 0.002857142857142857 0.007614213197969543
1 0.45 0.26903553299492383 0.0035714285714285713 0.006345177664974619
1 0.4514285714285714 0.28045685279187815 0.002857142857142857 0.006345177664974619
1 0.46 0.2868020304568528 0.0035714285714285713 0.005076142131979695
