1 0.5031315240083507 0.5148423005565863 0.04018789144050104 0.1280148423005566
1 0.5396659707724426 0.487012987012987 0.014091858037578288 0.027829313543599257
1 0.5662839248434238 0.4805194805194805 0.013569937369519834 0.029684601113172542
1 0.7098121085594989 0.5352504638218923 0.03444676409185804 0.027829313543599257
1 0.644572025052192 0.49814471243042674 0.03444676409185804 0.026901669758812616
1 0.6424843423799582 0.5269016697588126 0.031837160751565764 0.03339517625231911
1 0.6440501043841336 0.575139146567718 0.037578288100208766 0.0287569573283859
1 0.6508350730688935 0.6771799628942486 0.04540709812108559 0.03710575139146568
1 0.6487473903966597 0.7263450834879406 0.04592901878914405 0.03432282003710575
1 0.6503131524008351 0.7560296846011132 0.04801670146137787 0.038033395176252316
1 0.6623173277661796 0.8181818181818182 0.061586638830897704 0.05194805194805195
1 0.6602296450939458 0.849721706864564 0.059498956158663886 0.05287569573283859
1 0.8126304801670147 0.8794063079777366 0.0511482254697286 0.055658627087198514
1 0.7860125260960334 0.8404452690166976 0.05010438413361169 0.05473098330241188
1 0.7734864300626305 0.7940630797773655 0.05010438413361169 0.05658627087198516
1 0.7713987473903967 0.7551020408163265 0.04592901878914405 0.045454545454545456
1 0.7620041753653445 0.7068645640074211 0.03653444676409186 0.04452690166975881
1 0.7458246346555324 0.6781076066790352 0.0360125260960334 0.04267161410018553
1 0.7254697286012526 0.647495361781076 0.03914405010438413 0.039888682745825604
1 0.7202505219206681 0.6178107606679035 0.04175365344467641 0.032467532467532464
1 0.7239039665970772 0.48794063079777367 0.028183716075156576 0.029684601113172542
0 0.6430062630480167 0.6178107606679035 0.005741127348643006 0.02504638218923933
0 0.7426931106471816 0.6020408163265306 0.006784968684759917 0.02504638218923933
0 0.5360125260960334 0.35714285714285715 0.0036534446764091857 0.01855287569573284
0 0.6868475991649269 0.5909090909090909 0.007306889352818371 0.02040816326530612
1 0.7239039665970772 0.5927643784786641 0.013048016701461378 0.016697588126159554
1 0.7400835073068893 0.5853432282003711 0.013569937369519834 0.017625231910946195
0 0.7546972860125261 0.6048237476808905 0.004697286012526096 0.023191094619666047
1 0.6978079331941545 0.5862708719851577 0.015657620041753653 0.027829313543599257
1 0.8789144050104384 0.9860853432282004 0.05688935281837161 0.025974025974025976
0 0.5568893528183716 0.24582560296846012 0.0026096033402922755 0.008348794063079777
0 0.5756784968684759 0.2541743970315399 0.0026096033402922755 0.00927643784786642
0 0.5866388308977035 0.2606679035250464 0.003131524008350731 0.01020408163265306
0 0.5876826722338204 0.11317254174397032 0.0020876826722338203 0.0074211502782931356
1 0.5876826722338204 0.16233766233766234 0.007306889352818371 0.012059369202226345
1 0.6002087682672234 0.2569573283858998 0.008872651356993737 0.013914656771799629
1 0.6163883089770354 0.27736549165120594 0.017745302713987474 0.016697588126159554
