1 0.023571428571428573 0.24238578680203046 0.025 0.02284263959390863
1 0.1 0.2703045685279188 0.07142857142857142 0.0532994923857868
1 0.025714285714285714 0.3197969543147208 0.037142857142857144 0.03680203045685279
1 0.014285714285714285 0.3401015228426396 0.02857142857142857 0.03934010152284264
1 0.12214285714285714 0.399746192893401 0.05785714285714286 0.046954314720812185
1 0.14357142857142857 0.37944162436548223 0.03642857142857143 0.03426395939086294
1 0.24714285714285714 0.4543147208121827 0.07071428571428572 0.0532994923857868
1 0.295 0.4416243654822335 0.03571428571428571 0.03426395939086294
1 0.013571428571428571 0.39086294416243655 0.024285714285714285 0.025380710659898477
1 0.09571428571428571 0.4403553299492386 0.020714285714285713 0.024111675126903553
1 0.16857142857142857 0.42258883248730966 0.023571428571428573 0.024111675126903553
1 0.24428571428571427 0.2614213197969543 0.012857142857142857 0.046954314720812185
0 0.027142857142857142 0.46954314720812185 0.0064285714285714285 0.007614213197969543
0 0.04285714285714286 0.46446700507614214 0.0064285714285714285 0.005076142131979695
0 0.04357142857142857 0.47715736040609136 0.007857142857142858 0.01015228426395939
0 0.06785714285714285 0.4987309644670051 0.007857142857142858 0.007614213197969543
0 0.06928571428571428 0.4885786802030457 0.005714285714285714 0.006345177664974619
1 0.045714285714285714 0.35913705583756345 0.025 0.025380710659898477
1 0.06714285714285714 0.3426395939086294 0.024285714285714285 0.025380710659898477
1 0.08 0.37817258883248733 0.024285714285714285 0.024111675126903553
1 0.11 0.36548223350253806 0.025714285714285714 0.025380710659898477
1 0.1492857142857143 0.3489847715736041 0.02642857142857143 0.025380710659898477
1 0.1992857142857143 0.4035532994923858 0.027857142857142858 0.025380710659898477
1 0.19785714285714287 0.43908629441624364 0.025 0.025380710659898477
1 0.22785714285714287 0.383248730964467 0.025714285714285714 0.025380710659898477
1 0.25357142857142856 0.4289340101522843 0.025714285714285714 0.024111675126903553
0 0.2592857142857143 0.501269035532995 0.005714285714285714 0.007614213197969543
1 0.1742857142857143 0.9873096446700508 0.016428571428571428 0.02284263959390863
1 0.15785714285714286 0.9873096446700508 0.012857142857142857 0.021573604060913704
1 0.15571428571428572 0.9251269035532995 0.019285714285714285 0.0532994923857868
1 0.11285714285714285 0.7639593908629442 0.015714285714285715 0.03934010152284264
1 0.12785714285714286 0.7690355329949239 0.017142857142857144 0.04314720812182741
1 0.1407142857142857 0.7779187817258884 0.020714285714285713 0.05203045685279188
1 0.16285714285714287 0.7804568527918782 0.018571428571428572 0.046954314720812185
1 0.22 0.8058375634517766 0.02 0.0583756345177665
1 0.3007142857142857 0.883248730964467 0.025714285714285714 0.024111675126903553
1 0.20714285714285716 0.7614213197969543 0.03857142857142857 0.11421319796954314
1 0.3807142857142857 0.6802030456852792 0.06285714285714286 0.07741116751269035
1 0.305 0.6548223350253807 0.02642857142857143 0.03553299492385787
1 0.3442857142857143 0.8032994923857868 0.02 0.048223350253807105
1 0.34785714285714286 0.7728426395939086 0.015714285714285715 0.0532994923857868
1 0.305 0.4796954314720812 0.025714285714285714 0.027918781725888325
1 0.32857142857142857 0.4200507614213198 0.027857142857142858 0.025380710659898477
1 0.3464285714285714 0.45558375634517767 0.02642857142857143 0.021573604060913704
1 0.34 0.4873096446700508 0.02642857142857143 0.024111675126903553
1 0.3742857142857143 0.49619289340101524 0.027142857142857142 0.02284263959390863
1 0.4 0.4733502538071066 0.027142857142857142 0.021573604060913704
1 0.425 0.31091370558375636 0.02642857142857143 0.01903553299492386
1 0.40785714285714286 0.5063451776649747 0.027142857142857142 0.021573604060913704
1 0.4392857142857143 0.5126903553299492 0.025 0.021573604060913704
1 0.48 0.5177664974619289 0.027142857142857142 0.021573604060913704
1 0.5192857142857142 0.5253807106598984 0.027857142857142858 0.01903553299492386
0 0.48714285714285716 0.5634517766497462 0.0035714285714285713 0.008883248730964468
0 0.5157142857142857 0.5710659898477157 0.0035714285714285713 0.007614213197969543
1 0.5607142857142857 0.5317258883248731 0.027142857142857142 0.024111675126903553
1 0.86 0.5418781725888325 0.03357142857142857 0.024111675126903553
1 0.7292857142857143 0.4733502538071066 0.03214285714285714 0.02284263959390863
1 0.7414285714285714 0.5406091370558376 0.030714285714285715 0.02284263959390863
1 0.8014285714285714 0.5088832487309645 0.03 0.02030456852791878
1 0.69 0.5393401015228426 0.02857142857142857 0.02284263959390863
1 0.6064285714285714 0.5355329949238579 0.027857142857142858 0.01903553299492386
1 0.6442857142857142 0.5368020304568528 0.02857142857142857 0.02030456852791878
1 0.7985714285714286 0.5406091370558376 0.04857142857142857 0.025380710659898477
1 0.7207142857142858 0.5901015228426396 0.015714285714285715 0.04949238578680203
1 0.7421428571428571 0.7931472081218274 0.012857142857142857 0.048223350253807105
1 0.7285714285714285 0.8908629441624365 0.012857142857142857 0.04949238578680203
1 0.7557142857142857 0.9086294416243654 0.02 0.07360406091370558
1 0.5828571428571429 0.8223350253807107 0.04857142857142857 0.05583756345177665
1 0.46785714285714286 0.7157360406091371 0.04357142857142857 0.04949238578680203
1 0.4857142857142857 0.633248730964467 0.05357142857142857 0.09517766497461928
1 0.5035714285714286 0.6421319796954315 0.04214285714285714 0.07868020304568528
1 0.5121428571428571 0.6713197969543148 0.05357142857142857 0.09263959390862944
1 0.5328571428571428 0.6802030456852792 0.05357142857142857 0.09517766497461928
1 0.5542857142857143 0.6878172588832487 0.054285714285714284 0.09517766497461928
1 0.5707142857142857 0.700507614213198 0.056428571428571425 0.09644670050761421
1 0.595 0.699238578680203 0.03428571428571429 0.06218274111675127
1 0.6 0.733502538071066 0.05357142857142857 0.09137055837563451
1 0.6214285714285714 0.7411167512690355 0.05357142857142857 0.09390862944162437
1 0.6385714285714286 0.7563451776649747 0.05285714285714286 0.09390862944162437
1 0.65 0.7741116751269036 0.037142857142857144 0.06598984771573604
1 0.9 0.03807106598984772 0.03571428571428571 0.07614213197969544
1 0.8842857142857142 0.15736040609137056 0.024285714285714285 0.11040609137055837
0 0.8735714285714286 0.15101522842639595 0.005714285714285714 0.013959390862944163
1 0.9471428571428572 0.09517766497461928 0.014285714285714285 0.03807106598984772
1 0.9371428571428572 0.24619289340101522 0.025 0.07614213197969544
1 0.9557142857142857 0.47588832487309646 0.03 0.02284263959390863
1 0.9664285714285714 0.5431472081218274 0.032857142857142856 0.024111675126903553
1 0.9642857142857143 0.5964467005076142 0.012142857142857143 0.048223350253807105
1 0.9585714285714285 0.8185279187817259 0.015714285714285715 0.048223350253807105
1 0.9892857142857143 0.8312182741116751 0.02142857142857143 0.05710659898477157
0 0.5828571428571429 0.9555837563451777 0.0035714285714285713 0.007614213197969543
0 0.5871428571428572 0.9657360406091371 0.0035714285714285713 0.007614213197969543
0 0.5785714285714286 0.9606598984771574 0.002857142857142857 0.006345177664974619
0 0.5828571428571429 0.9670050761421319 0.002857142857142857 0.005076142131979695
