0 0.8228571428571428 0.1361904761904762 0.007857142857142858 0.01904761904761905
0 0.7407142857142858 0.21714285714285714 0.009285714285714286 0.025714285714285714
0 0.7785714285714286 0.2 0.008571428571428572 0.02
0 0.8057142857142857 0.3333333333333333 0.011428571428571429 0.02761904761904762
0 0.8128571428571428 0.3342857142857143 0.011428571428571429 0.02857142857142857
1 0.5971428571428572 0.10952380952380952 0.05285714285714286 0.04380952380952381
1 0.515 0.15523809523809523 0.027857142857142858 0.03428571428571429
1 0.4878571428571429 0.1761904761904762 0.025 0.022857142857142857
0 0.465 0.1895238095238095 0.005 0.018095238095238095
0 0.4614285714285714 0.18857142857142858 0.005 0.01904761904761905
0 0.435 0.18761904761904763 0.0064285714285714285 0.02095238095238095
0 0.44571428571428573 0.21904761904761905 0.008571428571428572 0.024761904761904763
0 0.44 0.21904761904761905 0.0064285714285714285 0.02095238095238095
1 0.4228571428571429 0.21428571428571427 0.01 0.01619047619047619
1 0.3578571428571429 0.25047619047619046 0.03571428571428571 0.03238095238095238
0 0.37785714285714284 0.26571428571428574 0.0064285714285714285 0.022857142857142857
0 0.375 0.26571428571428574 0.007142857142857143 0.022857142857142857
0 0.3142857142857143 0.3 0.007857142857142858 0.02761904761904762
0 0.3078571428571429 0.29904761904761906 0.008571428571428572 0.030476190476190476
0 0.2764285714285714 0.26761904761904765 0.007857142857142858 0.025714285714285714
0 0.2835714285714286 0.26761904761904765 0.009285714285714286 0.02761904761904762
0 0.2907142857142857 0.26666666666666666 0.009285714285714286 0.02761904761904762
0 0.2985714285714286 0.26761904761904765 0.007857142857142858 0.025714285714285714
0 0.3057142857142857 0.26666666666666666 0.008571428571428572 0.025714285714285714
0 0.3142857142857143 0.24857142857142858 0.007857142857142858 0.022857142857142857
0 0.30428571428571427 0.24857142857142858 0.007142857142857143 0.022857142857142857
0 0.295 0.25142857142857145 0.007857142857142858 0.021904761904761906
0 0.28714285714285714 0.25142857142857145 0.007857142857142858 0.01904761904761905
0 0.27714285714285714 0.31142857142857144 0.01 0.02857142857142857
0 0.2642857142857143 0.31238095238095237 0.009285714285714286 0.024761904761904763
0 0.27071428571428574 0.3342857142857143 0.011428571428571429 0.029523809523809525
0 0.28214285714285714 0.34 0.007857142857142858 0.02857142857142857
0 0.2621428571428571 0.3361904761904762 0.01 0.02857142857142857
0 0.25214285714285717 0.33714285714285713 0.012142857142857143 0.030476190476190476
0 0.25142857142857145 0.3019047619047619 0.008571428571428572 0.023809523809523808
0 0.2571428571428571 0.3142857142857143 0.008571428571428572 0.023809523809523808
0 0.24357142857142858 0.31523809523809526 0.010714285714285714 0.02666666666666667
0 0.2392857142857143 0.30095238095238097 0.010714285714285714 0.025714285714285714
0 0.2864285714285714 0.37142857142857144 0.009285714285714286 0.030476190476190476
0 0.27785714285714286 0.37238095238095237 0.011428571428571429 0.02857142857142857
0 0.2671428571428571 0.36857142857142855 0.008571428571428572 0.02666666666666667
0 0.26071428571428573 0.36857142857142855 0.008571428571428572 0.02666666666666667
0 0.2392857142857143 0.3619047619047619 0.01 0.03142857142857143
0 0.23 0.36095238095238097 0.009285714285714286 0.029523809523809525
0 0.2342857142857143 0.37333333333333335 0.010714285714285714 0.02857142857142857
0 0.2507142857142857 0.3838095238095238 0.01 0.029523809523809525
0 0.2571428571428571 0.38952380952380955 0.010714285714285714 0.02857142857142857
0 0.265 0.38571428571428573 0.012142857142857143 0.02761904761904762
0 0.245 0.3933333333333333 0.012142857142857143 0.02761904761904762
0 0.2671428571428571 0.41333333333333333 0.009285714285714286 0.02761904761904762
0 0.255 0.41523809523809524 0.010714285714285714 0.029523809523809525
0 0.24714285714285714 0.41619047619047617 0.01 0.030476190476190476
0 0.24 0.42 0.010714285714285714 0.030476190476190476
0 0.2257142857142857 0.44095238095238093 0.012142857142857143 0.03142857142857143
0 0.22214285714285714 0.43047619047619046 0.010714285714285714 0.02666666666666667
0 0.20642857142857143 0.42857142857142855 0.012857142857142857 0.029523809523809525
0 0.19071428571428573 0.43142857142857144 0.010714285714285714 0.02666666666666667
0 0.19357142857142856 0.42857142857142855 0.015714285714285715 0.030476190476190476
1 0.20857142857142857 0.41333333333333333 0.025 0.02666666666666667
0 0.20714285714285716 0.4095238095238095 0.012142857142857143 0.021904761904761906
0 0.20214285714285715 0.4085714285714286 0.013571428571428571 0.025714285714285714
0 0.17 0.4095238095238095 0.013571428571428571 0.03142857142857143
0 0.16071428571428573 0.41619047619047617 0.018571428571428572 0.03333333333333333
0 0.4685714285714286 0.9695238095238096 0.017142857142857144 0.03428571428571429
0 0.47928571428571426 0.9428571428571428 0.017857142857142856 0.03619047619047619
0 0.38785714285714284 0.7857142857142857 0.016428571428571428 0.04666666666666667
0 0.3692857142857143 0.8019047619047619 0.013571428571428571 0.0380952380952381
0 0.2835714285714286 0.8133333333333334 0.017857142857142856 0.04380952380952381
0 0.1792857142857143 0.9580952380952381 0.019285714285714285 0.04666666666666667
0 0.1707142857142857 0.9571428571428572 0.017142857142857144 0.040952380952380955
0 0.19 0.878095238095238 0.022857142857142857 0.04476190476190476
0 0.2257142857142857 0.9047619047619048 0.017857142857142856 0.035238095238095235
0 0.21285714285714286 0.8923809523809524 0.018571428571428572 0.03428571428571429
0 0.21642857142857144 0.8609523809523809 0.02142857142857143 0.035238095238095235
0 0.25785714285714284 0.6866666666666666 0.013571428571428571 0.03619047619047619
0 0.3342857142857143 0.6676190476190477 0.013571428571428571 0.045714285714285714
0 0.34785714285714286 0.6628571428571428 0.015 0.0380952380952381
0 0.3707142857142857 0.6771428571428572 0.013571428571428571 0.037142857142857144
0 0.38 0.6761904761904762 0.011428571428571429 0.0380952380952381
0 0.39571428571428574 0.6619047619047619 0.012142857142857143 0.03428571428571429
0 0.4057142857142857 0.6533333333333333 0.012142857142857143 0.0380952380952381
0 0.365 0.6561904761904762 0.012142857142857143 0.037142857142857144
0 0.37214285714285716 0.6352380952380953 0.012857142857142857 0.04
0 0.29928571428571427 0.5923809523809523 0.016428571428571428 0.04
0 0.3192857142857143 0.580952380952381 0.013571428571428571 0.040952380952380955
0 0.3342857142857143 0.58 0.012142857142857143 0.039047619047619046
0 0.3578571428571429 0.5695238095238095 0.011428571428571429 0.03142857142857143
0 0.3678571428571429 0.5685714285714286 0.011428571428571429 0.03142857142857143
0 0.34785714285714286 0.5533333333333333 0.011428571428571429 0.0380952380952381
0 0.3628571428571429 0.5457142857142857 0.011428571428571429 0.02857142857142857
0 0.3792857142857143 0.5428571428571428 0.013571428571428571 0.0380952380952381
0 0.39071428571428574 0.539047619047619 0.012857142857142857 0.04
0 0.4142857142857143 0.5219047619047619 0.014285714285714285 0.03333333333333333
0 0.4185714285714286 0.5190476190476191 0.010714285714285714 0.03428571428571429
0 0.31142857142857144 0.49047619047619045 0.012857142857142857 0.03619047619047619
0 0.30214285714285716 0.48 0.012857142857142857 0.03333333333333333
0 0.295 0.4695238095238095 0.011428571428571429 0.029523809523809525
0 0.3007142857142857 0.46476190476190476 0.012142857142857143 0.029523809523809525
0 0.3271428571428571 0.4866666666666667 0.012142857142857143 0.03333333333333333
0 0.33 0.46476190476190476 0.009285714285714286 0.02857142857142857
0 0.3221428571428571 0.4657142857142857 0.010714285714285714 0.025714285714285714
1 0.3964285714285714 0.4666666666666667 0.02214285714285714 0.024761904761904763
0 0.39571428571428574 0.45904761904761904 0.010714285714285714 0.025714285714285714
0 0.3921428571428571 0.4580952380952381 0.012857142857142857 0.02761904761904762
0 0.10071428571428571 0.43333333333333335 0.015 0.029523809523809525
0 0.10857142857142857 0.4276190476190476 0.017857142857142856 0.03428571428571429
0 0.12071428571428572 0.36666666666666664 0.015714285714285715 0.03333333333333333
0 0.10928571428571429 0.36857142857142855 0.014285714285714285 0.030476190476190476
0 0.10357142857142858 0.32761904761904764 0.012857142857142857 0.030476190476190476
0 0.085 0.3295238095238095 0.014285714285714285 0.029523809523809525
0 0.07357142857142857 0.3342857142857143 0.014285714285714285 0.030476190476190476
0 0.06357142857142857 0.3028571428571429 0.013571428571428571 0.029523809523809525
0 0.07071428571428572 0.3019047619047619 0.014285714285714285 0.02761904761904762
0 0.7085714285714285 0.9809523809523809 0.022857142857142857 0.035238095238095235
