1 0.2985714285714286 0.8171428571428572 0.039285714285714285 0.12571428571428572
1 0.5335714285714286 0.660952380952381 0.06857142857142857 0.039047619047619046
1 0.6671428571428571 0.5561904761904762 0.05 0.04666666666666667
1 0.745 0.5257142857142857 0.05785714285714286 0.047619047619047616
1 0.7935714285714286 0.5580952380952381 0.06785714285714285 0.049523809523809526
1 0.25785714285714284 0.4685714285714286 0.02857142857142857 0.06285714285714286
1 0.23714285714285716 0.3495238095238095 0.02 0.05238095238095238
1 0.3692857142857143 0.2276190476190476 0.02 0.037142857142857144
1 0.10285714285714286 0.017142857142857144 0.015714285714285715 0.03238095238095238
1 0.10285714285714286 0.13142857142857142 0.022857142857142857 0.04
1 0.10785714285714286 0.21523809523809523 0.022857142857142857 0.04380952380952381
1 0.3335714285714286 0.11523809523809524 0.02 0.03238095238095238
1 0.34714285714285714 0.15714285714285714 0.02142857142857143 0.03619047619047619
1 0.30142857142857143 0.010476190476190476 0.016428571428571428 0.02095238095238095
1 0.31785714285714284 0.05904761904761905 0.019285714285714285 0.030476190476190476
1 0.12928571428571428 0.21523809523809523 0.009285714285714286 0.02857142857142857
1 0.10857142857142857 0.2838095238095238 0.023571428571428573 0.04380952380952381
1 0.3028571428571429 0.34476190476190477 0.02642857142857143 0.05047619047619047
0 0.18357142857142858 0.5314285714285715 0.010714285714285714 0.023809523809523808
1 0.155 0.6390476190476191 0.012857142857142857 0.039047619047619046
1 0.23642857142857143 0.6857142857142857 0.012142857142857143 0.022857142857142857
1 0.2292857142857143 0.74 0.017857142857142856 0.03333333333333333
0 0.03642857142857143 0.82 0.009285714285714286 0.01904761904761905
0 0.024285714285714285 0.820952380952381 0.012857142857142857 0.022857142857142857
0 0.5907142857142857 0.699047619047619 0.005714285714285714 0.021904761904761906
0 0.6078571428571429 0.7 0.007857142857142858 0.01904761904761905
0 0.615 0.7561904761904762 0.005 0.018095238095238095
0 0.6085714285714285 0.76 0.004285714285714286 0.015238095238095238
0 0.6007142857142858 0.6971428571428572 0.008571428571428572 0.021904761904761906
0 0.48428571428571426 0.4247619047619048 0.005 0.015238095238095238
0 0.4785714285714286 0.42 0.005714285714285714 0.02
1 0.46 0.5428571428571428 0.01 0.02666666666666667
1 0.46785714285714286 0.5247619047619048 0.011428571428571429 0.02761904761904762
1 0.41785714285714287 0.4657142857142857 0.016428571428571428 0.040952380952380955
1 0.42214285714285715 0.37523809523809526 0.014285714285714285 0.021904761904761906
0 0.5778571428571428 0.31047619047619046 0.0064285714285714285 0.02
0 0.47214285714285714 0.35428571428571426 0.007142857142857143 0.02
0 0.46214285714285713 0.35619047619047617 0.0064285714285714285 0.018095238095238095
1 0.4585714285714286 0.3628571428571429 0.005 0.018095238095238095
1 0.45357142857142857 0.14666666666666667 0.03214285714285714 0.02857142857142857
1 0.5042857142857143 0.16666666666666666 0.027857142857142858 0.025714285714285714
1 0.5164285714285715 0.12666666666666668 0.014285714285714285 0.012380952380952381
1 0.5285714285714286 0.13047619047619047 0.011428571428571429 0.013333333333333334
1 0.5357142857142857 0.14095238095238094 0.010714285714285714 0.009523809523809525
1 0.5342857142857143 0.14857142857142858 0.015 0.011428571428571429
1 0.6057142857142858 0.19904761904761906 0.010714285714285714 0.01619047619047619
1 0.5657142857142857 0.15714285714285714 0.007857142857142858 0.017142857142857144
1 0.5614285714285714 0.1523809523809524 0.01 0.014285714285714285
1 0.6178571428571429 0.17142857142857143 0.009285714285714286 0.01619047619047619
1 0.685 0.21333333333333335 0.010714285714285714 0.021904761904761906
1 0.6721428571428572 0.19047619047619047 0.0064285714285714285 0.017142857142857144
1 0.5235714285714286 0.11047619047619048 0.012857142857142857 0.011428571428571429
1 0.5407142857142857 0.1523809523809524 0.01 0.01619047619047619
1 0.5721428571428572 0.1580952380952381 0.008571428571428572 0.017142857142857144
1 0.58 0.16 0.007142857142857143 0.018095238095238095
1 0.5614285714285714 0.17809523809523808 0.007857142857142858 0.01619047619047619
1 0.5692857142857143 0.18285714285714286 0.007857142857142858 0.02095238095238095
1 0.5778571428571428 0.1838095238095238 0.008571428571428572 0.021904761904761906
1 0.5907142857142857 0.1961904761904762 0.010714285714285714 0.021904761904761906
1 0.5885714285714285 0.17714285714285713 0.007857142857142858 0.017142857142857144
1 0.6128571428571429 0.2019047619047619 0.007857142857142858 0.021904761904761906
1 0.6278571428571429 0.19428571428571428 0.008571428571428572 0.02
1 0.6257142857142857 0.1761904761904762 0.008571428571428572 0.017142857142857144
1 0.6485714285714286 0.21619047619047618 0.007857142857142858 0.02095238095238095
1 0.7085714285714285 0.2019047619047619 0.008571428571428572 0.023809523809523808
1 0.7185714285714285 0.20666666666666667 0.009285714285714286 0.02095238095238095
1 0.7278571428571429 0.20857142857142857 0.007857142857142858 0.021904761904761906
1 0.6914285714285714 0.21142857142857144 0.008571428571428572 0.018095238095238095
1 0.69 0.20095238095238097 0.009285714285714286 0.01904761904761905
1 0.6778571428571428 0.19523809523809524 0.007857142857142858 0.017142857142857144
1 0.6464285714285715 0.1819047619047619 0.005714285714285714 0.015238095238095238
1 0.6378571428571429 0.20666666666666667 0.0064285714285714285 0.01904761904761905
1 0.6485714285714286 0.20095238095238097 0.005714285714285714 0.014285714285714285
1 0.6421428571428571 0.19523809523809524 0.0064285714285714285 0.013333333333333334
1 0.5528571428571428 0.15142857142857144 0.007142857142857143 0.014285714285714285
1 0.5907142857142857 0.16 0.0064285714285714285 0.018095238095238095
1 0.61 0.16952380952380952 0.005714285714285714 0.018095238095238095
1 0.635 0.17809523809523808 0.0064285714285714285 0.017142857142857144
1 0.6621428571428571 0.2038095238095238 0.010714285714285714 0.02
1 0.6521428571428571 0.1819047619047619 0.0064285714285714285 0.018095238095238095
1 0.7014285714285714 0.2019047619047619 0.005714285714285714 0.02
0 0.6107142857142858 0.15047619047619049 0.0064285714285714285 0.018095238095238095
0 0.665 0.1819047619047619 0.0064285714285714285 0.01904761904761905
0 0.5764285714285714 0.25142857142857145 0.004285714285714286 0.02095238095238095
0 0.5635714285714286 0.22095238095238096 0.0064285714285714285 0.022857142857142857
0 0.715 0.2438095238095238 0.007857142857142858 0.017142857142857144
0 0.5692857142857143 0.24952380952380954 0.007857142857142858 0.018095238095238095
0 0.615 0.1457142857142857 0.007142857142857143 0.015238095238095238
0 0.5942857142857143 0.11619047619047619 0.0035714285714285713 0.009523809523809525
0 0.625 0.48857142857142855 0.005 0.022857142857142857
0 0.62 0.48857142857142855 0.005 0.022857142857142857
1 0.615 0.49047619047619045 0.018571428571428572 0.02
0 0.8257142857142857 0.2342857142857143 0.01 0.02095238095238095
1 0.86 0.1980952380952381 0.03428571428571429 0.05142857142857143
1 0.8314285714285714 0.2904761904761905 0.04285714285714286 0.035238095238095235
1 0.8514285714285714 0.64 0.016428571428571428 0.03238095238095238
1 0.9228571428571428 0.25333333333333335 0.05071428571428571 0.04
1 0.9442857142857143 0.2438095238095238 0.041428571428571426 0.03619047619047619
1 0.9771428571428571 0.23904761904761904 0.041428571428571426 0.0380952380952381
1 0.9678571428571429 0.27714285714285714 0.047142857142857146 0.03619047619047619
0 0.9871428571428571 0.19142857142857142 0.008571428571428572 0.01619047619047619
0 0.9835714285714285 0.1895238095238095 0.007142857142857143 0.01904761904761905
1 0.9864285714285714 0.2257142857142857 0.025714285714285714 0.03238095238095238
0 0.46785714285714286 0.5190476190476191 0.008571428571428572 0.011428571428571429
0 0.4607142857142857 0.539047619047619 0.007142857142857143 0.018095238095238095
0 0.415 0.4533333333333333 0.0064285714285714285 0.012380952380952381
0 0.42142857142857143 0.37238095238095237 0.007142857142857143 0.015238095238095238
0 0.12857142857142856 0.20761904761904762 0.0064285714285714285 0.012380952380952381
0 0.23642857142857143 0.6828571428571428 0.01 0.01619047619047619
0 0.22785714285714287 0.7371428571428571 0.011428571428571429 0.024761904761904763
0 0.155 0.6314285714285715 0.009285714285714286 0.015238095238095238
