1 0.5469728601252609 0.8775510204081632 0.0360125260960334 0.10018552875695733
1 0.6263048016701461 0.05102040816326531 0.02348643006263048 0.014842300556586271
1 0.6623173277661796 0.17161410018552875 0.013569937369519834 0.029684601113172542
1 0.6967640918580376 0.18645640074211503 0.015657620041753653 0.02504638218923933
1 0.7249478079331941 0.04267161410018553 0.007828810020876827 0.014842300556586271
1 0.7218162839248434 0.01020408163265306 0.010960334029227558 0.011131725417439703
1 0.6847599164926931 0.00463821892393321 0.004697286012526096 0.008348794063079777
1 0.7082463465553236 0.05102040816326531 0.004697286012526096 0.012059369202226345
0 0.7082463465553236 0.04916512059369202 0.0036534446764091857 0.012987012987012988
0 0.7113778705636743 0.03710575139146568 0.0036534446764091857 0.01020408163265306
0 0.7108559498956158 0.027829313543599257 0.0036534446764091857 0.008348794063079777
1 0.7108559498956158 0.030612244897959183 0.004697286012526096 0.013914656771799629
1 0.7113778705636743 0.03896103896103896 0.003131524008350731 0.00927643784786642
1 0.6743215031315241 0.08719851576994433 0.0036534446764091857 0.012987012987012988
1 0.6675365344467641 0.08812615955473098 0.008350730688935281 0.015769944341372914
0 0.6743215031315241 0.08348794063079777 0.004697286012526096 0.015769944341372914
0 0.6675365344467641 0.08348794063079777 0.004697286012526096 0.012059369202226345
1 0.7004175365344467 0.15213358070500926 0.012004175365344467 0.02411873840445269
0 0.6743215031315241 0.1901669758812616 0.004697286012526096 0.016697588126159554
1 0.6743215031315241 0.19666048237476808 0.005741127348643006 0.016697588126159554
1 0.7139874739039666 0.23562152133580705 0.005741127348643006 0.017625231910946195
1 0.7098121085594989 0.2588126159554731 0.006263048016701462 0.01855287569573284
0 0.714509394572025 0.23098330241187384 0.005219206680584551 0.016697588126159554
0 0.7092901878914405 0.25510204081632654 0.007306889352818371 0.015769944341372914
0 0.6967640918580376 0.34137291280148424 0.005741127348643006 0.022263450834879406
0 0.7139874739039666 0.362708719851577 0.006784968684759917 0.01948051948051948
0 0.7025052192066806 0.39239332096474955 0.007306889352818371 0.02040816326530612
0 0.7025052192066806 0.39888682745825604 0.005741127348643006 0.013914656771799629
1 0.697286012526096 0.34786641929499074 0.008350730688935281 0.022263450834879406
1 0.714509394572025 0.3673469387755102 0.008350730688935281 0.02040816326530612
1 0.7035490605427975 0.3970315398886827 0.007306889352818371 0.022263450834879406
1 0.5652400835073069 0.4675324675324675 0.007828810020876827 0.03153988868274583
0 0.7009394572025052 0.5825602968460112 0.007828810020876827 0.022263450834879406
0 0.5845511482254697 0.5992578849721707 0.009394572025052192 0.017625231910946195
0 0.5892484342379958 0.5955473098330241 0.008350730688935281 0.01948051948051948
0 0.6122129436325678 0.6567717996289425 0.010438413361169102 0.03432282003710575
0 0.6268267223382046 0.6641929499072357 0.011482254697286013 0.029684601113172542
0 0.7092901878914405 0.7022263450834879 0.008350730688935281 0.026901669758812616
1 0.5934237995824635 0.6094619666048238 0.02870563674321503 0.045454545454545456
1 0.6127348643006263 0.6558441558441559 0.014613778705636743 0.04823747680890538
1 0.6283924843423799 0.6660482374768089 0.015657620041753653 0.05194805194805195
1 0.5788100208768268 0.6252319109461967 0.030793319415448852 0.04916512059369202
1 0.5709812108559499 0.660482374768089 0.016701461377870562 0.038033395176252316
1 0.5621085594989561 0.6948051948051948 0.018789144050104383 0.030612244897959183
1 0.5662839248434238 0.6818181818181818 0.01722338204592902 0.029684601113172542
1 0.5422755741127349 0.6790352504638218 0.01826722338204593 0.025974025974025976
1 0.5427974947807933 0.6688311688311688 0.02244258872651357 0.02504638218923933
1 0.7082463465553236 0.7050092764378478 0.009916492693110648 0.038033395176252316
1 0.673277661795407 0.7133580705009277 0.032359081419624215 0.08812615955473098
0 0.7515657620041754 0.7402597402597403 0.009394572025052192 0.039888682745825604
1 0.7484342379958246 0.735621521335807 0.020876826722338204 0.03432282003710575
1 0.7620041753653445 0.7634508348794063 0.02035490605427975 0.038033395176252316
1 0.7176409185803758 0.8515769944341373 0.01826722338204593 0.04359925788497217
1 0.697286012526096 0.8200371057513914 0.015135699373695199 0.055658627087198514
1 0.7150313152400835 0.9397031539888683 0.012004175365344467 0.05287569573283859
1 0.7338204592901879 0.9155844155844156 0.020876826722338204 0.06215213358070501
0 0.7218162839248434 0.9081632653061225 0.013569937369519834 0.036178107606679034
1 0.7724425887265136 0.10111317254174397 0.03496868475991649 0.026901669758812616
1 0.7849686847599165 0.04823747680890538 0.02035490605427975 0.041743970315398886
1 0.7938413361169102 0.017625231910946195 0.013048016701461378 0.015769944341372914
1 0.7870563674321504 0.00927643784786642 0.012526096033402923 0.01948051948051948
