1 0.17285714285714285 0.560952380952381 0.045714285714285714 0.022857142857142857
1 0.1992857142857143 0.5866666666666667 0.095 0.022857142857142857
1 0.1992857142857143 0.6123809523809524 0.09571428571428571 0.023809523809523808
1 0.285 0.49714285714285716 0.014285714285714285 0.04
1 0.3092857142857143 0.49523809523809526 0.013571428571428571 0.030476190476190476
1 0.2957142857142857 0.6828571428571428 0.013571428571428571 0.0380952380952381
1 0.3142857142857143 0.6952380952380952 0.015 0.039047619047619046
1 0.585 0.9733333333333334 0.020714285714285713 0.05238095238095238
1 0.5564285714285714 0.8838095238095238 0.007142857142857143 0.018095238095238095
1 0.5721428571428572 0.820952380952381 0.007857142857142858 0.01619047619047619
1 0.5578571428571428 0.7876190476190477 0.005714285714285714 0.017142857142857144
1 0.825 0.9333333333333333 0.015714285714285715 0.0380952380952381
1 0.58 0.5866666666666667 0.012142857142857143 0.039047619047619046
1 0.6964285714285714 0.5514285714285714 0.013571428571428571 0.040952380952380955
1 0.7007142857142857 0.6238095238095238 0.013571428571428571 0.037142857142857144
1 0.71 0.780952380952381 0.024285714285714285 0.09238095238095238
1 0.73 0.8114285714285714 0.005714285714285714 0.01904761904761905
1 0.7414285714285714 0.9352380952380952 0.007142857142857143 0.018095238095238095
1 0.7978571428571428 0.7914285714285715 0.02 0.05047619047619047
1 0.5621428571428572 0.6038095238095238 0.012142857142857143 0.029523809523809525
1 0.5492857142857143 0.5647619047619048 0.010714285714285714 0.02761904761904762
1 0.5614285714285714 0.5619047619047619 0.0064285714285714285 0.015238095238095238
1 0.5628571428571428 0.518095238095238 0.013571428571428571 0.040952380952380955
1 0.5771428571428572 0.4542857142857143 0.014285714285714285 0.03619047619047619
1 0.6964285714285714 0.4780952380952381 0.012857142857142857 0.03619047619047619
1 0.5692857142857143 0.32761904761904764 0.012857142857142857 0.040952380952380955
1 0.5671428571428572 0.25523809523809526 0.013571428571428571 0.0380952380952381
1 0.56 0.13523809523809524 0.016428571428571428 0.039047619047619046
1 0.5871428571428572 0.30095238095238097 0.007857142857142858 0.018095238095238095
1 0.5521428571428572 0.2219047619047619 0.007142857142857143 0.01904761904761905
1 0.695 0.42 0.013571428571428571 0.04285714285714286
1 0.6957142857142857 0.3647619047619048 0.012142857142857143 0.03619047619047619
1 0.6971428571428572 0.31523809523809526 0.015 0.03619047619047619
1 0.7 0.2419047619047619 0.023571428571428573 0.07333333333333333
1 0.72 0.16285714285714287 0.027857142857142858 0.08476190476190476
1 0.6957142857142857 0.14 0.020714285714285713 0.04857142857142857
1 0.7207142857142858 0.09142857142857143 0.007142857142857143 0.017142857142857144
1 0.6992857142857143 0.010476190476190476 0.014285714285714285 0.02095238095238095
1 0.6807142857142857 0.010476190476190476 0.012142857142857143 0.02095238095238095
1 0.86 0.054285714285714284 0.02142857142857143 0.02095238095238095
1 0.5771428571428572 0.013333333333333334 0.011428571428571429 0.01619047619047619
1 0.34785714285714286 0.13142857142857142 0.025714285714285714 0.02095238095238095
