1 0.8564718162839249 0.8413729128014842 0.048538622129436326 0.06771799628942486
1 0.8663883089770354 0.7773654916512059 0.03653444676409186 0.05658627087198516
1 0.8956158663883089 0.6901669758812616 0.043319415448851775 0.06307977736549165
1 0.9164926931106472 0.6150278293135436 0.04488517745302714 0.06307977736549165
1 0.9509394572025052 0.47959183673469385 0.042275574112734866 0.041743970315398886
1 0.7202505219206681 0.1345083487940631 0.016701461377870562 0.04081632653061224
1 0.7176409185803758 0.3450834879406308 0.024008350730688934 0.06493506493506493
1 0.5824634655532359 0.3784786641929499 0.03653444676409186 0.05844155844155844
1 0.5302713987473904 0.47866419294990725 0.04279749478079332 0.06307977736549165
1 0.4932150313152401 0.5269016697588126 0.01826722338204593 0.016697588126159554
0 0.5078288100208769 0.5185528756957328 0.007306889352818371 0.025974025974025976
1 0.37160751565762007 0.7235621521335807 0.016701461377870562 0.0287569573283859
1 0.3606471816283925 0.764378478664193 0.05010438413361169 0.08441558441558442
1 0.08663883089770355 0.7263450834879406 0.016701461377870562 0.03153988868274583
1 0.10438413361169102 0.7096474953617811 0.01826722338204593 0.03339517625231911
1 0.030271398747390398 0.7996289424860853 0.04540709812108559 0.08534322820037106
1 0.1278705636743215 0.9675324675324676 0.050626304801670144 0.06307977736549165
1 0.10334029227557412 0.29313543599257885 0.013569937369519834 0.021335807050092765
0 0.09968684759916492 0.2884972170686456 0.010960334029227558 0.016697588126159554
1 0.13883089770354906 0.3460111317254174 0.024008350730688934 0.05473098330241188
1 0.162839248434238 0.18274582560296845 0.037578288100208766 0.03153988868274583
