1 0.9607142857142857 0.3180952380952381 0.07857142857142857 0.15142857142857144
1 0.9735714285714285 0.659047619047619 0.05285714285714286 0.17809523809523808
1 0.7371428571428571 0.31523809523809526 0.13428571428571429 0.12476190476190477
1 0.7635714285714286 0.21619047619047618 0.12428571428571429 0.10476190476190476
1 0.8442857142857143 0.01904761904761905 0.09357142857142857 0.0380952380952381
1 0.8071428571428572 0.11619047619047619 0.11071428571428571 0.09238095238095238
1 0.6121428571428571 0.47333333333333333 0.08214285714285714 0.07047619047619047
0 0.6471428571428571 0.1380952380952381 0.024285714285714285 0.06761904761904762
0 0.67 0.8066666666666666 0.02142857142857143 0.03238095238095238
0 0.67 0.8742857142857143 0.02142857142857143 0.045714285714285714
0 0.6528571428571428 0.9133333333333333 0.03357142857142857 0.02857142857142857
0 0.32142857142857145 0.6076190476190476 0.030714285714285715 0.037142857142857144
0 0.3342857142857143 0.3942857142857143 0.03142857142857143 0.04380952380952381
0 0.355 0.37047619047619046 0.02 0.05238095238095238
0 0.6342857142857142 0.10666666666666667 0.013571428571428571 0.06285714285714286
1 0.45285714285714285 0.31238095238095237 0.03142857142857143 0.047619047619047616
1 0.49214285714285716 0.7952380952380952 0.08642857142857142 0.11523809523809524
0 0.5228571428571429 0.7780952380952381 0.02142857142857143 0.03238095238095238
0 0.38 0.7933333333333333 0.025 0.02761904761904762
0 0.62 0.7952380952380952 0.02214285714285714 0.03333333333333333
1 0.61 0.819047619047619 0.07571428571428572 0.10952380952380952
1 0.5657142857142857 0.6142857142857143 0.07428571428571429 0.08095238095238096
