1 0.4485 0.6633333333333333 0.0555 0.07333333333333333
0 0.38 0.712 0.014 0.03866666666666667
1 0.4905 0.5786666666666667 0.046 0.058
1 0.392 0.5766666666666667 0.0505 0.07
1 0.3405 0.6466666666666666 0.064 0.078
1 0.3495 0.846 0.07 0.1
1 0.2855 0.956 0.1045 0.08733333333333333
0 0.4525 0.5006666666666667 0.004 0.014
0 0.462 0.51 0.004 0.013333333333333334
0 0.454 0.506 0.0065 0.035333333333333335
0 0.4635 0.516 0.0095 0.03333333333333333
0 0.494 0.5266666666666666 0.0115 0.03266666666666666
1 0.495 0.526 0.021 0.03
1 0.5475 0.5146666666666667 0.063 0.03666666666666667
1 0.581 0.464 0.0495 0.03333333333333333
1 0.5435 0.37333333333333335 0.0315 0.037333333333333336
1 0.567 0.3446666666666667 0.0295 0.036
1 0.614 0.386 0.031 0.034666666666666665
1 0.629 0.35533333333333333 0.03 0.03333333333333333
1 0.6505 0.32066666666666666 0.0235 0.030666666666666665
1 0.6185 0.292 0.025 0.024666666666666667
1 0.36 0.33266666666666667 0.023 0.024
1 0.4615 0.27466666666666667 0.01 0.014666666666666666
1 0.612 0.454 0.02 0.019333333333333334
1 0.131 0.95 0.09 0.1
1 0.7605 0.21866666666666668 0.0315 0.012666666666666666
1 0.7635 0.214 0.04 0.016
1 0.7785 0.208 0.0315 0.016
1 0.78 0.19466666666666665 0.0275 0.017333333333333333
1 0.7705 0.19266666666666668 0.0265 0.014
1 0.7895 0.18133333333333335 0.032 0.010666666666666666
1 0.7835 0.188 0.029 0.012
1 0.821 0.10133333333333333 0.0125 0.013333333333333334
1 0.827 0.09466666666666666 0.011 0.012666666666666666
0 0.866 0.2 0.007 0.012666666666666666
1 0.866 0.208 0.008 0.012666666666666666
1 0.848 0.09333333333333334 0.0105 0.012666666666666666
1 0.866 0.09666666666666666 0.021 0.020666666666666667
1 0.8645 0.08 0.009 0.01
0 0.824 0.07933333333333334 0.003 0.012666666666666666
0 0.8265 0.08133333333333333 0.004 0.010666666666666666
1 0.0225 0.164 0.021 0.016
1 0.0335 0.16266666666666665 0.018 0.015333333333333332
1 0.0465 0.16266666666666665 0.018 0.018
1 0.0405 0.18133333333333335 0.018 0.013333333333333334
1 0.026 0.18266666666666667 0.021 0.015333333333333332
