1 0.7085714285714285 0.8705583756345178 0.07 0.10913705583756345
1 0.5507142857142857 0.700507614213198 0.055714285714285716 0.08248730964467005
1 0.4807142857142857 0.6154822335025381 0.04857142857142857 0.08375634517766498
1 0.425 0.5342639593908629 0.04857142857142857 0.07741116751269035
1 0.37357142857142855 0.2779187817258883 0.04285714285714286 0.05964467005076142
1 0.30714285714285716 0.3743654822335025 0.03857142857142857 0.06345177664974619
1 0.295 0.1700507614213198 0.02142857142857143 0.046954314720812185
1 0.3242857142857143 0.0799492385786802 0.035 0.03426395939086294
1 0.3821428571428571 0.47715736040609136 0.04642857142857143 0.08375634517766498
0 0.6392857142857142 0.9225888324873096 0.01 0.02918781725888325
0 0.38 0.24619289340101522 0.009285714285714286 0.02918781725888325
0 0.38357142857142856 0.23096446700507614 0.007857142857142858 0.0266497461928934
0 0.054285714285714284 0.21446700507614214 0.012142857142857143 0.0266497461928934
0 0.105 0.3756345177664975 0.011428571428571429 0.02918781725888325
0 0.08857142857142856 0.39213197969543145 0.01 0.02284263959390863
0 0.2571428571428571 0.06979695431472081 0.009285714285714286 0.02284263959390863
0 0.24357142857142858 0.0532994923857868 0.007142857142857143 0.02030456852791878
0 0.30142857142857143 0.046954314720812185 0.0064285714285714285 0.024111675126903553
0 0.31642857142857145 0.0583756345177665 0.007857142857142858 0.017766497461928935
0 0.2042857142857143 0.03299492385786802 0.007142857142857143 0.0266497461928934
0 0.2092857142857143 0.02918781725888325 0.007857142857142858 0.02284263959390863
0 0.215 0.6408629441624365 0.012857142857142857 0.025380710659898477
0 0.21714285714285714 0.383248730964467 0.008571428571428572 0.03299492385786802
0 0.20714285714285716 0.383248730964467 0.009285714285714286 0.027918781725888325
1 0.045714285714285714 0.02030456852791878 0.025 0.030456852791878174
1 0.46714285714285714 0.41243654822335024 0.07357142857142857 0.1065989847715736
