0 0.3314285714285714 0.9809644670050761 0.010714285714285714 0.03553299492385787
0 0.2764285714285714 0.8464467005076142 0.010714285714285714 0.03680203045685279
0 0.26285714285714284 0.8388324873096447 0.010714285714285714 0.030456852791878174
0 0.3992857142857143 0.549492385786802 0.007142857142857143 0.03299492385786802
0 0.3914285714285714 0.5431472081218274 0.005714285714285714 0.031725888324873094
0 0.38571428571428573 0.5418781725888325 0.0064285714285714285 0.03299492385786802
0 0.4057142857142857 0.501269035532995 0.007142857142857143 0.030456852791878174
0 0.42428571428571427 0.4682741116751269 0.005714285714285714 0.02918781725888325
0 0.4471428571428571 0.46446700507614214 0.0064285714285714285 0.02918781725888325
0 0.47714285714285715 0.4149746192893401 0.005 0.021573604060913704
0 0.47 0.4073604060913706 0.005714285714285714 0.027918781725888325
0 0.4542857142857143 0.40482233502538073 0.005714285714285714 0.027918781725888325
0 0.4585714285714286 0.4022842639593909 0.007142857142857143 0.02918781725888325
0 0.455 0.39593908629441626 0.007142857142857143 0.031725888324873094
0 0.48142857142857143 0.35913705583756345 0.0064285714285714285 0.027918781725888325
0 0.47714285714285715 0.3489847715736041 0.005714285714285714 0.0266497461928934
0 0.475 0.33756345177664976 0.0064285714285714285 0.030456852791878174
0 0.4707142857142857 0.3350253807106599 0.005714285714285714 0.0266497461928934
0 0.5035714285714286 0.3248730964467005 0.005 0.017766497461928935
0 0.5321428571428571 0.2753807106598985 0.004285714285714286 0.01903553299492386
0 0.5335714285714286 0.25761421319796957 0.004285714285714286 0.02284263959390863
0 0.5521428571428572 0.233502538071066 0.004285714285714286 0.015228426395939087
0 0.5507142857142857 0.22081218274111675 0.004285714285714286 0.02030456852791878
1 0.43142857142857144 0.7157360406091371 0.05928571428571429 0.1446700507614213
1 0.4764285714285714 0.5799492385786802 0.039285714285714285 0.08756345177664974
1 0.5221428571428571 0.5317258883248731 0.056428571428571425 0.1802030456852792
1 0.535 0.4213197969543147 0.02642857142857143 0.04060913705583756
1 0.5678571428571428 0.28045685279187815 0.03142857142857143 0.10152284263959391
1 0.6864285714285714 0.31852791878172587 0.04 0.116751269035533
1 0.7042857142857143 0.21573604060913706 0.027857142857142858 0.09263959390862944
1 0.6428571428571429 0.16878172588832488 0.012857142857142857 0.024111675126903553
1 0.6471428571428571 0.1218274111675127 0.011428571428571429 0.01903553299492386
1 0.6142857142857143 0.12436548223350254 0.02214285714285714 0.06725888324873096
1 0.7114285714285714 0.14593908629441624 0.011428571428571429 0.024111675126903553
1 0.7121428571428572 0.12055837563451777 0.014285714285714285 0.03426395939086294
1 0.7042857142857143 0.04568527918781726 0.01 0.024111675126903553
1 0.6542857142857142 0.04568527918781726 0.009285714285714286 0.015228426395939087
1 0.6592857142857143 0.031725888324873094 0.007857142857142858 0.015228426395939087
1 0.6614285714285715 0.021573604060913704 0.008571428571428572 0.012690355329949238
1 0.6628571428571428 0.01015228426395939 0.01 0.02030456852791878
1 0.675 0.01015228426395939 0.01 0.02030456852791878
0 0.8692857142857143 0.31218274111675126 0.0064285714285714285 0.02030456852791878
0 0.8814285714285715 0.31091370558375636 0.007142857142857143 0.027918781725888325
0 0.8814285714285715 0.26776649746192893 0.005714285714285714 0.024111675126903553
0 0.8385714285714285 0.21446700507614214 0.005714285714285714 0.024111675126903553
