0 0.7128571428571429 0.9714285714285714 0.015714285714285715 0.05714285714285714
1 0.6964285714285714 0.8752380952380953 0.09 0.05238095238095238
1 0.6857142857142857 0.8361904761904762 0.07214285714285715 0.039047619047619046
1 0.67 0.8104761904761905 0.06571428571428571 0.03619047619047619
0 0.5992857142857143 0.8 0.01 0.0380952380952381
1 0.6121428571428571 0.7714285714285715 0.06 0.03142857142857143
1 0.39 0.6533333333333333 0.019285714285714285 0.01904761904761905
1 0.40785714285714286 0.6361904761904762 0.018571428571428572 0.01619047619047619
1 0.43357142857142855 0.6314285714285715 0.016428571428571428 0.018095238095238095
1 0.39 0.5780952380952381 0.011428571428571429 0.009523809523809525
1 0.4042857142857143 0.579047619047619 0.009285714285714286 0.011428571428571429
1 0.41214285714285714 0.5742857142857143 0.008571428571428572 0.010476190476190476
1 0.39571428571428574 0.5742857142857143 0.01 0.011428571428571429
1 0.4035714285714286 0.5723809523809524 0.007142857142857143 0.008571428571428572
1 0.4164285714285714 0.5695238095238095 0.007857142857142858 0.009523809523809525
1 0.42428571428571427 0.5695238095238095 0.008571428571428572 0.011428571428571429
1 0.4092857142857143 0.56 0.015714285714285715 0.018095238095238095
1 0.43785714285714283 0.56 0.007857142857142858 0.009523809523809525
1 0.445 0.5542857142857143 0.007857142857142858 0.007619047619047619
0 0.36357142857142855 0.5714285714285714 0.0035714285714285713 0.010476190476190476
1 0.11 0.6238095238095238 0.03357142857142857 0.01619047619047619
1 0.13 0.6190476190476191 0.032857142857142856 0.015238095238095238
0 0.535 0.62 0.005 0.014285714285714285
