1 0.3930062630480167 0.8274582560296846 0.05323590814196242 0.06957328385899815
1 0.33089770354906056 0.75139146567718 0.05219206680584551 0.07606679035250463
1 0.24478079331941544 0.6428571428571429 0.061064718162839246 0.07235621521335807
1 0.33194154488517746 0.5974025974025974 0.11847599164926931 0.14656771799628943
1 0.9493736951983298 0.9554730983302412 0.03653444676409186 0.08719851576994433
0 0.9775574112734864 0.8636363636363636 0.015135699373695199 0.03153988868274583
0 0.9639874739039666 0.898886827458256 0.015657620041753653 0.029684601113172542
1 0.8361169102296451 0.8543599257884972 0.04540709812108559 0.08441558441558442
1 0.6743215031315241 0.7625231910946196 0.03288100208768267 0.06586270871985157
1 0.7625260960334029 0.45269016697588127 0.021920668058455117 0.029684601113172542
1 0.7755741127348643 0.42115027829313545 0.013048016701461378 0.02040816326530612
1 0.7332985386221295 0.39888682745825604 0.07150313152400835 0.061224489795918366
1 0.8136743215031316 0.17625231910946196 0.019311064718162838 0.06957328385899815
0 0.808455114822547 0.20500927643784786 0.005741127348643006 0.016697588126159554
1 0.8731732776617954 0.12337662337662338 0.017745302713987474 0.05658627087198516
1 0.9780793319415448 0.137291280148423 0.042275574112734866 0.061224489795918366
1 0.9478079331941545 0.08441558441558442 0.016701461377870562 0.039888682745825604
0 0.9133611691022965 0.09461966604823747 0.005741127348643006 0.012987012987012988
0 0.9175365344467641 0.09554730983302412 0.005219206680584551 0.012059369202226345
1 0.8930062630480167 0.08070500927643785 0.02139874739039666 0.04638218923933209
1 0.6122129436325678 0.6688311688311688 0.03966597077244259 0.06307977736549165
1 0.5835073068893528 0.7402597402597403 0.031837160751565764 0.0686456400742115
1 0.541231732776618 0.6957328385899815 0.014613778705636743 0.0287569573283859
1 0.5417536534446764 0.634508348794063 0.03288100208768267 0.039888682745825604
1 0.48747390396659707 0.6224489795918368 0.03288100208768267 0.05473098330241188
1 0.49373695198329853 0.5575139146567718 0.013048016701461378 0.01855287569573284
1 0.4410229645093946 0.614100185528757 0.026096033402922755 0.05102040816326531
1 0.47390396659707723 0.5769944341372912 0.03653444676409186 0.04638218923933209
0 0.44467640918580376 0.5593692022263451 0.008350730688935281 0.0287569573283859
1 0.45668058455114824 0.5055658627087198 0.02139874739039666 0.036178107606679034
0 0.43058455114822547 0.5092764378478665 0.006784968684759917 0.02411873840445269
0 0.4519832985386221 0.48237476808905383 0.006784968684759917 0.023191094619666047
1 0.39509394572025053 0.5092764378478665 0.03966597077244259 0.04267161410018553
1 0.40657620041753656 0.46567717996289426 0.031837160751565764 0.039888682745825604
0 0.30062630480167013 0.6743970315398887 0.008872651356993737 0.01855287569573284
1 0.30167014613778703 0.6790352504638218 0.010960334029227558 0.02040816326530612
1 0.267223382045929 0.45454545454545453 0.030271398747390398 0.04638218923933209
1 0.28757828810020875 0.4230055658627087 0.033402922755741124 0.03710575139146568
1 0.3058455114822547 0.39981447124304265 0.015657620041753653 0.01948051948051948
1 0.31524008350730687 0.40166975881261596 0.009916492693110648 0.015769944341372914
1 0.25417536534446766 0.38589981447124305 0.031315240083507306 0.038033395176252316
1 0.17536534446764093 0.562152133580705 0.07150313152400835 0.08163265306122448
1 0.1315240083507307 0.5092764378478665 0.06367432150313153 0.05473098330241188
1 0.12421711899791232 0.49814471243042674 0.04645093945720251 0.045454545454545456
0 0.2186847599164927 0.3692022263450835 0.006784968684759917 0.012059369202226345
1 0.16753653444676408 0.3719851576994434 0.029227557411273485 0.0287569573283859
1 0.1487473903966597 0.30241187384044527 0.028183716075156576 0.026901669758812616
1 0.17066805845511482 0.2782931354359926 0.017745302713987474 0.025974025974025976
1 0.05010438413361169 0.4267161410018553 0.049582463465553235 0.045454545454545456
1 0.11899791231732777 0.26159554730983303 0.015135699373695199 0.01855287569573284
0 0.11377870563674322 0.2560296846011132 0.004697286012526096 0.015769944341372914
0 0.1069937369519833 0.2560296846011132 0.005741127348643006 0.015769944341372914
1 0.1080375782881002 0.2588126159554731 0.009394572025052192 0.013914656771799629
1 0.07881002087682672 0.2597402597402597 0.026096033402922755 0.02411873840445269
1 0.02661795407098121 0.2504638218923933 0.013048016701461378 0.015769944341372914
1 0.033402922755741124 0.2541743970315399 0.013048016701461378 0.017625231910946195
0 0.06002087682672234 0.23469387755102042 0.005741127348643006 0.016697588126159554
1 0.06002087682672234 0.22820037105751392 0.027139874739039668 0.02040816326530612
1 0.0652400835073069 0.21521335807050093 0.010438413361169102 0.012059369202226345
1 0.050626304801670144 0.22263450834879406 0.016179540709812108 0.02040816326530612
1 0.048538622129436326 0.20593692022263452 0.02035490605427975 0.015769944341372914
1 0.021920668058455117 0.20871985157699444 0.02139874739039666 0.01948051948051948
0 0.04175365344467641 0.1901669758812616 0.0041753653444676405 0.015769944341372914
1 0.18789144050104384 0.3098330241187384 0.012004175365344467 0.012059369202226345
1 0.16962421711899792 0.3144712430426716 0.020876826722338204 0.01855287569573284
