0 0.6478571428571429 0.7304761904761905 0.018571428571428572 0.07333333333333333
0 0.4342857142857143 0.6095238095238096 0.025 0.06285714285714286
0 0.48142857142857143 0.64 0.016428571428571428 0.0419047619047619
0 0.5114285714285715 0.6533333333333333 0.014285714285714285 0.045714285714285714
0 0.5221428571428571 0.6285714285714286 0.012142857142857143 0.04857142857142857
0 0.53 0.6390476190476191 0.010714285714285714 0.058095238095238096
0 0.5478571428571428 0.6428571428571429 0.012857142857142857 0.058095238095238096
0 0.5264285714285715 0.6628571428571428 0.014285714285714285 0.06285714285714286
0 0.4907142857142857 0.6247619047619047 0.020714285714285713 0.06380952380952382
0 0.4685714285714286 0.6038095238095238 0.013571428571428571 0.06190476190476191
0 0.42 0.47714285714285715 0.012142857142857143 0.0419047619047619
0 0.44785714285714284 0.5333333333333333 0.013571428571428571 0.05047619047619047
0 0.46214285714285713 0.5666666666666667 0.013571428571428571 0.049523809523809526
0 0.4492857142857143 0.5666666666666667 0.013571428571428571 0.04666666666666667
0 0.435 0.5352380952380953 0.015 0.05047619047619047
0 0.39357142857142857 0.38761904761904764 0.012142857142857143 0.025714285714285714
0 0.40785714285714286 0.439047619047619 0.012142857142857143 0.02761904761904762
1 0.41 0.44571428571428573 0.016428571428571428 0.023809523809523808
1 0.47714285714285715 0.4057142857142857 0.027142857142857142 0.03142857142857143
1 0.48214285714285715 0.43047619047619046 0.03142857142857143 0.035238095238095235
1 0.45785714285714285 0.4676190476190476 0.03428571428571429 0.04857142857142857
1 0.48142857142857143 0.5323809523809524 0.05071428571428571 0.0838095238095238
1 0.36857142857142855 0.439047619047619 0.05285714285714286 0.02857142857142857
1 0.4114285714285714 0.41523809523809524 0.025 0.045714285714285714
1 0.4135714285714286 0.4 0.027142857142857142 0.03142857142857143
1 0.4542857142857143 0.3304761904761905 0.03857142857142857 0.01904761904761905
1 0.4114285714285714 0.3142857142857143 0.010714285714285714 0.024761904761904763
0 0.6314285714285715 0.72 0.012142857142857143 0.03238095238095238
0 0.39785714285714285 0.37523809523809526 0.01 0.02761904761904762
1 0.36642857142857144 0.38095238095238093 0.04285714285714286 0.02666666666666667
0 0.45 0.5228571428571429 0.01 0.04476190476190476
1 0.7442857142857143 0.9180952380952381 0.07 0.11904761904761904
1 0.4635714285714286 0.35619047619047617 0.04285714285714286 0.022857142857142857
1 0.48214285714285715 0.3676190476190476 0.05 0.02761904761904762
0 0.47285714285714286 0.3914285714285714 0.007142857142857143 0.029523809523809525
0 0.4042857142857143 0.38476190476190475 0.01 0.025714285714285714
0 0.7392857142857143 0.9057142857142857 0.04928571428571429 0.0838095238095238
