0 0.252 0.84 0.0105 0.024
0 0.2625 0.7933333333333333 0.0085 0.017333333333333333
0 0.3075 0.8193333333333334 0.008 0.019333333333333334
0 0.332 0.7486666666666667 0.009 0.017333333333333333
1 0.3505 0.742 0.014 0.04
0 0.376 0.748 0.0075 0.02
0 0.396 0.7646666666666667 0.0085 0.023333333333333334
0 0.3875 0.7913333333333333 0.009 0.017333333333333333
1 0.4265 0.972 0.029 0.05533333333333333
1 0.431 0.8866666666666667 0.035 0.08666666666666667
1 0.429 0.7933333333333333 0.0245 0.072
1 0.4305 0.7146666666666667 0.0215 0.056666666666666664
1 0.432 0.654 0.0195 0.044
1 0.5085 0.7426666666666667 0.022 0.056
1 0.5125 0.8266666666666667 0.0255 0.06933333333333333
1 0.5485 0.8313333333333334 0.023 0.06666666666666667
1 0.438 0.5933333333333334 0.018 0.042
0 0.4885 0.666 0.005 0.019333333333333334
1 0.506 0.6653333333333333 0.02 0.05266666666666667
1 0.465 0.5413333333333333 0.0165 0.03866666666666667
1 0.4975 0.614 0.0185 0.048
1 0.497 0.57 0.017 0.04133333333333333
1 0.494 0.5306666666666666 0.015 0.034
1 0.491 0.49666666666666665 0.015 0.034
0 0.483 0.5266666666666666 0.0045 0.016666666666666666
1 0.4395 0.48533333333333334 0.0145 0.032
1 0.4355 0.454 0.007 0.016666666666666666
1 0.4375 0.414 0.005 0.012
1 0.442 0.3953333333333333 0.0125 0.025333333333333333
1 0.4875 0.44066666666666665 0.014 0.024
1 0.4605 0.44466666666666665 0.014 0.034
1 0.4855 0.41 0.019 0.035333333333333335
1 0.4815 0.36133333333333334 0.01 0.023333333333333334
1 0.4805 0.3446666666666667 0.011 0.018
1 0.48 0.32466666666666666 0.0095 0.018
1 0.445 0.3433333333333333 0.012 0.028
1 0.4445 0.31666666666666665 0.0085 0.007333333333333333
1 0.443 0.31066666666666665 0.0085 0.008
1 0.445 0.3 0.01 0.015333333333333332
1 0.477 0.302 0.01 0.019333333333333334
1 0.478 0.28933333333333333 0.009 0.013333333333333334
1 0.477 0.278 0.009 0.012666666666666666
1 0.4745 0.26466666666666666 0.0085 0.014
1 0.475 0.25333333333333335 0.0075 0.013333333333333334
1 0.474 0.24133333333333334 0.008 0.010666666666666666
1 0.4445 0.27466666666666667 0.007 0.006666666666666667
0 0.445 0.272 0.0025 0.007333333333333333
1 0.4455 0.26666666666666666 0.008 0.008
1 0.4475 0.24666666666666667 0.008 0.016666666666666666
1 0.4605 0.224 0.0085 0.011333333333333334
1 0.446 0.23533333333333334 0.014 0.011333333333333334
0 0.453 0.23466666666666666 0.002 0.009333333333333334
1 0.4425 0.22733333333333333 0.0175 0.011333333333333334
1 0.4475 0.22066666666666668 0.007 0.011333333333333334
1 0.438 0.22133333333333333 0.0075 0.011333333333333334
0 0.473 0.22066666666666668 0.002 0.009333333333333334
1 0.478 0.214 0.0165 0.010666666666666666
1 0.517 0.21133333333333335 0.016 0.010666666666666666
0 0.5175 0.20666666666666667 0.002 0.009333333333333334
1 0.473 0.20733333333333334 0.007 0.010666666666666666
1 0.4725 0.19666666666666666 0.006 0.013333333333333334
1 0.439 0.20133333333333334 0.0065 0.009333333333333334
0 0.4045 0.19133333333333333 0.003 0.008666666666666666
1 0.3905 0.17333333333333334 0.007 0.012666666666666666
0 0.4085 0.19266666666666668 0.0025 0.009333333333333334
1 0.4215 0.20066666666666666 0.0165 0.008
1 0.4235 0.19533333333333333 0.013 0.008
1 0.425 0.19266666666666668 0.014 0.008666666666666666
1 0.424 0.18533333333333332 0.016 0.008666666666666666
0 0.4345 0.186 0.0025 0.005333333333333333
0 0.4205 0.18666666666666668 0.0015 0.009333333333333334
1 0.4595 0.174 0.0065 0.008666666666666666
1 0.448 0.19333333333333333 0.007 0.010666666666666666
1 0.4475 0.18466666666666667 0.0055 0.007333333333333333
1 0.4485 0.17733333333333334 0.006 0.008666666666666666
1 0.4485 0.168 0.0065 0.008666666666666666
1 0.4705 0.18333333333333332 0.007 0.009333333333333334
1 0.471 0.17533333333333334 0.007 0.01
1 0.47 0.16933333333333334 0.007 0.01
1 0.4695 0.16 0.006 0.008666666666666666
1 0.4965 0.17933333333333334 0.013 0.009333333333333334
1 0.496 0.17533333333333334 0.0115 0.009333333333333334
1 0.492 0.17066666666666666 0.0145 0.012666666666666666
1 0.444 0.14 0.013 0.014666666666666666
1 0.462 0.14466666666666667 0.01 0.006666666666666667
1 0.449 0.12666666666666668 0.009 0.007333333333333333
1 0.4465 0.11533333333333333 0.0085 0.006
1 0.452 0.11666666666666667 0.0095 0.006666666666666667
1 0.458 0.11733333333333333 0.0095 0.007333333333333333
0 0.454 0.13 0.0015 0.007333333333333333
0 0.455 0.12733333333333333 0.001 0.006666666666666667
1 0.4595 0.13133333333333333 0.0085 0.008
1 0.4775 0.14866666666666667 0.01 0.008
1 0.4855 0.14933333333333335 0.0105 0.006666666666666667
1 0.4785 0.144 0.004 0.004
0 0.4785 0.14266666666666666 0.002 0.006666666666666667
1 0.4985 0.14533333333333334 0.009 0.008
1 0.4935 0.12666666666666668 0.01 0.007333333333333333
1 0.4965 0.11933333333333333 0.0095 0.009333333333333334
1 0.376 0.148 0.0125 0.008
1 0.3395 0.15666666666666668 0.014 0.007333333333333333
1 0.341 0.15133333333333332 0.0125 0.008666666666666666
1 0.366 0.12133333333333333 0.0115 0.011333333333333334
1 0.387 0.14133333333333334 0.009 0.008
1 0.4005 0.14 0.0185 0.016
1 0.3375 0.13866666666666666 0.0485 0.017333333333333333
0 0.354 0.23333333333333334 0.003 0.01
0 0.341 0.23466666666666666 0.0025 0.009333333333333334
0 0.2045 0.218 0.003 0.009333333333333334
1 0.2485 0.14 0.01 0.006666666666666667
1 0.233 0.13333333333333333 0.009 0.006
0 0.2485 0.126 0.003 0.006
0 0.262 0.136 0.002 0.006666666666666667
1 0.231 0.118 0.0115 0.006666666666666667
1 0.22 0.10866666666666666 0.0115 0.006
0 0.2345 0.104 0.0025 0.005333333333333333
1 0.214 0.11066666666666666 0.0125 0.007333333333333333
1 0.205 0.11066666666666666 0.0105 0.006
0 0.1855 0.252 0.0035 0.010666666666666666
0 0.182 0.25666666666666665 0.0035 0.009333333333333334
1 0.172 0.23466666666666666 0.006 0.007333333333333333
1 0.1765 0.226 0.018 0.012666666666666666
1 0.171 0.22133333333333333 0.0175 0.01
1 0.157 0.22066666666666668 0.0135 0.012
0 0.967 0.9373333333333334 0.0145 0.018666666666666668
0 0.9625 0.8953333333333333 0.0115 0.020666666666666667
0 0.956 0.9113333333333333 0.0105 0.011333333333333334
0 0.875 0.726 0.009 0.020666666666666667
0 0.8675 0.662 0.0095 0.018
0 0.875 0.6786666666666666 0.012 0.011333333333333334
0 0.8855 0.6613333333333333 0.0095 0.015333333333333332
0 0.8905 0.626 0.0085 0.017333333333333333
0 0.9125 0.6513333333333333 0.009 0.017333333333333333
0 0.934 0.642 0.011 0.014666666666666666
0 0.946 0.662 0.0115 0.011333333333333334
0 0.914 0.61 0.007 0.008666666666666666
0 0.907 0.6113333333333333 0.0065 0.01
1 0.7795 0.4846666666666667 0.008 0.015333333333333332
1 0.743 0.43866666666666665 0.0205 0.024666666666666667
0 0.7465 0.47533333333333333 0.005 0.009333333333333334
1 0.697 0.36666666666666664 0.0085 0.008
1 0.746 0.2793333333333333 0.02 0.017333333333333333
1 0.0105 0.36866666666666664 0.021 0.02266666666666667
1 0.0235 0.3466666666666667 0.0275 0.021333333333333333
0 0.086 0.348 0.0055 0.012666666666666666
1 0.1 0.28733333333333333 0.0175 0.021333333333333333
1 0.104 0.2773333333333333 0.0205 0.016666666666666666
0 0.1665 0.264 0.003 0.006
1 0.097 0.256 0.0125 0.018
1 0.0995 0.23666666666666666 0.0135 0.010666666666666666
1 0.0865 0.22333333333333333 0.012 0.012
1 0.083 0.21133333333333335 0.011 0.011333333333333334
1 0.077 0.256 0.0235 0.012666666666666666
1 0.0765 0.24733333333333332 0.0145 0.015333333333333332
1 0.0665 0.24133333333333334 0.019 0.015333333333333332
1 0.0595 0.23933333333333334 0.0115 0.012666666666666666
1 0.0485 0.22666666666666666 0.0235 0.010666666666666666
1 0.06 0.21466666666666667 0.0185 0.008
0 0.0435 0.19866666666666666 0.004 0.01
1 0.075 0.202 0.015 0.008
1 0.064 0.19933333333333333 0.017 0.011333333333333334
1 0.0585 0.198 0.0155 0.009333333333333334
1 0.0575 0.19266666666666668 0.017 0.01
1 0.057 0.21133333333333335 0.0195 0.011333333333333334
1 0.0515 0.20933333333333334 0.0155 0.011333333333333334
1 0.154 0.258 0.0205 0.014
1 0.15 0.25133333333333335 0.025 0.014
1 0.148 0.248 0.021 0.012
1 0.1415 0.246 0.02 0.012666666666666666
1 0.139 0.24266666666666667 0.02 0.010666666666666666
1 0.1345 0.23866666666666667 0.019 0.013333333333333334
1 0.128 0.238 0.0175 0.012
1 0.1245 0.234 0.0205 0.012
1 0.1165 0.22666666666666666 0.019 0.011333333333333334
1 0.115 0.222 0.019 0.013333333333333334
1 0.1105 0.21866666666666668 0.017 0.011333333333333334
1 0.1115 0.19333333333333333 0.015 0.010666666666666666
1 0.1055 0.184 0.0145 0.010666666666666666
1 0.114 0.17866666666666667 0.028 0.011333333333333334
1 0.095 0.19533333333333333 0.02 0.010666666666666666
1 0.095 0.19133333333333333 0.0175 0.007333333333333333
1 0.0995 0.20666666666666667 0.014 0.012666666666666666
1 0.103 0.21 0.019 0.012
1 0.11 0.21333333333333335 0.0205 0.010666666666666666
1 0.1095 0.21666666666666667 0.022 0.008666666666666666
0 0.304 0.472 0.005 0.006
0 0.2905 0.47333333333333333 0.005 0.01
0 0.212 0.49933333333333335 0.006 0.018
0 0.3115 0.45866666666666667 0.0025 0.008666666666666666
0 0.0215 0.6513333333333333 0.009 0.016666666666666666
0 0.009 0.648 0.0115 0.021333333333333333
