1 0.16962421711899792 0.525974025974026 0.04123173277661795 0.0640074211502783
1 0.20772442588726514 0.5278293135435993 0.038100208768267224 0.06215213358070501
1 0.3058455114822547 0.7179962894248608 0.061586638830897704 0.0686456400742115
0 0.42275574112734865 0.3228200371057514 0.006263048016701462 0.025974025974025976
1 0.4196242171189979 0.33116883116883117 0.02035490605427975 0.041743970315398886
1 0.44572025052192066 0.37012987012987014 0.022964509394572025 0.05287569573283859
1 0.477035490605428 0.3738404452690167 0.021920668058455117 0.04359925788497217
1 0.6482254697286013 0.8089053803339518 0.07724425887265135 0.08905380333951762
1 0.6315240083507306 0.7504638218923934 0.06210855949895616 0.059369202226345084
1 0.7625260960334029 0.8348794063079777 0.07620041753653445 0.08812615955473098
1 0.8460334029227558 0.8024118738404453 0.0709812108559499 0.12987012987012986
1 0.8977035490605428 0.8070500927643784 0.07933194154488518 0.1261595547309833
1 0.7593945720250522 0.47866419294990725 0.024008350730688934 0.02504638218923933
1 0.7510438413361169 0.45918367346938777 0.02139874739039666 0.0287569573283859
0 0.6064718162839249 0.4202226345083488 0.009916492693110648 0.03896103896103896
1 0.6127348643006263 0.4294990723562152 0.032359081419624215 0.04638218923933209
1 0.5720250521920668 0.4582560296846011 0.027139874739039668 0.05194805194805195
1 0.5678496868475992 0.40166975881261596 0.019832985386221295 0.039888682745825604
1 0.7019832985386222 0.34415584415584416 0.014613778705636743 0.01948051948051948
0 0.6388308977035491 0.3246753246753247 0.009916492693110648 0.0287569573283859
0 0.6278705636743215 0.3320964749536178 0.007306889352818371 0.025974025974025976
1 0.6221294363256785 0.3534322820037106 0.005741127348643006 0.02040816326530612
0 0.6163883089770354 0.3673469387755102 0.005741127348643006 0.02040816326530612
1 0.6148225469728601 0.3654916512059369 0.007828810020876827 0.023191094619666047
1 0.5996868475991649 0.3719851576994434 0.007306889352818371 0.026901669758812616
1 0.5709812108559499 0.3608534322820037 0.011482254697286013 0.023191094619666047
1 0.5918580375782881 0.3562152133580705 0.009916492693110648 0.023191094619666047
1 0.5882045929018789 0.3358070500927644 0.010438413361169102 0.02504638218923933
1 0.6007306889352818 0.3385899814471243 0.009916492693110648 0.026901669758812616
0 0.6069937369519833 0.33302411873840443 0.006263048016701462 0.026901669758812616
0 0.6096033402922756 0.3293135435992579 0.006263048016701462 0.025974025974025976
1 0.6132567849686847 0.3339517625231911 0.006784968684759917 0.023191094619666047
1 0.6069937369519833 0.33487940630797774 0.008350730688935281 0.022263450834879406
0 0.6456158663883089 0.2782931354359926 0.005219206680584551 0.02411873840445269
1 0.6497912317327766 0.2653061224489796 0.006263048016701462 0.01855287569573284
1 0.5981210855949896 0.3079777365491651 0.018789144050104383 0.045454545454545456
1 0.5151356993736952 0.3395176252319109 0.015657620041753653 0.04823747680890538
1 0.5339248434237995 0.35064935064935066 0.013048016701461378 0.03525046382189239
1 0.5328810020876826 0.37662337662337664 0.026096033402922755 0.05102040816326531
1 0.5078288100208769 0.44063079777365494 0.016701461377870562 0.05102040816326531
0 0.48068893528183715 0.3395176252319109 0.006263048016701462 0.025974025974025976
1 0.4812108559498956 0.3385899814471243 0.012004175365344467 0.02504638218923933
1 0.5318371607515657 0.3209647495361781 0.02870563674321503 0.04638218923933209
0 0.5433194154488518 0.3172541743970315 0.006263048016701462 0.027829313543599257
0 0.5323590814196242 0.3051948051948052 0.006784968684759917 0.025974025974025976
0 0.5521920668058455 0.3144712430426716 0.006263048016701462 0.027829313543599257
0 0.5386221294363257 0.29684601113172543 0.0041753653444676405 0.02040816326530612
1 0.5474947807933194 0.300556586270872 0.024008350730688934 0.032467532467532464
0 0.5521920668058455 0.36641929499072357 0.007306889352818371 0.023191094619666047
1 0.552713987473904 0.36363636363636365 0.008872651356993737 0.025974025974025976
1 0.5219206680584552 0.5213358070500927 0.018789144050104383 0.05844155844155844
0 0.5438413361169102 0.5482374768089053 0.010960334029227558 0.032467532467532464
1 0.5448851774530271 0.5556586270871985 0.010438413361169102 0.036178107606679034
0 0.5652400835073069 0.6057513914656771 0.009916492693110648 0.04916512059369202
0 0.5647181628392485 0.614100185528757 0.008350730688935281 0.04823747680890538
0 0.5657620041753654 0.6048237476808905 0.006263048016701462 0.02411873840445269
0 0.552713987473904 0.6586270871985158 0.008350730688935281 0.030612244897959183
0 0.5474947807933194 0.6743970315398887 0.006784968684759917 0.023191094619666047
0 0.558455114822547 0.6706864564007421 0.010960334029227558 0.0287569573283859
0 0.5537578288100209 0.6892393320964749 0.008872651356993737 0.03153988868274583
0 0.5626304801670147 0.6716141001855288 0.010960334029227558 0.05194805194805195
1 0.4650313152400835 0.6437847866419295 0.015135699373695199 0.05287569573283859
0 0.5589770354906054 0.22912801484230055 0.005741127348643006 0.021335807050092765
0 0.5469728601252609 0.22820037105751392 0.005219206680584551 0.023191094619666047
1 0.5422755741127349 0.22727272727272727 0.024008350730688934 0.021335807050092765
1 0.5516701461377871 0.23283858998144713 0.012526096033402923 0.02411873840445269
1 0.5788100208768268 0.18738404452690166 0.010438413361169102 0.022263450834879406
0 0.5866388308977035 0.13636363636363635 0.004697286012526096 0.016697588126159554
0 0.5715031315240083 0.14100185528756956 0.003131524008350731 0.015769944341372914
1 0.5668058455114823 0.1437847866419295 0.005219206680584551 0.00927643784786642
1 0.5636743215031316 0.14192949907235622 0.006263048016701462 0.0074211502782931356
1 0.541231732776618 0.1437847866419295 0.004697286012526096 0.011131725417439703
0 0.5417536534446764 0.14100185528756956 0.0041753653444676405 0.012987012987012988
0 0.5146137787056367 0.12430426716141002 0.003131524008350731 0.00927643784786642
1 0.5146137787056367 0.1280148423005566 0.006263048016701462 0.012059369202226345
1 0.4812108559498956 0.13543599257884972 0.012526096033402923 0.022263450834879406
1 0.49478079331941544 0.09461966604823747 0.012526096033402923 0.014842300556586271
1 0.45563674321503134 0.14749536178107606 0.01826722338204593 0.01855287569573284
1 0.4582463465553236 0.14471243042671614 0.024530271398747392 0.01855287569573284
1 0.4551148225469729 0.13358070500927643 0.009916492693110648 0.02040816326530612
1 0.43162839248434237 0.1901669758812616 0.008872651356993737 0.012059369202226345
1 0.4342379958246347 0.18645640074211503 0.009916492693110648 0.01020408163265306
1 0.3554279749478079 0.2894248608534323 0.019832985386221295 0.03896103896103896
0 0.36691022964509395 0.30612244897959184 0.006784968684759917 0.02411873840445269
1 0.37995824634655534 0.2829313543599258 0.01826722338204593 0.029684601113172542
0 0.3794363256784969 0.2634508348794063 0.006784968684759917 0.014842300556586271
0 0.38204592901878914 0.2625231910946197 0.005219206680584551 0.016697588126159554
1 0.3836116910229645 0.2662337662337662 0.012526096033402923 0.015769944341372914
1 0.4551148225469729 0.10482374768089053 0.006263048016701462 0.011131725417439703
1 0.5808977035490606 0.09925788497217068 0.018789144050104383 0.017625231910946195
1 0.5542797494780793 0.08719851576994433 0.009394572025052192 0.016697588126159554
1 0.5511482254697286 0.07884972170686456 0.009916492693110648 0.015769944341372914
1 0.5203549060542797 0.07792207792207792 0.006263048016701462 0.014842300556586271
1 0.4953027139874739 0.07142857142857142 0.012004175365344467 0.012059369202226345
1 0.49478079331941544 0.05658627087198516 0.008350730688935281 0.01020408163265306
1 0.5307933194154488 0.0640074211502783 0.005219206680584551 0.013914656771799629
0 0.524008350730689 0.06029684601113173 0.0026096033402922755 0.0074211502782931356
1 0.5255741127348643 0.06215213358070501 0.006263048016701462 0.011131725417439703
0 0.524008350730689 0.04638218923933209 0.0020876826722338203 0.011131725417439703
1 0.5448851774530271 0.04638218923933209 0.006263048016701462 0.01020408163265306
0 0.541231732776618 0.04359925788497217 0.0026096033402922755 0.00927643784786642
1 0.5375782881002088 0.02504638218923933 0.0041753653444676405 0.011131725417439703
0 0.5167014613778705 0.05194805194805195 0.0026096033402922755 0.00927643784786642
1 0.5167014613778705 0.05380333951762523 0.003131524008350731 0.00927643784786642
0 0.5130480167014614 0.032467532467532464 0.0015657620041753654 0.0074211502782931356
1 0.5130480167014614 0.03432282003710575 0.0026096033402922755 0.006493506493506494
1 0.5140918580375783 0.01020408163265306 0.003131524008350731 0.01020408163265306
1 0.5313152400835073 0.0037105751391465678 0.010438413361169102 0.008348794063079777
