1 0.4228571428571429 0.06 0.05 0.037142857142857144
1 0.31857142857142856 0.054285714285714284 0.007142857142857143 0.025714285714285714
1 0.42928571428571427 0.17238095238095238 0.05142857142857143 0.035238095238095235
1 0.425 0.20952380952380953 0.052142857142857144 0.03619047619047619
0 0.40214285714285714 0.24095238095238095 0.005714285714285714 0.017142857142857144
1 0.425 0.26761904761904765 0.05 0.03619047619047619
1 0.31214285714285717 0.30666666666666664 0.027857142857142858 0.06761904761904762
1 0.42857142857142855 0.31523809523809526 0.052142857142857144 0.03428571428571429
0 0.3292857142857143 0.32285714285714284 0.0064285714285714285 0.011428571428571429
1 0.4235714285714286 0.3523809523809524 0.047857142857142855 0.03333333333333333
1 0.4235714285714286 0.38952380952380955 0.05071428571428571 0.02857142857142857
1 0.42714285714285716 0.4266666666666667 0.055 0.03142857142857143
1 0.4185714285714286 0.4714285714285714 0.055714285714285716 0.03238095238095238
1 0.4157142857142857 0.5142857142857142 0.052142857142857144 0.03142857142857143
1 0.4185714285714286 0.5514285714285714 0.04428571428571428 0.024761904761904763
1 0.4692857142857143 0.5933333333333334 0.052142857142857144 0.03142857142857143
0 0.455 0.5685714285714286 0.009285714285714286 0.011428571428571429
1 0.405 0.5895238095238096 0.052142857142857144 0.03333333333333333
1 0.3078571428571429 0.44666666666666666 0.041428571428571426 0.04857142857142857
0 0.32785714285714285 0.47333333333333333 0.007142857142857143 0.013333333333333334
1 0.29285714285714287 0.4847619047619048 0.04214285714285714 0.023809523809523808
1 0.32357142857142857 0.5276190476190477 0.012142857142857143 0.0380952380952381
0 0.3078571428571429 0.5152380952380953 0.008571428571428572 0.009523809523809525
0 0.30214285714285716 0.5161904761904762 0.01 0.009523809523809525
0 0.28785714285714287 0.5142857142857142 0.010714285714285714 0.014285714285714285
0 0.2842857142857143 0.5628571428571428 0.01 0.007619047619047619
0 0.2842857142857143 0.5704761904761905 0.0064285714285714285 0.006666666666666667
0 0.34285714285714286 0.56 0.008571428571428572 0.014285714285714285
1 0.29285714285714287 0.6209523809523809 0.035 0.023809523809523808
0 0.32357142857142857 0.599047619047619 0.007857142857142858 0.006666666666666667
1 0.29214285714285715 0.5523809523809524 0.017142857142857144 0.012380952380952381
0 0.29214285714285715 0.5523809523809524 0.007142857142857143 0.012380952380952381
0 0.29714285714285715 0.5533333333333333 0.007857142857142858 0.010476190476190476
0 0.3078571428571429 0.5761904761904761 0.010714285714285714 0.010476190476190476
1 0.30714285714285716 0.5761904761904761 0.018571428571428572 0.010476190476190476
0 0.28785714285714287 0.5942857142857143 0.008571428571428572 0.006666666666666667
0 0.2842857142857143 0.5952380952380952 0.01 0.012380952380952381
0 0.30142857142857143 0.5942857142857143 0.007857142857142858 0.008571428571428572
0 0.3107142857142857 0.6733333333333333 0.010714285714285714 0.009523809523809525
0 0.3578571428571429 0.679047619047619 0.007142857142857143 0.007619047619047619
1 0.39071428571428574 0.6438095238095238 0.054285714285714284 0.03333333333333333
0 0.30642857142857144 0.7638095238095238 0.01 0.01904761904761905
0 0.31357142857142856 0.76 0.007142857142857143 0.012380952380952381
1 0.09071428571428572 0.5190476190476191 0.04857142857142857 0.06666666666666667
1 0.016428571428571428 0.6647619047619048 0.03357142857142857 0.03238095238095238
1 0.7678571428571429 0.09238095238095238 0.02142857142857143 0.04666666666666667
0 0.7585714285714286 0.16285714285714287 0.009285714285714286 0.012380952380952381
0 0.705 0.33904761904761904 0.007857142857142858 0.013333333333333334
1 0.6221428571428571 0.18761904761904763 0.065 0.08476190476190476
1 0.78 0.31142857142857144 0.025714285714285714 0.07428571428571429
1 0.995 0.6 0.008571428571428572 0.022857142857142857
0 0.9957142857142857 0.6009523809523809 0.007857142857142858 0.009523809523809525
1 0.8371428571428572 0.62 0.024285714285714285 0.01904761904761905
0 0.8464285714285714 0.6180952380952381 0.008571428571428572 0.007619047619047619
0 0.7792857142857142 0.7495238095238095 0.010714285714285714 0.012380952380952381
1 0.7007142857142857 0.3323809523809524 0.016428571428571428 0.039047619047619046
0 0.7471428571428571 0.6523809523809524 0.015 0.010476190476190476
1 0.7392857142857143 0.6190476190476191 0.07785714285714286 0.03428571428571429
1 0.7042857142857143 0.7 0.04928571428571429 0.03142857142857143
1 0.67 0.6180952380952381 0.05 0.03142857142857143
1 0.6092857142857143 0.6133333333333333 0.05071428571428571 0.03238095238095238
1 0.5814285714285714 0.6952380952380952 0.04857142857142857 0.030476190476190476
1 0.5157142857142857 0.6904761904761905 0.05714285714285714 0.03238095238095238
1 0.4492857142857143 0.6923809523809524 0.05285714285714286 0.030476190476190476
1 0.42428571428571427 0.7847619047619048 0.05357142857142857 0.03428571428571429
1 0.42428571428571427 0.8704761904761905 0.05714285714285714 0.037142857142857144
1 0.42642857142857143 0.9466666666666667 0.04642857142857143 0.035238095238095235
1 0.42142857142857143 0.9828571428571429 0.047142857142857146 0.03142857142857143
0 0.3871428571428571 0.9066666666666666 0.008571428571428572 0.01619047619047619
0 0.39 0.8885714285714286 0.0064285714285714285 0.01619047619047619
0 0.37285714285714283 0.9038095238095238 0.005714285714285714 0.013333333333333334
1 0.3821428571428571 0.8485714285714285 0.017142857142857144 0.04285714285714286
1 0.3507142857142857 0.8942857142857142 0.013571428571428571 0.047619047619047616
0 0.3492857142857143 0.8904761904761904 0.007857142857142858 0.009523809523809525
0 0.4 0.699047619047619 0.005714285714285714 0.011428571428571429
1 0.2957142857142857 0.9619047619047619 0.05928571428571429 0.040952380952380955
0 0.25785714285714284 0.9038095238095238 0.011428571428571429 0.014285714285714285
1 0.28785714285714287 0.8704761904761905 0.012857142857142857 0.029523809523809525
1 0.2857142857142857 0.8333333333333334 0.010714285714285714 0.02761904761904762
0 0.3142857142857143 0.8323809523809523 0.005714285714285714 0.011428571428571429
0 0.31857142857142856 0.8361904761904762 0.007857142857142858 0.017142857142857144
0 0.26071428571428573 0.8095238095238095 0.010714285714285714 0.013333333333333334
