1 0.71 0.9276649746192893 0.07071428571428572 0.14086294416243655
0 0.6578571428571428 0.8578680203045685 0.012857142857142857 0.03680203045685279
1 0.6664285714285715 0.7779187817258884 0.060714285714285714 0.15355329949238578
1 0.6285714285714286 0.6370558375634517 0.055714285714285716 0.13959390862944163
1 0.6928571428571428 0.7055837563451777 0.027142857142857142 0.05964467005076142
1 0.67 0.6383248730964467 0.02857142857142857 0.07233502538071065
1 0.65 0.5774111675126904 0.027142857142857142 0.06472081218274112
1 0.725 0.6294416243654822 0.027857142857142858 0.06472081218274112
1 0.7021428571428572 0.5748730964467005 0.023571428571428573 0.0583756345177665
1 0.6121428571428571 0.3604060913705584 0.04642857142857143 0.09517766497461928
1 0.6621428571428571 0.2906091370558376 0.062142857142857146 0.06091370558375635
1 0.7942857142857143 0.22081218274111675 0.13785714285714284 0.11294416243654823
1 0.9207142857142857 0.1598984771573604 0.05714285714285714 0.0583756345177665
1 0.9714285714285714 0.13705583756345177 0.04928571428571429 0.05583756345177665
1 0.32142857142857145 0.44416243654822335 0.08071428571428571 0.08883248730964467
0 0.385 0.6065989847715736 0.010714285714285714 0.03426395939086294
0 0.37 0.616751269035533 0.012857142857142857 0.027918781725888325
1 0.16714285714285715 0.5126903553299492 0.14285714285714285 0.12436548223350254
1 0.29 0.28426395939086296 0.11428571428571428 0.13705583756345177
1 0.35928571428571426 0.20431472081218274 0.03214285714285714 0.08248730964467005
1 0.36857142857142855 0.06091370558375635 0.03428571428571429 0.09644670050761421
1 0.27 0.024111675126903553 0.03214285714285714 0.048223350253807105
