1 0.14785714285714285 0.022857142857142857 0.02857142857142857 0.021904761904761906
1 0.2042857142857143 0.029523809523809525 0.075 0.05333333333333334
1 0.21214285714285713 0.08476190476190476 0.08357142857142857 0.05523809523809524
0 0.25785714285714284 0.15428571428571428 0.015714285714285715 0.030476190476190476
0 0.14357142857142857 0.2038095238095238 0.016428571428571428 0.023809523809523808
0 0.17642857142857143 0.2438095238095238 0.015714285714285715 0.023809523809523808
1 0.12071428571428572 0.4 0.027142857142857142 0.011428571428571429
1 0.15928571428571428 0.41619047619047617 0.02857142857142857 0.018095238095238095
1 0.155 0.44285714285714284 0.030714285714285715 0.014285714285714285
1 0.15428571428571428 0.4980952380952381 0.030714285714285715 0.017142857142857144
1 0.14857142857142858 0.5152380952380953 0.032857142857142856 0.01619047619047619
1 0.155 0.559047619047619 0.03142857142857143 0.01619047619047619
1 0.14714285714285713 0.5895238095238096 0.030714285714285715 0.014285714285714285
1 0.14214285714285715 0.6409523809523809 0.025714285714285714 0.014285714285714285
0 0.07857142857142857 0.7952380952380952 0.022857142857142857 0.01619047619047619
0 0.08071428571428571 0.8171428571428572 0.025714285714285714 0.015238095238095238
0 0.10571428571428572 0.8038095238095239 0.024285714285714285 0.01904761904761905
0 0.09428571428571429 0.8352380952380952 0.027142857142857142 0.02
1 0.23714285714285716 0.8047619047619048 0.01 0.04857142857142857
1 0.285 0.9180952380952381 0.041428571428571426 0.11047619047619048
1 0.445 0.960952380952381 0.032857142857142856 0.0761904761904762
1 0.29928571428571427 0.7828571428571428 0.04 0.11428571428571428
1 0.3107142857142857 0.6447619047619048 0.039285714285714285 0.11904761904761904
1 0.3107142857142857 0.5219047619047619 0.04 0.10476190476190476
1 0.45785714285714285 0.4685714285714286 0.03142857142857143 0.10380952380952381
1 0.31285714285714283 0.3647619047619048 0.039285714285714285 0.09714285714285714
