1 0.2 0.23333333333333334 0.09357142857142857 0.05904761904761905
1 0.29285714285714287 0.6514285714285715 0.045714285714285714 0.12476190476190477
1 0.2792857142857143 0.820952380952381 0.04928571428571429 0.1380952380952381
1 0.265 0.9638095238095238 0.05285714285714286 0.07238095238095238
0 0.16642857142857143 0.9619047619047619 0.017857142857142856 0.022857142857142857
1 0.17 0.9561904761904761 0.017142857142857144 0.05619047619047619
0 0.3078571428571429 0.9857142857142858 0.019285714285714285 0.021904761904761906
1 0.31142857142857144 0.979047619047619 0.01 0.0419047619047619
1 0.29928571428571427 0.5095238095238095 0.04285714285714286 0.09619047619047619
1 0.315 0.37238095238095237 0.047857142857142855 0.11714285714285715
0 0.33714285714285713 0.41714285714285715 0.015714285714285715 0.025714285714285714
0 0.22642857142857142 0.28285714285714286 0.017857142857142856 0.024761904761904763
0 0.18928571428571428 0.439047619047619 0.019285714285714285 0.017142857142857144
0 0.14142857142857143 0.2780952380952381 0.02 0.024761904761904763
0 0.21214285714285713 0.4 0.015714285714285715 0.02095238095238095
0 0.22142857142857142 0.38095238095238093 0.019285714285714285 0.022857142857142857
0 0.5471428571428572 0.44095238095238093 0.009285714285714286 0.021904761904761906
1 0.41 0.5838095238095238 0.05285714285714286 0.13714285714285715
0 0.5342857142857143 0.6761904761904762 0.012142857142857143 0.02095238095238095
0 0.6571428571428571 0.6847619047619048 0.019285714285714285 0.01904761904761905
1 0.9457142857142857 0.6742857142857143 0.06428571428571428 0.12761904761904763
1 0.8021428571428572 0.2571428571428571 0.041428571428571426 0.0980952380952381
1 0.815 0.024761904761904763 0.07071428571428572 0.049523809523809526
0 0.7635714285714286 0.10952380952380952 0.014285714285714285 0.03428571428571429
0 0.7535714285714286 0.10666666666666667 0.015 0.03428571428571429
0 0.7585714285714286 0.06571428571428571 0.017142857142857144 0.04
1 0.6292857142857143 0.9457142857142857 0.04928571428571429 0.10857142857142857
1 0.17 0.4942857142857143 0.03214285714285714 0.035238095238095235
1 0.19357142857142856 0.35714285714285715 0.03642857142857143 0.02095238095238095
1 0.20785714285714285 0.3238095238095238 0.03142857142857143 0.02666666666666667
1 0.2007142857142857 0.30095238095238097 0.03214285714285714 0.021904761904761906
1 0.18571428571428572 0.3942857142857143 0.03214285714285714 0.017142857142857144
1 0.15 0.3619047619047619 0.024285714285714285 0.0419047619047619
1 0.17 0.3514285714285714 0.02142857142857143 0.02857142857142857
1 0.22428571428571428 0.37238095238095237 0.03214285714285714 0.03142857142857143
1 0.18928571428571428 0.43047619047619046 0.03 0.017142857142857144
1 0.16 0.17904761904761904 0.016428571428571428 0.04
0 0.05857142857142857 0.11523809523809524 0.02214285714285714 0.03238095238095238
0 0.020714285714285713 0.15904761904761905 0.02214285714285714 0.03238095238095238
0 0.7921428571428571 0.700952380952381 0.019285714285714285 0.017142857142857144
0 0.8478571428571429 0.8638095238095238 0.02214285714285714 0.01904761904761905
0 0.87 0.9028571428571428 0.024285714285714285 0.03142857142857143
0 0.8042857142857143 0.8990476190476191 0.017857142857142856 0.023809523809523808
0 0.7507142857142857 0.960952380952381 0.020714285714285713 0.024761904761904763
0 0.7871428571428571 0.9571428571428572 0.02 0.024761904761904763
0 0.8457142857142858 0.9304761904761905 0.02214285714285714 0.02666666666666667
0 0.8635714285714285 0.9342857142857143 0.024285714285714285 0.02
1 0.8264285714285714 0.88 0.04857142857142857 0.040952380952380955
0 0.7435714285714285 0.7790476190476191 0.015714285714285715 0.01904761904761905
1 0.6971428571428572 0.7114285714285714 0.047857142857142855 0.15904761904761905
0 0.7178571428571429 0.8028571428571428 0.016428571428571428 0.02
0 0.7207142857142858 0.8142857142857143 0.0064285714285714285 0.01619047619047619
0 0.7307142857142858 0.7961904761904762 0.018571428571428572 0.022857142857142857
