1 0.43214285714285716 0.7157360406091371 0.08142857142857143 0.07614213197969544
1 0.3914285714285714 0.6560913705583756 0.062142857142857146 0.05964467005076142
1 0.30142857142857143 0.633248730964467 0.062142857142857146 0.05456852791878172
1 0.19357142857142856 0.6104060913705583 0.06642857142857143 0.05456852791878172
1 0.08642857142857142 0.5824873096446701 0.060714285714285714 0.05710659898477157
