1 0.13642857142857143 0.9323809523809524 0.06642857142857143 0.045714285714285714
1 0.1357142857142857 0.8895238095238095 0.06 0.04
1 0.12714285714285714 0.7876190476190477 0.07214285714285715 0.0419047619047619
1 0.22714285714285715 0.8809523809523809 0.030714285714285715 0.08285714285714285
1 0.28 0.920952380952381 0.062142857142857146 0.0419047619047619
1 0.2785714285714286 0.82 0.062142857142857146 0.039047619047619046
1 0.28214285714285714 0.7790476190476191 0.05785714285714286 0.039047619047619046
1 0.2807142857142857 0.7342857142857143 0.06428571428571428 0.0380952380952381
1 0.3992857142857143 0.959047619047619 0.030714285714285715 0.08095238095238096
1 0.4007142857142857 0.8552380952380952 0.03 0.0838095238095238
1 0.4057142857142857 0.7676190476190476 0.029285714285714286 0.07523809523809524
1 0.405 0.7038095238095238 0.03214285714285714 0.02761904761904762
1 0.4135714285714286 0.6295238095238095 0.030714285714285715 0.08
1 0.40714285714285714 0.559047619047619 0.05714285714285714 0.035238095238095235
1 0.40714285714285714 0.49047619047619045 0.05857142857142857 0.03238095238095238
1 0.4092857142857143 0.44571428571428573 0.05357142857142857 0.037142857142857144
1 0.41214285714285714 0.4095238095238095 0.056428571428571425 0.035238095238095235
1 0.4157142857142857 0.37047619047619046 0.05785714285714286 0.0380952380952381
1 0.415 0.3333333333333333 0.05928571428571429 0.0380952380952381
1 0.415 0.2914285714285714 0.05071428571428571 0.03333333333333333
1 0.42142857142857143 0.1961904761904762 0.055714285714285716 0.047619047619047616
1 0.3678571428571429 0.17809523809523808 0.025714285714285714 0.06190476190476191
1 0.4257142857142857 0.024761904761904763 0.05785714285714286 0.039047619047619046
1 0.3442857142857143 0.1580952380952381 0.019285714285714285 0.015238095238095238
0 0.355 0.2123809523809524 0.007857142857142858 0.018095238095238095
0 0.3407142857142857 0.3028571428571429 0.008571428571428572 0.015238095238095238
1 0.5464285714285714 0.9638095238095238 0.029285714285714286 0.07142857142857142
1 0.6121428571428571 0.7980952380952381 0.027142857142857142 0.08666666666666667
1 0.5671428571428572 0.5 0.009285714285714286 0.02857142857142857
0 0.5671428571428572 0.4980952380952381 0.009285714285714286 0.015238095238095238
1 0.5578571428571428 0.08285714285714285 0.009285714285714286 0.02857142857142857
0 0.5585714285714286 0.07714285714285714 0.007857142857142858 0.01619047619047619
1 0.7407142857142858 0.8790476190476191 0.015714285714285715 0.04666666666666667
1 0.8021428571428572 0.7933333333333333 0.02642857142857143 0.06476190476190476
0 0.7664285714285715 0.7095238095238096 0.0064285714285714285 0.02
1 0.7421428571428571 0.6228571428571429 0.02642857142857143 0.06761904761904762
0 0.7607142857142857 0.4247619047619048 0.010714285714285714 0.018095238095238095
1 0.7457142857142857 0.4723809523809524 0.02642857142857143 0.07142857142857142
1 0.8778571428571429 0.5038095238095238 0.05357142857142857 0.03428571428571429
1 0.75 0.2780952380952381 0.015714285714285715 0.01904761904761905
0 0.7807142857142857 0.05523809523809524 0.008571428571428572 0.021904761904761906
1 0.7678571428571429 0.045714285714285714 0.017857142857142856 0.01619047619047619
1 0.7507142857142857 0.05238095238095238 0.03214285714285714 0.037142857142857144
