0 0.9878571428571429 0.6628571428571428 0.010714285714285714 0.006666666666666667
1 0.9278571428571428 0.6323809523809524 0.01 0.008571428571428572
1 0.9242857142857143 0.6390476190476191 0.01 0.007619047619047619
1 0.9221428571428572 0.6438095238095238 0.007857142857142858 0.007619047619047619
1 0.9207142857142857 0.6476190476190476 0.01 0.009523809523809525
0 0.9114285714285715 0.68 0.007142857142857143 0.004761904761904762
0 0.9128571428571428 0.6838095238095238 0.007142857142857143 0.0038095238095238095
0 0.6907142857142857 0.4657142857142857 0.0035714285714285713 0.007619047619047619
0 0.6307142857142857 0.31142857142857144 0.002857142857142857 0.008571428571428572
1 0.6164285714285714 0.21619047619047618 0.012857142857142857 0.023809523809523808
1 0.5792857142857143 0.38 0.02642857142857143 0.01904761904761905
1 0.5764285714285714 0.3657142857142857 0.022857142857142857 0.013333333333333334
1 0.53 0.3628571428571429 0.024285714285714285 0.015238095238095238
1 0.5721428571428572 0.32 0.022857142857142857 0.01619047619047619
1 0.5235714285714286 0.319047619047619 0.02142857142857143 0.012380952380952381
1 0.5221428571428571 0.3019047619047619 0.024285714285714285 0.014285714285714285
1 0.5664285714285714 0.2866666666666667 0.02214285714285714 0.014285714285714285
1 0.52 0.28476190476190477 0.025 0.022857142857142857
1 0.5171428571428571 0.2714285714285714 0.02 0.012380952380952381
1 0.5142857142857142 0.2580952380952381 0.02 0.015238095238095238
1 0.5578571428571428 0.20952380952380953 0.020714285714285713 0.015238095238095238
1 0.5564285714285714 0.19238095238095237 0.020714285714285713 0.014285714285714285
1 0.555 0.17809523809523808 0.02 0.013333333333333334
0 0.5328571428571428 0.17523809523809525 0.002142857142857143 0.006666666666666667
0 0.5357142857142857 0.17809523809523808 0.002142857142857143 0.007619047619047619
1 0.5078571428571429 0.19142857142857142 0.02 0.013333333333333334
1 0.5064285714285715 0.17523809523809525 0.02 0.013333333333333334
1 0.5392857142857143 0.08571428571428572 0.020714285714285713 0.015238095238095238
1 0.5392857142857143 0.07238095238095238 0.015714285714285715 0.010476190476190476
1 0.5357142857142857 0.06095238095238095 0.02 0.014285714285714285
1 0.5342857142857143 0.049523809523809526 0.020714285714285713 0.013333333333333334
1 0.5314285714285715 0.03142857142857143 0.02 0.013333333333333334
1 0.5292857142857142 0.02 0.020714285714285713 0.014285714285714285
1 0.5292857142857142 0.006666666666666667 0.018571428571428572 0.012380952380952381
1 0.49 0.01904761904761905 0.02 0.013333333333333334
1 0.4907142857142857 0.029523809523809525 0.02 0.012380952380952381
1 0.4942857142857143 0.05047619047619047 0.02 0.012380952380952381
1 0.495 0.06095238095238095 0.02214285714285714 0.012380952380952381
1 0.4942857142857143 0.07238095238095238 0.020714285714285713 0.014285714285714285
1 0.44285714285714284 0.010476190476190476 0.019285714285714285 0.014285714285714285
0 0.4164285714285714 0.3076190476190476 0.002857142857142857 0.009523809523809525
1 0.36714285714285716 0.8380952380952381 0.014285714285714285 0.04380952380952381
0 0.36857142857142855 0.9371428571428572 0.0035714285714285713 0.006666666666666667
1 0.3692857142857143 0.9361904761904762 0.004285714285714286 0.013333333333333334
1 0.3007142857142857 0.9028571428571428 0.03214285714285714 0.022857142857142857
1 0.2907142857142857 0.9352380952380952 0.015 0.04666666666666667
1 0.2735714285714286 0.9428571428571428 0.016428571428571428 0.047619047619047616
1 0.25785714285714284 0.94 0.014285714285714285 0.04476190476190476
1 0.2557142857142857 0.86 0.015 0.04285714285714286
1 0.27285714285714285 0.8580952380952381 0.014285714285714285 0.04285714285714286
1 0.29 0.8561904761904762 0.012142857142857143 0.04285714285714286
1 0.17357142857142857 0.8657142857142858 0.015 0.0419047619047619
1 0.15642857142857142 0.8628571428571429 0.015 0.04285714285714286
1 0.12142857142857143 0.8733333333333333 0.016428571428571428 0.04285714285714286
1 0.10428571428571429 0.8752380952380953 0.015 0.035238095238095235
1 0.09 0.8742857142857143 0.015714285714285715 0.04285714285714286
1 0.06714285714285714 0.8266666666666667 0.03214285714285714 0.03142857142857143
1 0.02214285714285714 0.8238095238095238 0.016428571428571428 0.03619047619047619
1 0.05928571428571429 0.9047619047619048 0.035 0.022857142857142857
1 0.062142857142857146 0.8809523809523809 0.03357142857142857 0.021904761904761906
1 0.007857142857142858 0.9238095238095239 0.015714285714285715 0.04666666666666667
1 0.06714285714285714 0.5304761904761904 0.005714285714285714 0.011428571428571429
1 0.06571428571428571 0.5428571428571428 0.005714285714285714 0.011428571428571429
1 0.045714285714285714 0.5380952380952381 0.017142857142857144 0.03238095238095238
1 0.09 0.5333333333333333 0.017142857142857144 0.03333333333333333
1 0.14142857142857143 0.5238095238095238 0.014285714285714285 0.03238095238095238
1 0.1692857142857143 0.5238095238095238 0.014285714285714285 0.03238095238095238
1 0.25785714285714284 0.6104761904761905 0.025714285714285714 0.023809523809523808
1 0.3007142857142857 0.5638095238095238 0.02142857142857143 0.014285714285714285
1 0.2885714285714286 0.5323809523809524 0.02857142857142857 0.018095238095238095
1 0.25 0.5142857142857142 0.012857142857142857 0.03142857142857143
1 0.22214285714285714 0.5171428571428571 0.014285714285714285 0.03142857142857143
0 0.19071428571428573 0.5152380952380953 0.0035714285714285713 0.005714285714285714
1 0.2814285714285714 0.5066666666666667 0.009285714285714286 0.009523809523809525
1 0.36357142857142855 0.699047619047619 0.012857142857142857 0.035238095238095235
1 0.3628571428571429 0.6533333333333333 0.012142857142857143 0.03619047619047619
1 0.3628571428571429 0.6114285714285714 0.011428571428571429 0.03333333333333333
1 0.36142857142857143 0.5723809523809524 0.010714285714285714 0.03428571428571429
1 0.35928571428571426 0.5266666666666666 0.015714285714285715 0.04666666666666667
1 0.3585714285714286 0.49238095238095236 0.012857142857142857 0.02761904761904762
1 0.35928571428571426 0.4552380952380952 0.01 0.03238095238095238
1 0.3585714285714286 0.41904761904761906 0.012142857142857143 0.02857142857142857
1 0.3585714285714286 0.38857142857142857 0.011428571428571429 0.03238095238095238
1 0.3578571428571429 0.3514285714285714 0.010714285714285714 0.029523809523809525
1 0.3585714285714286 0.319047619047619 0.01 0.02857142857142857
1 0.35714285714285715 0.2866666666666667 0.011428571428571429 0.029523809523809525
0 0.3707142857142857 0.26095238095238094 0.002142857142857143 0.006666666666666667
1 0.37142857142857144 0.26285714285714284 0.004285714285714286 0.010476190476190476
0 0.37857142857142856 0.26095238095238094 0.002142857142857143 0.0038095238095238095
1 0.37857142857142856 0.26095238095238094 0.0035714285714285713 0.014285714285714285
1 0.2978571428571429 0.30857142857142855 0.024285714285714285 0.015238095238095238
1 0.25 0.2923809523809524 0.010714285714285714 0.02666666666666667
1 0.24 0.2904761904761905 0.009285714285714286 0.024761904761904763
1 0.1742857142857143 0.3 0.011428571428571429 0.02666666666666667
1 0.18714285714285714 0.29714285714285715 0.012142857142857143 0.02761904761904762
1 0.21428571428571427 0.29619047619047617 0.012142857142857143 0.02761904761904762
1 0.22785714285714287 0.29619047619047617 0.013571428571428571 0.02857142857142857
1 0.35642857142857143 0.19904761904761906 0.008571428571428572 0.024761904761904763
1 0.3557142857142857 0.17142857142857143 0.009285714285714286 0.023809523809523808
1 0.3557142857142857 0.14666666666666667 0.008571428571428572 0.02095238095238095
1 0.355 0.07238095238095238 0.008571428571428572 0.022857142857142857
1 0.35428571428571426 0.05142857142857143 0.008571428571428572 0.02
1 0.35285714285714287 0.02761904761904762 0.010714285714285714 0.024761904761904763
1 0.355 0.007619047619047619 0.008571428571428572 0.015238095238095238
1 0.3 0.11428571428571428 0.02142857142857143 0.014285714285714285
1 0.24142857142857144 0.11904761904761904 0.018571428571428572 0.018095238095238095
1 0.2307142857142857 0.11523809523809524 0.017857142857142856 0.02
1 0.18428571428571427 0.11523809523809524 0.01 0.025714285714285714
1 0.17357142857142857 0.1180952380952381 0.01 0.02095238095238095
1 0.14142857142857143 0.3038095238095238 0.012142857142857143 0.02761904761904762
1 0.10214285714285715 0.3076190476190476 0.013571428571428571 0.02666666666666667
1 0.08 0.29523809523809524 0.014285714285714285 0.02857142857142857
0 0.016428571428571428 0.3028571428571429 0.007857142857142858 0.008571428571428572
1 0.13142857142857142 0.29714285714285715 0.0064285714285714285 0.008571428571428572
1 0.11785714285714285 0.30666666666666664 0.0064285714285714285 0.010476190476190476
1 0.10571428571428572 0.12285714285714286 0.01 0.018095238095238095
1 0.13285714285714287 0.1219047619047619 0.01 0.018095238095238095
