1 0.035 0.10761904761904761 0.023571428571428573 0.022857142857142857
1 0.02642857142857143 0.19238095238095237 0.015 0.029523809523809525
1 0.054285714285714284 0.13333333333333333 0.03428571428571429 0.06380952380952382
1 0.09428571428571429 0.1295238095238095 0.03357142857142857 0.07333333333333333
1 0.04428571428571428 0.3323809523809524 0.06714285714285714 0.06095238095238095
1 0.12214285714285714 0.33714285714285713 0.055714285714285716 0.0419047619047619
1 0.1992857142857143 0.35428571428571426 0.06928571428571428 0.04476190476190476
1 0.2671428571428571 0.35523809523809524 0.02 0.021904761904761906
0 0.26571428571428574 0.3504761904761905 0.017857142857142856 0.02095238095238095
1 0.30714285714285716 0.2980952380952381 0.095 0.06380952380952382
1 0.3914285714285714 0.2742857142857143 0.030714285714285715 0.09238095238095238
0 0.385 0.32095238095238093 0.007857142857142858 0.022857142857142857
0 0.39357142857142857 0.3361904761904762 0.007857142857142858 0.018095238095238095
0 0.4014285714285714 0.32095238095238093 0.009285714285714286 0.02095238095238095
0 0.415 0.3171428571428571 0.007857142857142858 0.02
0 0.44142857142857145 0.32 0.011428571428571429 0.021904761904761906
0 0.4471428571428571 0.31142857142857144 0.009285714285714286 0.02
0 0.45357142857142857 0.32095238095238093 0.007857142857142858 0.021904761904761906
0 0.47714285714285715 0.3038095238095238 0.011428571428571429 0.030476190476190476
1 0.4592857142857143 0.30666666666666664 0.010714285714285714 0.04
1 0.455 0.2619047619047619 0.03571428571428571 0.035238095238095235
0 0.45357142857142857 0.3485714285714286 0.012142857142857143 0.022857142857142857
1 0.455 0.3504761904761905 0.029285714285714286 0.017142857142857144
0 0.5792857142857143 0.24476190476190476 0.009285714285714286 0.02666666666666667
0 0.5842857142857143 0.259047619047619 0.009285714285714286 0.02
1 0.5635714285714286 0.36095238095238097 0.13142857142857142 0.13428571428571429
0 0.6414285714285715 0.20095238095238097 0.007857142857142858 0.02761904761904762
0 0.7171428571428572 0.21619047619047618 0.010714285714285714 0.014285714285714285
0 0.7621428571428571 0.23047619047619047 0.012142857142857143 0.02095238095238095
1 0.7571428571428571 0.18666666666666668 0.06357142857142857 0.04857142857142857
0 0.9185714285714286 0.14952380952380953 0.018571428571428572 0.022857142857142857
0 0.8907142857142857 0.16 0.017142857142857144 0.021904761904761906
0 0.8178571428571428 0.20095238095238097 0.010714285714285714 0.023809523809523808
0 0.8314285714285714 0.20952380952380953 0.013571428571428571 0.021904761904761906
1 0.8614285714285714 0.2904761904761905 0.06642857142857143 0.047619047619047616
1 0.9242857142857143 0.40190476190476193 0.11071428571428571 0.08
1 0.8357142857142857 0.3485714285714286 0.025714285714285714 0.02
0 0.8364285714285714 0.3523809523809524 0.01 0.021904761904761906
0 0.815 0.3952380952380952 0.012857142857142857 0.01619047619047619
1 0.77 0.4266666666666667 0.05357142857142857 0.10571428571428572
0 0.7171428571428572 0.41523809523809524 0.014285714285714285 0.014285714285714285
1 0.7214285714285714 0.3438095238095238 0.04857142857142857 0.04476190476190476
1 0.6628571428571428 0.4342857142857143 0.024285714285714285 0.045714285714285714
0 0.6642857142857143 0.46285714285714286 0.011428571428571429 0.02
0 0.6478571428571429 0.5980952380952381 0.012857142857142857 0.015238095238095238
0 0.6207142857142857 0.6314285714285715 0.009285714285714286 0.01904761904761905
0 0.63 0.6247619047619047 0.01 0.010476190476190476
1 0.5021428571428571 0.5638095238095238 0.04642857142857143 0.09333333333333334
1 0.5435714285714286 0.6009523809523809 0.045 0.07904761904761905
1 0.5721428571428572 0.7171428571428572 0.041428571428571426 0.12285714285714286
1 0.3242857142857143 0.4742857142857143 0.09 0.12095238095238095
1 0.24785714285714286 0.49142857142857144 0.07857142857142857 0.06190476190476191
1 0.08285714285714285 0.4657142857142857 0.12 0.07809523809523809
1 0.04642857142857143 0.5914285714285714 0.03142857142857143 0.018095238095238095
0 0.065 0.5923809523809523 0.019285714285714285 0.015238095238095238
0 0.062142857142857146 0.62 0.011428571428571429 0.015238095238095238
1 0.16642857142857143 0.4657142857142857 0.02214285714285714 0.03333333333333333
0 0.19785714285714287 0.5723809523809524 0.017142857142857144 0.015238095238095238
1 0.19642857142857142 0.5971428571428572 0.012142857142857143 0.035238095238095235
0 0.3385714285714286 0.5485714285714286 0.013571428571428571 0.018095238095238095
0 0.315 0.6209523809523809 0.012142857142857143 0.012380952380952381
0 0.39785714285714285 0.6095238095238096 0.011428571428571429 0.018095238095238095
1 0.3985714285714286 0.6123809523809524 0.010714285714285714 0.0380952380952381
0 0.30428571428571427 0.84 0.012142857142857143 0.012380952380952381
0 0.2978571428571429 0.8857142857142857 0.016428571428571428 0.014285714285714285
0 0.385 0.8523809523809524 0.012142857142857143 0.01619047619047619
1 0.4857142857142857 0.8371428571428572 0.04 0.1295238095238095
1 0.5442857142857143 0.8447619047619047 0.04071428571428572 0.12
1 0.6064285714285714 0.96 0.04642857142857143 0.07714285714285714
