1 0.28214285714285714 0.38666666666666666 0.16 0.07809523809523809
1 0.345 0.5304761904761904 0.15642857142857142 0.10952380952380952
1 0.4228571428571429 0.659047619047619 0.09785714285714285 0.1523809523809524
1 0.4657142857142857 0.8495238095238096 0.17357142857142857 0.22285714285714286
1 0.9164285714285715 0.7609523809523809 0.16428571428571428 0.14285714285714285
1 0.8571428571428571 0.6514285714285715 0.2007142857142857 0.1180952380952381
1 0.82 0.5638095238095238 0.18714285714285714 0.10761904761904761
1 0.8221428571428572 0.5057142857142857 0.135 0.0761904761904762
1 0.8471428571428572 0.45714285714285713 0.15428571428571428 0.08190476190476191
1 0.86 0.38761904761904764 0.13214285714285715 0.0761904761904762
1 0.6992857142857143 0.32476190476190475 0.05857142857142857 0.08476190476190476
1 0.6328571428571429 0.3057142857142857 0.062142857142857146 0.06095238095238095
1 0.49857142857142855 0.2180952380952381 0.045 0.05047619047619047
1 0.4 0.3323809523809524 0.05357142857142857 0.08285714285714285
1 0.6042857142857143 0.26 0.05357142857142857 0.05238095238095238
1 0.5764285714285714 0.2219047619047619 0.04857142857142857 0.049523809523809526
1 0.5521428571428572 0.19428571428571428 0.037142857142857144 0.0419047619047619
1 0.5264285714285715 0.17047619047619048 0.04071428571428572 0.03428571428571429
1 0.5114285714285715 0.14952380952380953 0.03857142857142857 0.035238095238095235
1 0.4942857142857143 0.13428571428571429 0.03642857142857143 0.039047619047619046
1 0.4692857142857143 0.1180952380952381 0.032857142857142856 0.03428571428571429
1 0.45785714285714285 0.09523809523809523 0.02142857142857143 0.035238095238095235
1 0.40285714285714286 0.05904761904761905 0.02857142857142857 0.035238095238095235
1 0.36714285714285716 0.04285714285714286 0.017857142857142856 0.01904761904761905
1 0.33785714285714286 0.02666666666666667 0.017857142857142856 0.01904761904761905
1 0.31285714285714283 0.017142857142857144 0.015714285714285715 0.017142857142857144
1 0.35428571428571426 0.09142857142857143 0.023571428571428573 0.03142857142857143
1 0.3435714285714286 0.11619047619047619 0.02142857142857143 0.02857142857142857
1 0.35214285714285715 0.14476190476190476 0.02857142857142857 0.037142857142857144
1 0.3657142857142857 0.15523809523809523 0.030714285714285715 0.039047619047619046
1 0.36428571428571427 0.1819047619047619 0.027857142857142858 0.02857142857142857
1 0.38142857142857145 0.19904761904761906 0.06142857142857143 0.06476190476190476
1 0.3892857142857143 0.24 0.04 0.054285714285714284
1 0.3942857142857143 0.28095238095238095 0.03857142857142857 0.05714285714285714
