0 0.035 0.3742857142857143 0.015 0.035238095238095235
0 0.07 0.379047619047619 0.015714285714285715 0.03238095238095238
0 0.055 0.36095238095238097 0.017857142857142856 0.03333333333333333
0 0.065 0.35333333333333333 0.010714285714285714 0.024761904761904763
1 0.06928571428571428 0.4 0.012857142857142857 0.022857142857142857
1 0.1492857142857143 0.3923809523809524 0.032857142857142856 0.02095238095238095
1 0.22214285714285714 0.38476190476190475 0.02 0.02666666666666667
1 0.24142857142857144 0.379047619047619 0.012142857142857143 0.025714285714285714
1 0.2664285714285714 0.36857142857142855 0.025714285714285714 0.018095238095238095
0 0.36714285714285716 0.37142857142857144 0.009285714285714286 0.024761904761904763
0 0.415 0.38571428571428573 0.014285714285714285 0.029523809523809525
0 0.07928571428571428 0.4276190476190476 0.019285714285714285 0.03428571428571429
0 0.024285714285714285 0.4638095238095238 0.012142857142857143 0.023809523809523808
1 0.025 0.52 0.04642857142857143 0.08
1 0.054285714285714284 0.4580952380952381 0.04642857142857143 0.05047619047619047
1 0.10071428571428571 0.46 0.047857142857142855 0.05333333333333334
1 0.155 0.4514285714285714 0.03571428571428571 0.04476190476190476
0 0.1357142857142857 0.46476190476190476 0.012142857142857143 0.021904761904761906
1 0.08357142857142857 0.520952380952381 0.052142857142857144 0.07523809523809524
1 0.1357142857142857 0.5085714285714286 0.047857142857142855 0.08857142857142856
1 0.18 0.5047619047619047 0.041428571428571426 0.07047619047619047
1 0.2307142857142857 0.4438095238095238 0.041428571428571426 0.05523809523809524
1 0.27785714285714286 0.44476190476190475 0.03571428571428571 0.05238095238095238
1 0.37285714285714283 0.42952380952380953 0.03571428571428571 0.04476190476190476
1 0.4107142857142857 0.4276190476190476 0.03857142857142857 0.06285714285714286
1 0.4614285714285714 0.42 0.03642857142857143 0.05047619047619047
1 0.46 0.46476190476190476 0.04357142857142857 0.06
1 0.4107142857142857 0.47523809523809524 0.04285714285714286 0.05523809523809524
1 0.37214285714285716 0.47714285714285715 0.04 0.06952380952380953
1 0.325 0.48095238095238096 0.035 0.07142857142857142
1 0.27214285714285713 0.49714285714285716 0.04 0.05904761904761905
1 0.22785714285714287 0.5 0.04 0.06285714285714286
1 0.05714285714285714 0.7076190476190476 0.09714285714285714 0.10476190476190476
1 0.13428571428571429 0.7028571428571428 0.05928571428571429 0.09142857142857143
1 0.2 0.6828571428571428 0.06 0.1
1 0.27071428571428574 0.6828571428571428 0.05071428571428571 0.11523809523809524
1 0.3892857142857143 0.66 0.06785714285714285 0.11047619047619048
1 0.4471428571428571 0.6504761904761904 0.05357142857142857 0.1
1 0.5064285714285715 0.6323809523809524 0.05857142857142857 0.10380952380952381
1 0.5671428571428572 0.621904761904762 0.05357142857142857 0.09523809523809523
1 0.6214285714285714 0.6209523809523809 0.05857142857142857 0.10476190476190476
1 0.6764285714285714 0.6076190476190476 0.056428571428571425 0.09428571428571429
1 0.7478571428571429 0.5371428571428571 0.095 0.05714285714285714
1 0.7428571428571429 0.5028571428571429 0.08428571428571428 0.049523809523809526
1 0.7535714285714286 0.4714285714285714 0.07642857142857143 0.0419047619047619
1 0.7635714285714286 0.44761904761904764 0.05928571428571429 0.03428571428571429
1 0.7664285714285715 0.4276190476190476 0.06642857142857143 0.045714285714285714
0 0.8507142857142858 0.2761904761904762 0.008571428571428572 0.021904761904761906
0 0.9121428571428571 0.24857142857142858 0.005714285714285714 0.01904761904761905
0 0.895 0.24476190476190476 0.004285714285714286 0.02095238095238095
0 0.8871428571428571 0.24095238095238095 0.005714285714285714 0.021904761904761906
1 0.8514285714285714 0.4714285714285714 0.024285714285714285 0.02095238095238095
1 0.8428571428571429 0.46095238095238095 0.025 0.014285714285714285
1 0.8421428571428572 0.44571428571428573 0.022857142857142857 0.017142857142857144
1 0.8421428571428572 0.42952380952380953 0.02214285714285714 0.018095238095238095
0 0.5921428571428572 0.3904761904761905 0.012857142857142857 0.03238095238095238
0 0.62 0.379047619047619 0.009285714285714286 0.025714285714285714
0 0.6628571428571428 0.3923809523809524 0.012142857142857143 0.02761904761904762
0 0.7292857142857143 0.31047619047619046 0.007857142857142858 0.02
0 0.51 0.3361904761904762 0.007857142857142858 0.02666666666666667
0 0.5842857142857143 0.29333333333333333 0.007857142857142858 0.022857142857142857
1 0.5607142857142857 0.34476190476190477 0.012857142857142857 0.017142857142857144
1 0.5514285714285714 0.3457142857142857 0.01 0.021904761904761906
1 0.5292857142857142 0.3476190476190476 0.020714285714285713 0.017142857142857144
1 0.5178571428571429 0.35619047619047617 0.016428571428571428 0.022857142857142857
1 0.5007142857142857 0.3514285714285714 0.011428571428571429 0.02761904761904762
1 0.6585714285714286 0.3476190476190476 0.04214285714285714 0.045714285714285714
1 0.7021428571428572 0.38571428571428573 0.06357142857142857 0.047619047619047616
1 0.7135714285714285 0.3638095238095238 0.05 0.029523809523809525
1 0.7207142857142858 0.35333333333333333 0.054285714285714284 0.03142857142857143
1 0.7278571428571429 0.3438095238095238 0.054285714285714284 0.029523809523809525
1 0.7371428571428571 0.3304761904761905 0.05142857142857143 0.02857142857142857
1 0.7578571428571429 0.29714285714285715 0.052142857142857144 0.02666666666666667
1 0.7757142857142857 0.2885714285714286 0.03857142857142857 0.023809523809523808
1 0.7785714285714286 0.28285714285714286 0.039285714285714285 0.023809523809523808
1 0.7835714285714286 0.2780952380952381 0.04214285714285714 0.025714285714285714
1 0.7828571428571428 0.26666666666666666 0.045714285714285714 0.02666666666666667
1 0.7157142857142857 0.2219047619047619 0.03214285714285714 0.017142857142857144
1 0.7028571428571428 0.21523809523809523 0.025 0.01619047619047619
1 0.6964285714285714 0.20952380952380953 0.025 0.01904761904761905
1 0.69 0.2038095238095238 0.02857142857142857 0.018095238095238095
1 0.685 0.1980952380952381 0.024285714285714285 0.013333333333333334
1 0.6792857142857143 0.1961904761904762 0.022857142857142857 0.012380952380952381
1 0.675 0.19333333333333333 0.027142857142857142 0.01619047619047619
1 0.6664285714285715 0.18666666666666668 0.030714285714285715 0.014285714285714285
1 0.7278571428571429 0.22857142857142856 0.03428571428571429 0.023809523809523808
1 0.7664285714285715 0.22666666666666666 0.032857142857142856 0.024761904761904763
1 0.7607142857142857 0.18857142857142858 0.03 0.018095238095238095
1 0.7521428571428571 0.1819047619047619 0.03142857142857143 0.015238095238095238
1 0.7407142857142858 0.17714285714285713 0.02142857142857143 0.013333333333333334
1 0.7307142857142858 0.17333333333333334 0.02214285714285714 0.013333333333333334
1 0.7192857142857143 0.1657142857142857 0.02642857142857143 0.017142857142857144
1 0.7092857142857143 0.1761904761904762 0.019285714285714285 0.018095238095238095
1 0.6964285714285714 0.18476190476190477 0.03214285714285714 0.022857142857142857
1 0.6707142857142857 0.17047619047619048 0.024285714285714285 0.013333333333333334
0 0.685 0.16857142857142857 0.004285714285714286 0.015238095238095238
1 0.7035714285714286 0.1619047619047619 0.02142857142857143 0.012380952380952381
1 0.6957142857142857 0.15619047619047619 0.020714285714285713 0.01619047619047619
1 0.6942857142857143 0.12857142857142856 0.019285714285714285 0.02095238095238095
1 0.7271428571428571 0.14476190476190476 0.02 0.01619047619047619
1 0.7414285714285714 0.1580952380952381 0.017857142857142856 0.018095238095238095
1 0.7707142857142857 0.15428571428571428 0.025 0.02095238095238095
1 0.7721428571428571 0.16476190476190475 0.019285714285714285 0.01619047619047619
1 0.8007142857142857 0.16952380952380952 0.02642857142857143 0.02095238095238095
1 0.8242857142857143 0.19142857142857142 0.03571428571428571 0.029523809523809525
1 0.8621428571428571 0.19428571428571428 0.03142857142857143 0.030476190476190476
1 0.94 0.2342857142857143 0.03857142857142857 0.03238095238095238
1 0.8564285714285714 0.23238095238095238 0.05714285714285714 0.037142857142857144
1 0.8271428571428572 0.2180952380952381 0.04428571428571428 0.02666666666666667
1 0.8978571428571429 0.2276190476190476 0.023571428571428573 0.022857142857142857
1 0.97 0.25523809523809526 0.03857142857142857 0.03142857142857143
