1 0.8535714285714285 0.6666666666666666 0.22642857142857142 0.12380952380952381
1 0.9642857142857143 0.5904761904761905 0.07142857142857142 0.09238095238095238
1 0.9664285714285714 0.4866666666666667 0.06714285714285714 0.06857142857142857
0 0.545 0.54 0.027142857142857142 0.06952380952380953
0 0.48857142857142855 0.5361904761904762 0.023571428571428573 0.06761904761904762
1 0.7571428571428571 0.5780952380952381 0.1792857142857143 0.10095238095238095
1 0.7985714285714286 0.47904761904761906 0.10642857142857143 0.05333333333333334
1 0.775 0.4533333333333333 0.11071428571428571 0.05523809523809524
1 0.30642857142857144 0.439047619047619 0.016428571428571428 0.05142857142857143
0 0.4542857142857143 0.41904761904761906 0.011428571428571429 0.04476190476190476
0 0.4664285714285714 0.41904761904761906 0.014285714285714285 0.040952380952380955
1 0.4957142857142857 0.3761904761904762 0.029285714285714286 0.039047619047619046
1 0.46214285714285713 0.3476190476190476 0.024285714285714285 0.037142857142857144
1 0.3007142857142857 0.3838095238095238 0.03428571428571429 0.05047619047619047
1 0.1792857142857143 0.36095238095238097 0.035 0.0419047619047619
1 0.21857142857142858 0.319047619047619 0.06142857142857143 0.05047619047619047
1 0.045714285714285714 0.3657142857142857 0.032857142857142856 0.03142857142857143
1 0.06142857142857143 0.34476190476190477 0.03 0.022857142857142857
0 0.08785714285714286 0.35523809523809524 0.012142857142857143 0.02761904761904762
0 0.11142857142857143 0.3466666666666667 0.01 0.029523809523809525
0 0.12285714285714286 0.3419047619047619 0.011428571428571429 0.02761904761904762
1 0.085 0.30857142857142855 0.017857142857142856 0.018095238095238095
1 0.15 0.38857142857142857 0.04357142857142857 0.0380952380952381
1 0.225 0.34476190476190477 0.04071428571428572 0.02666666666666667
1 0.27285714285714285 0.32666666666666666 0.02642857142857143 0.024761904761904763
1 0.30857142857142855 0.31238095238095237 0.02214285714285714 0.018095238095238095
1 0.3242857142857143 0.3057142857142857 0.015714285714285715 0.01904761904761905
1 0.33714285714285713 0.3 0.013571428571428571 0.01619047619047619
1 0.3821428571428571 0.3295238095238095 0.029285714285714286 0.024761904761904763
1 0.39285714285714285 0.2980952380952381 0.015714285714285715 0.013333333333333334
1 0.5385714285714286 0.37714285714285717 0.029285714285714286 0.03428571428571429
1 0.6242857142857143 0.5266666666666666 0.05 0.07333333333333333
1 0.6664285714285715 0.4104761904761905 0.085 0.04380952380952381
1 0.7864285714285715 0.4104761904761905 0.09285714285714286 0.04380952380952381
0 0.7171428571428572 0.4085714285714286 0.01 0.0419047619047619
0 0.7278571428571429 0.4085714285714286 0.010714285714285714 0.047619047619047616
1 0.8914285714285715 0.4076190476190476 0.11214285714285714 0.04857142857142857
1 0.7035714285714286 0.32 0.02642857142857143 0.02095238095238095
1 0.6792857142857143 0.34476190476190477 0.03571428571428571 0.029523809523809525
1 0.66 0.36952380952380953 0.027857142857142858 0.039047619047619046
1 0.6214285714285714 0.37714285714285717 0.03642857142857143 0.037142857142857144
1 0.69 0.37333333333333335 0.02642857142857143 0.03238095238095238
1 0.7214285714285714 0.37047619047619046 0.029285714285714286 0.035238095238095235
1 0.76 0.3676190476190476 0.03357142857142857 0.037142857142857144
1 0.725 0.3495238095238095 0.03357142857142857 0.030476190476190476
1 0.5628571428571428 0.35428571428571426 0.05857142857142857 0.02857142857142857
1 0.5542857142857143 0.34476190476190477 0.05714285714285714 0.024761904761904763
1 0.5514285714285714 0.33714285714285713 0.05 0.02
1 0.5521428571428572 0.3314285714285714 0.04857142857142857 0.023809523809523808
1 0.5428571428571428 0.31238095238095237 0.04 0.017142857142857144
1 0.465 0.3314285714285714 0.02 0.022857142857142857
1 0.4742857142857143 0.3142857142857143 0.017142857142857144 0.01904761904761905
1 0.5942857142857143 0.2742857142857143 0.02142857142857143 0.010476190476190476
1 0.5978571428571429 0.28095238095238095 0.010714285714285714 0.010476190476190476
1 0.38 0.26571428571428574 0.011428571428571429 0.017142857142857144
1 0.3678571428571429 0.379047619047619 0.016428571428571428 0.022857142857142857
0 0.37714285714285717 0.3780952380952381 0.0064285714285714285 0.035238095238095235
0 0.38142857142857145 0.37333333333333335 0.004285714285714286 0.030476190476190476
0 0.395 0.37523809523809526 0.01 0.037142857142857144
0 0.4042857142857143 0.37142857142857144 0.009285714285714286 0.029523809523809525
1 0.2292857142857143 0.38476190476190475 0.014285714285714285 0.024761904761904763
1 0.027142857142857142 0.3333333333333333 0.02857142857142857 0.02666666666666667
1 0.016428571428571428 0.319047619047619 0.025714285714285714 0.02761904761904762
0 0.11 0.32 0.0064285714285714285 0.021904761904761906
0 0.11785714285714285 0.319047619047619 0.004285714285714286 0.01904761904761905
0 0.12142857142857143 0.319047619047619 0.005 0.02
0 0.12714285714285714 0.32 0.0035714285714285713 0.02
0 0.13 0.3219047619047619 0.005 0.018095238095238095
0 0.1357142857142857 0.319047619047619 0.007142857142857143 0.021904761904761906
0 0.14285714285714285 0.32 0.0064285714285714285 0.02095238095238095
0 0.17142857142857143 0.319047619047619 0.0064285714285714285 0.02
0 0.18214285714285713 0.3180952380952381 0.005714285714285714 0.01904761904761905
1 0.25642857142857145 0.31333333333333335 0.015714285714285715 0.01904761904761905
1 0.135 0.30095238095238097 0.035 0.017142857142857144
0 0.05357142857142857 0.29904761904761906 0.005714285714285714 0.015238095238095238
0 0.06714285714285714 0.3019047619047619 0.0064285714285714285 0.014285714285714285
0 0.10285714285714286 0.29904761904761906 0.005714285714285714 0.015238095238095238
1 0.9507142857142857 0.36857142857142855 0.05071428571428571 0.04476190476190476
0 0.9442857142857143 0.38285714285714284 0.015714285714285715 0.030476190476190476
0 0.985 0.39714285714285713 0.012857142857142857 0.03428571428571429
0 0.995 0.4038095238095238 0.009285714285714286 0.045714285714285714
0 0.5821428571428572 0.38761904761904764 0.014285714285714285 0.04285714285714286
0 0.625 0.5238095238095238 0.023571428571428573 0.06095238095238095
0 0.305 0.43523809523809526 0.015714285714285715 0.04
0 0.2292857142857143 0.3838095238095238 0.011428571428571429 0.02095238095238095
