1 0.5635714285714286 0.8676190476190476 0.18071428571428572 0.26095238095238094
1 0.6778571428571428 0.6428571428571429 0.12714285714285714 0.20476190476190476
0 0.7671428571428571 0.6685714285714286 0.03214285714285714 0.09142857142857143
0 0.825 0.5076190476190476 0.032857142857142856 0.07809523809523809
1 0.7964285714285714 0.4238095238095238 0.095 0.11904761904761904
1 0.41714285714285715 0.44285714285714284 0.1407142857142857 0.13238095238095238
1 0.465 0.4 0.135 0.0980952380952381
1 0.5135714285714286 0.35428571428571426 0.13285714285714287 0.09619047619047619
1 0.5507142857142857 0.32285714285714284 0.11571428571428571 0.07714285714285714
1 0.6035714285714285 0.28476190476190477 0.11642857142857142 0.09428571428571429
1 0.6564285714285715 0.2752380952380952 0.09642857142857143 0.08285714285714285
1 0.8007142857142857 0.19047619047619047 0.09 0.058095238095238096
1 0.9635714285714285 0.4228571428571429 0.07285714285714286 0.11904761904761904
1 0.9707142857142858 0.13047619047619047 0.04928571428571429 0.04476190476190476
1 0.9035714285714286 0.15428571428571428 0.08785714285714286 0.05714285714285714
1 0.9121428571428571 0.2866666666666667 0.08 0.09904761904761905
1 0.57 0.14 0.06428571428571428 0.04
1 0.5492857142857143 0.15523809523809523 0.07 0.0380952380952381
1 0.5635714285714286 0.08095238095238096 0.06142857142857143 0.03619047619047619
1 0.6214285714285714 0.07047619047619047 0.03785714285714286 0.04285714285714286
1 0.31 0.24571428571428572 0.08142857142857143 0.05333333333333334
1 0.027142857142857142 0.22476190476190477 0.054285714285714284 0.06761904761904762
1 0.7328571428571429 0.08571428571428572 0.04 0.047619047619047616
