1 0.21294363256784968 0.41187384044526903 0.028183716075156576 0.04823747680890538
1 0.19572025052192066 0.48515769944341375 0.04279749478079332 0.04359925788497217
0 0.18058455114822547 0.4777365491651206 0.004697286012526096 0.02040816326530612
0 0.1873695198329854 0.4749536178107607 0.005219206680584551 0.021335807050092765
1 0.21659707724425886 0.5602968460111317 0.01826722338204593 0.01948051948051948
1 0.23538622129436326 0.6706864564007421 0.04697286012526096 0.061224489795918366
1 0.2755741127348643 0.7894248608534323 0.059498956158663886 0.06586270871985157
1 0.31002087682672236 0.9072356215213359 0.05271398747390397 0.06957328385899815
1 0.6132567849686847 0.7421150278293135 0.05323590814196242 0.07235621521335807
1 0.5955114822546973 0.6205936920222634 0.03392484342379958 0.05473098330241188
1 0.6424843423799582 0.5769944341372912 0.0652400835073069 0.10204081632653061
1 0.6257828810020877 0.5176252319109462 0.0407098121085595 0.04081632653061224
1 0.6111691022964509 0.4897959183673469 0.037056367432150315 0.04081632653061224
1 0.6664926931106472 0.3812615955473098 0.03653444676409186 0.05009276437847866
1 0.6059498956158664 0.2987012987012987 0.019311064718162838 0.038033395176252316
1 0.5568893528183716 0.14842300556586271 0.022964509394572025 0.03153988868274583
1 0.49373695198329853 0.022263450834879406 0.022964509394572025 0.026901669758812616
1 0.30532359081419624 0.47959183673469385 0.019311064718162838 0.021335807050092765
1 0.024008350730688934 0.06493506493506493 0.03392484342379958 0.02504638218923933
1 0.02244258872651357 0.03896103896103896 0.031315240083507306 0.02504638218923933
1 0.08977035490605428 0.1280148423005566 0.03392484342379958 0.032467532467532464
1 0.13517745302713988 0.10853432282003711 0.032359081419624215 0.0287569573283859
1 0.21189979123173278 0.07792207792207792 0.030793319415448852 0.026901669758812616
1 0.2489561586638831 0.06215213358070501 0.027661795407098122 0.026901669758812616
1 0.2860125260960334 0.04916512059369202 0.029749478079331943 0.026901669758812616
1 0.5887265135699373 0.8608534322820037 0.04123173277661795 0.07050092764378478
1 0.982776617954071 0.512987012987013 0.03288100208768267 0.05380333951762523
1 0.9749478079331941 0.48237476808905383 0.031837160751565764 0.04359925788497217
1 0.9457202505219207 0.3014842300556586 0.029749478079331943 0.036178107606679034
1 0.9681628392484343 0.2820037105751391 0.027661795407098122 0.036178107606679034
