1 0.4925 0.08533333333333333 0.009 0.004
1 0.508 0.09666666666666666 0.0035 0.005333333333333333
1 0.4955 0.11 0.0065 0.007333333333333333
1 0.5115 0.10133333333333333 0.005 0.004
1 0.5165 0.104 0.012 0.0033333333333333335
1 0.5155 0.108 0.009 0.005333333333333333
1 0.517 0.112 0.0115 0.006666666666666667
1 0.518 0.11466666666666667 0.0075 0.005333333333333333
1 0.516 0.118 0.007 0.006666666666666667
1 0.479 0.12133333333333333 0.0055 0.005333333333333333
1 0.4785 0.12466666666666666 0.006 0.008
1 0.4765 0.13066666666666665 0.006 0.007333333333333333
1 0.468 0.13333333333333333 0.011 0.008
1 0.419 0.12733333333333333 0.0145 0.008
1 0.418 0.12933333333333333 0.0155 0.006
1 0.4175 0.13333333333333333 0.014 0.008666666666666666
1 0.5195 0.148 0.017 0.008
1 0.5195 0.16066666666666668 0.022 0.019333333333333334
1 0.5165 0.17333333333333334 0.009 0.009333333333333334
1 0.5155 0.18266666666666667 0.0085 0.008
1 0.5175 0.18866666666666668 0.0105 0.016
1 0.4735 0.14266666666666666 0.007 0.005333333333333333
1 0.473 0.14666666666666667 0.007 0.005333333333333333
1 0.473 0.15066666666666667 0.006 0.006666666666666667
1 0.4725 0.156 0.0065 0.008666666666666666
1 0.468 0.18066666666666667 0.009 0.01
1 0.469 0.18933333333333333 0.0095 0.012
1 0.468 0.19666666666666666 0.0095 0.012666666666666666
0 0.502 0.148 0.003 0.006666666666666667
1 0.502 0.152 0.003 0.006
0 0.4925 0.17333333333333334 0.0035 0.012
1 0.4445 0.20333333333333334 0.028 0.014
1 0.5225 0.206 0.019 0.010666666666666666
1 0.525 0.20933333333333334 0.019 0.012666666666666666
1 0.5285 0.21133333333333335 0.0195 0.014
1 0.531 0.21333333333333335 0.0195 0.013333333333333334
1 0.5275 0.22466666666666665 0.0205 0.009333333333333334
1 0.531 0.22933333333333333 0.027 0.013333333333333334
1 0.5325 0.24266666666666667 0.0255 0.015333333333333332
1 0.535 0.2653333333333333 0.0305 0.016
1 0.516 0.27 0.0205 0.019333333333333334
1 0.5355 0.314 0.0055 0.012
1 0.521 0.336 0.0215 0.029333333333333333
0 0.4685 0.24933333333333332 0.0055 0.015333333333333332
0 0.477 0.254 0.0055 0.013333333333333334
1 0.4775 0.26066666666666666 0.0035 0.010666666666666666
1 0.4585 0.258 0.014 0.021333333333333333
1 0.4545 0.2773333333333333 0.016 0.018666666666666668
1 0.452 0.2966666666666667 0.0175 0.03
1 0.424 0.2833333333333333 0.0285 0.017333333333333333
1 0.415 0.292 0.036 0.014666666666666666
1 0.4145 0.30266666666666664 0.0415 0.02266666666666667
1 0.413 0.31933333333333336 0.038 0.020666666666666667
1 0.4345 0.3446666666666667 0.0185 0.034
1 0.399 0.3473333333333333 0.0345 0.06866666666666667
1 0.7225 0.32066666666666666 0.0585 0.03333333333333333
1 0.728 0.35133333333333333 0.0325 0.021333333333333333
1 0.5245 0.4046666666666667 0.0525 0.028666666666666667
1 0.53 0.4266666666666667 0.053 0.036
1 0.564 0.442 0.0535 0.03
1 0.536 0.4646666666666667 0.0505 0.03866666666666667
1 0.544 0.486 0.05 0.04
1 0.544 0.5153333333333333 0.065 0.043333333333333335
1 0.5375 0.55 0.0675 0.044
1 0.5515 0.5906666666666667 0.069 0.04666666666666667
1 0.479 0.5913333333333334 0.035 0.066
1 0.5555 0.6286666666666667 0.077 0.05266666666666667
1 0.5575 0.674 0.0865 0.048
1 0.562 0.732 0.097 0.076
1 0.563 0.7926666666666666 0.105 0.08733333333333333
1 0.5685 0.9013333333333333 0.095 0.104
1 0.6155 0.9633333333333334 0.1885 0.07333333333333333
1 0.269 0.9806666666666667 0.1615 0.036
1 0.2575 0.8866666666666667 0.1105 0.08733333333333333
1 0.216 0.79 0.0925 0.07266666666666667
1 0.2525 0.7213333333333334 0.0995 0.066
1 0.2905 0.678 0.093 0.06
1 0.365 0.44866666666666666 0.0525 0.037333333333333336
1 0.334 0.49733333333333335 0.0605 0.04666666666666667
1 0.3615 0.47733333333333333 0.064 0.035333333333333335
1 0.301 0.522 0.0745 0.04133333333333333
1 0.3065 0.598 0.117 0.086
1 0.2485 0.51 0.0295 0.020666666666666667
0 0.407 0.4593333333333333 0.0095 0.016
1 0.4055 0.4746666666666667 0.011 0.02266666666666667
1 0.84 0.6593333333333333 0.077 0.059333333333333335
1 0.8795 0.706 0.082 0.09
1 0.9195 0.77 0.066 0.06
1 0.929 0.856 0.142 0.13533333333333333
