1 0.133 0.6066666666666667 0.111 0.09333333333333334
0 0.2155 0.5586666666666666 0.022 0.03933333333333333
0 0.3025 0.784 0.02 0.03333333333333333
0 0.3235 0.8173333333333334 0.029 0.034666666666666665
0 0.302 0.858 0.0295 0.03266666666666666
1 0.308 0.86 0.049 0.042666666666666665
1 0.2435 0.7266666666666667 0.067 0.15533333333333332
1 0.5955 0.8513333333333334 0.1435 0.12133333333333333
0 0.7975 0.7633333333333333 0.0315 0.03333333333333333
0 0.751 0.8346666666666667 0.025 0.04
1 0.7195 0.8146666666666667 0.0235 0.06533333333333333
0 0.7305 0.7366666666666667 0.0245 0.02666666666666667
0 0.7385 0.7186666666666667 0.025 0.029333333333333333
0 0.7065 0.6426666666666667 0.03 0.03933333333333333
0 0.543 0.73 0.0145 0.02666666666666667
0 0.543 0.7053333333333334 0.0155 0.03333333333333333
1 0.552 0.7326666666666667 0.0425 0.050666666666666665
1 0.3745 0.7813333333333333 0.124 0.10066666666666667
0 0.432 0.7453333333333333 0.025 0.03
1 0.433 0.7433333333333333 0.0375 0.051333333333333335
0 0.49 0.6873333333333334 0.016 0.03333333333333333
0 0.4755 0.654 0.018 0.03866666666666667
1 0.4575 0.7046666666666667 0.094 0.088
1 0.351 0.4866666666666667 0.075 0.10133333333333333
1 0.48 0.36133333333333334 0.047 0.07666666666666666
1 0.415 0.362 0.0535 0.072
1 0.4915 0.29733333333333334 0.078 0.04666666666666667
1 0.4475 0.2846666666666667 0.0295 0.037333333333333336
0 0.4955 0.264 0.01 0.034
1 0.478 0.23733333333333334 0.047 0.05733333333333333
0 0.4405 0.22866666666666666 0.009 0.025333333333333333
0 0.4445 0.22266666666666668 0.013 0.024666666666666667
1 0.444 0.22866666666666666 0.0185 0.027333333333333334
1 0.583 0.25933333333333336 0.012 0.029333333333333333
1 0.578 0.23666666666666666 0.014 0.036
0 0.597 0.188 0.009 0.017333333333333333
0 0.5805 0.178 0.011 0.024666666666666667
1 0.608 0.18133333333333335 0.016 0.028666666666666667
0 0.5915 0.17466666666666666 0.0065 0.017333333333333333
0 0.5965 0.16933333333333334 0.0095 0.024
0 0.587 0.168 0.0075 0.024
1 0.61 0.12133333333333333 0.0145 0.028
1 0.633 0.12266666666666666 0.025 0.019333333333333334
1 0.505 0.182 0.0405 0.056666666666666664
0 0.469 0.128 0.009 0.032
0 0.4895 0.11733333333333333 0.0095 0.03
0 0.4835 0.11333333333333333 0.0075 0.029333333333333333
1 0.593 0.08 0.0275 0.04133333333333333
1 0.268 0.42866666666666664 0.0605 0.07
1 0.306 0.396 0.0135 0.036
