1 0.538 0.032 0.0215 0.016666666666666666
1 0.561 0.038 0.0175 0.011333333333333334
1 0.5795 0.04133333333333333 0.0085 0.009333333333333334
1 0.589 0.042 0.0065 0.011333333333333334
1 0.601 0.043333333333333335 0.008 0.011333333333333334
1 0.616 0.04466666666666667 0.008 0.011333333333333334
1 0.6245 0.046 0.008 0.012
1 0.658 0.04933333333333333 0.0085 0.012
1 0.6765 0.051333333333333335 0.0075 0.012666666666666666
1 0.6865 0.051333333333333335 0.008 0.014666666666666666
1 0.697 0.05333333333333334 0.008 0.012
1 0.6915 0.07133333333333333 0.0075 0.014666666666666666
1 0.6805 0.068 0.0085 0.013333333333333334
1 0.702 0.06866666666666667 0.0055 0.014
1 0.7065 0.05333333333333334 0.0075 0.01
1 0.67 0.06866666666666667 0.0095 0.014
1 0.661 0.068 0.0075 0.013333333333333334
1 0.6525 0.066 0.009 0.014666666666666666
1 0.642 0.06466666666666666 0.01 0.014
1 0.608 0.06066666666666667 0.009 0.012
1 0.5985 0.06 0.0075 0.014
1 0.587 0.058 0.0095 0.013333333333333334
1 0.5775 0.058 0.0085 0.012
1 0.568 0.05733333333333333 0.008 0.013333333333333334
1 0.559 0.05533333333333333 0.008 0.012666666666666666
1 0.55 0.05533333333333333 0.0085 0.012
1 0.54 0.054 0.01 0.014
1 0.531 0.052 0.01 0.012666666666666666
1 0.5205 0.05266666666666667 0.011 0.013333333333333334
0 0.593 0.10533333333333333 0.004 0.01
1 0.568 0.13866666666666666 0.021 0.015333333333333332
1 0.556 0.16 0.021 0.014
1 0.555 0.18866666666666668 0.0235 0.017333333333333333
1 0.5725 0.186 0.022 0.015333333333333332
1 0.5645 0.20466666666666666 0.022 0.015333333333333332
1 0.561 0.21133333333333335 0.0255 0.014
1 0.556 0.21666666666666667 0.0285 0.013333333333333334
1 0.5545 0.22466666666666665 0.022 0.016
1 0.5495 0.23866666666666667 0.0255 0.016666666666666666
1 0.667 0.17066666666666666 0.023 0.015333333333333332
1 0.6645 0.18133333333333335 0.0245 0.014
1 0.659 0.19266666666666668 0.0235 0.014666666666666666
1 0.6285 0.208 0.0235 0.014666666666666666
1 0.6245 0.21266666666666667 0.0215 0.018
1 0.7315 0.156 0.0215 0.012666666666666666
1 0.727 0.16 0.023 0.014666666666666666
1 0.724 0.16266666666666665 0.0185 0.009333333333333334
1 0.7235 0.16933333333333334 0.0215 0.014
1 0.727 0.178 0.025 0.016
1 0.7245 0.18333333333333332 0.0245 0.013333333333333334
1 0.7265 0.18933333333333333 0.021 0.015333333333333332
1 0.7245 0.196 0.0245 0.014666666666666666
1 0.744 0.20466666666666666 0.0085 0.008666666666666666
1 0.6145 0.25733333333333336 0.0275 0.016666666666666666
1 0.644 0.25266666666666665 0.0265 0.017333333333333333
1 0.6465 0.24533333333333332 0.027 0.014
1 0.643 0.2773333333333333 0.0285 0.018
1 0.6355 0.29533333333333334 0.029 0.018666666666666668
1 0.6335 0.312 0.0285 0.017333333333333333
1 0.603 0.288 0.028 0.017333333333333333
1 0.6015 0.2986666666666667 0.0335 0.018
1 0.7275 0.29333333333333333 0.032 0.017333333333333333
1 0.724 0.3006666666666667 0.031 0.016
1 0.7245 0.31066666666666665 0.0315 0.020666666666666667
1 0.723 0.32266666666666666 0.032 0.020666666666666667
1 0.722 0.3413333333333333 0.03 0.015333333333333332
1 0.7245 0.352 0.0315 0.020666666666666667
1 0.7245 0.366 0.036 0.02266666666666667
1 0.7225 0.38533333333333336 0.035 0.020666666666666667
1 0.717 0.39466666666666667 0.037 0.019333333333333334
1 0.7165 0.412 0.0375 0.02666666666666667
0 0.699 0.3893333333333333 0.0075 0.016
0 0.767 0.2846666666666667 0.0055 0.015333333333333332
0 0.862 0.21066666666666667 0.0035 0.008
1 0.861 0.21133333333333335 0.009 0.01
0 0.895 0.216 0.005 0.012
0 0.87 0.19933333333333333 0.004 0.009333333333333334
0 0.8835 0.18933333333333333 0.0025 0.010666666666666666
0 0.8855 0.162 0.0045 0.008666666666666666
0 0.884 0.14933333333333335 0.004 0.008
1 0.8845 0.16466666666666666 0.0045 0.010666666666666666
1 0.883 0.19133333333333333 0.0025 0.010666666666666666
1 0.87 0.20066666666666666 0.005 0.009333333333333334
1 0.495 0.25 0.007 0.014
1 0.5035 0.25333333333333335 0.0115 0.018
1 0.512 0.246 0.008 0.012666666666666666
1 0.403 0.6106666666666667 0.024 0.03933333333333333
1 0.347 0.5993333333333334 0.019 0.04066666666666666
0 0.5875 0.6766666666666666 0.0075 0.017333333333333333
1 0.634 0.7013333333333334 0.042 0.03266666666666666
1 0.5495 0.8626666666666667 0.0385 0.06866666666666667
1 0.5845 0.8726666666666667 0.041 0.07066666666666667
1 0.51 0.8506666666666667 0.0375 0.06666666666666667
1 0.448 0.834 0.0325 0.066
1 0.3925 0.8113333333333334 0.0355 0.06866666666666667
1 0.3595 0.8133333333333334 0.0295 0.056
1 0.308 0.7953333333333333 0.023 0.06533333333333333
0 0.8715 0.6426666666666667 0.0135 0.016
0 0.5945 0.013333333333333334 0.0025 0.01
