1 0.7621428571428571 0.8 0.07428571428571429 0.07904761904761905
1 0.6135714285714285 0.6285714285714286 0.029285714285714286 0.025714285714285714
1 0.3585714285714286 0.7019047619047619 0.05714285714285714 0.07142857142857142
0 0.1957142857142857 0.8723809523809524 0.020714285714285713 0.05904761904761905
0 0.35214285714285715 0.92 0.032857142857142856 0.07333333333333333
0 0.16 0.900952380952381 0.027857142857142858 0.06571428571428571
0 0.16357142857142856 0.8514285714285714 0.017142857142857144 0.06380952380952382
0 0.12571428571428572 0.8638095238095238 0.027857142857142858 0.06095238095238095
0 0.10428571428571429 0.9085714285714286 0.02142857142857143 0.07523809523809524
0 0.09071428571428572 0.8723809523809524 0.019285714285714285 0.07333333333333333
0 0.05 0.9742857142857143 0.023571428571428573 0.049523809523809526
1 0.56 0.56 0.015 0.01619047619047619
1 0.565 0.5447619047619048 0.013571428571428571 0.012380952380952381
1 0.5385714285714286 0.5457142857142857 0.015 0.017142857142857144
1 0.475 0.5304761904761904 0.008571428571428572 0.010476190476190476
1 0.4807142857142857 0.5047619047619047 0.0064285714285714285 0.005714285714285714
1 0.49142857142857144 0.5028571428571429 0.005714285714285714 0.006666666666666667
1 0.4807142857142857 0.4866666666666667 0.0035714285714285713 0.004761904761904762
1 0.48642857142857143 0.4876190476190476 0.004285714285714286 0.004761904761904762
1 0.49214285714285716 0.4857142857142857 0.0035714285714285713 0.004761904761904762
1 0.48714285714285716 0.4828571428571429 0.002857142857142857 0.004761904761904762
1 0.5185714285714286 0.49047619047619045 0.004285714285714286 0.004761904761904762
1 0.5114285714285715 0.4838095238095238 0.0035714285714285713 0.0038095238095238095
1 0.5057142857142857 0.4838095238095238 0.002857142857142857 0.002857142857142857
1 0.4928571428571429 0.48095238095238096 0.002142857142857143 0.0038095238095238095
1 0.48857142857142855 0.47904761904761906 0.002142857142857143 0.0019047619047619048
1 0.4928571428571429 0.47523809523809524 0.002857142857142857 0.005714285714285714
1 0.4907142857142857 0.47523809523809524 0.002857142857142857 0.005714285714285714
1 0.5014285714285714 0.47714285714285715 0.002142857142857143 0.002857142857142857
1 0.5064285714285715 0.48 0.002142857142857143 0.0019047619047619048
1 0.5057142857142857 0.4780952380952381 0.002142857142857143 0.002857142857142857
1 0.5042857142857143 0.47523809523809524 0.002857142857142857 0.004761904761904762
1 0.5 0.47523809523809524 0.002142857142857143 0.0038095238095238095
