0 0.34714285714285714 0.8885714285714286 0.012857142857142857 0.037142857142857144
0 0.36 0.8714285714285714 0.012857142857142857 0.03142857142857143
0 0.375 0.86 0.014285714285714285 0.03142857142857143
0 0.2735714285714286 0.7485714285714286 0.017142857142857144 0.02857142857142857
1 0.2757142857142857 0.7533333333333333 0.025 0.04666666666666667
0 0.30214285714285716 0.6466666666666666 0.007857142857142858 0.02857142857142857
0 0.3092857142857143 0.6419047619047619 0.007142857142857143 0.025714285714285714
0 0.335 0.5752380952380952 0.007142857142857143 0.025714285714285714
0 0.40714285714285714 0.6419047619047619 0.01 0.03142857142857143
0 0.4157142857142857 0.5542857142857143 0.009285714285714286 0.01904761904761905
1 0.41714285714285715 0.560952380952381 0.014285714285714285 0.024761904761904763
0 0.4471428571428571 0.5152380952380953 0.005714285714285714 0.01619047619047619
1 0.4471428571428571 0.5219047619047619 0.01 0.02095238095238095
0 0.47714285714285715 0.4819047619047619 0.0064285714285714285 0.018095238095238095
1 0.4878571428571429 0.49238095238095236 0.03357142857142857 0.04
1 0.4 0.5352380952380953 0.04 0.04666666666666667
0 0.3707142857142857 0.4542857142857143 0.005 0.02095238095238095
0 0.3678571428571429 0.44952380952380955 0.005 0.018095238095238095
0 0.36214285714285716 0.44095238095238093 0.005714285714285714 0.01904761904761905
0 0.36714285714285716 0.439047619047619 0.005714285714285714 0.01904761904761905
0 0.3757142857142857 0.43047619047619046 0.0064285714285714285 0.01904761904761905
0 0.46 0.3961904761904762 0.005 0.01904761904761905
0 0.4564285714285714 0.3942857142857143 0.004285714285714286 0.02
0 0.45071428571428573 0.3904761904761905 0.005714285714285714 0.01619047619047619
0 0.4471428571428571 0.38952380952380955 0.004285714285714286 0.01904761904761905
0 0.09714285714285714 0.7771428571428571 0.014285714285714285 0.03333333333333333
0 0.08714285714285715 0.7895238095238095 0.017142857142857144 0.03142857142857143
0 0.51 0.41714285714285715 0.0064285714285714285 0.02
1 0.52 0.39714285714285713 0.025 0.02761904761904762
1 0.5421428571428571 0.3638095238095238 0.025 0.039047619047619046
0 0.645 0.4685714285714286 0.005714285714285714 0.021904761904761906
0 0.6407142857142857 0.46285714285714286 0.010714285714285714 0.021904761904761906
0 0.5185714285714286 0.319047619047619 0.005 0.015238095238095238
0 0.8728571428571429 0.518095238095238 0.015 0.02761904761904762
0 0.8185714285714286 0.4533333333333333 0.008571428571428572 0.023809523809523808
0 0.8421428571428572 0.35619047619047617 0.007142857142857143 0.01904761904761905
0 0.83 0.35333333333333333 0.007142857142857143 0.01904761904761905
0 0.8578571428571429 0.31047619047619046 0.0064285714285714285 0.01619047619047619
0 0.8435714285714285 0.30095238095238097 0.007142857142857143 0.015238095238095238
0 0.8285714285714286 0.30095238095238097 0.005714285714285714 0.015238095238095238
0 0.8585714285714285 0.28285714285714286 0.005 0.015238095238095238
0 0.9242857142857143 0.24285714285714285 0.005714285714285714 0.012380952380952381
0 0.8957142857142857 0.2361904761904762 0.007142857142857143 0.013333333333333334
0 0.865 0.2523809523809524 0.004285714285714286 0.013333333333333334
0 0.8514285714285714 0.2523809523809524 0.005714285714285714 0.013333333333333334
0 0.9371428571428572 0.22666666666666666 0.005714285714285714 0.012380952380952381
0 0.9264285714285714 0.22952380952380952 0.0064285714285714285 0.011428571428571429
1 0.7807142857142857 0.18285714285714286 0.016428571428571428 0.007619047619047619
1 0.785 0.18095238095238095 0.016428571428571428 0.009523809523809525
1 0.785 0.1761904761904762 0.017142857142857144 0.008571428571428572
0 0.8057142857142857 0.17714285714285713 0.0035714285714285713 0.009523809523809525
0 0.8092857142857143 0.17714285714285713 0.002857142857142857 0.010476190476190476
