1 0.35928571428571426 0.7923809523809524 0.105 0.2761904761904762
1 0.7457142857142857 0.7790476190476191 0.12642857142857142 0.2219047619047619
1 0.705 0.5676190476190476 0.105 0.16952380952380952
0 0.5885714285714285 0.5628571428571428 0.025 0.09047619047619047
0 0.565 0.44952380952380955 0.020714285714285713 0.06380952380952382
1 0.42714285714285716 0.4276190476190476 0.062142857142857146 0.14476190476190476
1 0.08714285714285715 0.5638095238095238 0.1742857142857143 0.11047619047619048
1 0.2592857142857143 0.3019047619047619 0.11285714285714285 0.06571428571428571
1 0.5107142857142857 0.29904761904761906 0.10071428571428571 0.10285714285714286
1 0.6857142857142857 0.32 0.06714285714285714 0.08476190476190476
1 0.8021428571428572 0.4876190476190476 0.13642857142857143 0.10476190476190476
1 0.35714285714285715 0.21142857142857144 0.09928571428571428 0.058095238095238096
1 0.6164285714285714 0.20952380952380953 0.065 0.05523809523809524
1 0.41285714285714287 0.15904761904761905 0.05071428571428571 0.04380952380952381
1 0.5557142857142857 0.14 0.06428571428571428 0.045714285714285714
1 0.6221428571428571 0.12571428571428572 0.052142857142857144 0.03428571428571429
1 0.7028571428571428 0.09428571428571429 0.04857142857142857 0.0380952380952381
1 0.7614285714285715 0.11142857142857143 0.055 0.04
1 0.7921428571428571 0.06666666666666667 0.04857142857142857 0.0380952380952381
1 0.8371428571428572 0.05714285714285714 0.039285714285714285 0.039047619047619046
1 0.8478571428571429 0.02761904761904762 0.03857142857142857 0.025714285714285714
1 0.8235714285714286 0.02761904761904762 0.03785714285714286 0.02666666666666667
1 0.8092857142857143 0.022857142857142857 0.04 0.029523809523809525
1 0.9171428571428571 0.07523809523809524 0.045 0.037142857142857144
1 0.8328571428571429 0.23047619047619047 0.10357142857142858 0.05333333333333334
1 0.8714285714285714 0.1819047619047619 0.07 0.047619047619047616
1 0.8771428571428571 0.17047619047619048 0.07642857142857143 0.06190476190476191
1 0.9128571428571428 0.15523809523809523 0.07071428571428572 0.05142857142857143
1 0.9257142857142857 0.1380952380952381 0.06142857142857143 0.05619047619047619
1 0.8971428571428571 0.11619047619047619 0.06142857142857143 0.037142857142857144
1 0.055 0.6352380952380953 0.11 0.15142857142857144
