1 0.5464285714285714 0.6954314720812182 0.027142857142857142 0.0583756345177665
1 0.6057142857142858 0.6230964467005076 0.023571428571428573 0.05456852791878172
1 0.6642857142857143 0.30583756345177665 0.017142857142857144 0.02918781725888325
1 0.7578571428571429 0.025380710659898477 0.011428571428571429 0.01649746192893401
1 0.9542857142857143 0.4467005076142132 0.027142857142857142 0.04060913705583756
