1 0.09 0.013959390862944163 0.03357142857142857 0.027918781725888325
1 0.11928571428571429 0.04568527918781726 0.03642857142857143 0.06345177664974619
1 0.15285714285714286 0.08248730964467005 0.037142857142857144 0.02918781725888325
1 0.1992857142857143 0.1598984771573604 0.019285714285714285 0.046954314720812185
1 0.2292857142857143 0.19543147208121828 0.025714285714285714 0.05203045685279188
1 0.2507142857142857 0.2512690355329949 0.025 0.06218274111675127
1 0.16142857142857142 0.19923857868020303 0.02642857142857143 0.04949238578680203
0 0.20357142857142857 0.10025380710659898 0.0064285714285714285 0.021573604060913704
0 0.2307142857142857 0.11928934010152284 0.007857142857142858 0.021573604060913704
0 0.2592857142857143 0.21446700507614214 0.005 0.024111675126903553
0 0.2735714285714286 0.25253807106598986 0.005714285714285714 0.021573604060913704
0 0.22285714285714286 0.22842639593908629 0.005714285714285714 0.02284263959390863
1 0.2671428571428571 0.3299492385786802 0.022857142857142857 0.05583756345177665
1 0.2507142857142857 0.43781725888324874 0.03 0.06091370558375635
1 0.29285714285714287 0.5380710659898477 0.03357142857142857 0.06852791878172589
0 0.002857142857142857 0.3730964467005076 0.004285714285714286 0.013959390862944163
0 0.002857142857142857 0.37055837563451777 0.005 0.01649746192893401
0 0.002857142857142857 0.3629441624365482 0.005 0.01649746192893401
0 0.017142857142857144 0.37817258883248733 0.01 0.02284263959390863
0 0.02857142857142857 0.3946700507614213 0.009285714285714286 0.02030456852791878
0 0.07785714285714286 0.9213197969543148 0.01 0.024111675126903553
0 0.08642857142857142 0.8692893401015228 0.01 0.015228426395939087
1 0.36357142857142855 0.8071065989847716 0.037142857142857144 0.09137055837563451
1 0.47714285714285715 0.9670050761421319 0.06642857142857143 0.06345177664974619
0 0.8764285714285714 0.5862944162436549 0.010714285714285714 0.024111675126903553
0 0.645 0.5241116751269036 0.009285714285714286 0.031725888324873094
0 0.6771428571428572 0.4847715736040609 0.009285714285714286 0.02918781725888325
0 0.6828571428571428 0.44923857868020306 0.007142857142857143 0.03299492385786802
0 0.925 0.048223350253807105 0.005714285714285714 0.02030456852791878
0 0.8871428571428571 0.10152284263959391 0.009285714285714286 0.024111675126903553
1 0.905 0.1319796954314721 0.06285714285714286 0.116751269035533
1 0.8692857142857143 0.21192893401015228 0.027857142857142858 0.03934010152284264
1 0.8385714285714285 0.25253807106598986 0.037142857142857144 0.04949238578680203
1 0.8071428571428572 0.3223350253807107 0.07714285714285714 0.1484771573604061
1 0.7721428571428571 0.47588832487309646 0.09285714285714286 0.1916243654822335
1 0.6714285714285714 0.6065989847715736 0.07571428571428572 0.14593908629441624
1 0.9385714285714286 0.07487309644670051 0.02642857142857143 0.04187817258883249
1 0.28 0.39213197969543145 0.025714285714285714 0.06218274111675127
