1 0.68 0.04285714285714286 0.010714285714285714 0.013333333333333334
1 0.6885714285714286 0.05333333333333334 0.012857142857142857 0.007619047619047619
1 0.6857142857142857 0.08666666666666667 0.01 0.015238095238095238
1 0.6871428571428572 0.11047619047619048 0.011428571428571429 0.02
1 0.69 0.12857142857142856 0.014285714285714285 0.010476190476190476
1 0.6921428571428572 0.14 0.012142857142857143 0.018095238095238095
1 0.6942857142857143 0.17523809523809525 0.014285714285714285 0.01619047619047619
1 0.6957142857142857 0.18761904761904763 0.014285714285714285 0.01619047619047619
1 0.6335714285714286 0.0838095238095238 0.016428571428571428 0.010476190476190476
1 0.6335714285714286 0.07047619047619047 0.015 0.010476190476190476
1 0.6342857142857142 0.06095238095238095 0.014285714285714285 0.009523809523809525
1 0.6342857142857142 0.05333333333333334 0.014285714285714285 0.009523809523809525
1 0.6335714285714286 0.04285714285714286 0.012857142857142857 0.011428571428571429
1 0.6335714285714286 0.03333333333333333 0.014285714285714285 0.008571428571428572
1 0.6335714285714286 0.02857142857142857 0.012142857142857143 0.007619047619047619
1 0.6342857142857142 0.018095238095238095 0.012857142857142857 0.010476190476190476
1 0.6257142857142857 0.11142857142857143 0.03428571428571429 0.02666666666666667
1 0.625 0.1361904761904762 0.03142857142857143 0.022857142857142857
1 0.6228571428571429 0.1523809523809524 0.03428571428571429 0.022857142857142857
1 0.6257142857142857 0.1761904761904762 0.03571428571428571 0.024761904761904763
1 0.6235714285714286 0.22666666666666666 0.037142857142857144 0.025714285714285714
1 0.6242857142857143 0.25047619047619046 0.04285714285714286 0.022857142857142857
1 0.6242857142857143 0.2742857142857143 0.039285714285714285 0.025714285714285714
1 0.6292857142857143 0.30095238095238097 0.04214285714285714 0.023809523809523808
1 0.6242857142857143 0.3219047619047619 0.045714285714285714 0.02761904761904762
1 0.7864285714285715 0.2704761904761905 0.015 0.011428571428571429
1 0.8992857142857142 0.2780952380952381 0.017857142857142856 0.013333333333333334
1 0.9807142857142858 0.2876190476190476 0.008571428571428572 0.021904761904761906
1 0.9885714285714285 0.2895238095238095 0.007142857142857143 0.021904761904761906
1 0.7164285714285714 0.5285714285714286 0.018571428571428572 0.011428571428571429
1 0.7192857142857143 0.5619047619047619 0.019285714285714285 0.012380952380952381
1 0.7235714285714285 0.659047619047619 0.018571428571428572 0.011428571428571429
1 0.705 0.6657142857142857 0.019285714285714285 0.014285714285714285
1 0.7171428571428572 0.6847619047619048 0.020714285714285713 0.014285714285714285
0 0.49357142857142855 0.4847619047619048 0.008571428571428572 0.006666666666666667
1 0.49357142857142855 0.4847619047619048 0.008571428571428572 0.022857142857142857
1 0.5928571428571429 0.46 0.007142857142857143 0.022857142857142857
1 0.5778571428571428 0.4552380952380952 0.007142857142857143 0.02095238095238095
1 0.565 0.46095238095238095 0.0064285714285714285 0.022857142857142857
1 0.5535714285714286 0.45714285714285713 0.008571428571428572 0.021904761904761906
1 0.5414285714285715 0.4580952380952381 0.007142857142857143 0.01904761904761905
1 0.5292857142857142 0.4552380952380952 0.005714285714285714 0.02095238095238095
1 0.5185714285714286 0.4580952380952381 0.005714285714285714 0.021904761904761906
1 0.48714285714285716 0.4552380952380952 0.007142857142857143 0.02095238095238095
1 0.475 0.4523809523809524 0.0064285714285714285 0.01904761904761905
1 0.4614285714285714 0.4542857142857143 0.009285714285714286 0.02
1 0.4585714285714286 0.42952380952380953 0.007857142857142858 0.021904761904761906
1 0.4692857142857143 0.42857142857142855 0.007142857142857143 0.022857142857142857
1 0.47785714285714287 0.42952380952380953 0.007142857142857143 0.02095238095238095
1 0.48857142857142855 0.42952380952380953 0.0064285714285714285 0.022857142857142857
1 0.49785714285714283 0.43142857142857144 0.0064285714285714285 0.023809523809523808
1 0.5071428571428571 0.42857142857142855 0.007142857142857143 0.023809523809523808
1 0.5192857142857142 0.43047619047619046 0.007142857142857143 0.022857142857142857
1 0.5285714285714286 0.43142857142857144 0.007142857142857143 0.02666666666666667
1 0.5378571428571428 0.43238095238095237 0.007142857142857143 0.02666666666666667
1 0.5114285714285715 0.4533333333333333 0.0064285714285714285 0.021904761904761906
1 0.26071428571428573 0.439047619047619 0.0064285714285714285 0.01904761904761905
1 0.29214285714285715 0.4076190476190476 0.007857142857142858 0.029523809523809525
1 0.275 0.4076190476190476 0.008571428571428572 0.024761904761904763
1 0.265 0.4123809523809524 0.007857142857142858 0.023809523809523808
1 0.25357142857142856 0.4066666666666667 0.009285714285714286 0.022857142857142857
1 0.25 0.4361904761904762 0.008571428571428572 0.023809523809523808
1 0.2357142857142857 0.4057142857142857 0.007857142857142858 0.02666666666666667
1 0.23357142857142857 0.43238095238095237 0.009285714285714286 0.024761904761904763
1 0.21428571428571427 0.43238095238095237 0.011428571428571429 0.024761904761904763
1 0.2057142857142857 0.4057142857142857 0.017142857142857144 0.021904761904761906
1 0.19428571428571428 0.43142857142857144 0.01 0.023809523809523808
1 0.2007142857142857 0.43333333333333335 0.01 0.025714285714285714
1 0.18142857142857144 0.42857142857142855 0.010714285714285714 0.022857142857142857
0 0.22785714285714287 0.35619047619047617 0.008571428571428572 0.01619047619047619
0 0.2357142857142857 0.34285714285714286 0.008571428571428572 0.014285714285714285
0 0.14642857142857144 0.38 0.008571428571428572 0.017142857142857144
1 0.11357142857142857 0.2752380952380952 0.01 0.017142857142857144
1 0.10071428571428571 0.2733333333333333 0.007142857142857143 0.01904761904761905
1 0.10071428571428571 0.41619047619047617 0.017857142857142856 0.011428571428571429
1 0.09642857142857143 0.42952380952380953 0.019285714285714285 0.010476190476190476
1 0.09 0.45714285714285713 0.02 0.01904761904761905
1 0.08642857142857142 0.4723809523809524 0.02142857142857143 0.010476190476190476
1 0.085 0.4819047619047619 0.02 0.011428571428571429
1 0.08071428571428571 0.49238095238095236 0.016428571428571428 0.008571428571428572
1 0.08214285714285714 0.5 0.018571428571428572 0.010476190476190476
1 0.07785714285714286 0.5114285714285715 0.018571428571428572 0.009523809523809525
1 0.07785714285714286 0.5228571428571429 0.020714285714285713 0.014285714285714285
1 0.06714285714285714 0.5895238095238096 0.01 0.022857142857142857
1 0.056428571428571425 0.5876190476190476 0.010714285714285714 0.024761904761904763
1 0.056428571428571425 0.6095238095238096 0.018571428571428572 0.009523809523809525
1 0.052142857142857144 0.62 0.019285714285714285 0.011428571428571429
1 0.025714285714285714 0.6542857142857142 0.020714285714285713 0.01619047619047619
1 0.19714285714285715 0.2923809523809524 0.041428571428571426 0.025714285714285714
1 0.19428571428571428 0.32285714285714284 0.04071428571428572 0.02666666666666667
1 0.12571428571428572 0.5285714285714286 0.03214285714285714 0.06380952380952382
1 0.2 0.5419047619047619 0.02857142857142857 0.05904761904761905
1 0.16428571428571428 0.6038095238095238 0.029285714285714286 0.06571428571428571
1 0.13785714285714284 0.6028571428571429 0.027857142857142858 0.058095238095238096
1 0.2507142857142857 0.5495238095238095 0.024285714285714285 0.058095238095238096
1 0.2664285714285714 0.6085714285714285 0.027857142857142858 0.06095238095238095
1 0.295 0.6076190476190476 0.022857142857142857 0.06190476190476191
1 0.3221428571428571 0.6123809523809524 0.024285714285714285 0.06285714285714286
1 0.33214285714285713 0.5266666666666666 0.03142857142857143 0.09047619047619047
1 0.26571428571428574 0.7276190476190476 0.04928571428571429 0.029523809523809525
1 0.26142857142857145 0.7647619047619048 0.05357142857142857 0.03142857142857143
1 0.2571428571428571 0.8019047619047619 0.05285714285714286 0.02761904761904762
1 0.2542857142857143 0.8466666666666667 0.05071428571428571 0.03333333333333333
1 0.24428571428571427 0.8885714285714286 0.05785714285714286 0.03238095238095238
1 0.24285714285714285 0.9371428571428572 0.054285714285714284 0.03428571428571429
1 0.2342857142857143 0.9847619047619047 0.06357142857142857 0.029523809523809525
1 0.47785714285714287 0.9476190476190476 0.054285714285714284 0.03238095238095238
1 0.4785714285714286 0.9057142857142857 0.055714285714285716 0.030476190476190476
1 0.4764285714285714 0.8638095238095238 0.05357142857142857 0.03333333333333333
1 0.48142857142857143 0.8247619047619048 0.052142857142857144 0.030476190476190476
1 0.485 0.7838095238095238 0.05142857142857143 0.03333333333333333
1 0.49214285714285716 0.7476190476190476 0.047142857142857146 0.030476190476190476
1 0.46 0.5619047619047619 0.017857142857142856 0.05523809523809524
1 0.455 0.6257142857142857 0.02 0.05619047619047619
1 0.48142857142857143 0.6238095238095238 0.020714285714285713 0.06095238095238095
1 0.5107142857142857 0.560952380952381 0.017142857142857144 0.05238095238095238
1 0.535 0.5666666666666667 0.02 0.05333333333333334
1 0.5335714285714286 0.6276190476190476 0.018571428571428572 0.06380952380952382
1 0.5592857142857143 0.6304761904761905 0.018571428571428572 0.06285714285714286
1 0.5614285714285714 0.5619047619047619 0.019285714285714285 0.05904761904761905
1 0.585 0.5714285714285714 0.019285714285714285 0.06952380952380953
1 0.6142857142857143 0.5685714285714286 0.02214285714285714 0.05714285714285714
1 0.6385714285714286 0.5742857142857143 0.019285714285714285 0.06476190476190476
1 0.6407142857142857 0.6466666666666666 0.022857142857142857 0.06761904761904762
1 0.6242857142857143 0.46476190476190476 0.0064285714285714285 0.021904761904761906
1 0.6378571428571429 0.4657142857142857 0.0064285714285714285 0.022857142857142857
1 0.65 0.4685714285714286 0.007857142857142858 0.023809523809523808
1 0.9528571428571428 0.5914285714285714 0.029285714285714286 0.06666666666666667
1 0.9757142857142858 0.5866666666666667 0.03142857142857143 0.06476190476190476
