1 0.47785714285714287 0.9571428571428572 0.060714285714285714 0.0838095238095238
1 0.6142857142857143 0.8076190476190476 0.04357142857142857 0.10571428571428572
1 0.64 0.7085714285714285 0.07214285714285715 0.05714285714285714
1 0.6478571428571429 0.6152380952380953 0.07071428571428572 0.06
1 0.6892857142857143 0.5152380952380953 0.06357142857142857 0.05904761904761905
1 0.6771428571428572 0.41333333333333333 0.06 0.039047619047619046
1 0.5357142857142857 0.5066666666666667 0.02642857142857143 0.01904761904761905
1 0.5278571428571428 0.46190476190476193 0.010714285714285714 0.02761904761904762
0 0.6021428571428571 0.4066666666666667 0.008571428571428572 0.01619047619047619
0 0.6078571428571429 0.4123809523809524 0.007857142857142858 0.01904761904761905
1 0.6935714285714286 0.2704761904761905 0.05785714285714286 0.04
1 0.7271428571428571 0.1361904761904762 0.022857142857142857 0.02761904761904762
1 0.6414285714285715 0.01904761904761905 0.05 0.03619047619047619
1 0.2885714285714286 0.44571428571428573 0.015714285714285715 0.03428571428571429
0 0.2864285714285714 0.4438095238095238 0.010714285714285714 0.017142857142857144
0 0.28785714285714287 0.4380952380952381 0.011428571428571429 0.02
1 0.29 0.3780952380952381 0.014285714285714285 0.030476190476190476
0 0.2892857142857143 0.36952380952380953 0.009285714285714286 0.014285714285714285
0 0.36642857142857144 0.2019047619047619 0.009285714285714286 0.018095238095238095
1 0.37214285714285716 0.20285714285714285 0.02142857142857143 0.049523809523809526
1 0.17857142857142858 0.03428571428571429 0.017142857142857144 0.02
1 0.29214285714285715 0.03333333333333333 0.05357142857142857 0.039047619047619046
1 0.2764285714285714 0.06095238095238095 0.05285714285714286 0.0419047619047619
1 0.26785714285714285 0.09238095238095238 0.05357142857142857 0.040952380952380955
1 0.2542857142857143 0.1219047619047619 0.055714285714285716 0.0419047619047619
1 0.24285714285714285 0.15047619047619049 0.05857142857142857 0.04285714285714286
1 0.22714285714285715 0.18095238095238095 0.06 0.0419047619047619
1 0.21571428571428572 0.2123809523809524 0.05928571428571429 0.045714285714285714
1 0.18928571428571428 0.2761904761904762 0.062142857142857146 0.04666666666666667
1 0.17714285714285713 0.30952380952380953 0.06285714285714286 0.04380952380952381
1 0.16 0.3523809523809524 0.062142857142857146 0.04285714285714286
1 0.14714285714285713 0.38476190476190475 0.06571428571428571 0.047619047619047616
1 0.11642857142857142 0.46285714285714286 0.065 0.05238095238095238
0 0.115 0.29714285714285715 0.015714285714285715 0.025714285714285714
0 0.06928571428571428 0.28285714285714286 0.015 0.014285714285714285
0 0.06285714285714286 0.2695238095238095 0.015714285714285715 0.02095238095238095
1 0.04071428571428572 0.6838095238095238 0.08214285714285714 0.06857142857142857
1 0.02142857142857143 0.7428571428571429 0.04285714285714286 0.05333333333333334
1 0.8864285714285715 0.5257142857142857 0.07642857142857143 0.05333333333333334
1 0.8685714285714285 0.5619047619047619 0.06928571428571428 0.05047619047619047
