1 0.5392857142857143 0.26476190476190475 0.05714285714285714 0.12761904761904763
1 0.6357142857142857 0.1676190476190476 0.06928571428571428 0.17904761904761904
1 0.4828571428571429 0.08190476190476191 0.08 0.1295238095238095
1 0.13071428571428573 0.0380952380952381 0.09785714285714285 0.05904761904761905
1 0.12428571428571429 0.4666666666666667 0.09642857142857143 0.06
1 0.2714285714285714 0.5628571428571428 0.037142857142857144 0.10285714285714286
1 0.8657142857142858 0.6961904761904761 0.10928571428571429 0.058095238095238096
1 0.8621428571428571 0.6238095238095238 0.09642857142857143 0.05142857142857143
1 0.8628571428571429 0.5561904761904762 0.09642857142857143 0.05523809523809524
1 0.9378571428571428 0.46190476190476193 0.05714285714285714 0.13904761904761906
1 0.9814285714285714 0.46476190476190476 0.03642857142857143 0.13142857142857142
1 0.94 0.32476190476190475 0.09214285714285714 0.07714285714285714
0 0.9335714285714286 0.23904761904761904 0.02642857142857143 0.01904761904761905
0 0.8071428571428572 0.33904761904761904 0.015 0.022857142857142857
1 0.8685714285714285 0.9685714285714285 0.095 0.06095238095238095
1 0.865 0.9028571428571428 0.08857142857142856 0.05714285714285714
1 0.8692857142857143 0.8333333333333334 0.10571428571428572 0.06285714285714286
1 0.8664285714285714 0.7657142857142857 0.10285714285714286 0.06476190476190476
1 0.08928571428571429 0.37142857142857144 0.13285714285714287 0.06952380952380953
0 0.15214285714285714 0.3580952380952381 0.025 0.01619047619047619
0 0.3142857142857143 0.47619047619047616 0.016428571428571428 0.013333333333333334
0 0.2357142857142857 0.09619047619047619 0.016428571428571428 0.03333333333333333
0 0.22142857142857142 0.24476190476190476 0.02142857142857143 0.025714285714285714
0 0.2507142857142857 0.26 0.016428571428571428 0.02857142857142857
0 0.27071428571428574 0.24857142857142858 0.016428571428571428 0.029523809523809525
0 0.27 0.29619047619047617 0.013571428571428571 0.01904761904761905
0 0.26357142857142857 0.18285714285714286 0.016428571428571428 0.035238095238095235
0 0.30142857142857143 0.1457142857142857 0.015714285714285715 0.029523809523809525
0 0.26357142857142857 0.017142857142857144 0.022857142857142857 0.03428571428571429
0 0.21785714285714286 0.5257142857142857 0.019285714285714285 0.014285714285714285
0 0.24928571428571428 0.09904761904761905 0.017857142857142856 0.03619047619047619
0 0.3414285714285714 0.12761904761904763 0.014285714285714285 0.02
0 0.42642857142857143 0.42952380952380953 0.012857142857142857 0.017142857142857144
0 0.37785714285714284 0.19904761904761906 0.012142857142857143 0.025714285714285714
0 0.22428571428571428 0.43714285714285717 0.02142857142857143 0.018095238095238095
0 0.24571428571428572 0.4361904761904762 0.015714285714285715 0.02
0 0.20357142857142857 0.32857142857142857 0.019285714285714285 0.02095238095238095
0 0.22142857142857142 0.3647619047619048 0.017142857142857144 0.02095238095238095
0 0.17714285714285713 0.9085714285714286 0.02 0.02
0 0.7235714285714285 0.7295238095238096 0.012857142857142857 0.02
0 0.7292857142857143 0.4419047619047619 0.016428571428571428 0.023809523809523808
1 0.3414285714285714 0.1380952380952381 0.03785714285714286 0.030476190476190476
1 0.42857142857142855 0.439047619047619 0.014285714285714285 0.054285714285714284
0 0.4907142857142857 0.2914285714285714 0.012857142857142857 0.02
1 0.49357142857142855 0.29714285714285715 0.027142857142857142 0.02
1 0.21357142857142858 0.3323809523809524 0.025 0.02095238095238095
1 0.22714285714285715 0.3647619047619048 0.027142857142857142 0.023809523809523808
1 0.25142857142857145 0.44571428571428573 0.02642857142857143 0.03428571428571429
1 0.22714285714285715 0.4380952380952381 0.02214285714285714 0.049523809523809526
0 0.28785714285714287 0.46 0.019285714285714285 0.012380952380952381
0 0.29214285714285715 0.4704761904761905 0.008571428571428572 0.0038095238095238095
0 0.08357142857142857 0.5219047619047619 0.027142857142857142 0.02
0 0.1957142857142857 0.5333333333333333 0.016428571428571428 0.01619047619047619
0 0.22285714285714286 0.6076190476190476 0.02 0.014285714285714285
0 0.20214285714285715 0.68 0.020714285714285713 0.012380952380952381
0 0.11785714285714285 0.6066666666666667 0.030714285714285715 0.018095238095238095
0 0.18642857142857142 0.3523809523809524 0.023571428571428573 0.017142857142857144
0 0.205 0.3676190476190476 0.020714285714285713 0.021904761904761906
1 0.25857142857142856 0.7342857142857143 0.062142857142857146 0.18666666666666668
0 0.15 0.96 0.027142857142857142 0.035238095238095235
0 0.12642857142857142 0.7361904761904762 0.03357142857142857 0.017142857142857144
0 0.29428571428571426 0.8419047619047619 0.016428571428571428 0.014285714285714285
0 0.28214285714285714 0.981904761904762 0.037142857142857144 0.03142857142857143
0 0.7657142857142857 0.38285714285714284 0.02142857142857143 0.02
0 0.8985714285714286 0.3819047619047619 0.024285714285714285 0.021904761904761906
0 0.985 0.5733333333333334 0.02642857142857143 0.01904761904761905
0 0.89 0.44095238095238093 0.018571428571428572 0.01904761904761905
0 0.8714285714285714 0.43714285714285717 0.012857142857142857 0.014285714285714285
1 0.7864285714285715 0.5161904761904762 0.025714285714285714 0.08095238095238096
1 0.7207142857142858 0.7276190476190476 0.010714285714285714 0.0419047619047619
0 0.8057142857142857 0.47333333333333333 0.025714285714285714 0.017142857142857144
0 0.7935714285714286 0.4704761904761905 0.014285714285714285 0.01904761904761905
1 0.8007142857142857 0.3219047619047619 0.047142857142857146 0.06952380952380953
