1 0.07785714285714286 0.8705583756345178 0.054285714285714284 0.048223350253807105
1 0.08857142857142856 0.8401015228426396 0.05785714285714286 0.03934010152284264
1 0.1 0.8045685279187818 0.07714285714285714 0.0583756345177665
1 0.3678571428571429 0.4479695431472081 0.012857142857142857 0.02918781725888325
1 0.38 0.3362944162436548 0.012142857142857143 0.025380710659898477
1 0.38785714285714284 0.07614213197969544 0.008571428571428572 0.015228426395939087
1 0.37785714285714284 0.05964467005076142 0.005714285714285714 0.008883248730964468
1 0.5135714285714286 0.35786802030456855 0.015 0.021573604060913704
1 0.6764285714285714 0.9073604060913706 0.02642857142857143 0.07741116751269035
1 0.6778571428571428 0.7043147208121827 0.022857142857142857 0.05203045685279188
1 0.8007142857142857 0.3616751269035533 0.03142857142857143 0.03807106598984772
1 0.7742857142857142 0.3083756345177665 0.02 0.031725888324873094
1 0.6471428571428571 0.09898477157360407 0.009285714285714286 0.007614213197969543
1 0.6492857142857142 0.09137055837563451 0.008571428571428572 0.01015228426395939
1 0.69 0.0850253807106599 0.009285714285714286 0.01015228426395939
1 0.8228571428571428 0.19035532994923857 0.011428571428571429 0.013959390862944163
1 0.7964285714285714 0.18401015228426396 0.029285714285714286 0.024111675126903553
1 0.8 0.1598984771573604 0.010714285714285714 0.012690355329949238
1 0.7742857142857142 0.15609137055837563 0.02214285714285714 0.02030456852791878
1 0.7792857142857142 0.15228426395939088 0.023571428571428573 0.024111675126903553
1 0.7842857142857143 0.1484771573604061 0.02642857142857143 0.025380710659898477
1 0.7957142857142857 0.1446700507614213 0.02642857142857143 0.024111675126903553
1 0.8042857142857143 0.14086294416243655 0.025714285714285714 0.02030456852791878
1 0.8057142857142857 0.1383248730964467 0.02214285714285714 0.017766497461928935
1 0.8078571428571428 0.13451776649746192 0.02 0.02030456852791878
1 0.8207142857142857 0.14720812182741116 0.017142857142857144 0.017766497461928935
1 0.9128571428571428 0.20050761421319796 0.030714285714285715 0.0266497461928934
1 0.9892857142857143 0.23223350253807107 0.02142857142857143 0.024111675126903553
1 0.9714285714285714 0.2296954314720812 0.019285714285714285 0.013959390862944163
1 0.84 0.12690355329949238 0.007857142857142858 0.008883248730964468
1 0.8464285714285714 0.12436548223350254 0.007857142857142858 0.011421319796954314
1 0.7764285714285715 0.05710659898477157 0.009285714285714286 0.008883248730964468
1 0.7935714285714286 0.05456852791878172 0.009285714285714286 0.011421319796954314
1 0.8342857142857143 0.04568527918781726 0.008571428571428572 0.008883248730964468
1 0.8457142857142858 0.031725888324873094 0.007142857142857143 0.007614213197969543
1 0.8885714285714286 0.024111675126903553 0.007142857142857143 0.01015228426395939
1 0.9057142857142857 0.025380710659898477 0.005714285714285714 0.008883248730964468
1 0.8957142857142857 0.017766497461928935 0.005 0.008883248730964468
1 0.9042857142857142 0.007614213197969543 0.005714285714285714 0.007614213197969543
