0 0.42642857142857143 0.5771428571428572 0.007857142857142858 0.02
1 0.425 0.5866666666666667 0.015714285714285715 0.01904761904761905
1 0.7107142857142857 0.1380952380952381 0.035 0.05619047619047619
1 0.7328571428571429 0.17142857142857143 0.02214285714285714 0.04285714285714286
1 0.7607142857142857 0.11142857142857143 0.029285714285714286 0.05047619047619047
1 0.815 0.01904761904761905 0.016428571428571428 0.025714285714285714
1 0.7878571428571428 0.07142857142857142 0.02142857142857143 0.0380952380952381
1 0.7657142857142857 0.08 0.010714285714285714 0.015238095238095238
1 0.8278571428571428 0.004761904761904762 0.008571428571428572 0.007619047619047619
1 0.63 0.10476190476190476 0.02 0.01619047619047619
1 0.49642857142857144 0.12380952380952381 0.02214285714285714 0.012380952380952381
1 0.4928571428571429 0.13333333333333333 0.02214285714285714 0.012380952380952381
1 0.46785714285714286 0.1676190476190476 0.02142857142857143 0.014285714285714285
1 0.35642857142857143 0.2038095238095238 0.020714285714285713 0.025714285714285714
1 0.43214285714285716 0.18761904761904763 0.02214285714285714 0.018095238095238095
1 0.42428571428571427 0.20285714285714285 0.01 0.007619047619047619
1 0.36857142857142855 0.3380952380952381 0.03214285714285714 0.037142857142857144
