1 0.7992857142857143 0.9761904761904762 0.055714285714285716 0.037142857142857144
1 0.7742857142857142 0.9476190476190476 0.05285714285714286 0.03142857142857143
1 0.30357142857142855 0.9809523809523809 0.03214285714285714 0.037142857142857144
1 0.255 0.9695238095238096 0.03857142857142857 0.06095238095238095
1 0.3171428571428571 0.8247619047619048 0.020714285714285713 0.030476190476190476
1 0.3535714285714286 0.8114285714285714 0.018571428571428572 0.030476190476190476
1 0.3364285714285714 0.7695238095238095 0.015714285714285715 0.025714285714285714
1 0.44642857142857145 0.8238095238095238 0.015714285714285715 0.03238095238095238
0 0.5571428571428572 0.7380952380952381 0.005714285714285714 0.01619047619047619
0 0.5571428571428572 0.7228571428571429 0.004285714285714286 0.013333333333333334
0 0.5414285714285715 0.7047619047619048 0.004285714285714286 0.013333333333333334
1 0.11785714285714285 0.7076190476190476 0.03 0.015238095238095238
1 0.33714285714285713 0.7114285714285714 0.012857142857142857 0.017142857142857144
1 0.3578571428571429 0.6742857142857143 0.010714285714285714 0.017142857142857144
1 0.37714285714285717 0.6676190476190477 0.010714285714285714 0.015238095238095238
1 0.3871428571428571 0.6438095238095238 0.009285714285714286 0.011428571428571429
1 0.37285714285714283 0.6419047619047619 0.01 0.012380952380952381
1 0.3807142857142857 0.6285714285714286 0.008571428571428572 0.009523809523809525
1 0.3964285714285714 0.6228571428571429 0.007142857142857143 0.009523809523809525
1 0.39714285714285713 0.6114285714285714 0.007857142857142858 0.009523809523809525
1 0.4135714285714286 0.6038095238095238 0.007142857142857143 0.008571428571428572
1 0.4064285714285714 0.599047619047619 0.0064285714285714285 0.007619047619047619
1 0.44 0.6361904761904762 0.008571428571428572 0.015238095238095238
1 0.4542857142857143 0.6123809523809524 0.007142857142857143 0.014285714285714285
1 0.4607142857142857 0.5828571428571429 0.005 0.006666666666666667
1 0.41785714285714287 0.579047619047619 0.004285714285714286 0.006666666666666667
1 0.4228571428571429 0.5828571428571429 0.004285714285714286 0.007619047619047619
1 0.42142857142857143 0.5742857142857143 0.005714285714285714 0.005714285714285714
1 0.43 0.5752380952380952 0.005 0.005714285714285714
1 0.445 0.56 0.004285714285714286 0.005714285714285714
