0 0.13214285714285715 0.7373096446700508 0.019285714285714285 0.05583756345177665
0 0.44857142857142857 0.868020304568528 0.015 0.050761421319796954
0 0.43714285714285717 0.8515228426395939 0.014285714285714285 0.04568527918781726
1 0.4421428571428571 0.39213197969543145 0.07 0.06979695431472081
1 0.3292857142857143 0.33375634517766495 0.07714285714285714 0.09517766497461928
1 0.22214285714285714 0.2868020304568528 0.07428571428571429 0.06852791878172589
0 0.04 0.5266497461928934 0.020714285714285713 0.046954314720812185
0 0.6021428571428571 0.2182741116751269 0.013571428571428571 0.03934010152284264
0 0.6157142857142858 0.22461928934010153 0.012142857142857143 0.04187817258883249
0 0.675 0.19923857868020303 0.01 0.04060913705583756
0 0.8007142857142857 0.25380710659898476 0.012857142857142857 0.04187817258883249
1 0.8521428571428571 0.21065989847715735 0.02857142857142857 0.07614213197969544
0 0.9771428571428571 0.32614213197969544 0.02142857142857143 0.03807106598984772
