1 0.7295 0.018 0.019 0.023333333333333334
0 0.7225 0.04066666666666666 0.0075 0.016666666666666666
0 0.7275 0.042 0.0065 0.018666666666666668
1 0.6925 0.06133333333333333 0.022 0.027333333333333334
1 0.67 0.08933333333333333 0.0225 0.024
1 0.6575 0.11 0.021 0.024666666666666667
1 0.6435 0.12733333333333333 0.019 0.026
1 0.6285 0.14866666666666667 0.021 0.028
1 0.611 0.16866666666666666 0.022 0.027333333333333334
1 0.5905 0.19733333333333333 0.0255 0.030666666666666665
1 0.667 0.156 0.007 0.02
1 0.686 0.17133333333333334 0.025 0.028666666666666667
1 0.6185 0.23 0.025 0.03333333333333333
1 0.6325 0.24666666666666667 0.0245 0.032
1 0.658 0.25 0.028 0.034
1 0.908 0.034666666666666665 0.022 0.03333333333333333
1 0.889 0.07266666666666667 0.018 0.023333333333333334
1 0.8795 0.092 0.0185 0.024
1 0.869 0.11266666666666666 0.0165 0.025333333333333333
1 0.8525 0.14266666666666666 0.02 0.025333333333333333
1 0.841 0.16466666666666666 0.019 0.025333333333333333
1 0.829 0.186 0.0185 0.023333333333333334
1 0.8165 0.21133333333333335 0.022 0.027333333333333334
1 0.8005 0.24533333333333332 0.023 0.028666666666666667
1 0.785 0.2753333333333333 0.0215 0.03266666666666666
1 0.7725 0.30333333333333334 0.021 0.03266666666666666
1 0.7625 0.3333333333333333 0.019 0.030666666666666665
0 0.763 0.27066666666666667 0.0075 0.018666666666666668
0 0.788 0.22066666666666668 0.0065 0.012666666666666666
0 0.7535 0.2793333333333333 0.006 0.015333333333333332
0 0.735 0.32133333333333336 0.0075 0.016
0 0.7425 0.3233333333333333 0.0055 0.015333333333333332
1 0.8345 0.44 0.0505 0.042
1 0.8565 0.39666666666666667 0.039 0.03666666666666667
1 0.581 0.4046666666666667 0.0385 0.024
1 0.5205 0.5206666666666667 0.033 0.043333333333333335
1 0.543 0.5413333333333333 0.034 0.04533333333333334
1 0.471 0.6006666666666667 0.0365 0.04933333333333333
1 0.4795 0.644 0.037 0.05266666666666667
1 0.555 0.576 0.0695 0.11533333333333333
0 0.5935 0.6153333333333333 0.008 0.016666666666666666
1 0.5925 0.6213333333333333 0.0085 0.017333333333333333
1 0.54 0.7486666666666667 0.0315 0.052
1 0.39 0.4686666666666667 0.036 0.04733333333333333
1 0.3585 0.5086666666666667 0.029 0.036
1 0.3235 0.5526666666666666 0.0375 0.04933333333333333
1 0.267 0.6306666666666667 0.0375 0.052
1 0.228 0.678 0.04 0.05333333333333334
1 0.162 0.7673333333333333 0.05 0.064
1 0.119 0.8213333333333334 0.043 0.05533333333333333
1 0.0565 0.904 0.062 0.08133333333333333
1 0.299 0.8966666666666666 0.052 0.08133333333333333
1 0.322 0.938 0.0475 0.08
1 0.2135 0.9233333333333333 0.059 0.08
1 0.131 0.9606666666666667 0.0785 0.078
1 0.376 0.932 0.053 0.078
1 0.434 0.9593333333333334 0.0415 0.06466666666666666
1 0.4075 0.7673333333333333 0.0415 0.059333333333333335
