0 0.558 0.6426666666666667 0.026 0.06
0 0.5985 0.39666666666666667 0.0145 0.038
1 0.566 0.8866666666666667 0.193 0.118
1 0.029 0.594 0.043 0.04
1 0.077 0.5546666666666666 0.0405 0.03266666666666666
1 0.0985 0.5446666666666666 0.039 0.029333333333333333
1 0.107 0.5166666666666667 0.044 0.035333333333333335
0 0.48 0.35133333333333333 0.011 0.034666666666666665
1 0.484 0.36866666666666664 0.02 0.02
1 0.1935 0.45 0.067 0.10333333333333333
1 0.406 0.43866666666666665 0.0845 0.12333333333333334
1 0.2555 0.4633333333333333 0.086 0.13333333333333333
1 0.6925 0.42133333333333334 0.0855 0.08333333333333333
1 0.4035 0.03666666666666667 0.0305 0.018
1 0.4185 0.09 0.02 0.03133333333333333
1 0.437 0.08933333333333333 0.01 0.018
1 0.4245 0.014666666666666666 0.008 0.008666666666666666
1 0.406 0.029333333333333333 0.0195 0.014
1 0.4095 0.02666666666666667 0.024 0.014666666666666666
1 0.4095 0.021333333333333333 0.0215 0.01
1 0.681 0.5286666666666666 0.0165 0.04466666666666667
