1 0.37785714285714284 0.023809523809523808 0.03857142857142857 0.04857142857142857
1 0.38571428571428573 0.1742857142857143 0.045 0.08476190476190476
1 0.3842857142857143 0.31142857142857144 0.03857142857142857 0.1019047619047619
1 0.3892857142857143 0.44285714285714284 0.055714285714285716 0.12285714285714286
1 0.27285714285714285 0.4895238095238095 0.055714285714285716 0.14761904761904762
0 0.19857142857142857 0.7590476190476191 0.032857142857142856 0.03333333333333333
1 0.29928571428571427 0.840952380952381 0.08357142857142857 0.21714285714285714
0 0.10714285714285714 0.9561904761904761 0.035 0.03238095238095238
0 0.10214285714285715 0.9857142857142858 0.03428571428571429 0.02666666666666667
0 0.4657142857142857 0.9057142857142857 0.017142857142857144 0.02761904761904762
1 0.5192857142857142 0.6561904761904762 0.05714285714285714 0.16095238095238096
1 0.6157142857142858 0.6314285714285715 0.06285714285714286 0.15523809523809523
1 0.9385714285714286 0.7542857142857143 0.02642857142857143 0.06666666666666667
0 0.9414285714285714 0.7495238095238095 0.018571428571428572 0.0419047619047619
1 0.7114285714285714 0.6038095238095238 0.07071428571428572 0.15333333333333332
1 0.7907142857142857 0.5923809523809523 0.08 0.14952380952380953
1 0.8614285714285714 0.5847619047619048 0.09 0.16
1 0.9214285714285714 0.560952380952381 0.07928571428571428 0.14
0 0.6542857142857142 0.4676190476190476 0.024285714285714285 0.04476190476190476
1 0.8364285714285714 0.37047619047619046 0.10642857142857143 0.07142857142857142
1 0.5507142857142857 0.2419047619047619 0.10071428571428571 0.06285714285714286
1 0.7907142857142857 0.259047619047619 0.09285714285714286 0.07047619047619047
1 0.7328571428571429 0.10095238095238095 0.08785714285714286 0.05904761904761905
1 0.7078571428571429 0.03142857142857143 0.07928571428571428 0.06095238095238095
1 0.5278571428571428 0.15619047619047619 0.09071428571428572 0.06095238095238095
1 0.49785714285714283 0.015238095238095238 0.085 0.03142857142857143
1 0.5028571428571429 0.0380952380952381 0.08357142857142857 0.03619047619047619
1 0.5092857142857142 0.07142857142857142 0.08357142857142857 0.04666666666666667
1 0.5214285714285715 0.11047619047619048 0.08714285714285715 0.05047619047619047
