1 0.4185714285714286 0.8257142857142857 0.020714285714285713 0.025714285714285714
1 0.5571428571428572 0.8380952380952381 0.024285714285714285 0.024761904761904763
1 0.3707142857142857 0.7447619047619047 0.017142857142857144 0.01904761904761905
1 0.44642857142857145 0.5914285714285714 0.009285714285714286 0.02095238095238095
1 0.8142857142857143 0.621904761904762 0.012857142857142857 0.015238095238095238
1 0.8271428571428572 0.6066666666666667 0.015 0.01904761904761905
1 0.7828571428571428 0.659047619047619 0.02 0.02095238095238095
1 0.6464285714285715 0.7571428571428571 0.02 0.021904761904761906
1 0.05071428571428571 0.3676190476190476 0.015714285714285715 0.02
1 0.08428571428571428 0.39714285714285713 0.01 0.011428571428571429
1 0.105 0.41714285714285715 0.012142857142857143 0.012380952380952381
1 0.04285714285714286 0.32571428571428573 0.008571428571428572 0.010476190476190476
1 0.12642857142857142 0.2838095238095238 0.0064285714285714285 0.009523809523809525
1 0.02 0.2695238095238095 0.007857142857142858 0.008571428571428572
1 0.029285714285714286 0.29333333333333333 0.0064285714285714285 0.010476190476190476
1 0.13642857142857143 0.2761904761904762 0.010714285714285714 0.014285714285714285
1 0.12214285714285714 0.2761904761904762 0.0064285714285714285 0.009523809523809525
1 0.485 0.9704761904761905 0.008571428571428572 0.010476190476190476
1 0.49 0.9685714285714285 0.0064285714285714285 0.009523809523809525
1 0.5928571428571429 0.8219047619047619 0.018571428571428572 0.02761904761904762
1 0.5092857142857142 0.3180952380952381 0.015 0.012380952380952381
1 0.49357142857142855 0.26476190476190475 0.010714285714285714 0.006666666666666667
1 0.42928571428571427 0.3076190476190476 0.010714285714285714 0.017142857142857144
1 0.012857142857142857 0.2438095238095238 0.007857142857142858 0.008571428571428572
1 0.008571428571428572 0.16476190476190475 0.005 0.007619047619047619
1 0.022857142857142857 0.22380952380952382 0.01 0.02
1 0.675 0.4380952380952381 0.014285714285714285 0.007619047619047619
1 0.9235714285714286 0.5361904761904762 0.014285714285714285 0.017142857142857144
