1 0.3178496868475992 0.287569573283859 0.029749478079331943 0.075139146567718
1 0.29592901878914407 0.15955473098330242 0.0407098121085595 0.10018552875695733
1 0.23382045929018788 0.06586270871985157 0.031315240083507306 0.07606679035250463
1 0.25 0.01855287569573284 0.03549060542797495 0.038033395176252316
1 0.1873695198329854 0.6938775510204082 0.037578288100208766 0.08348794063079777
1 0.23277661795407098 0.6595547309833024 0.014613778705636743 0.03710575139146568
1 0.25521920668058456 0.6771799628942486 0.024008350730688934 0.07142857142857142
1 0.31002087682672236 0.6938775510204082 0.044363256784968684 0.11966604823747681
1 0.424321503131524 0.7476808905380334 0.0360125260960334 0.09090909090909091
1 0.49269311064718163 0.7884972170686456 0.03966597077244259 0.11873840445269017
1 0.5422755741127349 0.8042671614100185 0.04384133611691023 0.1261595547309833
1 0.018789144050104383 0.6113172541743971 0.037578288100208766 0.10296846011131726
1 0.10334029227557412 0.6586270871985158 0.037056367432150315 0.09833024118738404
1 0.6231732776617954 0.6576994434137291 0.02661795407098121 0.017625231910946195
0 0.5730688935281837 0.8339517625231911 0.012004175365344467 0.013914656771799629
0 0.5715031315240083 0.8571428571428571 0.015657620041753653 0.02040816326530612
0 0.6111691022964509 0.8051948051948052 0.010438413361169102 0.023191094619666047
0 0.6132567849686847 0.852504638218924 0.013048016701461378 0.01855287569573284
1 0.6497912317327766 0.8562152133580705 0.0360125260960334 0.1345083487940631
0 0.7766179540709812 0.9369202226345084 0.013048016701461378 0.023191094619666047
1 0.7531315240083507 0.9647495361781077 0.009916492693110648 0.03153988868274583
1 0.8188935281837161 0.9424860853432282 0.03392484342379958 0.11224489795918367
0 0.9326722338204593 0.9721706864564007 0.017745302713987474 0.01855287569573284
0 0.9692066805845512 0.9851576994434137 0.009916492693110648 0.02504638218923933
