1 0.19714285714285715 0.5580952380952381 0.07428571428571429 0.16095238095238096
1 0.2571428571428571 0.34 0.04928571428571429 0.09142857142857143
1 0.2814285714285714 0.25333333333333335 0.04285714285714286 0.07238095238095238
1 0.31285714285714283 0.13142857142857142 0.03571428571428571 0.05714285714285714
1 0.29428571428571426 0.19904761904761906 0.037142857142857144 0.05523809523809524
1 0.3364285714285714 0.045714285714285714 0.025 0.037142857142857144
1 0.35285714285714287 0.015238095238095238 0.020714285714285713 0.029523809523809525
1 0.4421428571428571 0.12 0.023571428571428573 0.04
0 0.5042857142857143 0.07047619047619047 0.0064285714285714285 0.02857142857142857
0 0.48 0.2361904761904762 0.007857142857142858 0.037142857142857144
0 0.5178571428571429 0.32571428571428573 0.012857142857142857 0.0419047619047619
1 0.5192857142857142 0.3333333333333333 0.01 0.03238095238095238
1 0.5292857142857142 0.22 0.03214285714285714 0.045714285714285714
0 0.5628571428571428 0.16952380952380952 0.008571428571428572 0.029523809523809525
1 0.5371428571428571 0.10666666666666667 0.04357142857142857 0.03142857142857143
1 0.5578571428571428 0.12380952380952381 0.054285714285714284 0.04
1 0.5478571428571428 0.3 0.035 0.05904761904761905
1 0.6107142857142858 0.25142857142857145 0.02857142857142857 0.024761904761904763
1 0.5642857142857143 0.41333333333333333 0.045 0.08190476190476191
1 0.5814285714285714 0.5933333333333334 0.056428571428571425 0.1295238095238095
1 0.6464285714285715 0.38285714285714284 0.03357142857142857 0.02761904761904762
1 0.6385714285714286 0.5057142857142857 0.03428571428571429 0.03428571428571429
0 0.6214285714285714 0.599047619047619 0.017857142857142856 0.049523809523809526
0 0.5271428571428571 0.7914285714285715 0.019285714285714285 0.04476190476190476
0 0.5428571428571428 0.8028571428571428 0.012142857142857143 0.05047619047619047
0 0.565 0.800952380952381 0.02 0.05333333333333334
1 0.7428571428571429 0.7819047619047619 0.20714285714285716 0.15142857142857144
1 0.7185714285714285 0.6914285714285714 0.2057142857142857 0.14761904761904762
