1 0.5171428571428571 0.04187817258883249 0.022857142857142857 0.030456852791878174
1 0.4278571428571429 0.116751269035533 0.04928571428571429 0.05456852791878172
1 0.4714285714285714 0.434010152284264 0.05357142857142857 0.1116751269035533
1 0.45357142857142857 0.5380710659898477 0.025714285714285714 0.04949238578680203
1 0.43642857142857144 0.6979695431472082 0.02857142857142857 0.05964467005076142
0 0.30214285714285716 0.5355329949238579 0.005714285714285714 0.012690355329949238
1 0.31 0.7715736040609137 0.05928571428571429 0.12436548223350254
1 0.295 0.8642131979695431 0.07142857142857142 0.12563451776649745
1 0.3792857142857143 0.7880710659898477 0.030714285714285715 0.06725888324873096
1 0.8571428571428571 0.16751269035532995 0.013571428571428571 0.04060913705583756
1 0.8571428571428571 0.3020304568527919 0.013571428571428571 0.044416243654822336
1 0.8435714285714285 0.4543147208121827 0.018571428571428572 0.07360406091370558
1 0.7057142857142857 0.05583756345177665 0.019285714285714285 0.03680203045685279
1 0.6764285714285714 0.18781725888324874 0.017142857142857144 0.03807106598984772
1 0.5778571428571428 0.3426395939086294 0.022857142857142857 0.04314720812182741
1 0.6292857142857143 0.15736040609137056 0.03 0.06218274111675127
1 0.5371428571428571 0.3616751269035533 0.024285714285714285 0.044416243654822336
0 0.5271428571428571 0.8147208121827412 0.002857142857142857 0.012690355329949238
1 0.515 0.815989847715736 0.0035714285714285713 0.012690355329949238
