1 0.062142857142857146 0.2057142857142857 0.08428571428571428 0.05333333333333334
0 0.07928571428571428 0.23904761904761904 0.020714285714285713 0.05142857142857143
1 0.15357142857142858 0.22095238095238096 0.08428571428571428 0.054285714285714284
1 0.13428571428571429 0.26666666666666666 0.09571428571428571 0.054285714285714284
1 0.07071428571428572 0.3076190476190476 0.11214285714285714 0.058095238095238096
1 0.18714285714285714 0.3180952380952381 0.11571428571428571 0.06095238095238095
1 0.017142857142857144 0.26571428571428574 0.03428571428571429 0.0419047619047619
1 0.30642857142857144 0.2276190476190476 0.056428571428571425 0.05333333333333334
1 0.3171428571428571 0.34095238095238095 0.06142857142857143 0.05047619047619047
0 0.27071428571428574 0.32095238095238093 0.020714285714285713 0.0380952380952381
1 0.35928571428571426 0.21619047619047618 0.05142857142857143 0.05333333333333334
1 0.4164285714285714 0.25333333333333335 0.014285714285714285 0.049523809523809526
1 0.4235714285714286 0.11904761904761904 0.05142857142857143 0.030476190476190476
1 0.4564285714285714 0.10571428571428572 0.025 0.0380952380952381
1 0.44857142857142857 0.07904761904761905 0.023571428571428573 0.03238095238095238
1 0.4835714285714286 0.19238095238095237 0.03571428571428571 0.06
1 0.5021428571428571 0.13333333333333333 0.06 0.10952380952380952
0 0.4857142857142857 0.07142857142857142 0.007142857142857143 0.023809523809523808
1 0.5242857142857142 0.07904761904761905 0.015714285714285715 0.022857142857142857
1 0.56 0.07809523809523809 0.02214285714285714 0.03619047619047619
1 0.5392857142857143 0.06571428571428571 0.022857142857142857 0.03333333333333333
1 0.5428571428571428 0.047619047619047616 0.02 0.021904761904761906
1 0.5428571428571428 0.035238095238095235 0.014285714285714285 0.02
1 0.59 0.09428571428571429 0.05285714285714286 0.02761904761904762
1 0.6342857142857142 0.08095238095238096 0.037142857142857144 0.06
1 0.6657142857142857 0.06666666666666667 0.017142857142857144 0.02095238095238095
1 0.6678571428571428 0.08571428571428572 0.02142857142857143 0.025714285714285714
1 0.6742857142857143 0.11428571428571428 0.023571428571428573 0.02666666666666667
1 0.6835714285714286 0.13428571428571429 0.024285714285714285 0.03333333333333333
1 0.6935714285714286 0.15904761904761905 0.029285714285714286 0.0419047619047619
1 0.7085714285714285 0.1980952380952381 0.032857142857142856 0.04285714285714286
1 0.7242857142857143 0.2542857142857143 0.04214285714285714 0.05523809523809524
0 0.6835714285714286 0.2438095238095238 0.012857142857142857 0.04666666666666667
0 0.685 0.30666666666666664 0.016428571428571428 0.05333333333333334
0 0.7635714285714286 0.2704761904761905 0.014285714285714285 0.04285714285714286
0 0.8085714285714286 0.3419047619047619 0.016428571428571428 0.06190476190476191
0 0.17714285714285713 0.7285714285714285 0.03142857142857143 0.06952380952380953
1 0.19357142857142856 0.9 0.20714285714285716 0.19142857142857142
