1 0.455 0.8477157360406091 0.017142857142857144 0.05583756345177665
1 0.42214285714285715 0.9454314720812182 0.022857142857142857 0.06345177664974619
1 0.48857142857142855 0.6345177664974619 0.015 0.03553299492385787
1 0.5064285714285715 0.5241116751269036 0.015 0.02918781725888325
1 0.5521428571428572 0.33375634517766495 0.010714285714285714 0.02918781725888325
1 0.5264285714285715 0.2868020304568528 0.008571428571428572 0.01903553299492386
1 0.5221428571428571 0.22588832487309646 0.007142857142857143 0.015228426395939087
1 0.58 0.1434010152284264 0.007857142857142858 0.01903553299492386
1 0.6092857142857143 0.13959390862944163 0.0064285714285714285 0.01649746192893401
1 0.5842857142857143 0.0799492385786802 0.0064285714285714285 0.013959390862944163
1 0.5414285714285715 0.09517766497461928 0.0064285714285714285 0.012690355329949238
1 0.48428571428571426 0.01903553299492386 0.015714285714285715 0.011421319796954314
1 0.44571428571428573 0.005076142131979695 0.015 0.01015228426395939
1 0.4607142857142857 0.6763959390862944 0.017142857142857144 0.04314720812182741
1 0.4928571428571429 0.49619289340101524 0.014285714285714285 0.031725888324873094
1 0.5735714285714286 0.4619289340101523 0.027857142857142858 0.025380710659898477
1 0.5342857142857143 0.1802030456852792 0.007857142857142858 0.01903553299492386
1 0.6092857142857143 0.10279187817258884 0.007142857142857143 0.01903553299492386
1 0.5742857142857143 0.09898477157360407 0.007142857142857143 0.01903553299492386
1 0.555 0.050761421319796954 0.016428571428571428 0.015228426395939087
1 0.49785714285714283 0.3934010152284264 0.020714285714285713 0.0850253807106599
1 0.5478571428571428 0.13071065989847716 0.010714285714285714 0.05203045685279188
1 0.55 0.10406091370558376 0.005714285714285714 0.013959390862944163
1 0.57 0.26015228426395937 0.007142857142857143 0.0266497461928934
0 0.5778571428571428 0.8388324873096447 0.004285714285714286 0.01649746192893401
0 0.5692857142857143 0.8439086294416244 0.005 0.01649746192893401
0 0.5728571428571428 0.833756345177665 0.005714285714285714 0.017766497461928935
1 0.5142857142857142 0.0038071065989847717 0.014285714285714285 0.007614213197969543
1 0.55 0.005076142131979695 0.015 0.01015228426395939
1 0.49357142857142855 0.013959390862944163 0.014285714285714285 0.012690355329949238
1 0.4664285714285714 0.0038071065989847717 0.013571428571428571 0.007614213197969543
1 0.3842857142857143 0.0038071065989847717 0.013571428571428571 0.007614213197969543
0 0.6014285714285714 0.4949238578680203 0.0035714285714285713 0.012690355329949238
1 0.8014285714285714 0.36421319796954316 0.011428571428571429 0.024111675126903553
1 0.7957142857142857 0.3464467005076142 0.012857142857142857 0.02918781725888325
1 0.7721428571428571 0.2398477157360406 0.008571428571428572 0.01649746192893401
1 0.7671428571428571 0.22461928934010153 0.012142857142857143 0.01903553299492386
