0 0.11714285714285715 0.7552380952380953 0.023571428571428573 0.049523809523809526
0 0.15 0.7542857142857143 0.02642857142857143 0.05333333333333334
0 0.1657142857142857 0.7523809523809524 0.02214285714285714 0.05047619047619047
0 0.285 0.7609523809523809 0.023571428571428573 0.049523809523809526
0 0.27214285714285713 0.758095238095238 0.025 0.04380952380952381
0 0.19785714285714287 0.6723809523809524 0.02214285714285714 0.04666666666666667
0 0.21214285714285713 0.5666666666666667 0.016428571428571428 0.04285714285714286
0 0.2257142857142857 0.5657142857142857 0.017142857142857144 0.047619047619047616
0 0.23714285714285716 0.5666666666666667 0.013571428571428571 0.04285714285714286
1 0.3514285714285714 0.58 0.08142857142857143 0.09333333333333334
0 0.4042857142857143 0.58 0.015 0.039047619047619046
0 0.415 0.5866666666666667 0.011428571428571429 0.039047619047619046
0 0.4421428571428571 0.5219047619047619 0.012857142857142857 0.03619047619047619
0 0.45714285714285713 0.5190476190476191 0.011428571428571429 0.0419047619047619
0 0.4685714285714286 0.4695238095238095 0.010714285714285714 0.0380952380952381
0 0.3964285714285714 0.4276190476190476 0.012142857142857143 0.03238095238095238
0 0.41285714285714287 0.4266666666666667 0.01 0.03619047619047619
0 0.3535714285714286 0.3342857142857143 0.009285714285714286 0.03142857142857143
0 0.3457142857142857 0.3342857142857143 0.010714285714285714 0.030476190476190476
0 0.5014285714285714 0.2857142857142857 0.008571428571428572 0.02857142857142857
0 0.51 0.2895238095238095 0.007857142857142858 0.02857142857142857
0 0.5178571428571429 0.2904761904761905 0.0064285714285714285 0.03142857142857143
0 0.5157142857142857 0.30666666666666664 0.0064285714285714285 0.02761904761904762
0 0.5228571428571429 0.30666666666666664 0.0064285714285714285 0.02666666666666667
0 0.5421428571428571 0.25142857142857145 0.008571428571428572 0.02666666666666667
1 0.4835714285714286 0.43333333333333335 0.019285714285714285 0.03142857142857143
0 0.5007142857142857 0.439047619047619 0.012142857142857143 0.037142857142857144
0 0.5107142857142857 0.44095238095238093 0.011428571428571429 0.037142857142857144
0 0.5578571428571428 0.3504761904761905 0.010714285714285714 0.024761904761904763
0 0.5685714285714286 0.35428571428571426 0.009285714285714286 0.03238095238095238
1 0.59 0.32761904761904764 0.04071428571428572 0.04285714285714286
1 0.6285714285714286 0.2780952380952381 0.041428571428571426 0.06285714285714286
1 0.7221428571428572 0.1819047619047619 0.04857142857142857 0.06095238095238095
