1 0.6035714285714285 0.1548223350253807 0.09285714285714286 0.116751269035533
0 0.6507142857142857 0.6256345177664975 0.018571428571428572 0.04314720812182741
0 0.27 0.5964467005076142 0.019285714285714285 0.0266497461928934
0 0.26 0.6345177664974619 0.02 0.02284263959390863
0 0.25857142857142856 0.6687817258883249 0.022857142857142857 0.027918781725888325
0 0.5628571428571428 0.40609137055837563 0.018571428571428572 0.044416243654822336
0 0.5464285714285714 0.37817258883248733 0.011428571428571429 0.03807106598984772
0 0.5364285714285715 0.37944162436548223 0.015 0.046954314720812185
0 0.4228571428571429 0.899746192893401 0.02214285714285714 0.031725888324873094
0 0.545 0.9873096446700508 0.015714285714285715 0.02284263959390863
