1 0.7592857142857142 0.44761904761904764 0.01 0.007619047619047619
1 0.7592857142857142 0.4438095238095238 0.016428571428571428 0.009523809523809525
1 0.48 0.5428571428571428 0.007857142857142858 0.014285714285714285
1 0.48214285714285715 0.49333333333333335 0.0064285714285714285 0.007619047619047619
1 0.545 0.680952380952381 0.013571428571428571 0.024761904761904763
1 0.49714285714285716 0.54 0.017142857142857144 0.04666666666666667
1 0.41714285714285715 0.5123809523809524 0.017857142857142856 0.040952380952380955
1 0.5028571428571429 0.4247619047619048 0.008571428571428572 0.01904761904761905
1 0.49357142857142855 0.4104761904761905 0.007142857142857143 0.02
1 0.5028571428571429 0.4057142857142857 0.007142857142857143 0.013333333333333334
1 0.43714285714285717 0.41714285714285715 0.007857142857142858 0.018095238095238095
1 0.46214285714285713 0.4066666666666667 0.009285714285714286 0.017142857142857144
1 0.4471428571428571 0.4180952380952381 0.01 0.02
1 0.4542857142857143 0.4276190476190476 0.01 0.01904761904761905
1 0.45071428571428573 0.38952380952380955 0.0064285714285714285 0.009523809523809525
1 0.4757142857142857 0.37047619047619046 0.005 0.008571428571428572
1 0.48857142857142855 0.36 0.004285714285714286 0.007619047619047619
1 0.5057142857142857 0.3638095238095238 0.0064285714285714285 0.010476190476190476
1 0.4735714285714286 0.39714285714285713 0.0035714285714285713 0.004761904761904762
1 0.4785714285714286 0.38095238095238093 0.0035714285714285713 0.0038095238095238095
1 0.48142857142857143 0.3619047619047619 0.005 0.006666666666666667
1 0.4735714285714286 0.3657142857142857 0.004285714285714286 0.009523809523809525
1 0.5178571428571429 0.34095238095238095 0.002142857142857143 0.006666666666666667
1 0.5028571428571429 0.35333333333333333 0.002142857142857143 0.002857142857142857
1 0.5007142857142857 0.33904761904761904 0.0035714285714285713 0.006666666666666667
1 0.5078571428571429 0.3342857142857143 0.002857142857142857 0.004761904761904762
