1 0.59 0.7314285714285714 0.10357142857142858 0.07333333333333333
1 0.6942857142857143 0.5133333333333333 0.06142857142857143 0.02666666666666667
1 0.6178571428571429 0.939047619047619 0.155 0.1219047619047619
1 0.8864285714285715 0.5085714285714286 0.052142857142857144 0.03238095238095238
1 0.9564285714285714 0.6028571428571429 0.06714285714285714 0.04666666666666667
1 0.93 0.5228571428571429 0.05357142857142857 0.03333333333333333
1 0.8964285714285715 0.4895238095238095 0.04357142857142857 0.03333333333333333
1 0.9464285714285714 0.4980952380952381 0.05357142857142857 0.03333333333333333
1 0.9542857142857143 0.47333333333333333 0.04642857142857143 0.03333333333333333
1 0.9842857142857143 0.5104761904761905 0.030714285714285715 0.039047619047619046
1 0.9442857142857143 0.6847619047619048 0.04357142857142857 0.07047619047619047
1 0.87 0.8533333333333334 0.13857142857142857 0.10857142857142857
1 0.27285714285714285 0.5152380952380953 0.02142857142857143 0.03619047619047619
1 0.16285714285714287 0.5333333333333333 0.023571428571428573 0.04285714285714286
1 0.12857142857142856 0.5428571428571428 0.03 0.040952380952380955
1 0.032857142857142856 0.6761904761904762 0.06357142857142857 0.05333333333333334
1 0.3414285714285714 0.5495238095238095 0.08642857142857142 0.06285714285714286
1 0.6535714285714286 0.5742857142857143 0.06571428571428571 0.04857142857142857
1 0.4585714285714286 0.41714285714285715 0.019285714285714285 0.02095238095238095
1 0.23642857142857143 0.38285714285714284 0.01 0.012380952380952381
1 0.2392857142857143 0.3638095238095238 0.009285714285714286 0.009523809523809525
1 0.2357142857142857 0.3742857142857143 0.009285714285714286 0.011428571428571429
1 0.2392857142857143 0.35523809523809524 0.008571428571428572 0.009523809523809525
1 0.29642857142857143 0.44666666666666666 0.03857142857142857 0.02095238095238095
1 0.29214285714285715 0.4257142857142857 0.03857142857142857 0.02095238095238095
1 0.28714285714285714 0.4123809523809524 0.032857142857142856 0.015238095238095238
1 0.23285714285714285 0.4 0.012142857142857143 0.015238095238095238
1 0.025714285714285714 0.5514285714285714 0.03857142857142857 0.05904761904761905
1 0.28 0.37714285714285717 0.025714285714285714 0.014285714285714285
1 0.2807142857142857 0.38571428571428573 0.027857142857142858 0.01619047619047619
1 0.2835714285714286 0.3933333333333333 0.030714285714285715 0.014285714285714285
1 0.2835714285714286 0.39904761904761904 0.027142857142857142 0.018095238095238095
1 0.2857142857142857 0.40285714285714286 0.027857142857142858 0.013333333333333334
0 0.3464285714285714 0.46190476190476193 0.007857142857142858 0.02095238095238095
0 0.8771428571428571 0.6104761904761905 0.012857142857142857 0.040952380952380955
0 0.4421428571428571 0.40476190476190477 0.005 0.014285714285714285
0 0.5471428571428572 0.49333333333333335 0.008571428571428572 0.022857142857142857
0 0.6685714285714286 0.4866666666666667 0.01 0.018095238095238095
1 0.67 0.49142857142857144 0.019285714285714285 0.021904761904761906
1 0.5464285714285714 0.4990476190476191 0.010714285714285714 0.023809523809523808
1 0.15071428571428572 0.8990476190476191 0.062142857142857146 0.05142857142857143
0 0.14714285714285713 0.8790476190476191 0.02857142857142857 0.06095238095238095
1 0.8 0.47523809523809524 0.018571428571428572 0.018095238095238095
