1 0.5765 0.9333333333333333 0.0595 0.07933333333333334
1 0.604 0.882 0.059 0.07133333333333333
1 0.6345 0.838 0.055 0.06866666666666667
1 0.776 0.9446666666666667 0.045 0.08533333333333333
1 0.82 0.8393333333333334 0.0495 0.08066666666666666
1 0.715 0.814 0.0485 0.07266666666666667
1 0.584 0.7773333333333333 0.0495 0.07
1 0.665 0.796 0.0685 0.078
1 0.6825 0.7746666666666666 0.0515 0.05733333333333333
0 0.7635 0.8113333333333334 0.013 0.02
1 0.6985 0.7426666666666667 0.049 0.06066666666666667
1 0.7095 0.7173333333333334 0.0535 0.058
1 0.7325 0.694 0.0595 0.046
1 0.848 0.7693333333333333 0.051 0.058666666666666666
1 0.869 0.7946666666666666 0.013 0.03333333333333333
0 0.954 0.9846666666666667 0.018 0.014666666666666666
0 0.95 0.9953333333333333 0.015 0.009333333333333334
1 0.944 0.8293333333333334 0.0535 0.068
0 0.907 0.8406666666666667 0.016 0.016
1 0.8995 0.8213333333333334 0.022 0.032
1 0.9295 0.8506666666666667 0.0295 0.038
0 0.93 0.8513333333333334 0.017 0.025333333333333333
0 0.9205 0.8466666666666667 0.017 0.015333333333333332
1 0.979 0.5886666666666667 0.042 0.04533333333333334
1 0.761 0.6613333333333333 0.0525 0.06133333333333333
1 0.6685 0.5866666666666667 0.0475 0.051333333333333335
1 0.6985 0.57 0.0145 0.018
0 0.6995 0.5646666666666667 0.0105 0.014666666666666666
0 0.607 0.548 0.008 0.018666666666666668
0 0.596 0.5406666666666666 0.006 0.018
0 0.5415 0.5433333333333333 0.0075 0.018
0 0.545 0.526 0.007 0.019333333333333334
0 0.536 0.5246666666666666 0.008 0.020666666666666667
0 0.5365 0.5106666666666667 0.0055 0.018666666666666668
0 0.5115 0.48133333333333334 0.007 0.019333333333333334
1 0.6055 0.5313333333333333 0.042 0.04466666666666667
1 0.5595 0.488 0.0385 0.04066666666666666
1 0.5215 0.45866666666666667 0.0195 0.042666666666666665
0 0.8015 0.414 0.008 0.018
0 0.7935 0.41133333333333333 0.008 0.017333333333333333
0 0.7945 0.392 0.0085 0.018666666666666668
1 0.7205 0.4206666666666667 0.0405 0.03333333333333333
1 0.659 0.43466666666666665 0.041 0.034666666666666665
1 0.6825 0.41 0.0135 0.014666666666666666
0 0.684 0.408 0.0085 0.014
1 0.912 0.25666666666666665 0.0315 0.025333333333333333
1 0.8725 0.23733333333333334 0.034 0.028666666666666667
1 0.5005 0.44066666666666665 0.0185 0.042
1 0.475 0.416 0.0175 0.04066666666666666
1 0.5385 0.35933333333333334 0.029 0.024
1 0.449 0.394 0.024 0.037333333333333336
1 0.4185 0.372 0.029 0.03133333333333333
0 0.4 0.37133333333333335 0.007 0.017333333333333333
1 0.67 0.13 0.021 0.014
1 0.4455 0.2653333333333333 0.025 0.022
1 0.3895 0.33866666666666667 0.0175 0.034
1 0.367 0.318 0.0155 0.03333333333333333
1 0.351 0.30933333333333335 0.0145 0.027333333333333334
0 0.464 0.25466666666666665 0.0065 0.016
0 0.4345 0.23066666666666666 0.0045 0.014
1 0.369 0.234 0.022 0.018
1 0.382 0.21666666666666667 0.0435 0.03866666666666667
1 0.329 0.282 0.025 0.028
1 0.309 0.27066666666666667 0.013 0.024
0 0.272 0.272 0.0065 0.017333333333333333
1 0.275 0.23866666666666667 0.0265 0.03333333333333333
1 0.297 0.21133333333333335 0.0225 0.020666666666666667
1 0.255 0.22466666666666665 0.02 0.022
1 0.2375 0.18066666666666667 0.019 0.02
1 0.2675 0.15533333333333332 0.017 0.016666666666666666
1 0.2905 0.14666666666666667 0.0385 0.03933333333333333
1 0.075 0.294 0.02 0.029333333333333333
1 0.0445 0.2753333333333333 0.037 0.048
1 0.021 0.22466666666666665 0.032 0.018666666666666668
1 0.013 0.21066666666666667 0.026 0.017333333333333333
1 0.206 0.15 0.016 0.016666666666666666
1 0.2305 0.13 0.0165 0.014
1 0.304 0.11533333333333333 0.02 0.014
1 0.292 0.10466666666666667 0.019 0.013333333333333334
1 0.3465 0.09866666666666667 0.016 0.015333333333333332
1 0.3675 0.09066666666666667 0.017 0.014
1 0.386 0.08333333333333333 0.017 0.013333333333333334
1 0.4075 0.07533333333333334 0.016 0.012
0 0.4015 0.13066666666666665 0.004 0.013333333333333334
0 0.399 0.12066666666666667 0.004 0.011333333333333334
0 0.4015 0.12066666666666667 0.004 0.012
1 0.1845 0.11466666666666667 0.015 0.014666666666666666
1 0.1425 0.09866666666666667 0.0145 0.015333333333333332
1 0.1465 0.048666666666666664 0.0125 0.012
1 0.1295 0.048666666666666664 0.012 0.012666666666666666
1 0.1005 0.043333333333333335 0.024 0.024666666666666667
1 0.104 0.028666666666666667 0.0105 0.009333333333333334
1 0.1025 0.016666666666666666 0.021 0.020666666666666667
1 0.0655 0.03 0.013 0.016
1 0.078 0.018 0.01 0.008666666666666666
1 0.034 0.005333333333333333 0.0085 0.008666666666666666
0 0.302 0.13333333333333333 0.0065 0.012
1 0.235 0.09 0.0045 0.008
1 0.208 0.07666666666666666 0.005 0.008666666666666666
1 0.213 0.076 0.005 0.008
0 0.2345 0.08733333333333333 0.0035 0.008666666666666666
0 0.2075 0.07466666666666667 0.004 0.01
0 0.2125 0.07333333333333333 0.0045 0.008666666666666666
1 0.7335 0.9826666666666667 0.0325 0.034666666666666665
