1 0.456 0.9353333333333333 0.0585 0.12933333333333333
1 0.512 0.838 0.0515 0.16333333333333333
1 0.439 0.7673333333333333 0.05 0.12666666666666668
0 0.4105 0.8453333333333334 0.016 0.04133333333333333
0 0.4095 0.81 0.0165 0.030666666666666665
1 0.3565 0.87 0.103 0.146
1 0.378 0.6973333333333334 0.0465 0.12266666666666666
1 0.5055 0.6946666666666667 0.0395 0.10333333333333333
1 0.433 0.6106666666666667 0.038 0.094
1 0.4895 0.5853333333333334 0.0625 0.09266666666666666
0 0.0745 0.6106666666666667 0.0205 0.035333333333333335
0 0.217 0.5266666666666666 0.013 0.03266666666666666
0 0.2555 0.362 0.013 0.03
0 0.292 0.318 0.0085 0.020666666666666667
0 0.249 0.5406666666666666 0.017 0.03
0 0.2355 0.55 0.008 0.016666666666666666
0 0.2655 0.5493333333333333 0.014 0.024666666666666667
1 0.265 0.5546666666666666 0.03 0.014666666666666666
0 0.265 0.5186666666666667 0.008 0.02
0 0.2555 0.5073333333333333 0.0105 0.025333333333333333
1 0.284 0.4693333333333333 0.0265 0.020666666666666667
0 0.282 0.4653333333333333 0.0105 0.02666666666666667
0 0.3695 0.14533333333333334 0.0055 0.020666666666666667
1 0.359 0.102 0.016 0.025333333333333333
0 0.3685 0.062 0.0125 0.016666666666666666
0 0.393 0.04533333333333334 0.003 0.01
1 0.387 0.14266666666666666 0.021 0.05
1 0.441 0.014666666666666666 0.0105 0.015333333333333332
1 0.4415 0.026 0.0105 0.012666666666666666
1 0.439 0.034 0.0075 0.008666666666666666
1 0.4385 0.043333333333333335 0.0095 0.012
1 0.4385 0.052 0.0085 0.011333333333333334
0 0.45 0.07533333333333334 0.0035 0.013333333333333334
0 0.4395 0.06333333333333334 0.004 0.014
1 0.438 0.07533333333333334 0.0105 0.018666666666666668
1 0.444 0.11666666666666667 0.013 0.028
1 0.424 0.134 0.016 0.025333333333333333
0 0.4695 0.10933333333333334 0.005 0.017333333333333333
0 0.472 0.13 0.004 0.019333333333333334
0 0.4055 0.156 0.0045 0.018666666666666668
0 0.412 0.15533333333333332 0.005 0.018666666666666668
1 0.4195 0.16866666666666666 0.0155 0.024
1 0.445 0.148 0.0245 0.024666666666666667
1 0.459 0.17 0.018 0.027333333333333334
1 0.4825 0.16533333333333333 0.0175 0.022
1 0.4645 0.20466666666666666 0.018 0.029333333333333333
1 0.487 0.21533333333333332 0.021 0.03266666666666666
1 0.492 0.246 0.0205 0.029333333333333333
1 0.4665 0.25333333333333335 0.022 0.030666666666666665
1 0.4675 0.2986666666666667 0.025 0.038
1 0.493 0.2966666666666667 0.0225 0.05266666666666667
1 0.5045 0.36533333333333334 0.031 0.07666666666666666
1 0.4755 0.3953333333333333 0.0305 0.046
1 0.4445 0.39866666666666667 0.031 0.07533333333333334
1 0.441 0.3453333333333333 0.025 0.043333333333333335
1 0.412 0.346 0.026 0.04533333333333334
1 0.408 0.31 0.0125 0.023333333333333334
0 0.391 0.2753333333333333 0.0075 0.027333333333333334
1 0.5585 0.07133333333333333 0.0275 0.017333333333333333
1 0.5325 0.134 0.0155 0.023333333333333334
1 0.6105 0.14066666666666666 0.038 0.024
1 0.5435 0.37133333333333335 0.03 0.066
0 0.548 0.4126666666666667 0.007 0.024666666666666667
0 0.5075 0.4 0.008 0.02
1 0.4985 0.418 0.014 0.026
0 0.4975 0.41333333333333333 0.0105 0.021333333333333333
0 0.4855 0.43533333333333335 0.007 0.028666666666666667
1 0.503 0.49533333333333335 0.0155 0.03333333333333333
1 0.5805 0.472 0.066 0.042
1 0.53 0.44466666666666665 0.0245 0.020666666666666667
0 0.532 0.44333333333333336 0.0095 0.032
1 0.4125 0.398 0.031 0.06066666666666667
1 0.395 0.45066666666666666 0.057 0.04666666666666667
0 0.362 0.4573333333333333 0.0135 0.028666666666666667
0 0.303 0.5246666666666666 0.0125 0.03333333333333333
1 0.3375 0.5286666666666666 0.028 0.015333333333333332
0 0.3375 0.5293333333333333 0.0175 0.03
0 0.371 0.5713333333333334 0.013 0.030666666666666665
1 0.375 0.5373333333333333 0.023 0.024
0 0.3775 0.532 0.016 0.028666666666666667
1 0.3895 0.492 0.0605 0.056
1 0.392 0.5506666666666666 0.029 0.016666666666666666
0 0.3905 0.5466666666666666 0.012 0.027333333333333334
0 0.422 0.5386666666666666 0.0115 0.030666666666666665
1 0.4295 0.54 0.0395 0.028
1 0.4165 0.522 0.0225 0.03
0 0.4165 0.5166666666666667 0.009 0.03266666666666666
1 0.6055 0.6893333333333334 0.0425 0.106
1 0.476 0.528 0.0195 0.03133333333333333
0 0.4745 0.524 0.0125 0.034666666666666665
1 0.4605 0.49533333333333335 0.0435 0.06866666666666667
1 0.5595 0.522 0.073 0.05466666666666667
0 0.5825 0.5406666666666666 0.01 0.026
0 0.701 0.5566666666666666 0.013 0.02666666666666667
0 0.7 0.5326666666666666 0.008 0.02266666666666667
1 0.6775 0.4846666666666667 0.0485 0.03333333333333333
0 0.682 0.44066666666666665 0.0085 0.022
1 0.633 0.43733333333333335 0.075 0.048
0 0.696 0.45466666666666666 0.009 0.024666666666666667
1 0.812 0.41133333333333333 0.0965 0.06733333333333333
0 0.7145 0.434 0.008 0.026
1 0.804 0.5906666666666667 0.116 0.12066666666666667
0 0.941 0.5993333333333334 0.0165 0.024666666666666667
0 0.95 0.59 0.0195 0.02
1 0.826 0.5526666666666666 0.0785 0.059333333333333335
0 0.782 0.536 0.01 0.020666666666666667
0 0.93 0.4493333333333333 0.016 0.023333333333333334
