1 0.06428571428571428 0.8657142857142858 0.12642857142857142 0.10952380952380952
1 0.11142857142857143 0.5866666666666667 0.08928571428571429 0.10666666666666667
1 0.175 0.579047619047619 0.08642857142857142 0.11142857142857143
1 0.175 0.4828571428571429 0.07571428571428572 0.07714285714285714
1 0.6914285714285714 0.8952380952380953 0.12857142857142856 0.09904761904761905
1 0.69 0.8057142857142857 0.11785714285714285 0.09238095238095238
1 0.6721428571428572 0.5961904761904762 0.09642857142857143 0.06761904761904762
1 0.6671428571428571 0.5380952380952381 0.09642857142857143 0.06190476190476191
1 0.6714285714285714 0.49714285714285716 0.085 0.049523809523809526
1 0.6714285714285714 0.4533333333333333 0.08071428571428571 0.04666666666666667
1 0.6678571428571428 0.4180952380952381 0.07357142857142857 0.045714285714285714
1 0.6614285714285715 0.38095238095238093 0.07928571428571428 0.0419047619047619
1 0.6757142857142857 0.3504761904761905 0.06857142857142857 0.04476190476190476
1 0.6707142857142857 0.3219047619047619 0.06142857142857143 0.03142857142857143
1 0.6692857142857143 0.2980952380952381 0.06 0.03333333333333333
1 0.6342857142857142 0.26857142857142857 0.055 0.035238095238095235
1 0.6107142857142858 0.24761904761904763 0.06 0.030476190476190476
1 0.6135714285714285 0.22857142857142856 0.05285714285714286 0.03238095238095238
1 0.6264285714285714 0.21142857142857144 0.055 0.03428571428571429
1 0.6328571428571429 0.19238095238095237 0.05857142857142857 0.03428571428571429
1 0.6071428571428571 0.1619047619047619 0.05142857142857143 0.03142857142857143
1 0.6057142857142858 0.1361904761904762 0.05071428571428571 0.02761904761904762
1 0.6121428571428571 0.11142857142857143 0.045714285714285714 0.02666666666666667
1 0.6092857142857143 0.08857142857142856 0.047142857142857146 0.023809523809523808
1 0.6242857142857143 0.01619047619047619 0.029285714285714286 0.017142857142857144
1 0.6 0.023809523809523808 0.015714285714285715 0.03238095238095238
1 0.35 0.6276190476190476 0.10571428571428572 0.06761904761904762
1 0.37214285714285716 0.5695238095238095 0.095 0.07523809523809524
1 0.37642857142857145 0.5095238095238095 0.08642857142857142 0.06476190476190476
1 0.39071428571428574 0.4695238095238095 0.08428571428571428 0.05619047619047619
1 0.24285714285714285 0.4514285714285714 0.06 0.07333333333333333
1 0.24214285714285713 0.3466666666666667 0.062142857142857146 0.06190476190476191
1 0.28285714285714286 0.3742857142857143 0.05071428571428571 0.06285714285714286
1 0.41214285714285714 0.4276190476190476 0.07928571428571428 0.05619047619047619
1 0.4228571428571429 0.3961904761904762 0.07928571428571428 0.05047619047619047
1 0.4342857142857143 0.37047619047619046 0.07571428571428572 0.047619047619047616
1 0.4657142857142857 0.29904761904761906 0.047142857142857146 0.040952380952380955
1 0.4757142857142857 0.2761904761904762 0.06785714285714285 0.047619047619047616
1 0.4807142857142857 0.25333333333333335 0.06 0.04476190476190476
1 0.4685714285714286 0.21619047619047618 0.055714285714285716 0.039047619047619046
1 0.47785714285714287 0.19904761904761906 0.05142857142857143 0.03142857142857143
1 0.4828571428571429 0.18476190476190477 0.05357142857142857 0.029523809523809525
1 0.4857142857142857 0.16952380952380952 0.05 0.02761904761904762
1 0.5014285714285714 0.16095238095238096 0.055714285714285716 0.03428571428571429
1 0.4928571428571429 0.1457142857142857 0.05142857142857143 0.02761904761904762
1 0.5057142857142857 0.10095238095238095 0.04357142857142857 0.030476190476190476
1 0.5107142857142857 0.09142857142857143 0.04214285714285714 0.024761904761904763
1 0.5235714285714286 0.06095238095238095 0.04214285714285714 0.029523809523809525
1 0.46214285714285713 0.030476190476190476 0.017857142857142856 0.024761904761904763
1 0.535 0.03619047619047619 0.027142857142857142 0.01619047619047619
1 0.5385714285714286 0.02095238095238095 0.03142857142857143 0.01619047619047619
1 0.5364285714285715 0.029523809523809525 0.03571428571428571 0.02
0 0.5385714285714286 0.5847619047619048 0.015714285714285715 0.040952380952380955
0 0.5621428571428572 0.46190476190476193 0.011428571428571429 0.039047619047619046
0 0.6078571428571429 0.5123809523809524 0.013571428571428571 0.040952380952380955
0 0.5478571428571428 0.1438095238095238 0.007857142857142858 0.02761904761904762
0 0.545 0.09619047619047619 0.005 0.022857142857142857
0 0.5707142857142857 0.09428571428571429 0.005714285714285714 0.022857142857142857
1 0.24357142857142858 0.02761904761904762 0.012142857142857143 0.02761904761904762
1 0.8078571428571428 0.8609523809523809 0.022857142857142857 0.04857142857142857
1 0.2571428571428571 0.5885714285714285 0.06714285714285714 0.09904761904761905
1 0.31642857142857145 0.29904761904761906 0.05 0.06476190476190476
1 0.45071428571428573 0.32476190476190475 0.065 0.05904761904761905
0 0.5992857142857143 0.94 0.020714285714285713 0.03428571428571429
0 0.24285714285714285 0.02761904761904762 0.007857142857142858 0.021904761904761906
