1 0.37642857142857145 0.8876190476190476 0.03785714285714286 0.0838095238095238
1 0.7714285714285715 0.49142857142857144 0.03785714285714286 0.021904761904761906
1 0.5921428571428572 0.04476190476190476 0.011428571428571429 0.010476190476190476
1 0.5971428571428572 0.4 0.027142857142857142 0.017142857142857144
1 0.4114285714285714 0.5342857142857143 0.019285714285714285 0.039047619047619046
1 0.6464285714285715 0.48095238095238096 0.03428571428571429 0.02
1 0.6 0.45904761904761904 0.03357142857142857 0.02095238095238095
1 0.5978571428571429 0.439047619047619 0.032857142857142856 0.02
1 0.6342857142857142 0.4 0.03 0.01619047619047619
1 0.63 0.38 0.02642857142857143 0.01619047619047619
1 0.5021428571428571 0.15428571428571428 0.007142857142857143 0.008571428571428572
1 0.6457142857142857 0.46476190476190476 0.032857142857142856 0.01904761904761905
1 0.6435714285714286 0.4504761904761905 0.03214285714285714 0.01619047619047619
1 0.64 0.4380952380952381 0.03142857142857143 0.01619047619047619
1 0.5978571428571429 0.4247619047619048 0.02642857142857143 0.01619047619047619
1 0.5985714285714285 0.41333333333333333 0.030714285714285715 0.017142857142857144
1 0.5971428571428572 0.38761904761904764 0.027857142857142858 0.017142857142857144
1 0.5957142857142858 0.3761904761904762 0.025 0.01619047619047619
1 0.5942857142857143 0.3657142857142857 0.027857142857142858 0.01619047619047619
1 0.6292857142857143 0.3676190476190476 0.02642857142857143 0.01619047619047619
1 0.5292857142857142 0.3380952380952381 0.027142857142857142 0.018095238095238095
1 0.5221428571428571 0.44285714285714284 0.02857142857142857 0.01619047619047619
1 0.5214285714285715 0.4228571428571429 0.027857142857142858 0.01904761904761905
1 0.4492857142857143 0.8266666666666667 0.03857142857142857 0.03428571428571429
1 0.4085714285714286 0.960952380952381 0.032857142857142856 0.04857142857142857
1 0.455 0.6371428571428571 0.029285714285714286 0.05142857142857143
1 0.43857142857142856 0.32285714285714284 0.014285714285714285 0.037142857142857144
1 0.43142857142857144 0.10571428571428572 0.01 0.009523809523809525
