1 0.39 0.7646666666666667 0.0315 0.035333333333333335
0 0.481 0.816 0.006 0.016666666666666666
1 0.4895 0.7186666666666667 0.0255 0.03133333333333333
1 0.473 0.71 0.026 0.03333333333333333
1 0.4565 0.7006666666666667 0.028 0.03333333333333333
1 0.4205 0.686 0.027 0.03
1 0.4065 0.6793333333333333 0.0255 0.026
1 0.3925 0.672 0.023 0.026
1 0.402 0.644 0.024 0.027333333333333334
1 0.4445 0.664 0.028 0.029333333333333333
1 0.456 0.67 0.0225 0.03133333333333333
1 0.48 0.6713333333333333 0.0285 0.03666666666666667
1 0.5005 0.6833333333333333 0.026 0.028666666666666667
1 0.518 0.6926666666666667 0.026 0.027333333333333334
1 0.5335 0.7366666666666667 0.0285 0.035333333333333335
1 0.565 0.7206666666666667 0.0245 0.032
1 0.564 0.822 0.028 0.034
1 0.597 0.7946666666666666 0.0275 0.037333333333333336
1 0.6135 0.6413333333333333 0.021 0.02666666666666667
1 0.632 0.6153333333333333 0.02 0.024
0 0.489 0.6246666666666667 0.005 0.011333333333333334
1 0.4895 0.626 0.009 0.011333333333333334
1 0.4805 0.6013333333333334 0.0265 0.019333333333333334
1 0.5115 0.6166666666666667 0.026 0.022
1 0.44 0.5833333333333334 0.0255 0.018
1 0.4125 0.5693333333333334 0.0215 0.018666666666666668
1 0.365 0.5466666666666666 0.019 0.016666666666666666
1 0.3385 0.5333333333333333 0.007 0.01
1 0.3225 0.5306666666666666 0.009 0.011333333333333334
1 0.146 0.65 0.0275 0.028
1 0.1135 0.67 0.033 0.03
1 0.0905 0.6866666666666666 0.031 0.03
1 0.072 0.6966666666666667 0.0325 0.03
1 0.0135 0.732 0.0275 0.034
1 0.0405 0.6826666666666666 0.0405 0.03
1 0.0255 0.6446666666666667 0.035 0.028
1 0.0135 0.6406666666666667 0.027 0.02666666666666667
1 0.246 0.5746666666666667 0.026 0.018
1 0.0895 0.42133333333333334 0.018 0.012
1 0.0795 0.42733333333333334 0.016 0.011333333333333334
