1 0.025714285714285714 0.4796954314720812 0.029285714285714286 0.08375634517766498
1 0.43642857142857144 0.8718274111675127 0.06428571428571428 0.15609137055837563
1 0.032857142857142856 0.3895939086294416 0.03142857142857143 0.05964467005076142
1 0.2542857142857143 0.35913705583756345 0.03214285714285714 0.06598984771573604
1 0.4278571428571429 0.3604060913705584 0.039285714285714285 0.07487309644670051
1 0.5392857142857143 0.5951776649746193 0.06 0.1319796954314721
1 0.6271428571428571 0.5583756345177665 0.062142857142857146 0.11548223350253807
1 0.48642857142857143 0.26015228426395937 0.03642857142857143 0.07106598984771574
1 0.33714285714285713 0.11928934010152284 0.024285714285714285 0.04314720812182741
1 0.3335714285714286 0.03934010152284264 0.025714285714285714 0.04060913705583756
1 0.2735714285714286 0.24619289340101522 0.02857142857142857 0.05583756345177665
1 0.22428571428571428 0.05203045685279188 0.018571428571428572 0.03553299492385787
1 0.3807142857142857 0.06091370558375635 0.011428571428571429 0.027918781725888325
0 0.9157142857142857 0.7284263959390863 0.009285714285714286 0.0266497461928934
0 0.9085714285714286 0.7131979695431472 0.01 0.02284263959390863
0 0.88 0.6357868020304569 0.007857142857142858 0.030456852791878174
0 0.76 0.583756345177665 0.008571428571428572 0.024111675126903553
0 0.7607142857142857 0.5736040609137056 0.012857142857142857 0.017766497461928935
0 0.6671428571428571 0.3464467005076142 0.005 0.0266497461928934
0 0.6885714285714286 0.3477157360406091 0.007857142857142858 0.012690355329949238
0 0.7028571428571428 0.3426395939086294 0.0064285714285714285 0.024111675126903553
0 0.7007142857142857 0.33883248730964466 0.004285714285714286 0.025380710659898477
0 0.6114285714285714 0.22461928934010153 0.014285714285714285 0.031725888324873094
0 0.605 0.2131979695431472 0.004285714285714286 0.024111675126903553
0 0.5857142857142857 0.2233502538071066 0.005714285714285714 0.025380710659898477
0 0.5778571428571428 0.22842639593908629 0.005 0.025380710659898477
0 0.5721428571428572 0.2233502538071066 0.007857142857142858 0.0266497461928934
0 0.5585714285714286 0.24111675126903553 0.0064285714285714285 0.02284263959390863
0 0.55 0.2296954314720812 0.004285714285714286 0.0266497461928934
0 0.5235714285714286 0.20939086294416243 0.0035714285714285713 0.02284263959390863
0 0.53 0.20812182741116753 0.005 0.024111675126903553
0 0.535 0.19796954314720813 0.007142857142857143 0.0266497461928934
0 0.5278571428571428 0.19543147208121828 0.004285714285714286 0.02030456852791878
0 0.5235714285714286 0.20050761421319796 0.0064285714285714285 0.025380710659898477
0 0.5057142857142857 0.09898477157360407 0.004285714285714286 0.02030456852791878
0 0.4542857142857143 0.007614213197969543 0.004285714285714286 0.015228426395939087
0 0.43357142857142855 0.005076142131979695 0.002857142857142857 0.011421319796954314
0 0.40285714285714286 0.013959390862944163 0.005 0.02030456852791878
0 0.3992857142857143 0.01015228426395939 0.004285714285714286 0.01903553299492386
