0 0.112 0.5026666666666667 0.038 0.051333333333333335
0 0.0855 0.5153333333333333 0.0145 0.02266666666666667
0 0.502 0.3973333333333333 0.0145 0.027333333333333334
0 0.514 0.3973333333333333 0.0115 0.021333333333333333
0 0.5915 0.4093333333333333 0.015 0.046
0 0.495 0.35733333333333334 0.015 0.03866666666666667
0 0.4935 0.37066666666666664 0.011 0.024
0 0.5815 0.37333333333333335 0.018 0.04733333333333333
0 0.5065 0.32466666666666666 0.0165 0.04733333333333333
0 0.5265 0.32266666666666666 0.012 0.05
0 0.5255 0.30666666666666664 0.018 0.04133333333333333
0 0.518 0.324 0.0095 0.027333333333333334
0 0.5105 0.304 0.012 0.021333333333333333
1 0.5115 0.31466666666666665 0.0235 0.021333333333333333
0 0.5665 0.3486666666666667 0.0165 0.046
0 0.5865 0.344 0.018 0.03333333333333333
0 0.604 0.3466666666666667 0.02 0.027333333333333334
0 0.5965 0.35733333333333334 0.0115 0.02
0 0.661 0.35133333333333333 0.014 0.048
0 0.675 0.35333333333333333 0.012 0.04066666666666666
0 0.6615 0.33666666666666667 0.012 0.04066666666666666
0 0.664 0.3453333333333333 0.0115 0.021333333333333333
0 0.6755 0.338 0.012 0.019333333333333334
0 0.6665 0.32666666666666666 0.008 0.014666666666666666
1 0.5275 0.156 0.0275 0.03866666666666667
1 0.5375 0.15333333333333332 0.028 0.036
1 0.647 0.17466666666666666 0.0275 0.032
1 0.723 0.15333333333333332 0.023 0.028666666666666667
