1 0.014285714285714285 0.5752380952380952 0.029285714285714286 0.0380952380952381
1 0.009285714285714286 0.5123809523809524 0.018571428571428572 0.029523809523809525
1 0.008571428571428572 0.49238095238095236 0.017142857142857144 0.029523809523809525
1 0.019285714285714285 0.4561904761904762 0.03857142857142857 0.05333333333333334
1 0.013571428571428571 0.43333333333333335 0.027142857142857142 0.029523809523809525
1 0.14214285714285715 0.2980952380952381 0.022857142857142857 0.02761904761904762
1 0.17 0.29333333333333333 0.02142857142857143 0.029523809523809525
1 0.13857142857142857 0.21428571428571427 0.015714285714285715 0.02
1 0.21428571428571427 0.1761904761904762 0.015 0.01904761904761905
1 0.29428571428571426 0.14 0.03785714285714286 0.045714285714285714
1 0.30642857142857144 0.13238095238095238 0.03428571428571429 0.045714285714285714
1 0.3264285714285714 0.12476190476190477 0.03571428571428571 0.04285714285714286
1 0.3485714285714286 0.11428571428571428 0.04642857142857143 0.0380952380952381
1 0.375 0.10666666666666667 0.03357142857142857 0.040952380952380955
1 0.32571428571428573 0.28095238095238095 0.03857142857142857 0.08857142857142856
1 0.3485714285714286 0.29428571428571426 0.029285714285714286 0.05238095238095238
1 0.37714285714285717 0.2914285714285714 0.03785714285714286 0.07428571428571429
1 0.4185714285714286 0.2914285714285714 0.03142857142857143 0.09523809523809523
1 0.4442857142857143 0.29619047619047617 0.03571428571428571 0.08761904761904762
1 0.47285714285714286 0.29428571428571426 0.03357142857142857 0.09523809523809523
1 0.5 0.31238095238095237 0.025 0.07333333333333333
1 0.5807142857142857 0.2857142857142857 0.017142857142857144 0.03428571428571429
1 0.4585714285714286 0.5219047619047619 0.029285714285714286 0.07714285714285714
1 0.5614285714285714 0.8247619047619048 0.041428571428571426 0.07333333333333333
1 0.5471428571428572 0.700952380952381 0.045 0.054285714285714284
1 0.5828571428571429 0.6561904761904762 0.04071428571428572 0.06
1 0.6128571428571429 0.6466666666666666 0.03642857142857143 0.047619047619047616
1 0.6314285714285715 0.6314285714285715 0.037142857142857144 0.045714285714285714
1 0.6757142857142857 0.5904761904761905 0.037142857142857144 0.04476190476190476
1 0.7071428571428572 0.579047619047619 0.035 0.0380952380952381
1 0.7092857142857143 0.5514285714285714 0.04071428571428572 0.049523809523809526
1 0.7457142857142857 0.4580952380952381 0.04214285714285714 0.035238095238095235
1 0.7007142857142857 0.41333333333333333 0.032857142857142856 0.029523809523809525
1 0.7378571428571429 0.4123809523809524 0.09714285714285714 0.08095238095238096
1 0.2664285714285714 0.0980952380952381 0.019285714285714285 0.02
0 0.35642857142857143 0.14761904761904762 0.005 0.011428571428571429
1 0.37285714285714283 0.17333333333333334 0.041428571428571426 0.04476190476190476
1 0.39714285714285713 0.16285714285714287 0.041428571428571426 0.0419047619047619
1 0.4 0.1380952380952381 0.03785714285714286 0.04285714285714286
1 0.41714285714285715 0.13333333333333333 0.03857142857142857 0.04476190476190476
1 0.42928571428571427 0.12476190476190477 0.039285714285714285 0.040952380952380955
1 0.44571428571428573 0.12 0.039285714285714285 0.04285714285714286
1 0.4607142857142857 0.11333333333333333 0.041428571428571426 0.045714285714285714
1 0.38142857142857145 0.14857142857142858 0.018571428571428572 0.017142857142857144
1 0.4471428571428571 0.1580952380952381 0.04214285714285714 0.04285714285714286
1 0.4614285714285714 0.14952380952380953 0.041428571428571426 0.04285714285714286
1 0.46285714285714286 0.06857142857142857 0.03142857142857143 0.035238095238095235
1 0.525 0.07809523809523809 0.011428571428571429 0.025714285714285714
1 0.5521428571428572 0.14095238095238094 0.030714285714285715 0.047619047619047616
1 0.5435714285714286 0.11142857142857143 0.024285714285714285 0.017142857142857144
1 0.6592857142857143 0.16857142857142857 0.04285714285714286 0.03142857142857143
1 0.6692857142857143 0.17904761904761904 0.04214285714285714 0.03428571428571429
1 0.6814285714285714 0.18857142857142858 0.04 0.03619047619047619
1 0.6928571428571428 0.19904761904761906 0.041428571428571426 0.03428571428571429
1 0.7064285714285714 0.2123809523809524 0.041428571428571426 0.03619047619047619
1 0.7185714285714285 0.2257142857142857 0.04285714285714286 0.03619047619047619
1 0.7335714285714285 0.23809523809523808 0.04071428571428572 0.03428571428571429
1 0.7471428571428571 0.25142857142857145 0.041428571428571426 0.037142857142857144
1 0.7607142857142857 0.26571428571428574 0.045714285714285714 0.04
