1 0.18214285714285713 0.19333333333333333 0.08071428571428571 0.054285714285714284
1 0.145 0.1676190476190476 0.07785714285714286 0.06571428571428571
1 0.13857142857142857 0.13142857142857142 0.07428571428571429 0.05523809523809524
1 0.10571428571428572 0.09904761904761905 0.06928571428571428 0.049523809523809526
1 0.12357142857142857 0.05619047619047619 0.07214285714285715 0.049523809523809526
1 0.025 0.03333333333333333 0.027857142857142858 0.04
1 0.07071428571428572 0.32857142857142857 0.06357142857142857 0.08190476190476191
0 0.205 0.34285714285714286 0.016428571428571428 0.03619047619047619
0 0.19642857142857142 0.32857142857142857 0.014285714285714285 0.03333333333333333
0 0.24714285714285714 0.34095238095238095 0.007857142857142858 0.014285714285714285
1 0.25142857142857145 0.35333333333333333 0.02 0.0380952380952381
1 0.22642857142857142 0.4695238095238095 0.085 0.05714285714285714
1 0.15857142857142856 0.6390476190476191 0.024285714285714285 0.05619047619047619
0 0.15571428571428572 0.6257142857142857 0.013571428571428571 0.018095238095238095
0 0.41785714285714287 0.5695238095238095 0.012857142857142857 0.030476190476190476
1 0.5607142857142857 0.45714285714285713 0.10142857142857142 0.08666666666666667
1 0.49785714285714283 0.17714285714285713 0.06928571428571428 0.05523809523809524
1 0.47785714285714287 0.14952380952380953 0.065 0.05333333333333334
1 0.385 0.03428571428571429 0.06 0.04
1 0.5392857142857143 0.25142857142857145 0.07428571428571429 0.06571428571428571
1 0.3942857142857143 0.06380952380952382 0.06714285714285714 0.04666666666666667
1 0.45285714285714285 0.10761904761904761 0.06642857142857143 0.04857142857142857
0 0.44285714285714284 0.05714285714285714 0.008571428571428572 0.023809523809523808
1 0.6542857142857142 0.12666666666666668 0.065 0.05142857142857143
1 0.645 0.4866666666666667 0.09214285714285714 0.09238095238095238
1 0.9664285714285714 0.08190476190476191 0.052142857142857144 0.04
0 0.915 0.07047619047619047 0.0064285714285714285 0.02095238095238095
1 0.8192857142857143 0.11333333333333333 0.037142857142857144 0.049523809523809526
0 0.6885714285714286 0.20095238095238097 0.011428571428571429 0.022857142857142857
0 0.6742857142857143 0.19142857142857142 0.007857142857142858 0.01619047619047619
1 0.79 0.32 0.08642857142857142 0.07428571428571429
1 0.7414285714285714 0.16857142857142857 0.015 0.030476190476190476
1 0.7521428571428571 0.16380952380952382 0.018571428571428572 0.023809523809523808
1 0.8964285714285715 0.10476190476190476 0.04642857142857143 0.03238095238095238
1 0.9407142857142857 0.02857142857142857 0.03428571428571429 0.02761904761904762
