1 0.797 0.9413333333333334 0.1705 0.11666666666666667
1 0.7105 0.8473333333333334 0.147 0.114
1 0.6785 0.71 0.14 0.10333333333333333
1 0.691 0.532 0.083 0.10133333333333333
1 0.592 0.4266666666666667 0.106 0.06733333333333333
1 0.6055 0.374 0.0955 0.058
1 0.6025 0.33066666666666666 0.0915 0.06
1 0.602 0.278 0.1105 0.08
1 0.5685 0.27266666666666667 0.093 0.058
1 0.576 0.21733333333333332 0.0645 0.056666666666666664
1 0.576 0.172 0.108 0.08133333333333333
1 0.522 0.13866666666666666 0.063 0.052
1 0.541 0.09933333333333333 0.095 0.07
1 0.5225 0.08066666666666666 0.083 0.054
1 0.51 0.066 0.0575 0.036
0 0.47 0.066 0.01 0.034666666666666665
1 0.502 0.048 0.0625 0.04666666666666667
1 0.4955 0.030666666666666665 0.055 0.04066666666666666
1 0.477 0.018 0.05 0.03666666666666667
1 0.3655 0.49933333333333335 0.05 0.042666666666666665
1 0.3375 0.4166666666666667 0.097 0.08133333333333333
0 0.4575 0.364 0.0115 0.04466666666666667
0 0.3955 0.33 0.014 0.04
1 0.3315 0.3586666666666667 0.1055 0.08866666666666667
1 0.3335 0.29133333333333333 0.082 0.06866666666666667
1 0.338 0.248 0.0805 0.056
1 0.2785 0.28733333333333333 0.029 0.028
1 0.3385 0.16266666666666665 0.0655 0.05466666666666667
1 0.336 0.12933333333333333 0.0605 0.06133333333333333
0 0.3115 0.104 0.0115 0.03266666666666666
1 0.328 0.10066666666666667 0.031 0.04533333333333334
1 0.3205 0.016666666666666666 0.0085 0.026
1 0.246 0.49666666666666665 0.0205 0.042666666666666665
1 0.023 0.472 0.0465 0.07533333333333334
1 0.0325 0.4086666666666667 0.065 0.05466666666666667
1 0.0385 0.3566666666666667 0.077 0.05466666666666667
1 0.0415 0.318 0.0835 0.05
1 0.057 0.2853333333333333 0.094 0.046
1 0.1295 0.15533333333333332 0.035 0.056
1 0.202 0.246 0.04 0.08066666666666666
1 0.914 0.9566666666666667 0.056 0.086
