0 0.547 0.8486666666666667 0.0435 0.07066666666666667
0 0.5475 0.8093333333333333 0.035 0.06
0 0.6175 0.6466666666666666 0.024 0.076
1 0.5435 0.9106666666666666 0.0435 0.10466666666666667
1 0.618 0.674 0.03 0.05733333333333333
1 0.447 0.6526666666666666 0.0735 0.15066666666666667
1 0.331 0.6826666666666666 0.084 0.15466666666666667
1 0.2015 0.5793333333333334 0.0475 0.05533333333333333
1 0.289 0.41533333333333333 0.0365 0.037333333333333336
1 0.315 0.362 0.035 0.038
1 0.467 0.4186666666666667 0.046 0.07066666666666667
1 0.4545 0.362 0.046 0.05266666666666667
1 0.46 0.30866666666666664 0.0415 0.048666666666666664
1 0.453 0.23533333333333334 0.0235 0.03266666666666666
1 0.4525 0.20133333333333334 0.0215 0.04533333333333334
0 0.5015 0.32666666666666666 0.013 0.037333333333333336
0 0.448 0.27066666666666667 0.0135 0.03333333333333333
1 0.445 0.28 0.0115 0.018
1 0.501 0.33866666666666667 0.012 0.032
1 0.4545 0.162 0.017 0.02
0 0.434 0.152 0.0065 0.019333333333333334
0 0.4385 0.13 0.004 0.014666666666666666
0 0.442 0.13066666666666665 0.004 0.015333333333333332
0 0.4445 0.128 0.0035 0.014666666666666666
1 0.454 0.12866666666666668 0.012 0.014
1 0.4585 0.13866666666666666 0.013 0.014
1 0.4455 0.142 0.0325 0.012
1 0.448 0.15133333333333332 0.0275 0.018
1 0.5135 0.13066666666666665 0.013 0.014666666666666666
1 0.481 0.08866666666666667 0.0085 0.009333333333333334
1 0.4735 0.076 0.006 0.008
1 0.4785 0.07533333333333334 0.005 0.006666666666666667
1 0.459 0.06866666666666667 0.005 0.008666666666666666
0 0.4645 0.06866666666666667 0.0035 0.008
1 0.4645 0.07066666666666667 0.0035 0.0033333333333333335
1 0.504 0.06533333333333333 0.0055 0.006
1 0.523 0.08333333333333333 0.007 0.011333333333333334
1 0.531 0.088 0.0085 0.017333333333333333
1 0.559 0.104 0.0135 0.016666666666666666
1 0.4375 0.096 0.011 0.03
1 0.45 0.066 0.0045 0.007333333333333333
1 0.4685 0.06266666666666666 0.0075 0.010666666666666666
1 0.477 0.068 0.004 0.004
1 0.4735 0.06266666666666666 0.004 0.008666666666666666
1 0.4555 0.06 0.0055 0.008
1 0.9255 0.30133333333333334 0.0635 0.04
1 0.876 0.272 0.051 0.03333333333333333
1 0.815 0.2673333333333333 0.0445 0.03666666666666667
1 0.7915 0.24 0.0395 0.028
1 0.838 0.24733333333333332 0.0425 0.026
1 0.8575 0.23666666666666666 0.022 0.025333333333333333
1 0.8035 0.22666666666666666 0.043 0.028666666666666667
1 0.753 0.204 0.0305 0.024666666666666667
1 0.768 0.21466666666666667 0.022 0.025333333333333333
1 0.7185 0.18333333333333332 0.0285 0.024
1 0.5695 0.09733333333333333 0.0085 0.012
0 0.5795 0.1 0.003 0.012
1 0.5825 0.12733333333333333 0.0085 0.018666666666666668
1 0.6045 0.116 0.021 0.013333333333333334
1 0.6335 0.13533333333333333 0.028 0.021333333333333333
1 0.655 0.14266666666666666 0.02 0.014666666666666666
1 0.675 0.148 0.038 0.022
