0 0.39 0.5085714285714286 0.015 0.03619047619047619
0 0.4057142857142857 0.5028571428571429 0.014285714285714285 0.04
0 0.4092857142857143 0.5219047619047619 0.017142857142857144 0.040952380952380955
0 0.43142857142857144 0.5066666666666667 0.013571428571428571 0.03619047619047619
0 0.44571428571428573 0.4990476190476191 0.012857142857142857 0.03333333333333333
0 0.7435714285714285 0.6371428571428571 0.02857142857142857 0.06190476190476191
