0 0.6807142857142857 0.6971428571428572 0.019285714285714285 0.02857142857142857
0 0.58 0.4276190476190476 0.013571428571428571 0.04
0 0.585 0.5152380952380953 0.014285714285714285 0.0380952380952381
0 0.6035714285714285 0.58 0.02 0.022857142857142857
0 0.6192857142857143 0.5647619047619048 0.014285714285714285 0.03333333333333333
1 0.5092857142857142 0.6828571428571428 0.05071428571428571 0.13428571428571429
1 0.45785714285714285 0.46190476190476193 0.03785714285714286 0.0761904761904762
1 0.40214285714285714 0.4180952380952381 0.047857142857142855 0.09619047619047619
1 0.5185714285714286 0.5771428571428572 0.041428571428571426 0.04380952380952381
1 0.5657142857142857 0.6133333333333333 0.04071428571428572 0.029523809523809525
1 0.5 0.4 0.03214285714285714 0.02857142857142857
1 0.505 0.38571428571428573 0.029285714285714286 0.024761904761904763
1 0.5121428571428571 0.36095238095238097 0.045 0.030476190476190476
1 0.515 0.3438095238095238 0.03142857142857143 0.025714285714285714
1 0.5085714285714286 0.30857142857142855 0.03214285714285714 0.030476190476190476
1 0.43214285714285716 0.13142857142857142 0.027142857142857142 0.04476190476190476
1 0.2914285714285714 0.1619047619047619 0.03214285714285714 0.05047619047619047
1 0.5121428571428571 0.29333333333333333 0.02857142857142857 0.02
1 0.5135714285714286 0.2723809523809524 0.027857142857142858 0.02
1 0.51 0.26571428571428574 0.027857142857142858 0.02
1 0.5121428571428571 0.28285714285714286 0.027857142857142858 0.024761904761904763
0 0.5557142857142857 0.12380952380952381 0.008571428571428572 0.023809523809523808
0 0.5564285714285714 0.058095238095238096 0.007857142857142858 0.02857142857142857
1 0.5378571428571428 0.1 0.02214285714285714 0.02095238095238095
1 0.5485714285714286 0.11428571428571428 0.025 0.01619047619047619
1 0.5642857142857143 0.02761904761904762 0.007857142857142858 0.021904761904761906
1 0.10142857142857142 0.7961904761904762 0.09071428571428572 0.1619047619047619
1 0.2714285714285714 0.6876190476190476 0.06642857142857143 0.14761904761904762
1 0.15785714285714286 0.6104761904761905 0.06714285714285714 0.12666666666666668
0 0.3414285714285714 0.17142857142857143 0.01 0.03238095238095238
1 0.34285714285714286 0.1761904761904762 0.02142857142857143 0.02095238095238095
1 0.27714285714285714 0.259047619047619 0.025 0.023809523809523808
1 0.26357142857142857 0.26761904761904765 0.029285714285714286 0.021904761904761906
1 0.2592857142857143 0.2714285714285714 0.025714285714285714 0.01904761904761905
1 0.22785714285714287 0.2580952380952381 0.029285714285714286 0.025714285714285714
1 0.32285714285714284 0.03428571428571429 0.04071428571428572 0.06857142857142857
