1 0.5064377682403434 0.8377862595419847 0.17668097281831188 0.2547709923664122
1 0.6759656652360515 0.7967557251908397 0.14091559370529327 0.1383587786259542
1 0.6380543633762518 0.9751908396946565 0.15236051502145923 0.04580152671755725
0 0.7331902718168812 0.8683206106870229 0.032904148783977114 0.02099236641221374
0 0.7217453505007153 0.8463740458015268 0.03934191702432046 0.030534351145038167
0 0.6988555078683834 0.49904580152671757 0.02503576537911302 0.03721374045801527
0 0.4871244635193133 0.42461832061068705 0.020028612303290415 0.039122137404580155
0 0.4206008583690987 0.5954198473282443 0.023605150214592276 0.04103053435114504
0 0.4341917024320458 0.566793893129771 0.0178826895565093 0.039122137404580155
0 0.5493562231759657 0.32633587786259544 0.015021459227467811 0.042938931297709926
1 0.9763948497854077 0.12213740458015267 0.045064377682403435 0.0916030534351145
0 0.8369098712446352 0.27576335877862596 0.01430615164520744 0.02862595419847328
0 0.5937052932761088 0.3330152671755725 0.015736766809728183 0.030534351145038167
0 0.6101573676680973 0.2729007633587786 0.012160228898426323 0.042938931297709926
0 0.5600858369098712 0.1450381679389313 0.015736766809728183 0.03816793893129771
0 0.5779685264663805 0.16793893129770993 0.012875536480686695 0.035305343511450385
0 0.5758226037195995 0.14790076335877864 0.015736766809728183 0.03721374045801527
0 0.5958512160228898 0.16412213740458015 0.017167381974248927 0.04007633587786259
0 0.522889842632332 0.125 0.01072961373390558 0.04198473282442748
0 0.5429184549356223 0.15362595419847327 0.011444921316165951 0.042938931297709926
1 0.5779685264663805 0.35877862595419846 0.027896995708154508 0.06774809160305344
1 0.44420600858369097 0.4131679389312977 0.046494992846924176 0.05629770992366412
1 0.07939914163090128 0.9570610687022901 0.09155937052932761 0.08015267175572519
1 0.23247496423462088 0.9637404580152672 0.18025751072961374 0.06965648854961833
1 0.24177396280400573 0.8635496183206107 0.16022889842632332 0.11545801526717557
1 0.271101573676681 0.75 0.1459227467811159 0.09541984732824428
1 0.2918454935622318 0.6564885496183206 0.1301859799713877 0.09541984732824428
1 0.23247496423462088 0.491412213740458 0.07224606580829757 0.15935114503816794
1 0.3311874105865522 0.5687022900763359 0.12160228898426323 0.08587786259541985
1 0.3547925608011445 0.4847328244274809 0.1223175965665236 0.0868320610687023
1 0.3605150214592275 0.41412213740458015 0.11874105865522175 0.07347328244274809
1 0.1709585121602289 0.25190839694656486 0.1044349070100143 0.07538167938931298
1 0.07224606580829757 0.23568702290076335 0.09656652360515021 0.07347328244274809
1 0.08798283261802575 0.35591603053435117 0.09298998569384835 0.07729007633587787
1 0.4334763948497854 0.7471374045801527 0.027896995708154508 0.0715648854961832
0 0.4291845493562232 0.7452290076335878 0.019313304721030045 0.03244274809160305
0 0.43490701001430615 0.7270992366412213 0.022889842632331903 0.02480916030534351
1 0.4413447782546495 0.16221374045801526 0.032188841201716736 0.033396946564885496
1 0.48497854077253216 0.07442748091603053 0.01072961373390558 0.030534351145038167
1 0.10085836909871244 0.1946564885496183 0.06366237482117311 0.026717557251908396
0 0.09585121602288985 0.1803435114503817 0.016452074391988557 0.02480916030534351
0 0.45493562231759654 0.06393129770992366 0.0178826895565093 0.042938931297709926
1 0.6466380543633763 0.08396946564885496 0.03862660944206009 0.07729007633587787
0 0.51931330472103 0.02385496183206107 0.008583690987124463 0.03625954198473282
0 0.5350500715307582 0.013358778625954198 0.013590844062947067 0.026717557251908396
0 0.48354792560801146 0.015267175572519083 0.010014306151645207 0.03148854961832061
