1 0.027857142857142858 0.01619047619047619 0.055714285714285716 0.03333333333333333
1 0.015 0.8333333333333334 0.03 0.07428571428571429
1 0.04071428571428572 0.7628571428571429 0.08142857142857143 0.07047619047619047
1 0.41785714285714287 0.8714285714285714 0.07857142857142857 0.08285714285714285
1 0.6728571428571428 0.9028571428571428 0.08571428571428572 0.08952380952380952
1 0.5785714285714286 0.2857142857142857 0.04357142857142857 0.04666666666666667
1 0.6271428571428571 0.2695238095238095 0.06357142857142857 0.06095238095238095
1 0.4928571428571429 0.16 0.056428571428571425 0.05619047619047619
1 0.4664285714285714 0.19714285714285715 0.055 0.06095238095238095
1 0.41928571428571426 0.23904761904761904 0.11928571428571429 0.10666666666666667
1 0.16142857142857142 0.12571428571428572 0.020714285714285713 0.023809523809523808
1 0.42928571428571427 0.679047619047619 0.02857142857142857 0.03238095238095238
1 0.7328571428571429 0.05619047619047619 0.020714285714285713 0.021904761904761906
0 0.16214285714285714 0.1219047619047619 0.011428571428571429 0.021904761904761906
0 0.4307142857142857 0.680952380952381 0.011428571428571429 0.01904761904761905
1 0.9407142857142857 0.4076190476190476 0.11785714285714285 0.10761904761904761
1 0.36642857142857144 0.06857142857142857 0.10285714285714286 0.1380952380952381
