1 0.29928571428571427 0.6561904761904762 0.06857142857142857 0.04857142857142857
1 0.12357142857142857 0.6104761904761905 0.06785714285714285 0.05238095238095238
1 0.9171428571428571 0.6838095238095238 0.07142857142857142 0.0838095238095238
1 0.765 0.4847619047619048 0.02142857142857143 0.0380952380952381
1 0.7692857142857142 0.39714285714285713 0.019285714285714285 0.03428571428571429
1 0.047142857142857146 0.5885714285714285 0.06785714285714285 0.04476190476190476
1 0.21071428571428572 0.6304761904761905 0.06642857142857143 0.047619047619047616
0 0.27785714285714286 0.9 0.01 0.03428571428571429
0 0.2571428571428571 0.9047619047619048 0.01 0.04
0 0.08642857142857142 0.8590476190476191 0.011428571428571429 0.04
0 0.2814285714285714 0.8904761904761904 0.008571428571428572 0.021904761904761906
0 0.26142857142857145 0.8923809523809524 0.01 0.018095238095238095
0 0.245 0.7628571428571429 0.009285714285714286 0.01904761904761905
1 0.24642857142857144 0.7828571428571428 0.020714285714285713 0.029523809523809525
1 0.5964285714285714 0.4980952380952381 0.01 0.01619047619047619
0 0.4492857142857143 0.4838095238095238 0.0064285714285714285 0.021904761904761906
0 0.5964285714285714 0.4895238095238095 0.004285714285714286 0.009523809523809525
0 0.7764285714285715 0.6780952380952381 0.012142857142857143 0.022857142857142857
1 0.7757142857142857 0.6923809523809524 0.025 0.022857142857142857
1 0.6414285714285715 0.49238095238095236 0.010714285714285714 0.02
1 0.6971428571428572 0.3076190476190476 0.0064285714285714285 0.012380952380952381
1 0.7107142857142857 0.2361904761904762 0.005714285714285714 0.011428571428571429
1 0.7242857142857143 0.1980952380952381 0.0035714285714285713 0.009523809523809525
1 0.7407142857142858 0.16666666666666666 0.004285714285714286 0.010476190476190476
0 0.6692857142857143 0.20857142857142857 0.0035714285714285713 0.009523809523809525
1 0.7435714285714285 0.1457142857142857 0.005 0.006666666666666667
1 0.7507142857142857 0.1380952380952381 0.005714285714285714 0.007619047619047619
1 0.805 0.19238095238095237 0.007142857142857143 0.009523809523809525
1 0.7907142857142857 0.18 0.007142857142857143 0.010476190476190476
1 0.8042857142857143 0.23809523809523808 0.011428571428571429 0.01619047619047619
1 0.8114285714285714 0.20476190476190476 0.008571428571428572 0.010476190476190476
1 0.8071428571428572 0.15142857142857144 0.007142857142857143 0.007619047619047619
1 0.7885714285714286 0.15047619047619049 0.007142857142857143 0.007619047619047619
1 0.7971428571428572 0.14952380952380953 0.004285714285714286 0.006666666666666667
1 0.7985714285714286 0.14095238095238094 0.005714285714285714 0.004761904761904762
1 0.8028571428571428 0.13238095238095238 0.005 0.004761904761904762
1 0.8042857142857143 0.12476190476190477 0.005714285714285714 0.007619047619047619
1 0.8028571428571428 0.10285714285714286 0.005 0.004761904761904762
1 0.8007142857142857 0.11333333333333333 0.005 0.006666666666666667
1 0.7942857142857143 0.11047619047619048 0.0035714285714285713 0.0038095238095238095
1 0.7935714285714286 0.10476190476190476 0.0035714285714285713 0.0038095238095238095
1 0.7928571428571428 0.0980952380952381 0.005 0.0038095238095238095
1 0.7957142857142857 0.08857142857142856 0.004285714285714286 0.005714285714285714
1 0.78 0.1657142857142857 0.01 0.015238095238095238
0 0.7407142857142858 0.16476190476190475 0.002857142857142857 0.004761904761904762
0 0.725 0.1961904761904762 0.004285714285714286 0.006666666666666667
0 0.7107142857142857 0.23238095238095238 0.0035714285714285713 0.004761904761904762
0 0.6985714285714286 0.3038095238095238 0.004285714285714286 0.006666666666666667
0 0.6421428571428571 0.4828571428571429 0.0064285714285714285 0.009523809523809525
0 0.67 0.5171428571428571 0.008571428571428572 0.024761904761904763
0 0.6771428571428572 0.5123809523809524 0.005714285714285714 0.02666666666666667
0 0.9514285714285714 0.5542857142857143 0.008571428571428572 0.02666666666666667
0 0.9542857142857143 0.5676190476190476 0.007857142857142858 0.02857142857142857
1 0.8978571428571429 0.2438095238095238 0.018571428571428572 0.030476190476190476
1 0.8314285714285714 0.21428571428571427 0.009285714285714286 0.010476190476190476
1 0.8814285714285715 0.2257142857142857 0.0064285714285714285 0.008571428571428572
1 0.8564285714285714 0.1742857142857143 0.007142857142857143 0.006666666666666667
1 0.845 0.1523809523809524 0.007142857142857143 0.007619047619047619
1 0.8378571428571429 0.13904761904761906 0.004285714285714286 0.006666666666666667
1 0.8314285714285714 0.12571428571428572 0.004285714285714286 0.007619047619047619
0 0.8478571428571429 0.1742857142857143 0.002142857142857143 0.007619047619047619
