1 0.4114285714285714 0.5469543147208121 0.06785714285714285 0.282994923857868
1 0.20714285714285716 0.4149746192893401 0.05142857142857143 0.10279187817258884
1 0.2857142857142857 0.2614213197969543 0.022857142857142857 0.04314720812182741
1 0.013571428571428571 0.5977157360406091 0.027857142857142858 0.05964467005076142
1 0.03428571428571429 0.5418781725888325 0.04357142857142857 0.05710659898477157
1 0.5321428571428571 0.116751269035533 0.020714285714285713 0.04060913705583756
1 0.08 0.25888324873096447 0.03642857142857143 0.02918781725888325
1 0.14785714285714285 0.25761421319796957 0.04428571428571428 0.02918781725888325
1 0.1992857142857143 0.2398477157360406 0.04 0.03299492385786802
1 0.3 0.10406091370558376 0.02 0.024111675126903553
1 0.08357142857142857 0.3629441624365482 0.024285714285714285 0.05203045685279188
1 0.5092857142857142 0.04949238578680203 0.015714285714285715 0.04060913705583756
0 0.09142857142857143 0.33121827411167515 0.01 0.02918781725888325
0 0.08714285714285715 0.2398477157360406 0.007142857142857143 0.025380710659898477
0 0.14857142857142858 0.2296954314720812 0.005 0.02030456852791878
0 0.16285714285714287 0.22588832487309646 0.005714285714285714 0.02284263959390863
0 0.16071428571428573 0.21573604060913706 0.0064285714285714285 0.02030456852791878
0 0.39714285714285713 0.21954314720812182 0.004285714285714286 0.021573604060913704
0 0.3985714285714286 0.21954314720812182 0.005 0.01649746192893401
1 0.45071428571428573 0.23730964467005075 0.03428571428571429 0.10025380710659898
1 0.7321428571428571 0.6548223350253807 0.05071428571428571 0.13705583756345177
1 0.5892857142857143 0.25761421319796957 0.024285714285714285 0.05583756345177665
1 0.6314285714285715 0.2753807106598985 0.025 0.05710659898477157
1 0.6264285714285714 0.01015228426395939 0.015 0.02030456852791878
0 0.9592857142857143 0.5342639593908629 0.007857142857142858 0.027918781725888325
0 0.9542857142857143 0.5241116751269036 0.008571428571428572 0.030456852791878174
0 0.9871428571428571 0.5393401015228426 0.011428571428571429 0.02918781725888325
0 0.9585714285714285 0.47715736040609136 0.010714285714285714 0.02918781725888325
0 0.9557142857142857 0.46954314720812185 0.012142857142857143 0.0266497461928934
0 0.91 0.4860406091370558 0.009285714285714286 0.025380710659898477
0 0.8385714285714285 0.5152284263959391 0.012142857142857143 0.015228426395939087
0 0.8085714285714286 0.5418781725888325 0.007142857142857143 0.015228426395939087
0 0.8014285714285714 0.5418781725888325 0.011428571428571429 0.01903553299492386
0 0.825 0.43274111675126903 0.007142857142857143 0.0266497461928934
0 0.8185714285714286 0.43147208121827413 0.005714285714285714 0.015228426395939087
0 0.8442857142857143 0.4010152284263959 0.007142857142857143 0.02030456852791878
0 0.875 0.399746192893401 0.012142857142857143 0.02284263959390863
0 0.79 0.3730964467005076 0.0064285714285714285 0.015228426395939087
0 0.8314285714285714 0.2715736040609137 0.0064285714285714285 0.017766497461928935
0 0.7678571428571429 0.30456852791878175 0.018571428571428572 0.013959390862944163
0 0.7371428571428571 0.26015228426395937 0.004285714285714286 0.015228426395939087
0 0.7435714285714285 0.25761421319796957 0.005714285714285714 0.025380710659898477
0 0.7328571428571429 0.2398477157360406 0.0064285714285714285 0.02030456852791878
0 0.8092857142857143 0.2563451776649746 0.007142857142857143 0.01903553299492386
0 0.8821428571428571 0.2956852791878173 0.007142857142857143 0.024111675126903553
0 0.87 0.2868020304568528 0.005714285714285714 0.021573604060913704
0 0.8692857142857143 0.2715736040609137 0.0064285714285714285 0.01903553299492386
0 0.7985714285714286 0.18401015228426396 0.0064285714285714285 0.02030456852791878
0 0.8142857142857143 0.22715736040609136 0.007857142857142858 0.01903553299492386
0 0.8307142857142857 0.2068527918781726 0.007142857142857143 0.01015228426395939
0 0.8271428571428572 0.19923857868020303 0.005714285714285714 0.011421319796954314
0 0.7342857142857143 0.1865482233502538 0.0064285714285714285 0.01649746192893401
0 0.7378571428571429 0.15736040609137056 0.0064285714285714285 0.025380710659898477
0 0.775 0.1484771573604061 0.008571428571428572 0.01649746192893401
0 0.7828571428571428 0.14213197969543148 0.005714285714285714 0.012690355329949238
0 0.7928571428571428 0.11548223350253807 0.005714285714285714 0.011421319796954314
0 0.79 0.11040609137055837 0.004285714285714286 0.01015228426395939
0 0.7571428571428571 0.24619289340101522 0.007142857142857143 0.012690355329949238
0 0.8057142857142857 0.1446700507614213 0.0064285714285714285 0.013959390862944163
0 0.7842857142857143 0.06472081218274112 0.005 0.017766497461928935
0 0.7742857142857142 0.0583756345177665 0.004285714285714286 0.01903553299492386
0 0.7664285714285715 0.05964467005076142 0.004285714285714286 0.017766497461928935
0 0.7478571428571429 0.046954314720812185 0.005 0.01649746192893401
0 0.7492857142857143 0.11040609137055837 0.012142857142857143 0.01015228426395939
0 0.7407142857142858 0.12690355329949238 0.007142857142857143 0.011421319796954314
0 0.7414285714285714 0.1218274111675127 0.0064285714285714285 0.01649746192893401
0 0.735 0.07106598984771574 0.005 0.01015228426395939
0 0.7407142857142858 0.07487309644670051 0.0035714285714285713 0.007614213197969543
0 0.74 0.06852791878172589 0.004285714285714286 0.011421319796954314
0 0.7057142857142857 0.06979695431472081 0.005 0.015228426395939087
0 0.7221428571428572 0.021573604060913704 0.0035714285714285713 0.015228426395939087
0 0.7371428571428571 0.024111675126903553 0.004285714285714286 0.012690355329949238
0 0.7535714285714286 0.1713197969543147 0.009285714285714286 0.015228426395939087
0 0.8142857142857143 0.22461928934010153 0.007142857142857143 0.021573604060913704
0 0.7464285714285714 0.06598984771573604 0.0035714285714285713 0.021573604060913704
