1 0.059498956158663886 0.27087198515769945 0.029227557411273485 0.03339517625231911
1 0.10908141962421712 0.32838589981447125 0.02870563674321503 0.04267161410018553
1 0.1299582463465553 0.3525046382189239 0.025052192066805846 0.04267161410018553
1 0.1638830897703549 0.3784786641929499 0.050626304801670144 0.06957328385899815
1 0.25417536534446766 0.5102040816326531 0.012004175365344467 0.01948051948051948
1 0.2520876826722338 0.5890538033395176 0.012004175365344467 0.025974025974025976
1 0.28340292275574114 0.43692022263450836 0.04175365344467641 0.04730983302411874
1 0.34812108559498955 0.4025974025974026 0.03549060542797495 0.05287569573283859
1 0.3220250521920668 0.487012987012987 0.04018789144050104 0.05287569573283859
1 0.3559498956158664 0.3385899814471243 0.032359081419624215 0.03432282003710575
1 0.3345511482254697 0.39332096474953615 0.019832985386221295 0.032467532467532464
1 0.3736951983298539 0.4072356215213358 0.02139874739039666 0.039888682745825604
1 0.38517745302713985 0.4387755102040816 0.037578288100208766 0.0575139146567718
1 0.40292275574112735 0.4536178107606679 0.037578288100208766 0.05287569573283859
1 0.42171189979123175 0.4712430426716141 0.03914405010438413 0.05844155844155844
1 0.44154488517745305 0.4907235621521336 0.03966597077244259 0.06029684601113173
1 0.46085594989561585 0.5055658627087198 0.03653444676409186 0.06029684601113173
1 0.4859081419624217 0.5185528756957328 0.03444676409185804 0.0640074211502783
1 0.3815240083507307 0.5538033395176253 0.04123173277661795 0.055658627087198514
1 0.4629436325678497 0.6354359925788498 0.049582463465553235 0.06493506493506493
1 0.33716075156576203 0.6029684601113172 0.04018789144050104 0.06307977736549165
1 0.4102296450939457 0.673469387755102 0.1127348643006263 0.16697588126159554
1 0.38517745302713985 0.7977736549165121 0.055323590814196244 0.09090909090909091
1 0.5104384133611691 0.5593692022263451 0.04123173277661795 0.06771799628942486
1 0.5328810020876826 0.5807050092764379 0.0407098121085595 0.06957328385899815
1 0.5636743215031316 0.6020408163265306 0.03914405010438413 0.07421150278293136
1 0.5454070981210856 0.725417439703154 0.055323590814196244 0.07699443413729128
1 0.6205636743215032 0.6521335807050093 0.04279749478079332 0.07884972170686456
1 0.6696242171189979 0.7096474953617811 0.037578288100208766 0.08163265306122448
1 0.7035490605427975 0.7328385899814471 0.038622129436325675 0.08441558441558442
1 0.7369519832985386 0.764378478664193 0.03914405010438413 0.08905380333951762
1 0.7713987473903967 0.7931354359925789 0.04279749478079332 0.09183673469387756
1 0.8068893528183716 0.8200371057513914 0.037578288100208766 0.07699443413729128
1 0.8413361169102297 0.8636363636363636 0.04645093945720251 0.09740259740259741
1 0.8783924843423799 0.9016697588126159 0.04123173277661795 0.1150278293135436
1 0.9175365344467641 0.9359925788497218 0.044363256784968684 0.10760667903525047
1 0.954070981210856 0.9573283858998145 0.037056367432150315 0.07884972170686456
1 0.7760960334029228 0.9601113172541744 0.07411273486430063 0.07699443413729128
1 0.644572025052192 0.8320964749536178 0.06315240083507306 0.08998144712430427
1 0.6153444676409185 0.9128014842300557 0.06471816283924843 0.09090909090909091
1 0.5088726513569938 0.7940630797773655 0.05688935281837161 0.07792207792207792
1 0.5088726513569938 0.885899814471243 0.06002087682672234 0.08998144712430427
1 0.5109603340292276 0.2717996289424861 0.042275574112734866 0.05287569573283859
1 0.44780793319415446 0.26159554730983303 0.025052192066805846 0.030612244897959183
1 0.4848643006263048 0.10482374768089053 0.025052192066805846 0.032467532467532464
1 0.5088726513569938 0.12430426716141002 0.024530271398747392 0.025974025974025976
0 0.25417536534446766 0.4962894248608534 0.007306889352818371 0.017625231910946195
0 0.2520876826722338 0.5723562152133581 0.007828810020876827 0.017625231910946195
