1 0.4471428571428571 0.9847715736040609 0.012857142857142857 0.027918781725888325
1 0.46214285714285713 0.934010152284264 0.014285714285714285 0.05583756345177665
1 0.4421428571428571 0.8883248730964467 0.017857142857142856 0.10913705583756345
1 0.4607142857142857 0.8375634517766497 0.011428571428571429 0.04949238578680203
1 0.4421428571428571 0.7906091370558376 0.012142857142857143 0.04187817258883249
1 0.4592857142857143 0.7690355329949239 0.012142857142857143 0.04949238578680203
1 0.52 0.7385786802030457 0.013571428571428571 0.048223350253807105
1 0.4421428571428571 0.7106598984771574 0.015714285714285715 0.05583756345177665
1 0.4564285714285714 0.6941624365482234 0.014285714285714285 0.050761421319796954
1 0.4442857142857143 0.6560913705583756 0.005714285714285714 0.02284263959390863
1 0.45714285714285713 0.6104060913705583 0.011428571428571429 0.046954314720812185
1 0.4407142857142857 0.618020304568528 0.012142857142857143 0.04568527918781726
1 0.4392857142857143 0.5583756345177665 0.013571428571428571 0.04568527918781726
1 0.4542857142857143 0.5444162436548223 0.012142857142857143 0.04187817258883249
1 0.4392857142857143 0.501269035532995 0.011428571428571429 0.03934010152284264
1 0.45357142857142857 0.4606598984771574 0.012142857142857143 0.04060913705583756
1 0.43785714285714283 0.44289340101522845 0.012142857142857143 0.04060913705583756
1 0.43642857142857144 0.38451776649746194 0.011428571428571429 0.04060913705583756
1 0.4521428571428571 0.39720812182741116 0.005714285714285714 0.017766497461928935
1 0.46785714285714286 0.41116751269035534 0.012857142857142857 0.04314720812182741
1 0.5307142857142857 0.5812182741116751 0.012857142857142857 0.046954314720812185
1 0.5271428571428571 0.48223350253807107 0.012142857142857143 0.046954314720812185
1 0.615 0.30076142131979694 0.08 0.03680203045685279
1 0.5721428571428572 0.26649746192893403 0.023571428571428573 0.02030456852791878
1 0.6014285714285714 0.2626903553299492 0.023571428571428573 0.02030456852791878
1 0.5892857142857143 0.23223350253807107 0.054285714285714284 0.04314720812182741
1 0.6442857142857142 0.22842639593908629 0.03571428571428571 0.03299492385786802
1 0.6221428571428571 0.20304568527918782 0.062142857142857146 0.03807106598984772
1 0.5657142857142857 0.2131979695431472 0.03428571428571429 0.03680203045685279
1 0.09785714285714285 0.29949238578680204 0.02642857142857143 0.021573604060913704
1 0.025 0.2982233502538071 0.023571428571428573 0.02284263959390863
1 0.785 0.21573604060913706 0.06571428571428571 0.04187817258883249
1 0.9157142857142857 0.12690355329949238 0.02142857142857143 0.01903553299492386
0 0.375 0.7461928934010152 0.0035714285714285713 0.01015228426395939
0 0.36714285714285716 0.6878172588832487 0.004285714285714286 0.011421319796954314
0 0.36357142857142855 0.6903553299492385 0.002857142857142857 0.011421319796954314
0 0.36142857142857143 0.6535532994923858 0.004285714285714286 0.013959390862944163
0 0.33 0.4720812182741117 0.004285714285714286 0.017766497461928935
0 0.40214285714285714 0.8616751269035533 0.0064285714285714285 0.01649746192893401
0 0.4092857142857143 0.8629441624365483 0.005 0.01015228426395939
