0 0.19857142857142857 0.92 0.019285714285714285 0.04380952380952381
0 0.21785714285714286 0.9161904761904762 0.017142857142857144 0.04285714285714286
0 0.062142857142857146 0.900952380952381 0.025 0.02666666666666667
0 0.065 0.8904761904761904 0.03 0.023809523809523808
0 0.10071428571428571 0.8438095238095238 0.017857142857142856 0.02666666666666667
0 0.09571428571428571 0.7914285714285715 0.02857142857142857 0.04380952380952381
0 0.08785714285714286 0.7619047619047619 0.024285714285714285 0.03428571428571429
1 0.08142857142857143 0.6542857142857142 0.09714285714285714 0.05714285714285714
1 0.11 0.6123809523809524 0.06857142857142857 0.049523809523809526
1 0.145 0.56 0.075 0.0419047619047619
1 0.17357142857142857 0.5247619047619048 0.06 0.04285714285714286
1 0.19285714285714287 0.48857142857142855 0.05285714285714286 0.039047619047619046
1 0.20857142857142857 0.46285714285714286 0.05285714285714286 0.035238095238095235
0 0.45571428571428574 0.62 0.01 0.022857142857142857
0 0.6407142857142857 0.6276190476190476 0.012142857142857143 0.03238095238095238
1 0.23785714285714285 0.4847619047619048 0.016428571428571428 0.02857142857142857
0 0.23642857142857143 0.48 0.012857142857142857 0.01619047619047619
0 0.23785714285714285 0.4780952380952381 0.012142857142857143 0.01619047619047619
0 0.2392857142857143 0.47523809523809524 0.013571428571428571 0.01904761904761905
0 0.2592857142857143 0.43714285714285717 0.010714285714285714 0.030476190476190476
1 0.2292857142857143 0.4361904761904762 0.054285714285714284 0.035238095238095235
1 0.24071428571428571 0.4142857142857143 0.05928571428571429 0.030476190476190476
1 0.25285714285714284 0.38857142857142857 0.05285714285714286 0.03619047619047619
0 0.2835714285714286 0.3819047619047619 0.01 0.02666666666666667
0 0.2714285714285714 0.3780952380952381 0.007857142857142858 0.022857142857142857
0 0.25785714285714284 0.3676190476190476 0.009285714285714286 0.018095238095238095
0 0.3407142857142857 0.3466666666666667 0.009285714285714286 0.022857142857142857
0 0.3314285714285714 0.34 0.007857142857142858 0.025714285714285714
0 0.33 0.3352380952380952 0.008571428571428572 0.022857142857142857
0 0.35928571428571426 0.36 0.007857142857142858 0.023809523809523808
0 0.3657142857142857 0.36095238095238097 0.007142857142857143 0.025714285714285714
0 0.37 0.3628571428571429 0.007142857142857143 0.024761904761904763
0 0.3892857142857143 0.3942857142857143 0.008571428571428572 0.02666666666666667
0 0.39571428571428574 0.39904761904761904 0.007142857142857143 0.029523809523809525
0 0.4014285714285714 0.4085714285714286 0.009285714285714286 0.02857142857142857
0 0.35714285714285715 0.3333333333333333 0.007857142857142858 0.02
0 0.36428571428571427 0.3352380952380952 0.009285714285714286 0.021904761904761906
1 0.31357142857142856 0.29428571428571426 0.04642857142857143 0.025714285714285714
0 0.4585714285714286 0.29333333333333333 0.005714285714285714 0.021904761904761906
0 0.46285714285714286 0.29333333333333333 0.0064285714285714285 0.02095238095238095
0 0.5021428571428571 0.2361904761904762 0.004285714285714286 0.017142857142857144
0 0.505 0.23523809523809525 0.005714285714285714 0.018095238095238095
0 0.5078571428571429 0.23714285714285716 0.005 0.01904761904761905
0 0.525 0.23714285714285716 0.005714285714285714 0.01904761904761905
0 0.53 0.2361904761904762 0.005 0.01904761904761905
0 0.5342857142857143 0.2419047619047619 0.005714285714285714 0.02
0 0.5421428571428571 0.24285714285714285 0.005714285714285714 0.02
0 0.5257142857142857 0.2276190476190476 0.0035714285714285713 0.017142857142857144
0 0.5292857142857142 0.2276190476190476 0.005 0.02
0 0.5635714285714286 0.21428571428571427 0.005714285714285714 0.017142857142857144
0 0.5685714285714286 0.21428571428571427 0.005714285714285714 0.01904761904761905
0 0.5642857142857143 0.20285714285714285 0.005 0.014285714285714285
0 0.5692857142857143 0.2038095238095238 0.005 0.017142857142857144
0 0.5864285714285714 0.1742857142857143 0.005 0.01619047619047619
0 0.5921428571428572 0.17333333333333334 0.004285714285714286 0.014285714285714285
0 0.595 0.17333333333333334 0.004285714285714286 0.014285714285714285
0 0.6042857142857143 0.17523809523809525 0.0035714285714285713 0.01619047619047619
0 0.6185714285714285 0.15333333333333332 0.004285714285714286 0.013333333333333334
0 0.6235714285714286 0.15523809523809523 0.0035714285714285713 0.011428571428571429
0 0.6264285714285714 0.15428571428571428 0.004285714285714286 0.011428571428571429
0 0.5864285714285714 0.1380952380952381 0.0035714285714285713 0.013333333333333334
1 0.7878571428571428 0.11714285714285715 0.017142857142857144 0.018095238095238095
0 0.7414285714285714 0.06 0.004285714285714286 0.009523809523809525
0 0.7892857142857143 0.1380952380952381 0.005 0.013333333333333334
0 0.7957142857142857 0.14095238095238094 0.005714285714285714 0.013333333333333334
0 0.8364285714285714 0.1438095238095238 0.005 0.012380952380952381
0 0.8407142857142857 0.14666666666666667 0.004285714285714286 0.014285714285714285
0 0.8235714285714286 0.09047619047619047 0.005 0.008571428571428572
0 0.85 0.07809523809523809 0.005 0.011428571428571429
0 0.8685714285714285 0.08285714285714285 0.004285714285714286 0.010476190476190476
0 0.8707142857142857 0.08190476190476191 0.004285714285714286 0.009523809523809525
0 0.8764285714285714 0.09142857142857143 0.0035714285714285713 0.010476190476190476
0 0.8785714285714286 0.08 0.005 0.010476190476190476
0 0.8942857142857142 0.07523809523809524 0.0035714285714285713 0.007619047619047619
0 0.8821428571428571 0.10380952380952381 0.007857142857142858 0.012380952380952381
0 0.885 0.11428571428571428 0.002857142857142857 0.009523809523809525
0 0.8878571428571429 0.11428571428571428 0.004285714285714286 0.010476190476190476
0 0.89 0.11428571428571428 0.0035714285714285713 0.012380952380952381
1 0.8407142857142857 0.049523809523809526 0.014285714285714285 0.012380952380952381
1 0.8521428571428571 0.05333333333333334 0.01 0.009523809523809525
1 0.9664285714285714 0.6028571428571429 0.025714285714285714 0.02857142857142857
