1 0.27714285714285714 0.8857142857142857 0.11571428571428571 0.1838095238095238
1 0.36714285714285716 0.6542857142857142 0.095 0.12476190476190477
1 0.42428571428571427 0.520952380952381 0.07214285714285715 0.11523809523809524
1 0.48142857142857143 0.4238095238095238 0.04 0.07333333333333333
1 0.6785714285714286 0.7790476190476191 0.12 0.12380952380952381
1 0.7007142857142857 0.9114285714285715 0.10285714285714286 0.17047619047619048
1 0.6914285714285714 0.6619047619047619 0.10642857142857143 0.11238095238095239
1 0.705 0.5495238095238095 0.09857142857142857 0.08666666666666667
1 0.7078571428571429 0.47523809523809524 0.10285714285714286 0.07142857142857142
1 0.7078571428571429 0.43142857142857144 0.09571428571428571 0.06380952380952382
1 0.7092857142857143 0.3780952380952381 0.09214285714285714 0.06
1 0.7214285714285714 0.3342857142857143 0.08571428571428572 0.05523809523809524
1 0.7185714285714285 0.3028571428571429 0.07714285714285714 0.04666666666666667
1 0.73 0.26285714285714284 0.07714285714285714 0.04857142857142857
1 0.7264285714285714 0.22476190476190477 0.06285714285714286 0.037142857142857144
1 0.7264285714285714 0.1980952380952381 0.06285714285714286 0.040952380952380955
1 0.75 0.1742857142857143 0.06642857142857143 0.03428571428571429
1 0.7614285714285715 0.13714285714285715 0.06285714285714286 0.035238095238095235
1 0.5057142857142857 0.32666666666666666 0.056428571428571425 0.06190476190476191
1 0.6571428571428571 0.17809523809523808 0.04 0.05047619047619047
1 0.5307142857142857 0.26857142857142857 0.04357142857142857 0.054285714285714284
1 0.56 0.20761904761904762 0.047857142857142855 0.06380952380952382
1 0.5635714285714286 0.17333333333333334 0.06428571428571428 0.05238095238095238
1 0.5685714285714286 0.11714285714285715 0.06428571428571428 0.039047619047619046
1 0.8657142857142858 0.17238095238095238 0.08 0.06
1 0.7442857142857143 0.11904761904761904 0.062142857142857146 0.04285714285714286
1 0.6092857142857143 0.1 0.02857142857142857 0.0380952380952381
1 0.505 0.11238095238095239 0.05 0.045714285714285714
1 0.6157142857142858 0.07142857142857142 0.02857142857142857 0.03333333333333333
1 0.6292857142857143 0.04476190476190476 0.027142857142857142 0.035238095238095235
1 0.6364285714285715 0.023809523809523808 0.022857142857142857 0.035238095238095235
1 0.75 0.08761904761904762 0.05785714285714286 0.0380952380952381
1 0.7457142857142857 0.07714285714285714 0.05357142857142857 0.02666666666666667
1 0.7514285714285714 0.05619047619047619 0.04928571428571429 0.029523809523809525
1 0.7557142857142857 0.04380952380952381 0.052142857142857144 0.02666666666666667
1 0.7535714285714286 0.030476190476190476 0.037142857142857144 0.018095238095238095
1 0.7528571428571429 0.014285714285714285 0.05857142857142857 0.02666666666666667
