1 0.20857142857142857 0.9225888324873096 0.023571428571428573 0.048223350253807105
1 0.22428571428571428 0.9581218274111675 0.015 0.030456852791878174
1 0.22357142857142856 0.9098984771573604 0.025714285714285714 0.0532994923857868
1 0.29214285714285715 0.9530456852791879 0.04285714285714286 0.08756345177664974
1 0.2357142857142857 0.8654822335025381 0.017857142857142856 0.03553299492385787
1 0.21142857142857144 0.8134517766497462 0.02 0.03680203045685279
1 0.17857142857142858 0.766497461928934 0.022857142857142857 0.02030456852791878
1 0.14142857142857143 0.7614213197969543 0.024285714285714285 0.025380710659898477
1 0.3892857142857143 0.4365482233502538 0.019285714285714285 0.02030456852791878
1 0.38642857142857145 0.41243654822335024 0.019285714285714285 0.021573604060913704
1 0.40214285714285714 0.3769035532994924 0.017142857142857144 0.024111675126903553
1 0.45285714285714285 0.4137055837563452 0.015714285714285715 0.02284263959390863
1 0.48142857142857143 0.3477157360406091 0.017142857142857144 0.01903553299492386
1 0.5264285714285715 0.2880710659898477 0.016428571428571428 0.017766497461928935
1 0.7207142857142858 0.11421319796954314 0.014285714285714285 0.017766497461928935
1 0.7742857142857142 0.06979695431472081 0.014285714285714285 0.013959390862944163
1 0.7914285714285715 0.04060913705583756 0.012857142857142857 0.015228426395939087
1 0.855 0.012690355329949238 0.011428571428571429 0.015228426395939087
1 0.17357142857142857 0.03299492385786802 0.014285714285714285 0.013959390862944163
1 0.145 0.04187817258883249 0.014285714285714285 0.017766497461928935
1 0.13857142857142857 0.03934010152284264 0.012142857142857143 0.015228426395939087
1 0.13357142857142856 0.03553299492385787 0.013571428571428571 0.01649746192893401
1 0.12928571428571428 0.03299492385786802 0.012857142857142857 0.017766497461928935
