1 0.189 0.526 0.0375 0.024
1 0.5415 0.5746666666666667 0.056 0.04
1 0.487 0.5546666666666666 0.0505 0.03133333333333333
1 0.404 0.5353333333333333 0.0585 0.044
1 0.3265 0.5153333333333333 0.039 0.022
1 0.3045 0.45866666666666667 0.0315 0.02
1 0.579 0.5153333333333333 0.0445 0.02266666666666667
0 0.5005 0.5873333333333334 0.007 0.025333333333333333
0 0.4335 0.5846666666666667 0.0105 0.016
0 0.311 0.602 0.008 0.011333333333333334
0 0.296 0.5986666666666667 0.0095 0.03
0 0.304 0.6026666666666667 0.006 0.014666666666666666
0 0.615 0.5633333333333334 0.0085 0.02266666666666667
1 0.6145 0.566 0.015 0.017333333333333333
1 0.833 0.448 0.0135 0.023333333333333334
1 0.856 0.4026666666666667 0.015 0.018
1 0.8555 0.37933333333333336 0.0105 0.008666666666666666
1 0.855 0.374 0.0085 0.008
1 0.839 0.366 0.0065 0.008666666666666666
1 0.8405 0.36 0.007 0.008
1 0.852 0.354 0.0085 0.007333333333333333
1 0.875 0.3526666666666667 0.012 0.007333333333333333
1 0.911 0.3506666666666667 0.0195 0.010666666666666666
1 0.852 0.36133333333333334 0.007 0.006
1 0.852 0.36733333333333335 0.0075 0.007333333333333333
0 0.8875 0.47333333333333333 0.005 0.012666666666666666
1 0.8865 0.47933333333333333 0.0065 0.014666666666666666
1 0.842 0.3393333333333333 0.004 0.006
1 0.8595 0.34 0.0045 0.006666666666666667
1 0.832 0.34 0.004 0.006666666666666667
1 0.4825 0.3466666666666667 0.009 0.006666666666666667
