1 0.6014285714285714 0.6419047619047619 0.06928571428571428 0.10952380952380952
1 0.5985714285714285 0.5523809523809524 0.05 0.07809523809523809
1 0.2864285714285714 0.7428571428571429 0.11571428571428571 0.12380952380952381
1 0.3435714285714286 0.6238095238095238 0.085 0.09904761904761905
1 0.3985714285714286 0.54 0.07285714285714286 0.08476190476190476
1 0.44357142857142856 0.49142857142857144 0.05714285714285714 0.058095238095238096
1 0.6707142857142857 0.3628571428571429 0.027857142857142858 0.021904761904761906
1 0.6914285714285714 0.46 0.08071428571428571 0.04476190476190476
1 0.6964285714285714 0.4504761904761905 0.08428571428571428 0.03333333333333333
1 0.7285714285714285 0.41523809523809524 0.07285714285714286 0.035238095238095235
1 0.7328571428571429 0.4104761904761905 0.06785714285714285 0.03619047619047619
1 0.7571428571428571 0.3942857142857143 0.05357142857142857 0.029523809523809525
1 0.775 0.38857142857142857 0.04642857142857143 0.03428571428571429
1 0.7885714285714286 0.3761904761904762 0.041428571428571426 0.025714285714285714
1 0.7664285714285715 0.3619047619047619 0.029285714285714286 0.029523809523809525
1 0.7871428571428571 0.3523809523809524 0.018571428571428572 0.023809523809523808
1 0.7364285714285714 0.3438095238095238 0.04071428571428572 0.01904761904761905
1 0.6892857142857143 0.34 0.029285714285714286 0.022857142857142857
1 0.6557142857142857 0.33714285714285713 0.027857142857142858 0.02095238095238095
1 0.83 0.3361904761904762 0.03357142857142857 0.02095238095238095
