1 0.7071428571428572 0.6419047619047619 0.1407142857142857 0.11428571428571428
1 0.40285714285714286 0.560952380952381 0.05071428571428571 0.04380952380952381
1 0.5121428571428571 0.4514285714285714 0.03 0.021904761904761906
1 0.5178571428571429 0.43047619047619046 0.02857142857142857 0.017142857142857144
0 0.6171428571428571 0.4123809523809524 0.004285714285714286 0.011428571428571429
1 0.5471428571428572 0.4066666666666667 0.023571428571428573 0.013333333333333334
1 0.22142857142857142 0.5085714285714286 0.05714285714285714 0.05333333333333334
1 0.1742857142857143 0.47619047619047616 0.07357142857142857 0.06190476190476191
1 0.2042857142857143 0.4095238095238095 0.008571428571428572 0.006666666666666667
0 0.20357142857142857 0.4066666666666667 0.0035714285714285713 0.010476190476190476
1 0.11357142857142857 0.5057142857142857 0.02 0.01619047619047619
0 0.11785714285714285 0.5047619047619047 0.005714285714285714 0.012380952380952381
