1 0.401 0.9313333333333333 0.032 0.07266666666666667
1 0.48 0.8 0.0335 0.051333333333333335
1 0.365 0.7966666666666666 0.036 0.06
1 0.388 0.804 0.008 0.022
0 0.3875 0.7986666666666666 0.0075 0.020666666666666667
1 0.3445 0.718 0.0275 0.04666666666666667
1 0.328 0.6706666666666666 0.0225 0.03933333333333333
1 0.3165 0.628 0.0245 0.050666666666666665
0 0.3555 0.642 0.007 0.014666666666666666
1 0.3555 0.648 0.0075 0.017333333333333333
0 0.311 0.5393333333333333 0.006 0.013333333333333334
1 0.311 0.544 0.006 0.014
1 0.3045 0.5713333333333334 0.041 0.09333333333333334
1 0.2815 0.5153333333333333 0.0175 0.028
1 0.2775 0.49133333333333334 0.016 0.026
1 0.2695 0.4713333333333333 0.0135 0.022
1 0.302 0.49466666666666664 0.0055 0.011333333333333334
0 0.302 0.49133333333333334 0.006 0.012666666666666666
1 0.2645 0.4513333333333333 0.0155 0.02266666666666667
1 0.2605 0.43666666666666665 0.012 0.017333333333333333
1 0.2545 0.418 0.01 0.019333333333333334
0 0.2385 0.442 0.0035 0.009333333333333334
0 0.234 0.4166666666666667 0.0035 0.012666666666666666
1 0.251 0.4066666666666667 0.0125 0.02
1 0.257 0.4 0.007 0.012
0 0.259 0.388 0.004 0.012666666666666666
0 0.246 0.3953333333333333 0.004 0.008666666666666666
1 0.2455 0.386 0.01 0.014666666666666666
0 0.2485 0.37066666666666664 0.004 0.012
1 0.241 0.37733333333333335 0.0115 0.016
1 0.209 0.2653333333333333 0.009 0.011333333333333334
1 0.228 0.21066666666666667 0.006 0.008
1 0.206 0.19333333333333333 0.0055 0.005333333333333333
1 0.2045 0.188 0.0045 0.005333333333333333
0 0.204 0.22733333333333333 0.003 0.008
1 0.2095 0.22933333333333333 0.003 0.004
0 0.209 0.22733333333333333 0.0025 0.005333333333333333
1 0.3015 0.31466666666666665 0.009 0.010666666666666666
1 0.2115 0.18533333333333332 0.005 0.007333333333333333
1 0.217 0.184 0.0045 0.006
1 0.208 0.18 0.005 0.006666666666666667
1 0.197 0.176 0.0065 0.007333333333333333
1 0.206 0.162 0.006 0.01
1 0.2065 0.172 0.005 0.006
1 0.209 0.17066666666666666 0.0045 0.005333333333333333
1 0.528 0.9506666666666667 0.0755 0.09666666666666666
1 0.563 0.9533333333333334 0.045 0.07866666666666666
1 0.6175 0.962 0.0525 0.07533333333333334
1 0.9005 0.9706666666666667 0.0585 0.05533333333333333
1 0.8395 0.8973333333333333 0.064 0.07466666666666667
1 0.8565 0.978 0.0205 0.032
0 0.859 0.974 0.011 0.02666666666666667
1 0.814 0.934 0.017 0.029333333333333333
0 0.816 0.9293333333333333 0.011 0.020666666666666667
1 0.777 0.8833333333333333 0.017 0.028
0 0.7775 0.8773333333333333 0.011 0.020666666666666667
1 0.7385 0.768 0.044 0.05
1 0.697 0.7833333333333333 0.014 0.024
0 0.698 0.7786666666666666 0.01 0.021333333333333333
1 0.7025 0.726 0.04 0.04066666666666666
1 0.664 0.7053333333333334 0.011 0.019333333333333334
0 0.664 0.6993333333333334 0.008 0.017333333333333333
1 0.6165 0.6226666666666667 0.033 0.034
1 0.601 0.6033333333333334 0.0145 0.012
1 0.5935 0.5953333333333334 0.0105 0.019333333333333334
1 0.5895 0.5906666666666667 0.0125 0.015333333333333332
1 0.5855 0.5853333333333334 0.014 0.012666666666666666
1 0.571 0.5766666666666667 0.0135 0.012
0 0.569 0.562 0.006 0.016
1 0.5695 0.564 0.0085 0.019333333333333334
1 0.5565 0.558 0.008 0.017333333333333333
1 0.541 0.572 0.008 0.014666666666666666
0 0.5405 0.57 0.0065 0.014666666666666666
1 0.667 0.8773333333333333 0.045 0.056666666666666664
1 0.5205 0.6946666666666667 0.0315 0.03933333333333333
1 0.498 0.49133333333333334 0.022 0.021333333333333333
0 0.501 0.4746666666666667 0.0045 0.014
0 0.512 0.4726666666666667 0.004 0.012666666666666666
1 0.4755 0.47 0.02 0.018
1 0.4495 0.444 0.018 0.016666666666666666
1 0.441 0.42733333333333334 0.0165 0.016
1 0.4885 0.412 0.0165 0.016
1 0.493 0.44133333333333336 0.0035 0.013333333333333334
1 0.4825 0.436 0.0035 0.01
1 0.479 0.42866666666666664 0.0095 0.008
1 0.4175 0.3973333333333333 0.014 0.012666666666666666
1 0.409 0.38466666666666666 0.015 0.014666666666666666
1 0.436 0.37933333333333336 0.009 0.008666666666666666
1 0.3485 0.372 0.0135 0.015333333333333332
1 0.341 0.3413333333333333 0.0115 0.012
1 0.3675 0.32266666666666666 0.0075 0.011333333333333334
1 0.406 0.40066666666666667 0.005 0.009333333333333334
0 0.4055 0.398 0.005 0.010666666666666666
0 0.393 0.38666666666666666 0.004 0.011333333333333334
1 0.3925 0.38866666666666666 0.0035 0.009333333333333334
1 0.396 0.36866666666666664 0.0125 0.012666666666666666
1 0.388 0.35933333333333334 0.0115 0.011333333333333334
1 0.382 0.34933333333333333 0.012 0.012666666666666666
1 0.3745 0.3413333333333333 0.0125 0.012666666666666666
1 0.406 0.3626666666666667 0.012 0.012666666666666666
1 0.3905 0.286 0.0165 0.009333333333333334
0 0.369 0.34933333333333333 0.0025 0.008666666666666666
0 0.3695 0.35533333333333333 0.004 0.01
1 0.37 0.358 0.004 0.008666666666666666
0 0.357 0.3353333333333333 0.0025 0.006666666666666667
1 0.357 0.338 0.0035 0.006666666666666667
1 0.4095 0.28733333333333333 0.02 0.012
1 0.3205 0.29133333333333333 0.005 0.009333333333333334
1 0.361 0.2906666666666667 0.0055 0.004666666666666667
0 0.36 0.28933333333333333 0.0025 0.008666666666666666
0 0.3475 0.32066666666666666 0.0025 0.009333333333333334
1 0.3475 0.32266666666666666 0.0025 0.006666666666666667
1 0.263 0.23666666666666666 0.007 0.008
1 0.2585 0.22933333333333333 0.006 0.006666666666666667
1 0.2465 0.21266666666666667 0.005 0.006
1 0.246 0.20733333333333334 0.005 0.004666666666666667
1 0.236 0.20333333333333334 0.005 0.006
1 0.276 0.23333333333333334 0.013 0.018666666666666668
1 0.232 0.19533333333333333 0.005 0.006
1 0.2285 0.18866666666666668 0.005 0.004666666666666667
1 0.2245 0.18266666666666667 0.0045 0.005333333333333333
1 0.2195 0.17466666666666666 0.0035 0.004666666666666667
1 0.226 0.17333333333333334 0.004 0.004666666666666667
1 0.2355 0.17 0.0075 0.004666666666666667
1 0.235 0.178 0.0045 0.005333333333333333
1 0.2395 0.184 0.005 0.005333333333333333
1 0.242 0.19933333333333333 0.0045 0.006
1 0.238 0.194 0.0045 0.005333333333333333
1 0.2365 0.19 0.005 0.005333333333333333
1 0.233 0.18533333333333332 0.0045 0.005333333333333333
1 0.2305 0.18066666666666667 0.004 0.004666666666666667
1 0.229 0.17733333333333334 0.0045 0.005333333333333333
1 0.2845 0.226 0.0055 0.006666666666666667
1 0.284 0.21133333333333335 0.0115 0.007333333333333333
1 0.3375 0.31066666666666665 0.004 0.007333333333333333
0 0.3375 0.30866666666666664 0.003 0.006666666666666667
1 0.3335 0.29733333333333334 0.0035 0.006666666666666667
0 0.3335 0.2946666666666667 0.002 0.006
1 0.3255 0.28933333333333333 0.0025 0.005333333333333333
0 0.325 0.2866666666666667 0.0025 0.006
0 0.3305 0.2733333333333333 0.0025 0.007333333333333333
0 0.3515 0.282 0.002 0.007333333333333333
0 0.362 0.27066666666666667 0.002 0.007333333333333333
1 0.2965 0.24066666666666667 0.0065 0.006666666666666667
1 0.294 0.23733333333333334 0.007 0.006666666666666667
1 0.2915 0.23333333333333334 0.0055 0.005333333333333333
1 0.2965 0.22066666666666668 0.007 0.006666666666666667
1 0.3255 0.2773333333333333 0.008 0.009333333333333334
1 0.322 0.27266666666666667 0.0085 0.008666666666666666
1 0.3175 0.26866666666666666 0.008 0.008666666666666666
1 0.3145 0.264 0.008 0.007333333333333333
1 0.3115 0.25933333333333336 0.0085 0.008666666666666666
1 0.308 0.256 0.008 0.007333333333333333
1 0.305 0.25133333333333335 0.0075 0.008
1 0.302 0.248 0.0075 0.008
1 0.2995 0.254 0.003 0.004666666666666667
0 0.299 0.25266666666666665 0.0025 0.005333333333333333
1 0.3125 0.27466666666666667 0.002 0.005333333333333333
0 0.312 0.2713333333333333 0.0025 0.006
1 0.039 0.4666666666666667 0.0335 0.020666666666666667
1 0.759 0.728 0.0125 0.017333333333333333
1 0.9615 0.9446666666666667 0.019 0.029333333333333333
0 0.966 0.9373333333333334 0.0095 0.028
