1 0.9149269311064718 0.9749536178107606 0.07463465553235908 0.04823747680890538
1 0.7667014613778705 0.8126159554730983 0.0720250521920668 0.09461966604823747
1 0.5824634655532359 0.5686456400742115 0.029227557411273485 0.04359925788497217
1 0.5281837160751566 0.4072356215213358 0.027139874739039668 0.03525046382189239
1 0.4754697286012526 0.46382189239332094 0.017745302713987474 0.027829313543599257
1 0.4175365344467641 0.32838589981447125 0.006784968684759917 0.00927643784786642
1 0.4326722338204593 0.313543599257885 0.004697286012526096 0.008348794063079777
1 0.42954070981210857 0.2922077922077922 0.007828810020876827 0.01855287569573284
1 0.4321503131524008 0.36363636363636365 0.008350730688935281 0.016697588126159554
