1 0.435 0.4086294416243655 0.05857142857142857 0.046954314720812185
1 0.355 0.40482233502538073 0.06285714285714286 0.04949238578680203
1 0.26571428571428574 0.383248730964467 0.062142857142857146 0.07741116751269035
1 0.15285714285714286 0.42258883248730966 0.06428571428571428 0.0532994923857868
1 0.25857142857142856 0.2766497461928934 0.027857142857142858 0.116751269035533
1 0.24071428571428571 0.48350253807106597 0.062142857142857146 0.05203045685279188
1 0.11357142857142857 0.5 0.06357142857142857 0.044416243654822336
1 0.04857142857142857 0.46446700507614214 0.05785714285714286 0.05964467005076142
1 0.24071428571428571 0.6586294416243654 0.06785714285714285 0.0583756345177665
1 0.16857142857142857 0.7461928934010152 0.060714285714285714 0.05203045685279188
1 0.3028571428571429 0.7296954314720813 0.062142857142857146 0.046954314720812185
1 0.40714285714285714 0.6979695431472082 0.06357142857142857 0.05710659898477157
1 0.5585714285714286 0.4035532994923858 0.065 0.04949238578680203
1 0.6292857142857143 0.34517766497461927 0.062142857142857146 0.04187817258883249
1 0.7371428571428571 0.4137055837563452 0.05071428571428571 0.09517766497461928
1 0.7814285714285715 0.4784263959390863 0.06714285714285714 0.06218274111675127
1 0.8907142857142857 0.45050761421319796 0.07357142857142857 0.048223350253807105
1 0.845 0.6053299492385786 0.065 0.07106598984771574
1 0.94 0.5431472081218274 0.06642857142857143 0.04568527918781726
1 0.7414285714285714 0.6294416243654822 0.06428571428571428 0.04949238578680203
1 0.7892857142857143 0.7614213197969543 0.035 0.10913705583756345
1 0.7492857142857143 0.7576142131979695 0.02857142857142857 0.10532994923857868
1 0.7114285714285714 0.766497461928934 0.03142857142857143 0.1116751269035533
1 0.6657142857142857 0.7817258883248731 0.03 0.1218274111675127
1 0.625 0.7715736040609137 0.029285714285714286 0.10913705583756345
1 0.5821428571428572 0.7817258883248731 0.03 0.11928934010152284
1 0.5464285714285714 0.7842639593908629 0.02857142857142857 0.116751269035533
1 0.5085714285714286 0.7791878172588832 0.030714285714285715 0.12055837563451777
1 0.5092857142857142 0.567258883248731 0.12 0.07614213197969544
1 0.04214285714285714 0.7119289340101523 0.065 0.06345177664974619
1 0.19642857142857142 0.15609137055837563 0.03857142857142857 0.10025380710659898
1 0.029285714285714286 0.06598984771573604 0.04 0.10786802030456853
1 0.024285714285714285 0.25 0.04857142857142857 0.0901015228426396
1 0.05714285714285714 0.04314720812182741 0.03357142857142857 0.08629441624365482
1 0.12785714285714286 0.046954314720812185 0.035 0.09390862944162437
1 0.16714285714285715 0.03426395939086294 0.03 0.06979695431472081
1 0.2057142857142857 0.03807106598984772 0.027857142857142858 0.07614213197969544
0 0.22785714285714287 0.03299492385786802 0.017857142857142856 0.027918781725888325
0 0.27714285714285714 0.044416243654822336 0.012142857142857143 0.0266497461928934
0 0.39357142857142857 0.012690355329949238 0.010714285714285714 0.02030456852791878
0 0.4 0.027918781725888325 0.010714285714285714 0.025380710659898477
0 0.43142857142857144 0.1649746192893401 0.015 0.03299492385786802
1 0.5464285714285714 0.2436548223350254 0.04642857142857143 0.10279187817258884
1 0.6014285714285714 0.16878172588832488 0.060714285714285714 0.09390862944162437
1 0.6364285714285715 0.10152284263959391 0.06 0.07614213197969544
1 0.6485714285714286 0.03934010152284264 0.06142857142857143 0.07868020304568528
1 0.7635714285714286 0.04060913705583756 0.02857142857142857 0.08121827411167512
1 0.725 0.22588832487309646 0.027142857142857142 0.12436548223350254
1 0.7628571428571429 0.2296954314720812 0.027857142857142858 0.116751269035533
1 0.7985714285714286 0.23730964467005075 0.029285714285714286 0.11548223350253807
1 0.835 0.21446700507614214 0.027857142857142858 0.10406091370558376
1 0.8707142857142857 0.21954314720812182 0.03 0.09517766497461928
1 0.9014285714285715 0.21065989847715735 0.032857142857142856 0.116751269035533
1 0.9828571428571429 0.19416243654822335 0.03357142857142857 0.10532994923857868
1 0.44571428571428573 0.23477157360406092 0.06285714285714286 0.05456852791878172
0 0.16285714285714287 0.5317258883248731 0.013571428571428571 0.01903553299492386
0 0.8214285714285714 0.3147208121827411 0.011428571428571429 0.013959390862944163
0 0.8128571428571428 0.31725888324873097 0.007142857142857143 0.013959390862944163
1 0.8042857142857143 0.3032994923857868 0.02642857142857143 0.013959390862944163
0 0.945 0.22461928934010153 0.013571428571428571 0.01903553299492386
0 0.94 0.10406091370558376 0.020714285714285713 0.024111675126903553
0 0.96 0.2131979695431472 0.011428571428571429 0.01649746192893401
0 0.8357142857142857 0.7144670050761421 0.015714285714285715 0.01903553299492386
0 0.8428571428571429 0.6954314720812182 0.015714285714285715 0.021573604060913704
1 0.9585714285714285 0.7804568527918782 0.016428571428571428 0.04187817258883249
1 0.9442857142857143 0.7791878172588832 0.02142857142857143 0.03299492385786802
0 0.6314285714285715 0.31725888324873097 0.012142857142857143 0.024111675126903553
0 0.31 0.6586294416243654 0.010714285714285714 0.01649746192893401
0 0.2885714285714286 0.6345177664974619 0.013571428571428571 0.011421319796954314
0 0.12357142857142857 0.8845177664974619 0.015714285714285715 0.01903553299492386
0 0.11357142857142857 0.8756345177664975 0.015714285714285715 0.027918781725888325
0 0.10071428571428571 0.8210659898477157 0.02 0.017766497461928935
0 0.05285714285714286 0.866751269035533 0.027142857142857142 0.024111675126903553
0 0.05 0.9365482233502538 0.024285714285714285 0.01649746192893401
0 0.035 0.9302030456852792 0.015 0.024111675126903553
0 0.05785714285714286 0.7715736040609137 0.017857142857142856 0.017766497461928935
