0 0.93 0.8047619047619048 0.062142857142857146 0.1438095238095238
1 0.5835714285714285 0.7076190476190476 0.11857142857142858 0.20476190476190476
1 0.165 0.660952380952381 0.33 0.22952380952380952
1 0.2642857142857143 0.5447619047619048 0.185 0.10952380952380952
1 0.30142857142857143 0.4542857142857143 0.15714285714285714 0.0838095238095238
1 0.37214285714285716 0.3304761904761905 0.09785714285714285 0.047619047619047616
1 0.7014285714285714 0.5142857142857142 0.18642857142857142 0.07714285714285714
1 0.68 0.4542857142857143 0.15857142857142856 0.0838095238095238
1 0.6421428571428571 0.4085714285714286 0.15428571428571428 0.08
1 0.6235714285714286 0.3742857142857143 0.11928571428571429 0.06476190476190476
1 0.5128571428571429 0.30666666666666664 0.037142857142857144 0.05047619047619047
1 0.5064285714285715 0.2523809523809524 0.02857142857142857 0.03428571428571429
1 0.5028571428571429 0.23714285714285716 0.03214285714285714 0.03333333333333333
1 0.5857142857142857 0.2638095238095238 0.07142857142857142 0.040952380952380955
1 0.5685714285714286 0.2619047619047619 0.06714285714285714 0.04
1 0.5607142857142857 0.24952380952380954 0.06142857142857143 0.037142857142857144
1 0.55 0.2361904761904762 0.05857142857142857 0.0380952380952381
1 0.5471428571428572 0.2276190476190476 0.05285714285714286 0.03333333333333333
1 0.5 0.2057142857142857 0.023571428571428573 0.02857142857142857
1 0.38642857142857145 0.2885714285714286 0.06 0.039047619047619046
1 0.39285714285714285 0.2780952380952381 0.07357142857142857 0.040952380952380955
1 0.3914285714285714 0.26285714285714284 0.06571428571428571 0.04
1 0.39357142857142857 0.24666666666666667 0.06285714285714286 0.037142857142857144
1 0.4664285714285714 0.19428571428571428 0.04357142857142857 0.03238095238095238
