1 0.42428571428571427 0.7323809523809524 0.18785714285714286 0.2561904761904762
1 0.7107142857142857 0.5123809523809524 0.08428571428571428 0.09428571428571429
1 0.5385714285714286 0.40190476190476193 0.09857142857142857 0.06476190476190476
1 0.2307142857142857 0.46190476190476193 0.14357142857142857 0.09142857142857143
1 0.6764285714285714 0.3295238095238095 0.09857142857142857 0.05714285714285714
1 0.78 0.3457142857142857 0.09357142857142857 0.06476190476190476
1 0.9471428571428572 0.5580952380952381 0.10214285714285715 0.1295238095238095
1 0.9792857142857143 0.3 0.041428571428571426 0.049523809523809526
1 0.02642857142857143 0.4704761904761905 0.05142857142857143 0.07809523809523809
