1 0.5142857142857142 0.4619289340101523 0.02142857142857143 0.06598984771573604
1 0.5742857142857143 0.42258883248730966 0.02142857142857143 0.05583756345177665
1 0.4664285714285714 0.3934010152284264 0.025 0.0532994923857868
1 0.39714285714285713 0.45558375634517767 0.03214285714285714 0.07360406091370558
1 0.45714285714285713 0.4593908629441624 0.027857142857142858 0.07106598984771574
1 0.52 0.4035532994923858 0.02214285714285714 0.04949238578680203
1 0.415 0.39213197969543145 0.024285714285714285 0.046954314720812185
1 0.4785714285714286 0.29441624365482233 0.02 0.048223350253807105
1 0.4307142857142857 0.29441624365482233 0.025 0.0532994923857868
1 0.3157142857142857 0.36548223350253806 0.027142857142857142 0.06091370558375635
1 0.6957142857142857 0.22842639593908629 0.022857142857142857 0.046954314720812185
1 0.72 0.16370558375634517 0.017142857142857144 0.03426395939086294
1 0.7142857142857143 0.1319796954314721 0.017142857142857144 0.03299492385786802
1 0.6521428571428571 0.1446700507614213 0.03642857142857143 0.024111675126903553
1 0.6557142857142857 0.12309644670050761 0.03 0.01903553299492386
1 0.7214285714285714 0.10786802030456853 0.03428571428571429 0.025380710659898477
1 0.7178571428571429 0.07868020304568528 0.03571428571428571 0.025380710659898477
1 0.7207142857142858 0.09137055837563451 0.03785714285714286 0.02918781725888325
0 0.8371428571428572 0.33375634517766495 0.0064285714285714285 0.021573604060913704
0 0.845 0.21573604060913706 0.005 0.01903553299492386
0 0.8428571428571429 0.35786802030456855 0.005714285714285714 0.021573604060913704
0 0.85 0.38451776649746194 0.007857142857142858 0.027918781725888325
0 0.83 0.39213197969543145 0.0064285714285714285 0.0266497461928934
0 0.8235714285714286 0.3883248730964467 0.0064285714285714285 0.02284263959390863
0 0.8221428571428572 0.4035532994923858 0.007142857142857143 0.024111675126903553
0 0.8328571428571429 0.21192893401015228 0.0064285714285714285 0.02284263959390863
0 0.835 0.19543147208121828 0.0064285714285714285 0.01903553299492386
0 0.805 0.1713197969543147 0.004285714285714286 0.02030456852791878
0 0.8114285714285714 0.03553299492385787 0.004285714285714286 0.017766497461928935
0 0.8157142857142857 0.03426395939086294 0.0035714285714285713 0.01649746192893401
1 0.9478571428571428 0.02284263959390863 0.02 0.04568527918781726
0 0.7935714285714286 0.5647208121827412 0.007857142857142858 0.024111675126903553
0 0.8064285714285714 0.5710659898477157 0.008571428571428572 0.027918781725888325
0 0.8142857142857143 0.5812182741116751 0.004285714285714286 0.01649746192893401
0 0.8178571428571428 0.5875634517766497 0.007142857142857143 0.030456852791878174
0 0.7721428571428571 0.6421319796954315 0.009285714285714286 0.027918781725888325
0 0.74 0.8286802030456852 0.009285714285714286 0.030456852791878174
0 0.7507142857142857 0.866751269035533 0.007142857142857143 0.027918781725888325
0 0.6521428571428571 0.2766497461928934 0.0064285714285714285 0.027918781725888325
1 0.6392857142857142 0.30710659898477155 0.007857142857142858 0.027918781725888325
1 0.63 0.315989847715736 0.007857142857142858 0.03934010152284264
1 0.6214285714285714 0.31725888324873097 0.009285714285714286 0.03426395939086294
1 0.6121428571428571 0.3147208121827411 0.01 0.03553299492385787
1 0.6 0.3147208121827411 0.007857142857142858 0.03553299492385787
1 0.675 0.06091370558375635 0.004285714285714286 0.02030456852791878
1 0.6821428571428572 0.06091370558375635 0.007142857142857143 0.0266497461928934
1 0.7178571428571429 0.05964467005076142 0.015714285714285715 0.015228426395939087
1 0.30214285714285716 0.31091370558375636 0.04214285714285714 0.03553299492385787
1 0.29928571428571427 0.4213197969543147 0.035 0.07106598984771574
1 0.545 0.46446700507614214 0.02214285714285714 0.06979695431472081
1 0.495 0.39593908629441626 0.020714285714285713 0.05710659898477157
1 0.5492857142857143 0.40482233502538073 0.022857142857142857 0.05710659898477157
1 0.38785714285714284 0.383248730964467 0.027857142857142858 0.06472081218274112
1 0.375 0.4352791878172589 0.030714285714285715 0.07233502538071065
1 0.4392857142857143 0.3934010152284264 0.024285714285714285 0.05964467005076142
1 0.495 0.30583756345177665 0.011428571428571429 0.03426395939086294
1 0.5057142857142857 0.30710659898477155 0.009285714285714286 0.03553299492385787
1 0.3385714285714286 0.29441624365482233 0.016428571428571428 0.024111675126903553
1 0.3407142857142857 0.28045685279187815 0.017142857142857144 0.0266497461928934
1 0.3464285714285714 0.26776649746192893 0.017857142857142856 0.024111675126903553
1 0.34785714285714286 0.2614213197969543 0.014285714285714285 0.017766497461928935
1 0.3821428571428571 0.29949238578680204 0.022857142857142857 0.02284263959390863
1 0.3821428571428571 0.2893401015228426 0.02 0.017766497461928935
1 0.38285714285714284 0.2766497461928934 0.017142857142857144 0.017766497461928935
0 0.2814285714285714 0.9390862944162437 0.01 0.03934010152284264
