1 0.0905 0.37666666666666665 0.0105 0.012
1 0.1055 0.38333333333333336 0.0215 0.014
1 0.115 0.38866666666666666 0.016 0.01
1 0.1015 0.3913333333333333 0.015 0.010666666666666666
1 0.0675 0.386 0.008 0.009333333333333334
1 0.088 0.3993333333333333 0.016 0.012
1 0.114 0.4093333333333333 0.0045 0.006
0 0.114 0.406 0.004 0.008
1 0.121 0.4186666666666667 0.015 0.015333333333333332
1 0.1315 0.42533333333333334 0.0165 0.015333333333333332
1 0.1455 0.43266666666666664 0.0215 0.019333333333333334
1 0.1585 0.44 0.0255 0.017333333333333333
1 0.1735 0.44666666666666666 0.019 0.02
1 0.172 0.412 0.0175 0.018
1 0.1855 0.4206666666666667 0.0195 0.014
1 0.169 0.43 0.0225 0.016
1 0.1995 0.4266666666666667 0.021 0.014666666666666666
1 0.219 0.424 0.0155 0.014666666666666666
1 0.2445 0.44466666666666665 0.0265 0.018666666666666668
1 0.186 0.45266666666666666 0.0175 0.021333333333333333
1 0.201 0.46066666666666667 0.0215 0.024666666666666667
1 0.2235 0.474 0.0295 0.022
1 0.244 0.4866666666666667 0.029 0.02266666666666667
1 0.2805 0.4653333333333333 0.0275 0.02
1 0.268 0.398 0.018 0.012
1 0.27 0.5006666666666667 0.032 0.024666666666666667
1 0.307 0.476 0.0315 0.02
1 0.2985 0.516 0.0355 0.024666666666666667
1 0.332 0.48933333333333334 0.0285 0.023333333333333334
1 0.3645 0.5 0.0305 0.028
1 0.394 0.5093333333333333 0.0325 0.034
1 0.33 0.5353333333333333 0.036 0.03
1 0.363 0.5526666666666666 0.04 0.03266666666666666
1 0.4325 0.5326666666666666 0.0445 0.032
1 0.4795 0.552 0.046 0.036
1 0.4465 0.6033333333333334 0.047 0.036
1 0.541 0.5786666666666667 0.049 0.035333333333333335
1 0.5735 0.464 0.015 0.012
1 0.5765 0.5113333333333333 0.025 0.036
1 0.6 0.522 0.033 0.026
0 0.5225 0.6766666666666666 0.005 0.021333333333333333
0 0.5315 0.666 0.008 0.036
1 0.583 0.676 0.0725 0.052
1 0.687 0.6126666666666667 0.034 0.046
1 0.8335 0.698 0.07 0.06666666666666667
0 0.104 0.428 0.0045 0.015333333333333332
0 0.0985 0.42533333333333334 0.0045 0.015333333333333332
0 0.0625 0.44533333333333336 0.005 0.014666666666666666
0 0.057 0.44066666666666665 0.0055 0.016
0 0.0335 0.4513333333333333 0.0085 0.017333333333333333
0 0.03 0.44733333333333336 0.006 0.016
1 0.0815 0.43533333333333335 0.0105 0.012
1 0.911 0.4713333333333333 0.032 0.023333333333333334
0 0.3625 0.42733333333333334 0.0025 0.008666666666666666
0 0.3655 0.424 0.003 0.014
0 0.3635 0.4086666666666667 0.0045 0.01
0 0.4595 0.4066666666666667 0.002 0.009333333333333334
0 0.4565 0.4053333333333333 0.003 0.009333333333333334
0 0.466 0.418 0.0025 0.013333333333333334
0 0.467 0.41533333333333333 0.0015 0.006
0 0.472 0.4166666666666667 0.002 0.012666666666666666
1 0.158 0.4093333333333333 0.0205 0.014
1 0.152 0.4046666666666667 0.015 0.013333333333333334
1 0.141 0.39666666666666667 0.0135 0.011333333333333334
1 0.131 0.39466666666666667 0.0165 0.012
1 0.14 0.4093333333333333 0.0205 0.014
1 0.141 0.41933333333333334 0.0175 0.016
1 0.425 0.3893333333333333 0.0225 0.013333333333333334
1 0.4175 0.38533333333333336 0.025 0.014
1 0.287 0.36533333333333334 0.017 0.011333333333333334
0 0.434 0.364 0.004 0.008666666666666666
0 0.441 0.364 0.0045 0.012
0 0.431 0.3626666666666667 0.004 0.01
0 0.3735 0.386 0.0035 0.010666666666666666
0 0.3915 0.39866666666666667 0.0055 0.014666666666666666
1 0.054 0.36133333333333334 0.009 0.008666666666666666
1 0.0665 0.36666666666666664 0.0125 0.012666666666666666
1 0.0765 0.368 0.011 0.016666666666666666
1 0.0455 0.3546666666666667 0.009 0.01
1 0.0425 0.35 0.0195 0.010666666666666666
1 0.02 0.3453333333333333 0.009 0.007333333333333333
1 0.016 0.3426666666666667 0.0095 0.006666666666666667
1 0.0145 0.3426666666666667 0.012 0.008666666666666666
1 0.01 0.3373333333333333 0.013 0.011333333333333334
