1 0.6885714285714286 0.9695238095238096 0.047142857142857146 0.06
0 0.2792857142857143 0.01619047619047619 0.002857142857142857 0.010476190476190476
0 0.2742857142857143 0.01619047619047619 0.0035714285714285713 0.012380952380952381
0 0.27 0.01619047619047619 0.005 0.017142857142857144
0 0.28285714285714286 0.08095238095238096 0.0035714285714285713 0.012380952380952381
0 0.2764285714285714 0.13714285714285715 0.0035714285714285713 0.011428571428571429
1 0.32571428571428573 0.05714285714285714 0.012857142857142857 0.02
1 0.34 0.16857142857142857 0.015 0.030476190476190476
0 0.25142857142857145 0.36666666666666664 0.005 0.022857142857142857
1 0.26785714285714285 0.46 0.024285714285714285 0.05238095238095238
1 0.25214285714285717 0.6571428571428571 0.01 0.03238095238095238
0 0.25142857142857145 0.8314285714285714 0.007142857142857143 0.025714285714285714
0 0.24428571428571427 0.8295238095238096 0.005 0.025714285714285714
0 0.23285714285714285 0.7828571428571428 0.005 0.02
1 0.4042857142857143 0.6580952380952381 0.03142857142857143 0.06666666666666667
1 0.38785714285714284 0.560952380952381 0.024285714285714285 0.07238095238095238
1 0.38142857142857145 0.48 0.025714285714285714 0.05142857142857143
1 0.4064285714285714 0.44285714285714284 0.007857142857142858 0.02761904761904762
0 0.40714285714285714 0.43714285714285717 0.005 0.013333333333333334
0 0.465 0.05238095238095238 0.0035714285714285713 0.007619047619047619
1 0.4228571428571429 0.06476190476190476 0.012857142857142857 0.01904761904761905
1 0.49714285714285716 0.10285714285714286 0.015 0.022857142857142857
1 0.4835714285714286 0.06857142857142857 0.015 0.02
1 0.4757142857142857 0.05238095238095238 0.014285714285714285 0.017142857142857144
1 0.465 0.05619047619047619 0.005 0.013333333333333334
1 0.4421428571428571 0.004761904761904762 0.005 0.009523809523809525
1 0.6585714285714286 0.05904761904761905 0.009285714285714286 0.008571428571428572
1 0.6721428571428572 0.07904761904761905 0.01 0.008571428571428572
1 0.5514285714285714 0.22095238095238096 0.020714285714285713 0.03238095238095238
1 0.8421428571428572 0.8723809523809524 0.06357142857142857 0.10857142857142857
