1 0.76 0.8038095238095239 0.07428571428571429 0.22285714285714286
1 0.6878571428571428 0.5971428571428572 0.04857142857142857 0.12476190476190477
1 0.6507142857142857 0.3952380952380952 0.018571428571428572 0.040952380952380955
1 0.6564285714285715 0.3361904761904762 0.011428571428571429 0.015238095238095238
0 0.655 0.2923809523809524 0.002857142857142857 0.007619047619047619
1 0.6542857142857142 0.29523809523809524 0.0035714285714285713 0.006666666666666667
1 0.505 0.23714285714285716 0.007857142857142858 0.014285714285714285
1 0.4878571428571429 0.2619047619047619 0.002857142857142857 0.007619047619047619
0 0.4878571428571429 0.26095238095238094 0.002142857142857143 0.005714285714285714
1 0.8214285714285714 0.29714285714285715 0.010714285714285714 0.012380952380952381
1 0.5985714285714285 0.20666666666666667 0.005 0.006666666666666667
1 0.6257142857142857 0.19047619047619047 0.004285714285714286 0.004761904761904762
1 0.5885714285714285 0.21333333333333335 0.007857142857142858 0.007619047619047619
1 0.6128571428571429 0.17904761904761904 0.002857142857142857 0.005714285714285714
1 0.6107142857142858 0.18857142857142858 0.0064285714285714285 0.014285714285714285
1 0.6285714285714286 0.17238095238095238 0.004285714285714286 0.008571428571428572
1 0.61 0.17333333333333334 0.004285714285714286 0.009523809523809525
1 0.445 0.23142857142857143 0.02 0.009523809523809525
