1 0.5221428571428571 0.13071065989847716 0.012142857142857143 0.03299492385786802
1 0.5307142857142857 0.2614213197969543 0.025714285714285714 0.05456852791878172
1 0.45 0.31725888324873097 0.02214285714285714 0.04314720812182741
1 0.49214285714285716 0.35913705583756345 0.013571428571428571 0.025380710659898477
1 0.24928571428571428 0.8451776649746193 0.06571428571428571 0.06725888324873096
1 0.42214285714285715 0.684010152284264 0.037142857142857144 0.07614213197969544
1 0.48642857142857143 0.5786802030456852 0.03785714285714286 0.06218274111675127
1 0.4442857142857143 0.501269035532995 0.032857142857142856 0.03807106598984772
1 0.5121428571428571 0.46573604060913704 0.03142857142857143 0.03553299492385787
1 0.595 0.48350253807106597 0.030714285714285715 0.050761421319796954
1 0.6928571428571428 0.3730964467005076 0.055 0.07868020304568528
1 0.8228571428571428 0.26015228426395937 0.03 0.030456852791878174
1 0.8878571428571429 0.22208121827411167 0.019285714285714285 0.01903553299492386
1 0.9435714285714286 0.18274111675126903 0.015714285714285715 0.02030456852791878
1 0.9864285714285714 0.16751269035532995 0.015 0.01903553299492386
1 0.6557142857142857 0.5418781725888325 0.030714285714285715 0.03299492385786802
1 0.6835714285714286 0.5203045685279187 0.029285714285714286 0.03299492385786802
1 0.7092857142857143 0.4949238578680203 0.017142857142857144 0.03553299492385787
1 0.76 0.5 0.025714285714285714 0.025380710659898477
1 0.73 0.48096446700507617 0.019285714285714285 0.03680203045685279
1 0.7578571428571429 0.4593908629441624 0.017142857142857144 0.024111675126903553
1 0.7764285714285715 0.4416243654822335 0.017142857142857144 0.027918781725888325
1 0.7521428571428571 0.4416243654822335 0.016428571428571428 0.0266497461928934
1 0.8992857142857142 0.35152284263959394 0.015 0.024111675126903553
1 0.5935714285714285 0.7538071065989848 0.027142857142857142 0.05456852791878172
1 0.5492857142857143 0.751269035532995 0.025 0.04949238578680203
1 0.55 0.8857868020304569 0.025714285714285714 0.06345177664974619
1 0.7371428571428571 0.6586294416243654 0.02 0.03934010152284264
1 0.7735714285714286 0.6903553299492385 0.032857142857142856 0.03807106598984772
1 0.7921428571428571 0.6383248730964467 0.04 0.04949238578680203
1 0.8021428571428572 0.616751269035533 0.02214285714285714 0.0266497461928934
1 0.83 0.5583756345177665 0.022857142857142857 0.03934010152284264
1 0.8485714285714285 0.5748730964467005 0.020714285714285713 0.03807106598984772
1 0.87 0.5812182741116751 0.022857142857142857 0.03807106598984772
1 0.8871428571428571 0.5939086294416244 0.02 0.03680203045685279
1 0.9078571428571428 0.6053299492385786 0.020714285714285713 0.03934010152284264
1 0.93 0.6205583756345178 0.02 0.04187817258883249
1 0.9514285714285714 0.633248730964467 0.02142857142857143 0.04568527918781726
1 0.9764285714285714 0.6395939086294417 0.02142857142857143 0.05203045685279188
1 0.9157142857142857 0.6903553299492385 0.04857142857142857 0.050761421319796954
1 0.9078571428571428 0.7170050761421319 0.045 0.048223350253807105
1 0.7971428571428572 0.766497461928934 0.06285714285714286 0.10406091370558376
1 0.8528571428571429 0.8032994923857868 0.06928571428571428 0.11802030456852793
1 0.8842857142857142 0.8197969543147208 0.060714285714285714 0.12563451776649745
1 0.9714285714285714 0.9124365482233503 0.056428571428571425 0.12690355329949238
1 0.9442857142857143 0.8261421319796954 0.029285714285714286 0.0532994923857868
1 0.9185714285714286 0.8121827411167513 0.02857142857142857 0.050761421319796954
1 0.6821428571428572 0.8426395939086294 0.054285714285714284 0.07487309644670051
1 0.6978571428571428 0.8781725888324873 0.054285714285714284 0.06852791878172589
1 0.7142857142857143 0.9098984771573604 0.04357142857142857 0.07614213197969544
1 0.7492857142857143 0.9403553299492385 0.041428571428571426 0.08121827411167512
1 0.7878571428571428 0.9467005076142132 0.05071428571428571 0.09517766497461928
1 0.82 0.9708121827411168 0.06142857142857143 0.05583756345177665
1 0.9828571428571429 0.12436548223350254 0.02214285714285714 0.02918781725888325
1 0.9642857142857143 0.13451776649746192 0.012857142857142857 0.01649746192893401
1 0.9414285714285714 0.282994923857868 0.024285714285714285 0.024111675126903553
1 0.755 0.4010152284263959 0.023571428571428573 0.0266497461928934
1 0.7357142857142858 0.4098984771573604 0.017857142857142856 0.02918781725888325
1 0.6692857142857143 0.4847715736040609 0.018571428571428572 0.021573604060913704
1 0.8557142857142858 0.5393401015228426 0.015714285714285715 0.03807106598984772
1 0.8471428571428572 0.49238578680203043 0.024285714285714285 0.02030456852791878
1 0.8828571428571429 0.5558375634517766 0.02 0.04187817258883249
1 0.905 0.5697969543147208 0.020714285714285713 0.04060913705583756
1 0.93 0.5812182741116751 0.019285714285714285 0.04060913705583756
1 0.9578571428571429 0.6027918781725888 0.02 0.04187817258883249
1 0.6907142857142857 0.44543147208121825 0.016428571428571428 0.0266497461928934
1 0.5114285714285715 0.09771573604060914 0.0064285714285714285 0.012690355329949238
1 0.5135714285714286 0.07868020304568528 0.007142857142857143 0.01649746192893401
1 0.46 0.23604060913705585 0.02 0.05203045685279188
1 0.5107142857142857 0.17639593908629442 0.009285714285714286 0.02030456852791878
0 0.49 0.7741116751269036 0.013571428571428571 0.03680203045685279
0 0.4878571428571429 0.8984771573604061 0.013571428571428571 0.03680203045685279
1 0.9042857142857142 0.28553299492385786 0.027142857142857142 0.017766497461928935
