1 0.8616910229645094 0.9842300556586271 0.04384133611691023 0.0287569573283859
1 0.8810020876826722 0.800556586270872 0.0407098121085595 0.041743970315398886
1 0.8194154488517745 0.6790352504638218 0.030271398747390398 0.03339517625231911
1 0.7599164926931107 0.634508348794063 0.025052192066805846 0.02411873840445269
1 0.9786012526096033 0.4777365491651206 0.029227557411273485 0.021335807050092765
1 0.9879958246346555 0.46382189239332094 0.02244258872651357 0.01855287569573284
1 0.9916492693110647 0.45454545454545453 0.015657620041753653 0.015769944341372914
1 0.9264091858037579 0.4155844155844156 0.020876826722338204 0.013914656771799629
1 0.9237995824634656 0.4090909090909091 0.019311064718162838 0.013914656771799629
1 0.9384133611691023 0.39888682745825604 0.02244258872651357 0.016697588126159554
1 0.8502087682672234 0.48886827458256027 0.02244258872651357 0.016697588126159554
1 0.842901878914405 0.474025974025974 0.020876826722338204 0.016697588126159554
1 0.8256784968684759 0.42578849721706863 0.012526096033402923 0.017625231910946195
1 0.8418580375782881 0.43042671614100186 0.014613778705636743 0.021335807050092765
1 0.7839248434237995 0.487012987012987 0.018789144050104383 0.01948051948051948
1 0.6299582463465553 0.5473098330241187 0.02870563674321503 0.01948051948051948
1 0.6263048016701461 0.5102040816326531 0.024008350730688934 0.01855287569573284
1 0.6263048016701461 0.48608534322820035 0.022964509394572025 0.017625231910946195
1 0.5772442588726514 0.44712430426716143 0.009916492693110648 0.01855287569573284
1 0.5662839248434238 0.4452690166975881 0.008872651356993737 0.01948051948051948
1 0.5673277661795407 0.42578849721706863 0.02661795407098121 0.02411873840445269
1 0.5668058455114823 0.4090909090909091 0.015657620041753653 0.014842300556586271
1 0.5657620041753654 0.3979591836734694 0.015135699373695199 0.012987012987012988
1 0.5652400835073069 0.38868274582560297 0.013569937369519834 0.012987012987012988
0 0.6064718162839249 0.3738404452690167 0.0041753653444676405 0.012059369202226345
1 0.5365344467640919 0.300556586270872 0.013048016701461378 0.01020408163265306
1 0.5417536534446764 0.2764378478664193 0.013048016701461378 0.013914656771799629
1 0.5454070981210856 0.26159554730983303 0.010960334029227558 0.012059369202226345
1 0.5120041753653445 0.41465677179962895 0.015657620041753653 0.025974025974025976
1 0.41283924843423797 0.42857142857142855 0.015135699373695199 0.017625231910946195
1 0.5396659707724426 0.5936920222634509 0.01722338204592902 0.026901669758812616
1 0.5391440501043842 0.6975881261595547 0.017745302713987474 0.041743970315398886
0 0.42745302713987476 0.8385899814471243 0.006784968684759917 0.025974025974025976
1 0.4535490605427975 0.7551020408163265 0.016701461377870562 0.04730983302411874
1 0.3564718162839248 0.8042671614100185 0.025052192066805846 0.03432282003710575
1 0.3768267223382046 0.47866419294990725 0.015135699373695199 0.017625231910946195
1 0.3653444676409186 0.4749536178107607 0.011482254697286013 0.022263450834879406
1 0.3742171189979123 0.42207792207792205 0.014613778705636743 0.016697588126159554
1 0.3752609603340292 0.38404452690166974 0.014613778705636743 0.013914656771799629
1 0.3778705636743215 0.3784786641929499 0.015135699373695199 0.012987012987012988
1 0.3836116910229645 0.37105751391465674 0.015657620041753653 0.012987012987012988
1 0.15031315240083507 0.5844155844155844 0.012004175365344467 0.014842300556586271
1 0.17640918580375783 0.47866419294990725 0.024530271398747392 0.01948051948051948
1 0.1826722338204593 0.45732838589981445 0.01826722338204593 0.01855287569573284
1 0.05688935281837161 0.310760667903525 0.0255741127348643 0.0287569573283859
1 0.06367432150313153 0.8330241187384044 0.01722338204592902 0.021335807050092765
1 0.029227557411273485 0.9109461966604824 0.05010438413361169 0.036178107606679034
1 0.38413361169102295 0.8970315398886828 0.0407098121085595 0.04916512059369202
