1 0.29428571428571426 0.023809523809523808 0.029285714285714286 0.02095238095238095
1 0.29428571428571426 0.04476190476190476 0.02857142857142857 0.01904761904761905
1 0.2914285714285714 0.06476190476190476 0.025714285714285714 0.022857142857142857
1 0.2914285714285714 0.0838095238095238 0.025 0.02
1 0.29642857142857143 0.10285714285714286 0.029285714285714286 0.021904761904761906
1 0.2978571428571429 0.12571428571428572 0.030714285714285715 0.023809523809523808
1 0.3742857142857143 0.09142857142857143 0.027142857142857142 0.02
1 0.37785714285714284 0.06857142857142857 0.03142857142857143 0.02095238095238095
1 0.3707142857142857 0.025714285714285714 0.030714285714285715 0.02095238095238095
1 0.33285714285714285 0.3628571428571429 0.012857142857142857 0.035238095238095235
1 0.34785714285714286 0.35619047619047617 0.016428571428571428 0.04
1 0.3335714285714286 0.4723809523809524 0.015 0.0380952380952381
1 0.38 0.5323809523809524 0.015 0.03333333333333333
1 0.3342857142857143 0.5819047619047619 0.015714285714285715 0.04
1 0.38 0.579047619047619 0.011428571428571429 0.0380952380952381
1 0.3357142857142857 0.6266666666666667 0.015 0.039047619047619046
1 0.3821428571428571 0.6247619047619047 0.015714285714285715 0.04
1 0.385 0.6733333333333333 0.014285714285714285 0.0380952380952381
1 0.38642857142857145 0.7266666666666667 0.013571428571428571 0.040952380952380955
1 0.34 0.7247619047619047 0.017142857142857144 0.0419047619047619
1 0.34214285714285714 0.7771428571428571 0.015714285714285715 0.04
1 0.6342857142857142 0.7828571428571428 0.020714285714285713 0.06476190476190476
1 0.515 0.36095238095238097 0.020714285714285713 0.08476190476190476
1 0.5828571428571429 0.15047619047619049 0.005 0.01904761904761905
1 0.5735714285714286 0.16857142857142857 0.005714285714285714 0.013333333333333334
1 0.6028571428571429 0.7066666666666667 0.005714285714285714 0.017142857142857144
1 0.61 0.1980952380952381 0.014285714285714285 0.0419047619047619
1 0.8321428571428572 0.017142857142857144 0.027142857142857142 0.02095238095238095
1 0.8321428571428572 0.035238095238095235 0.025714285714285714 0.01904761904761905
1 0.835 0.14285714285714285 0.027857142857142858 0.01904761904761905
1 0.7914285714285715 0.07904761904761905 0.015714285714285715 0.04
1 0.77 0.2619047619047619 0.016428571428571428 0.037142857142857144
1 0.8414285714285714 0.17714285714285713 0.024285714285714285 0.02
1 0.8992857142857142 0.1580952380952381 0.027142857142857142 0.018095238095238095
1 0.8407142857142857 0.2123809523809524 0.03357142857142857 0.021904761904761906
1 0.9121428571428571 0.3485714285714286 0.03428571428571429 0.01904761904761905
1 0.9121428571428571 0.40285714285714286 0.032857142857142856 0.01904761904761905
1 0.8314285714285714 0.6466666666666666 0.014285714285714285 0.037142857142857144
1 0.8235714285714286 0.7904761904761904 0.03142857142857143 0.022857142857142857
1 0.8271428571428572 0.82 0.02642857142857143 0.01904761904761905
1 0.8235714285714286 0.8476190476190476 0.030714285714285715 0.023809523809523808
1 0.8314285714285714 0.9038095238095238 0.03 0.025714285714285714
1 0.8328571428571429 0.9371428571428572 0.027857142857142858 0.02095238095238095
1 0.8335714285714285 0.9628571428571429 0.030714285714285715 0.022857142857142857
1 0.8278571428571428 0.9838095238095238 0.030714285714285715 0.018095238095238095
1 0.7642857142857142 0.44952380952380955 0.027857142857142858 0.09047619047619047
0 0.9035714285714286 0.2619047619047619 0.007857142857142858 0.009523809523809525
0 0.7728571428571429 0.3028571428571429 0.007142857142857143 0.007619047619047619
0 0.7835714285714286 0.3019047619047619 0.005714285714285714 0.007619047619047619
0 0.7778571428571428 0.3 0.005714285714285714 0.006666666666666667
0 0.8485714285714285 0.3904761904761905 0.005714285714285714 0.008571428571428572
0 0.8492857142857143 0.38285714285714284 0.0064285714285714285 0.005714285714285714
0 0.9078571428571428 0.5942857142857143 0.01 0.009523809523809525
1 0.8321428571428572 0.11428571428571428 0.012142857142857143 0.007619047619047619
