1 0.4992857142857143 0.3304761904761905 0.04857142857142857 0.05714285714285714
1 0.4614285714285714 0.2752380952380952 0.045714285714285714 0.047619047619047616
1 0.4007142857142857 0.26285714285714284 0.04428571428571428 0.04476190476190476
1 0.36214285714285716 0.3 0.07142857142857142 0.047619047619047616
1 0.2885714285714286 0.3914285714285714 0.047857142857142855 0.07333333333333333
1 0.2392857142857143 0.3933333333333333 0.05785714285714286 0.09619047619047619
1 0.5785714285714286 0.23047619047619047 0.047142857142857146 0.040952380952380955
1 0.7335714285714285 0.23047619047619047 0.05142857142857143 0.045714285714285714
1 0.7921428571428571 0.18666666666666668 0.04642857142857143 0.035238095238095235
1 0.49857142857142855 0.04 0.022857142857142857 0.01904761904761905
1 0.5185714285714286 0.06380952380952382 0.022857142857142857 0.018095238095238095
1 0.4064285714285714 0.07523809523809524 0.029285714285714286 0.037142857142857144
1 0.7292857142857143 0.16857142857142857 0.04642857142857143 0.03428571428571429
1 0.7028571428571428 0.1419047619047619 0.04285714285714286 0.030476190476190476
1 0.7571428571428571 0.1419047619047619 0.04071428571428572 0.02761904761904762
1 0.9078571428571428 0.21523809523809523 0.055 0.04285714285714286
1 0.8271428571428572 0.17714285714285713 0.041428571428571426 0.030476190476190476
1 0.8964285714285715 0.16666666666666666 0.03857142857142857 0.02666666666666667
1 0.8771428571428571 0.15714285714285714 0.03857142857142857 0.02666666666666667
1 0.5292857142857142 0.49047619047619045 0.09 0.07238095238095238
1 0.53 0.4438095238095238 0.08785714285714286 0.05619047619047619
1 0.6107142857142858 0.3647619047619048 0.07071428571428572 0.045714285714285714
1 0.5357142857142857 0.29333333333333333 0.065 0.04285714285714286
1 0.5592857142857143 0.3161904761904762 0.06428571428571428 0.04380952380952381
1 0.5278571428571428 0.2752380952380952 0.065 0.04285714285714286
1 0.5085714285714286 0.2571428571428571 0.052142857142857144 0.0380952380952381
1 0.48928571428571427 0.2419047619047619 0.056428571428571425 0.040952380952380955
1 0.4785714285714286 0.2257142857142857 0.05142857142857143 0.03428571428571429
1 0.4585714285714286 0.21047619047619048 0.056428571428571425 0.035238095238095235
1 0.445 0.19333333333333333 0.047142857142857146 0.03333333333333333
1 0.4328571428571429 0.1819047619047619 0.041428571428571426 0.03333333333333333
1 0.4257142857142857 0.17238095238095238 0.047857142857142855 0.025714285714285714
1 0.4185714285714286 0.16095238095238096 0.04428571428571428 0.024761904761904763
1 0.4092857142857143 0.1523809523809524 0.05 0.025714285714285714
1 0.38571428571428573 0.12857142857142856 0.04 0.02857142857142857
1 0.37142857142857144 0.11238095238095239 0.037142857142857144 0.02857142857142857
1 0.3842857142857143 0.06190476190476191 0.019285714285714285 0.02095238095238095
1 0.3942857142857143 0.04380952380952381 0.018571428571428572 0.02
1 0.3707142857142857 0.04666666666666667 0.020714285714285713 0.023809523809523808
1 0.3657142857142857 0.023809523809523808 0.015 0.01904761904761905
0 0.4157142857142857 0.10095238095238095 0.009285714285714286 0.02
1 0.30642857142857144 0.3028571428571429 0.027857142857142858 0.025714285714285714
1 0.40214285714285714 0.22380952380952382 0.013571428571428571 0.021904761904761906
1 0.37714285714285717 0.38857142857142857 0.08714285714285715 0.054285714285714284
1 0.36428571428571427 0.35714285714285715 0.08928571428571429 0.05047619047619047
1 0.42857142857142855 0.45714285714285713 0.08714285714285715 0.058095238095238096
1 0.42642857142857143 0.5123809523809524 0.08642857142857142 0.058095238095238096
1 0.2935714285714286 0.4780952380952381 0.09142857142857143 0.05714285714285714
1 0.17142857142857143 0.41333333333333333 0.04642857142857143 0.08190476190476191
0 0.06642857142857143 0.4257142857142857 0.012142857142857143 0.035238095238095235
0 0.060714285714285714 0.42 0.012142857142857143 0.035238095238095235
1 0.4585714285714286 0.007619047619047619 0.013571428571428571 0.015238095238095238
1 0.5178571428571429 0.02761904761904762 0.017857142857142856 0.01904761904761905
1 0.5007142857142857 0.007619047619047619 0.016428571428571428 0.015238095238095238
1 0.5564285714285714 0.04285714285714286 0.017857142857142856 0.01904761904761905
1 0.6121428571428571 0.07428571428571429 0.025714285714285714 0.02095238095238095
1 0.6578571428571428 0.09523809523809523 0.03142857142857143 0.022857142857142857
0 0.5821428571428572 0.06 0.005714285714285714 0.01619047619047619
0 0.5728571428571428 0.06 0.004285714285714286 0.017142857142857144
0 0.5664285714285714 0.05619047619047619 0.004285714285714286 0.01904761904761905
0 0.5585714285714286 0.05238095238095238 0.004285714285714286 0.017142857142857144
0 0.5642857142857143 0.05238095238095238 0.005714285714285714 0.02
0 0.5742857142857143 0.05619047619047619 0.005714285714285714 0.01904761904761905
0 0.5028571428571429 0.022857142857142857 0.004285714285714286 0.017142857142857144
0 0.49 0.014285714285714285 0.0035714285714285713 0.015238095238095238
1 0.5707142857142857 0.021904761904761906 0.025 0.017142857142857144
1 0.56 0.02 0.024285714285714285 0.017142857142857144
1 0.6542857142857142 0.28 0.06 0.06952380952380953
0 0.6714285714285714 0.31047619047619046 0.010714285714285714 0.037142857142857144
0 0.6971428571428572 0.3 0.01 0.03142857142857143
0 0.775 0.33714285714285713 0.009285714285714286 0.03428571428571429
0 0.7671428571428571 0.3333333333333333 0.010714285714285714 0.03428571428571429
0 0.8557142857142858 0.29523809523809524 0.014285714285714285 0.03142857142857143
0 0.8564285714285714 0.17238095238095238 0.01 0.025714285714285714
1 0.7971428571428572 0.1180952380952381 0.037142857142857144 0.03142857142857143
0 0.565 0.5028571428571429 0.011428571428571429 0.0419047619047619
