1 0.227 0.8713333333333333 0.173 0.20666666666666667
1 0.3045 0.7386666666666667 0.1855 0.17866666666666667
1 0.5245 0.8893333333333333 0.187 0.18333333333333332
0 0.1435 0.656 0.052 0.03866666666666667
0 0.186 0.6253333333333333 0.0475 0.042666666666666665
0 0.279 0.6033333333333334 0.038 0.03333333333333333
0 0.3105 0.6313333333333333 0.035 0.03666666666666667
0 0.3455 0.6586666666666666 0.0335 0.042
1 0.9305 0.718 0.139 0.15533333333333332
1 0.7305 0.5973333333333334 0.175 0.15466666666666667
1 0.5085 0.47 0.175 0.16533333333333333
0 0.655 0.36733333333333335 0.036 0.050666666666666665
0 0.678 0.33666666666666667 0.0235 0.04466666666666667
0 0.5495 0.3253333333333333 0.031 0.04133333333333333
0 0.588 0.2773333333333333 0.019 0.058666666666666666
1 0.736 0.25133333333333335 0.1045 0.092
0 0.6765 0.03333333333333333 0.0235 0.06666666666666667
0 0.56 0.04 0.0175 0.059333333333333335
1 0.3165 0.37266666666666665 0.164 0.11
1 0.153 0.2806666666666667 0.145 0.13133333333333333
1 0.0405 0.19933333333333333 0.0805 0.11866666666666667
1 0.4095 0.268 0.0515 0.046
