1 0.932 0.502 0.1035 0.10333333333333333
1 0.814 0.48133333333333334 0.0895 0.09866666666666667
1 0.7025 0.5633333333333334 0.1585 0.092
1 0.4115 0.564 0.127 0.09133333333333334
1 0.2445 0.5486666666666666 0.1425 0.07466666666666667
1 0.11 0.538 0.1315 0.094
1 0.077 0.43266666666666664 0.079 0.08266666666666667
1 0.0335 0.4246666666666667 0.0645 0.09333333333333334
1 0.147 0.43533333333333335 0.089 0.074
1 0.2705 0.43 0.075 0.08866666666666667
1 0.3915 0.43333333333333335 0.044 0.086
1 0.4605 0.42866666666666664 0.043 0.09066666666666667
1 0.5115 0.428 0.0485 0.1
1 0.5675 0.42866666666666664 0.0575 0.076
1 0.6315 0.43 0.0525 0.11133333333333334
1 0.681 0.426 0.059 0.10333333333333333
0 0.7685 0.25266666666666665 0.0145 0.034
0 0.8045 0.31866666666666665 0.013 0.03266666666666666
1 0.803 0.32 0.015 0.034666666666666665
0 0.8135 0.354 0.018 0.04533333333333334
0 0.8275 0.37466666666666665 0.0205 0.023333333333333334
0 0.824 0.36866666666666664 0.0185 0.023333333333333334
0 0.8475 0.36733333333333335 0.0195 0.026
1 0.8685 0.4166666666666667 0.0345 0.03866666666666667
0 0.691 0.37066666666666664 0.017 0.042
0 0.6305 0.374 0.013 0.042
1 0.6925 0.34 0.038 0.05733333333333333
1 0.5795 0.3293333333333333 0.009 0.03266666666666666
1 0.561 0.344 0.013 0.03133333333333333
1 0.499 0.354 0.0345 0.032
1 0.526 0.32066666666666666 0.0105 0.025333333333333333
1 0.519 0.326 0.011 0.028
1 0.5105 0.328 0.009 0.03133333333333333
1 0.47 0.324 0.0205 0.03133333333333333
1 0.4495 0.3446666666666667 0.016 0.03133333333333333
1 0.44 0.338 0.0135 0.032
1 0.4095 0.32 0.0175 0.03333333333333333
1 0.334 0.348 0.053 0.058
1 0.2795 0.3406666666666667 0.0495 0.064
1 0.2935 0.31 0.0275 0.026
1 0.1855 0.334 0.0865 0.07666666666666666
0 0.1255 0.322 0.0195 0.04533333333333334
1 0.117 0.31933333333333336 0.0145 0.034666666666666665
1 0.108 0.314 0.012 0.03133333333333333
1 0.0635 0.32066666666666666 0.0235 0.03266666666666666
0 0.0465 0.31933333333333336 0.018 0.03933333333333333
1 0.021 0.31866666666666665 0.0425 0.04533333333333334
1 0.0655 0.17666666666666667 0.042 0.025333333333333333
1 0.1055 0.19466666666666665 0.045 0.03133333333333333
1 0.1255 0.184 0.053 0.035333333333333335
1 0.144 0.15 0.0345 0.02
1 0.1605 0.14266666666666666 0.034 0.024
1 0.1745 0.14133333333333334 0.027 0.021333333333333333
1 0.189 0.138 0.029 0.019333333333333334
1 0.217 0.138 0.026 0.018
1 0.221 0.152 0.024 0.023333333333333334
1 0.258 0.148 0.0365 0.028666666666666667
1 0.2685 0.142 0.028 0.019333333333333334
1 0.2215 0.124 0.038 0.02666666666666667
1 0.24 0.12066666666666667 0.026 0.02266666666666667
1 0.2545 0.11866666666666667 0.0275 0.018
1 0.2615 0.11466666666666667 0.0245 0.017333333333333333
1 0.274 0.112 0.025 0.015333333333333332
1 0.289 0.10866666666666666 0.0275 0.016
1 0.2965 0.10533333333333333 0.0245 0.016
1 0.2955 0.10066666666666667 0.0235 0.014
1 0.306 0.09933333333333333 0.0245 0.019333333333333334
0 0.308 0.11333333333333333 0.005 0.016
1 0.3085 0.11533333333333333 0.0065 0.012666666666666666
1 0.2955 0.134 0.03 0.023333333333333334
1 0.3335 0.112 0.0215 0.014
1 0.3485 0.11133333333333334 0.021 0.016666666666666666
1 0.4185 0.06533333333333333 0.016 0.011333333333333334
1 0.4405 0.05733333333333333 0.0105 0.014
0 0.4635 0.059333333333333335 0.003 0.008
1 0.4725 0.06466666666666666 0.0135 0.012666666666666666
1 0.411 0.066 0.009 0.011333333333333334
1 0.4025 0.07066666666666667 0.0165 0.012666666666666666
0 0.383 0.084 0.003 0.008666666666666666
0 0.38 0.08466666666666667 0.0035 0.01
0 0.39 0.08266666666666667 0.004 0.010666666666666666
