0 0.060714285714285714 0.6161904761904762 0.017857142857142856 0.030476190476190476
0 0.06 0.5895238095238096 0.015714285714285715 0.025714285714285714
0 0.06857142857142857 0.5866666666666667 0.016428571428571428 0.024761904761904763
0 0.03571428571428571 0.5666666666666667 0.019285714285714285 0.03428571428571429
0 0.052142857142857144 0.5628571428571428 0.015 0.029523809523809525
0 0.06642857142857143 0.5447619047619048 0.017142857142857144 0.02857142857142857
0 0.07642857142857143 0.5323809523809524 0.015 0.03142857142857143
0 0.04357142857142857 0.5028571428571429 0.016428571428571428 0.02761904761904762
0 0.054285714285714284 0.5 0.016428571428571428 0.02666666666666667
0 0.025 0.4714285714285714 0.017857142857142856 0.02761904761904762
0 0.03571428571428571 0.4676190476190476 0.015 0.02761904761904762
0 0.04357142857142857 0.46285714285714286 0.014285714285714285 0.029523809523809525
0 0.055 0.4561904761904762 0.015 0.02761904761904762
0 0.06714285714285714 0.4580952380952381 0.013571428571428571 0.02761904761904762
0 0.05928571428571429 0.44857142857142857 0.012142857142857143 0.02666666666666667
0 0.017142857142857144 0.4533333333333333 0.012857142857142857 0.025714285714285714
0 0.017142857142857144 0.4676190476190476 0.014285714285714285 0.025714285714285714
0 0.025 0.44857142857142857 0.015714285714285715 0.023809523809523808
0 0.095 0.5647619047619048 0.019285714285714285 0.029523809523809525
0 0.09928571428571428 0.5571428571428572 0.015 0.024761904761904763
0 0.09428571428571429 0.539047619047619 0.015 0.024761904761904763
0 0.11357142857142857 0.5733333333333334 0.015714285714285715 0.03142857142857143
0 0.12142857142857143 0.5628571428571428 0.017857142857142856 0.03142857142857143
0 0.16785714285714284 0.5723809523809524 0.014285714285714285 0.02666666666666667
0 0.17857142857142858 0.5647619047619048 0.014285714285714285 0.024761904761904763
0 0.18357142857142858 0.5542857142857143 0.013571428571428571 0.02857142857142857
0 0.1742857142857143 0.5476190476190477 0.013571428571428571 0.02666666666666667
0 0.20785714285714285 0.5580952380952381 0.017142857142857144 0.025714285714285714
0 0.23214285714285715 0.5676190476190476 0.015 0.02666666666666667
0 0.23642857142857143 0.560952380952381 0.016428571428571428 0.02857142857142857
0 0.24857142857142858 0.5952380952380952 0.012857142857142857 0.03238095238095238
0 0.255 0.5857142857142857 0.013571428571428571 0.03142857142857143
0 0.2985714285714286 0.5980952380952381 0.015 0.03333333333333333
0 0.19857142857142857 0.6933333333333334 0.02 0.030476190476190476
0 0.2092857142857143 0.680952380952381 0.015714285714285715 0.03333333333333333
0 0.25357142857142856 0.6819047619047619 0.014285714285714285 0.02857142857142857
0 0.2592857142857143 0.6752380952380952 0.011428571428571429 0.025714285714285714
0 0.31285714285714283 0.7476190476190476 0.02 0.03333333333333333
0 0.32357142857142857 0.7380952380952381 0.017857142857142856 0.03238095238095238
0 0.32071428571428573 0.7038095238095238 0.017857142857142856 0.03619047619047619
0 0.33214285714285713 0.6885714285714286 0.015 0.03142857142857143
0 0.10785714285714286 0.7438095238095238 0.025 0.03428571428571429
0 0.26071428571428573 0.919047619047619 0.02142857142857143 0.037142857142857144
0 0.46 0.820952380952381 0.014285714285714285 0.02666666666666667
0 0.4657142857142857 0.8142857142857143 0.015 0.030476190476190476
0 0.4407142857142857 0.6628571428571428 0.010714285714285714 0.03238095238095238
0 0.31214285714285717 0.5904761904761905 0.012857142857142857 0.02857142857142857
0 0.31857142857142856 0.58 0.011428571428571429 0.03142857142857143
0 0.4928571428571429 0.6561904761904762 0.007142857142857143 0.029523809523809525
0 0.49714285714285716 0.6533333333333333 0.008571428571428572 0.02761904761904762
0 0.5171428571428571 0.6561904761904762 0.01 0.03619047619047619
0 0.5235714285714286 0.6466666666666666 0.010714285714285714 0.035238095238095235
0 0.5178571428571429 0.6228571428571429 0.010714285714285714 0.02857142857142857
0 0.5314285714285715 0.621904761904762 0.011428571428571429 0.035238095238095235
0 0.5428571428571428 0.6142857142857143 0.01 0.03428571428571429
0 0.5342857142857143 0.5657142857142857 0.010714285714285714 0.03142857142857143
0 0.5157142857142857 0.5714285714285714 0.009285714285714286 0.03238095238095238
0 0.48714285714285716 0.5676190476190476 0.012857142857142857 0.03333333333333333
0 0.42928571428571427 0.5266666666666666 0.01 0.030476190476190476
0 0.44571428571428573 0.52 0.01 0.029523809523809525
0 0.45357142857142857 0.518095238095238 0.007857142857142858 0.029523809523809525
0 0.4635714285714286 0.518095238095238 0.01 0.03238095238095238
0 0.46285714285714286 0.47333333333333333 0.01 0.02857142857142857
0 0.42214285714285715 0.46476190476190476 0.009285714285714286 0.029523809523809525
0 0.4185714285714286 0.44952380952380955 0.007857142857142858 0.022857142857142857
0 0.43142857142857144 0.4504761904761905 0.007857142857142858 0.02761904761904762
0 0.44142857142857145 0.43047619047619046 0.009285714285714286 0.029523809523809525
0 0.42857142857142855 0.4095238095238095 0.010714285714285714 0.029523809523809525
0 0.4085714285714286 0.40095238095238095 0.007142857142857143 0.02095238095238095
0 0.40785714285714286 0.38571428571428573 0.007857142857142858 0.021904761904761906
0 0.41928571428571426 0.38476190476190475 0.007142857142857143 0.025714285714285714
0 0.41285714285714287 0.37238095238095237 0.007142857142857143 0.025714285714285714
0 0.4992857142857143 0.4542857142857143 0.012142857142857143 0.02095238095238095
0 0.5207142857142857 0.4419047619047619 0.007857142857142858 0.02857142857142857
0 0.5307142857142857 0.44571428571428573 0.007857142857142858 0.02666666666666667
0 0.5071428571428571 0.39714285714285713 0.0064285714285714285 0.023809523809523808
0 0.5107142857142857 0.39714285714285713 0.0064285714285714285 0.024761904761904763
0 0.5385714285714286 0.39904761904761904 0.007142857142857143 0.023809523809523808
0 0.535 0.3923809523809524 0.007857142857142858 0.023809523809523808
0 0.5435714285714286 0.4523809523809524 0.009285714285714286 0.02095238095238095
0 0.5407142857142857 0.4419047619047619 0.008571428571428572 0.021904761904761906
1 0.5507142857142857 0.3761904761904762 0.007857142857142858 0.01904761904761905
1 0.5607142857142857 0.36857142857142855 0.017857142857142856 0.015238095238095238
0 0.5892857142857143 0.4228571428571429 0.005714285714285714 0.023809523809523808
0 0.5935714285714285 0.4247619047619048 0.007142857142857143 0.022857142857142857
0 0.6035714285714285 0.4180952380952381 0.007142857142857143 0.021904761904761906
0 0.61 0.40476190476190477 0.0064285714285714285 0.023809523809523808
0 0.6157142857142858 0.4076190476190476 0.007857142857142858 0.025714285714285714
0 0.5371428571428571 0.74 0.01 0.0380952380952381
0 0.5421428571428571 0.7266666666666667 0.012142857142857143 0.03619047619047619
0 0.6021428571428571 0.660952380952381 0.01 0.02857142857142857
0 0.6221428571428571 0.6580952380952381 0.008571428571428572 0.024761904761904763
0 0.6371428571428571 0.7276190476190476 0.009285714285714286 0.02857142857142857
0 0.6457142857142857 0.7257142857142858 0.01 0.02857142857142857
0 0.6357142857142857 0.8714285714285714 0.013571428571428571 0.029523809523809525
0 0.6964285714285714 0.9619047619047619 0.014285714285714285 0.03238095238095238
0 0.6464285714285715 0.940952380952381 0.012142857142857143 0.03238095238095238
0 0.6285714285714286 0.9704761904761905 0.020714285714285713 0.03333333333333333
0 0.6328571428571429 0.9552380952380952 0.017142857142857144 0.03238095238095238
0 0.6164285714285714 0.9038095238095238 0.012857142857142857 0.03619047619047619
0 0.6164285714285714 0.878095238095238 0.016428571428571428 0.03333333333333333
0 0.6028571428571429 0.84 0.013571428571428571 0.039047619047619046
0 0.6107142857142858 0.8304761904761905 0.015714285714285715 0.035238095238095235
0 0.7192857142857143 0.9895238095238095 0.020714285714285713 0.02095238095238095
0 0.8071428571428572 0.9752380952380952 0.022857142857142857 0.03619047619047619
0 0.8178571428571428 0.9904761904761905 0.016428571428571428 0.018095238095238095
0 0.8657142857142858 0.9838095238095238 0.022857142857142857 0.030476190476190476
0 0.9121428571428571 0.981904761904762 0.023571428571428573 0.035238095238095235
0 0.9485714285714286 0.9780952380952381 0.03214285714285714 0.03333333333333333
0 0.985 0.9666666666666667 0.029285714285714286 0.0419047619047619
1 0.915 0.44666666666666666 0.015 0.021904761904761906
0 0.9164285714285715 0.44095238095238093 0.011428571428571429 0.01619047619047619
0 0.9164285714285715 0.4380952380952381 0.011428571428571429 0.017142857142857144
0 0.9164285714285715 0.4342857142857143 0.010714285714285714 0.02
0 0.7985714285714286 0.34476190476190477 0.010714285714285714 0.017142857142857144
0 0.7821428571428571 0.33904761904761904 0.011428571428571429 0.02
0 0.7792857142857142 0.3361904761904762 0.011428571428571429 0.021904761904761906
0 0.8171428571428572 0.3323809523809524 0.011428571428571429 0.018095238095238095
0 0.8021428571428572 0.3333333333333333 0.01 0.01904761904761905
0 0.8357142857142857 0.32571428571428573 0.007142857142857143 0.01904761904761905
0 0.8464285714285714 0.3295238095238095 0.007857142857142858 0.01904761904761905
0 0.8778571428571429 0.3057142857142857 0.009285714285714286 0.02
0 0.8742857142857143 0.3047619047619048 0.009285714285714286 0.02095238095238095
0 0.8607142857142858 0.2619047619047619 0.009285714285714286 0.02
0 0.865 0.2638095238095238 0.009285714285714286 0.01904761904761905
1 0.9464285714285714 0.2761904761904762 0.009285714285714286 0.014285714285714285
0 0.9492857142857143 0.2704761904761905 0.008571428571428572 0.014285714285714285
0 0.9007142857142857 0.2438095238095238 0.009285714285714286 0.02095238095238095
0 0.895 0.24285714285714285 0.008571428571428572 0.02095238095238095
0 0.8914285714285715 0.24095238095238095 0.009285714285714286 0.02095238095238095
0 0.8871428571428571 0.24095238095238095 0.009285714285714286 0.02
0 0.8685714285714285 0.2419047619047619 0.008571428571428572 0.01904761904761905
0 0.8642857142857143 0.2419047619047619 0.007857142857142858 0.01904761904761905
0 0.8585714285714285 0.24095238095238095 0.008571428571428572 0.02
0 0.8542857142857143 0.2438095238095238 0.009285714285714286 0.01904761904761905
0 0.8492857142857143 0.24 0.007857142857142858 0.02
0 0.8407142857142857 0.18857142857142858 0.007142857142857143 0.017142857142857144
0 0.8457142857142858 0.18857142857142858 0.007857142857142858 0.017142857142857144
1 0.905 0.20857142857142857 0.007857142857142858 0.012380952380952381
0 0.9064285714285715 0.2038095238095238 0.005 0.013333333333333334
1 0.9128571428571428 0.1619047619047619 0.007857142857142858 0.011428571428571429
0 0.9142857142857143 0.15619047619047619 0.004285714285714286 0.011428571428571429
0 0.9364285714285714 0.11142857142857143 0.0064285714285714285 0.012380952380952381
0 0.9435714285714286 0.11333333333333333 0.005714285714285714 0.013333333333333334
0 0.9492857142857143 0.10952380952380952 0.005714285714285714 0.009523809523809525
0 0.9535714285714286 0.10952380952380952 0.005714285714285714 0.011428571428571429
1 0.8557142857142858 0.04857142857142857 0.009285714285714286 0.012380952380952381
0 0.8871428571428571 0.14095238095238094 0.005714285714285714 0.014285714285714285
0 0.8842857142857142 0.14095238095238094 0.004285714285714286 0.01619047619047619
0 0.8892857142857142 0.12857142857142856 0.005714285714285714 0.013333333333333334
0 0.885 0.12761904761904763 0.005714285714285714 0.013333333333333334
0 0.8957142857142857 0.10666666666666667 0.005 0.012380952380952381
0 0.905 0.11523809523809524 0.005 0.011428571428571429
0 0.9028571428571428 0.11333333333333333 0.005714285714285714 0.013333333333333334
0 0.875 0.10761904761904761 0.005714285714285714 0.014285714285714285
0 0.8714285714285714 0.10666666666666667 0.005714285714285714 0.014285714285714285
0 0.8692857142857143 0.10476190476190476 0.005714285714285714 0.013333333333333334
0 0.3657142857142857 0.3180952380952381 0.007142857142857143 0.022857142857142857
0 0.37214285714285716 0.3171428571428571 0.005714285714285714 0.022857142857142857
0 0.3535714285714286 0.31333333333333335 0.007142857142857143 0.02095238095238095
0 0.9935714285714285 0.41619047619047617 0.012857142857142857 0.02857142857142857
0 0.995 0.4076190476190476 0.01 0.023809523809523808
0 0.9928571428571429 0.38 0.014285714285714285 0.02666666666666667
0 0.9935714285714285 0.38571428571428573 0.012142857142857143 0.022857142857142857
