1 0.38357142857142856 0.2766497461928934 0.010714285714285714 0.02030456852791878
1 0.39357142857142857 0.29314720812182743 0.010714285714285714 0.01649746192893401
1 0.445 0.35406091370558374 0.01 0.03680203045685279
1 0.44357142857142856 0.3870558375634518 0.007857142857142858 0.02284263959390863
1 0.44285714285714284 0.4517766497461929 0.011428571428571429 0.03553299492385787
1 0.4185714285714286 0.5774111675126904 0.012142857142857143 0.048223350253807105
1 0.44142857142857145 0.5786802030456852 0.012857142857142857 0.03680203045685279
1 0.8007142857142857 0.17385786802030456 0.02 0.01903553299492386
1 0.8714285714285714 0.3730964467005076 0.019285714285714285 0.03680203045685279
