1 0.04285714285714286 0.03333333333333333 0.03 0.022857142857142857
1 0.012857142857142857 0.1180952380952381 0.02642857142857143 0.023809523809523808
1 0.22071428571428572 0.18095238095238095 0.03571428571428571 0.022857142857142857
1 0.33214285714285713 0.19523809523809524 0.03214285714285714 0.02
1 0.3457142857142857 0.24476190476190476 0.032857142857142856 0.022857142857142857
1 0.1792857142857143 0.42 0.025 0.058095238095238096
1 0.21428571428571427 0.48857142857142855 0.015714285714285715 0.0419047619047619
0 0.2692857142857143 0.4247619047619048 0.0064285714285714285 0.008571428571428572
1 0.022857142857142857 0.5742857142857143 0.02642857142857143 0.058095238095238096
1 0.11571428571428571 0.5780952380952381 0.016428571428571428 0.04
1 0.18428571428571427 0.5885714285714285 0.017857142857142856 0.040952380952380955
1 0.205 0.5895238095238096 0.017142857142857144 0.04
1 0.2357142857142857 0.5942857142857143 0.015714285714285715 0.0419047619047619
1 0.3078571428571429 0.6942857142857143 0.012857142857142857 0.009523809523809525
0 0.30428571428571427 0.6876190476190476 0.004285714285714286 0.007619047619047619
0 0.3964285714285714 0.43238095238095237 0.005 0.004761904761904762
0 0.4228571428571429 0.47904761904761906 0.007857142857142858 0.005714285714285714
1 0.4278571428571429 0.47523809523809524 0.011428571428571429 0.004761904761904762
1 0.3242857142857143 0.5047619047619047 0.02142857142857143 0.05619047619047619
1 0.3628571428571429 0.5095238095238095 0.015714285714285715 0.04285714285714286
1 0.33785714285714286 0.6171428571428571 0.014285714285714285 0.035238095238095235
1 0.355 0.62 0.013571428571428571 0.03333333333333333
1 0.4157142857142857 0.52 0.015 0.05047619047619047
1 0.45071428571428573 0.5276190476190477 0.015 0.04380952380952381
1 0.4328571428571429 0.5238095238095238 0.012857142857142857 0.039047619047619046
1 0.52 0.48 0.015714285714285715 0.04
1 0.48 0.5342857142857143 0.014285714285714285 0.0419047619047619
1 0.49785714285714283 0.5352380952380953 0.014285714285714285 0.04285714285714286
1 0.5557142857142857 0.48 0.015 0.04285714285714286
1 0.5321428571428571 0.5371428571428571 0.012857142857142857 0.04380952380952381
1 0.5835714285714285 0.5495238095238095 0.014285714285714285 0.04476190476190476
1 0.5514285714285714 0.5438095238095239 0.013571428571428571 0.03619047619047619
1 0.7071428571428572 0.44857142857142857 0.03428571428571429 0.02857142857142857
1 0.7614285714285715 0.4514285714285714 0.04642857142857143 0.022857142857142857
1 0.7392857142857143 0.5057142857142857 0.041428571428571426 0.025714285714285714
1 0.7357142857142858 0.5714285714285714 0.022857142857142857 0.05523809523809524
1 0.6971428571428572 0.5657142857142857 0.013571428571428571 0.039047619047619046
1 0.63 0.5542857142857143 0.013571428571428571 0.039047619047619046
1 0.6464285714285715 0.5580952380952381 0.013571428571428571 0.037142857142857144
1 0.7692857142857142 0.13904761904761906 0.03 0.021904761904761906
1 0.66 0.3057142857142857 0.03 0.018095238095238095
1 0.7057142857142857 0.3161904761904762 0.03 0.01904761904761905
1 0.7707142857142857 0.3238095238095238 0.03 0.01904761904761905
1 0.8071428571428572 0.2885714285714286 0.02857142857142857 0.01904761904761905
1 0.7578571428571429 0.26285714285714284 0.03142857142857143 0.021904761904761906
1 0.8128571428571428 0.3342857142857143 0.027142857142857142 0.017142857142857144
0 0.4957142857142857 0.0761904761904762 0.002857142857142857 0.008571428571428572
1 0.48714285714285716 0.15904761904761905 0.03214285714285714 0.023809523809523808
1 0.2907142857142857 0.9742857142857143 0.011428571428571429 0.035238095238095235
1 0.4357142857142857 0.9885714285714285 0.015 0.022857142857142857
1 0.4742857142857143 0.9904761904761905 0.016428571428571428 0.01904761904761905
1 0.9157142857142857 0.9809523809523809 0.018571428571428572 0.037142857142857144
0 0.5235714285714286 0.7019047619047619 0.005 0.007619047619047619
1 0.37142857142857144 0.6228571428571429 0.014285714285714285 0.0419047619047619
1 0.3892857142857143 0.6257142857142857 0.014285714285714285 0.04380952380952381
1 0.40785714285714286 0.6266666666666667 0.014285714285714285 0.04285714285714286
1 0.425 0.6314285714285715 0.012857142857142857 0.03238095238095238
1 0.44142857142857145 0.6342857142857142 0.014285714285714285 0.04
1 0.48928571428571427 0.6390476190476191 0.014285714285714285 0.040952380952380955
1 0.47 0.6390476190476191 0.013571428571428571 0.03619047619047619
1 0.5585714285714286 0.6495238095238095 0.013571428571428571 0.0380952380952381
1 0.6214285714285714 0.660952380952381 0.014285714285714285 0.037142857142857144
1 0.7064285714285714 0.6723809523809524 0.013571428571428571 0.03142857142857143
1 0.7814285714285715 0.6961904761904761 0.016428571428571428 0.035238095238095235
1 0.6557142857142857 0.6657142857142857 0.015714285714285715 0.04476190476190476
1 0.6392857142857142 0.6638095238095238 0.015714285714285715 0.0419047619047619
0 0.7364285714285714 0.6409523809523809 0.005714285714285714 0.005714285714285714
0 0.8257142857142857 0.6552380952380953 0.007857142857142858 0.005714285714285714
1 0.8078571428571428 0.5857142857142857 0.022857142857142857 0.058095238095238096
1 0.8271428571428572 0.6257142857142857 0.023571428571428573 0.012380952380952381
0 0.8457142857142858 0.6438095238095238 0.008571428571428572 0.005714285714285714
0 0.8585714285714285 0.6495238095238095 0.007857142857142858 0.004761904761904762
1 0.9185714285714286 0.16857142857142857 0.04642857142857143 0.03142857142857143
0 0.8528571428571429 0.1676190476190476 0.008571428571428572 0.009523809523809525
0 0.9707142857142858 0.22095238095238096 0.007857142857142858 0.006666666666666667
0 0.92 0.2571428571428571 0.005714285714285714 0.005714285714285714
1 0.5935714285714285 0.6504761904761904 0.018571428571428572 0.047619047619047616
0 0.8764285714285714 0.4542857142857143 0.009285714285714286 0.008571428571428572
1 0.8435714285714285 0.3438095238095238 0.030714285714285715 0.01904761904761905
1 0.8778571428571429 0.3323809523809524 0.02642857142857143 0.021904761904761906
1 0.8671428571428571 0.38952380952380955 0.02 0.058095238095238096
