1 0.2257142857142857 0.9676190476190476 0.05285714285714286 0.06380952380952382
1 0.25285714285714284 0.9266666666666666 0.062142857142857146 0.08285714285714285
1 0.27285714285714285 0.8733333333333333 0.052142857142857144 0.07142857142857142
1 0.3292857142857143 0.8047619047619048 0.054285714285714284 0.06571428571428571
1 0.36357142857142855 0.7676190476190476 0.05142857142857143 0.06190476190476191
1 0.38642857142857145 0.7380952380952381 0.05142857142857143 0.058095238095238096
1 0.4114285714285714 0.7133333333333334 0.05142857142857143 0.05904761904761905
1 0.4342857142857143 0.6857142857142857 0.045714285714285714 0.05238095238095238
1 0.39571428571428574 0.6161904761904762 0.05 0.05142857142857143
1 0.43 0.5980952380952381 0.04285714285714286 0.045714285714285714
1 0.44357142857142856 0.5695238095238095 0.045 0.04857142857142857
1 0.48214285714285715 0.919047619047619 0.06142857142857143 0.08
1 0.5064285714285715 0.8695238095238095 0.06 0.0761904761904762
1 0.6092857142857143 0.6685714285714286 0.05142857142857143 0.05714285714285714
1 0.6321428571428571 0.6333333333333333 0.052142857142857144 0.049523809523809526
1 0.6471428571428571 0.6104761904761905 0.04928571428571429 0.05047619047619047
1 0.6642857142857143 0.5914285714285714 0.047857142857142855 0.054285714285714284
1 0.6885714285714286 0.5752380952380952 0.05357142857142857 0.05523809523809524
1 0.725 0.5171428571428571 0.07 0.06666666666666667
1 0.5542857142857143 0.45904761904761904 0.04357142857142857 0.037142857142857144
1 0.7121428571428572 0.4380952380952381 0.03357142857142857 0.0380952380952381
1 0.6778571428571428 0.42952380952380953 0.03357142857142857 0.045714285714285714
1 0.6471428571428571 0.4095238095238095 0.029285714285714286 0.03619047619047619
1 0.6192857142857143 0.38095238095238093 0.029285714285714286 0.029523809523809525
1 0.5978571428571429 0.3657142857142857 0.02857142857142857 0.03142857142857143
1 0.7378571428571429 0.379047619047619 0.018571428571428572 0.02761904761904762
1 0.6235714285714286 0.3476190476190476 0.03642857142857143 0.03142857142857143
1 0.6428571428571429 0.3342857142857143 0.041428571428571426 0.05047619047619047
1 0.6564285714285715 0.319047619047619 0.04428571428571428 0.05333333333333334
1 0.6342857142857142 0.28285714285714286 0.02857142857142857 0.024761904761904763
1 0.6135714285714285 0.26761904761904765 0.027857142857142858 0.025714285714285714
1 0.5935714285714285 0.2571428571428571 0.02642857142857143 0.025714285714285714
1 0.5014285714285714 0.3028571428571429 0.030714285714285715 0.025714285714285714
1 0.5007142857142857 0.3914285714285714 0.039285714285714285 0.03333333333333333
1 0.46285714285714286 0.3657142857142857 0.03428571428571429 0.03238095238095238
1 0.5178571428571429 0.2904761904761905 0.03357142857142857 0.02666666666666667
1 0.5278571428571428 0.2780952380952381 0.03214285714285714 0.025714285714285714
1 0.4735714285714286 0.2819047619047619 0.03214285714285714 0.02666666666666667
1 0.48714285714285716 0.2714285714285714 0.030714285714285715 0.021904761904761906
1 0.49785714285714283 0.26095238095238094 0.03214285714285714 0.02857142857142857
1 0.5107142857142857 0.25333333333333335 0.030714285714285715 0.022857142857142857
1 0.5257142857142857 0.23809523809523808 0.02857142857142857 0.023809523809523808
1 0.5528571428571428 0.22095238095238096 0.027857142857142858 0.022857142857142857
1 0.41285714285714287 0.20666666666666667 0.025 0.024761904761904763
1 0.42214285714285715 0.1961904761904762 0.02642857142857143 0.021904761904761906
1 0.43642857142857144 0.1895238095238095 0.027142857142857142 0.02095238095238095
1 0.46 0.17238095238095238 0.025714285714285714 0.02095238095238095
1 0.62 0.7895238095238095 0.041428571428571426 0.06571428571428571
1 0.6507142857142857 0.8095238095238095 0.045 0.06952380952380953
1 0.715 0.8752380952380953 0.045714285714285714 0.08095238095238096
1 0.7492857142857143 0.9085714285714286 0.045714285714285714 0.08571428571428572
1 0.7942857142857143 0.9504761904761905 0.047142857142857146 0.09047619047619047
1 0.8321428571428572 0.9704761904761905 0.047857142857142855 0.05904761904761905
