0 0.27285714285714285 0.12095238095238095 0.008571428571428572 0.022857142857142857
0 0.33214285714285713 0.08571428571428572 0.007857142857142858 0.01904761904761905
0 0.37142857142857144 0.14 0.0064285714285714285 0.015238095238095238
0 0.4185714285714286 0.03619047619047619 0.0064285714285714285 0.02095238095238095
0 0.35714285714285715 0.008571428571428572 0.009285714285714286 0.018095238095238095
0 0.4878571428571429 0.24761904761904763 0.007142857142857143 0.024761904761904763
0 0.5271428571428571 0.2819047619047619 0.005714285714285714 0.02666666666666667
0 0.5428571428571428 0.319047619047619 0.0064285714285714285 0.021904761904761906
0 0.5235714285714286 0.40095238095238095 0.009285714285714286 0.023809523809523808
0 0.33071428571428574 0.379047619047619 0.012142857142857143 0.022857142857142857
0 0.2 0.38476190476190475 0.011428571428571429 0.023809523809523808
0 0.23142857142857143 0.4961904761904762 0.011428571428571429 0.021904761904761906
0 0.4828571428571429 0.5047619047619047 0.009285714285714286 0.01904761904761905
0 0.535 0.5142857142857142 0.012142857142857143 0.02
0 0.5635714285714286 0.5476190476190477 0.010714285714285714 0.01904761904761905
0 0.6864285714285714 0.5171428571428571 0.009285714285714286 0.02
0 0.7121428571428572 0.5638095238095238 0.012142857142857143 0.023809523809523808
0 0.7121428571428572 0.56 0.004285714285714286 0.011428571428571429
1 0.67 0.5142857142857142 0.025714285714285714 0.025714285714285714
1 0.5657142857142857 0.5647619047619048 0.03142857142857143 0.017142857142857144
1 0.535 0.52 0.025714285714285714 0.02666666666666667
1 0.5442857142857143 0.49047619047619045 0.027857142857142858 0.017142857142857144
1 0.5364285714285715 0.4742857142857143 0.025714285714285714 0.021904761904761906
1 0.5335714285714286 0.45714285714285713 0.02857142857142857 0.021904761904761906
1 0.5192857142857142 0.4276190476190476 0.025714285714285714 0.018095238095238095
1 0.5242857142857142 0.40190476190476193 0.025 0.02
1 0.5014285714285714 0.36857142857142855 0.02214285714285714 0.014285714285714285
1 0.49857142857142855 0.35428571428571426 0.027142857142857142 0.015238095238095238
1 0.4857142857142857 0.3142857142857143 0.02642857142857143 0.02095238095238095
1 0.48428571428571426 0.29714285714285715 0.027142857142857142 0.01904761904761905
1 0.48142857142857143 0.28 0.012142857142857143 0.022857142857142857
1 0.4657142857142857 0.35904761904761906 0.025 0.023809523809523808
1 0.4735714285714286 0.3904761904761905 0.027857142857142858 0.02761904761904762
1 0.41785714285714287 0.17809523809523808 0.023571428571428573 0.02
1 0.37285714285714283 0.1457142857142857 0.01 0.029523809523809525
1 0.4235714285714286 0.13333333333333333 0.02 0.017142857142857144
1 0.27071428571428574 0.12285714285714286 0.022857142857142857 0.01904761904761905
1 0.33285714285714285 0.09238095238095238 0.01 0.02761904761904762
1 0.41214285714285714 0.08 0.019285714285714285 0.021904761904761906
1 0.41214285714285714 0.06761904761904762 0.014285714285714285 0.021904761904761906
1 0.35714285714285715 0.015238095238095238 0.009285714285714286 0.025714285714285714
1 0.2785714285714286 0.32476190476190475 0.03785714285714286 0.04476190476190476
1 0.03785714285714286 0.5361904761904762 0.07071428571428572 0.05047619047619047
1 0.2664285714285714 0.4742857142857143 0.07785714285714286 0.06476190476190476
1 0.6328571428571429 0.9571428571428572 0.05071428571428571 0.08476190476190476
1 0.72 0.6942857142857143 0.07571428571428572 0.06666666666666667
1 0.7628571428571429 0.6457142857142857 0.07571428571428572 0.05047619047619047
1 0.8185714285714286 0.6 0.08 0.04
1 0.6714285714285714 0.5533333333333333 0.06928571428571428 0.06666666666666667
1 0.4907142857142857 0.4580952380952381 0.037142857142857144 0.0761904761904762
1 0.4828571428571429 0.5085714285714286 0.014285714285714285 0.02857142857142857
1 0.405 0.15047619047619049 0.030714285714285715 0.05333333333333334
1 0.3092857142857143 0.17142857142857143 0.03142857142857143 0.06761904761904762
1 0.2864285714285714 0.058095238095238096 0.027857142857142858 0.05619047619047619
1 0.38357142857142856 0.06571428571428571 0.027857142857142858 0.047619047619047616
1 0.25357142857142856 0.024761904761904763 0.04857142857142857 0.047619047619047616
1 0.8235714285714286 0.4504761904761905 0.02142857142857143 0.02761904761904762
1 0.8371428571428572 0.4504761904761905 0.02 0.02666666666666667
1 0.8442857142857143 0.44571428571428573 0.020714285714285713 0.022857142857142857
0 0.7335714285714285 0.8676190476190476 0.012142857142857143 0.014285714285714285
