1 0.453027139874739 0.5705009276437848 0.03496868475991649 0.038033395176252316
1 0.44154488517745305 0.5473098330241187 0.03288100208768267 0.03525046382189239
1 0.4196242171189979 0.4962894248608534 0.031315240083507306 0.03339517625231911
1 0.5120041753653445 0.9192949907235621 0.03392484342379958 0.075139146567718
1 0.4102296450939457 0.9693877551020408 0.09446764091858037 0.059369202226345084
0 0.3288100208768267 0.8961038961038961 0.008872651356993737 0.03525046382189239
1 0.26252609603340293 0.8320964749536178 0.02035490605427975 0.02040816326530612
1 0.26670146137787054 0.7903525046382189 0.028183716075156576 0.04730983302411874
1 0.28235908141962424 0.6836734693877551 0.015657620041753653 0.021335807050092765
1 0.2609603340292276 0.6892393320964749 0.01722338204592902 0.023191094619666047
1 0.2640918580375783 0.7421150278293135 0.016701461377870562 0.025974025974025976
1 0.26670146137787054 0.74860853432282 0.013569937369519834 0.017625231910946195
1 0.26931106471816285 0.7551020408163265 0.014091858037578288 0.026901669758812616
1 0.2886221294363257 0.5714285714285714 0.04175365344467641 0.03525046382189239
1 0.31315240083507306 0.5435992578849722 0.04018789144050104 0.03525046382189239
1 0.2776617954070981 0.525974025974026 0.043319415448851775 0.04916512059369202
1 0.28131524008350733 0.45454545454545453 0.02139874739039666 0.05658627087198516
1 0.80741127348643 0.6437847866419295 0.09029227557411273 0.12337662337662338
1 0.5934237995824635 0.42393320964749537 0.02244258872651357 0.03153988868274583
