1 0.726 0.948 0.22 0.10333333333333333
1 0.7165 0.8113333333333334 0.203 0.134
1 0.692 0.688 0.1795 0.106
1 0.671 0.5686666666666667 0.182 0.10333333333333333
1 0.667 0.474 0.1595 0.09266666666666666
1 0.657 0.3933333333333333 0.135 0.07933333333333334
1 0.6325 0.274 0.1305 0.08466666666666667
1 0.629 0.17 0.1125 0.07866666666666666
1 0.6205 0.086 0.084 0.06866666666666667
1 0.122 0.9206666666666666 0.2345 0.134
1 0.154 0.7566666666666667 0.1985 0.12466666666666666
0 0.3155 0.8273333333333334 0.0315 0.072
1 0.199 0.6333333333333333 0.188 0.1
1 0.2265 0.534 0.176 0.096
1 0.2735 0.44666666666666666 0.1545 0.096
1 0.262 0.366 0.142 0.084
1 0.276 0.30666666666666664 0.1385 0.076
1 0.287 0.248 0.1135 0.068
1 0.2965 0.17466666666666666 0.1605 0.1
1 0.3305 0.09333333333333334 0.1095 0.058666666666666666
1 0.3375 0.037333333333333336 0.0825 0.051333333333333335
1 0.3545 0.011333333333333334 0.073 0.02266666666666667
0 0.1835 0.132 0.018 0.056
0 0.798 0.41733333333333333 0.022 0.06866666666666667
