1 0.745 0.6878172588832487 0.05285714285714286 0.03553299492385787
0 0.75 0.7157360406091371 0.005 0.027918781725888325
0 0.585 0.4022842639593909 0.005714285714285714 0.021573604060913704
0 0.5764285714285714 0.40482233502538073 0.0064285714285714285 0.027918781725888325
0 0.5785714285714286 0.33375634517766495 0.0064285714285714285 0.025380710659898477
0 0.5992857142857143 0.32614213197969544 0.005714285714285714 0.021573604060913704
0 0.5764285714285714 0.29441624365482233 0.004285714285714286 0.02030456852791878
0 0.5757142857142857 0.2868020304568528 0.005714285714285714 0.021573604060913704
1 0.38 0.18527918781725888 0.013571428571428571 0.02918781725888325
1 0.38642857142857145 0.22461928934010153 0.014285714285714285 0.03553299492385787
1 0.37285714285714283 0.4365482233502538 0.015714285714285715 0.03934010152284264
1 0.37 0.5774111675126904 0.017857142857142856 0.050761421319796954
1 0.3628571428571429 0.815989847715736 0.02214285714285714 0.09517766497461928
1 0.37357142857142855 0.5038071065989848 0.017857142857142856 0.06472081218274112
1 0.3692857142857143 0.1484771573604061 0.019285714285714285 0.03934010152284264
1 0.3335714285714286 0.11548223350253807 0.025714285714285714 0.021573604060913704
1 0.2985714285714286 0.09644670050761421 0.025 0.031725888324873094
1 0.37285714285714283 0.3680203045685279 0.017857142857142856 0.0532994923857868
1 0.36857142857142855 0.6637055837563451 0.02 0.07614213197969544
1 0.3757142857142857 0.31852791878172587 0.017142857142857144 0.03553299492385787
1 0.37714285714285717 0.2753807106598985 0.015714285714285715 0.03680203045685279
1 0.5592857142857143 0.9302030456852792 0.05357142857142857 0.13578680203045684
1 0.4992857142857143 0.012690355329949238 0.017857142857142856 0.025380710659898477
1 0.5335714285714286 0.005076142131979695 0.011428571428571429 0.011421319796954314
