1 0.13714285714285715 0.9514285714285714 0.03428571428571429 0.03142857142857143
1 0.03214285714285714 0.9038095238095238 0.030714285714285715 0.05238095238095238
1 0.0064285714285714285 0.9038095238095238 0.013571428571428571 0.0380952380952381
1 0.015714285714285715 0.8866666666666667 0.022857142857142857 0.04
1 0.08071428571428571 0.8304761904761905 0.015 0.0419047619047619
1 0.11571428571428571 0.8238095238095238 0.02142857142857143 0.04380952380952381
1 0.10285714285714286 0.8095238095238095 0.017857142857142856 0.0419047619047619
0 0.012142857142857143 0.8295238095238096 0.012857142857142857 0.018095238095238095
0 0.02642857142857143 0.8304761904761905 0.014285714285714285 0.022857142857142857
0 0.030714285714285715 0.8161904761904762 0.017857142857142856 0.02
0 0.027142857142857142 0.8057142857142857 0.013571428571428571 0.02
0 0.013571428571428571 0.8104761904761905 0.015 0.02
0 0.05357142857142857 0.799047619047619 0.019285714285714285 0.01904761904761905
0 0.06714285714285714 0.7933333333333333 0.012142857142857143 0.01619047619047619
0 0.08214285714285714 0.7780952380952381 0.018571428571428572 0.02095238095238095
0 0.07 0.7742857142857142 0.015 0.01904761904761905
0 0.05285714285714286 0.7895238095238095 0.015714285714285715 0.014285714285714285
0 0.045 0.78 0.013571428571428571 0.01619047619047619
0 0.062142857142857146 0.7438095238095238 0.014285714285714285 0.02
0 0.11214285714285714 0.7514285714285714 0.01 0.014285714285714285
0 0.2792857142857143 0.660952380952381 0.012142857142857143 0.024761904761904763
0 0.26071428571428573 0.5885714285714285 0.009285714285714286 0.015238095238095238
1 0.32785714285714285 0.6752380952380952 0.05357142857142857 0.07714285714285714
1 0.3028571428571429 0.5914285714285714 0.022857142857142857 0.022857142857142857
1 0.2814285714285714 0.5761904761904761 0.025 0.02095238095238095
1 0.2764285714285714 0.5657142857142857 0.024285714285714285 0.021904761904761906
1 0.32357142857142857 0.5219047619047619 0.015714285714285715 0.022857142857142857
0 0.38642857142857145 0.46 0.005714285714285714 0.015238095238095238
0 0.315 0.4895238095238095 0.010714285714285714 0.01619047619047619
1 0.44357142857142856 0.4704761904761905 0.02142857142857143 0.02
1 0.45357142857142857 0.4180952380952381 0.015714285714285715 0.022857142857142857
1 0.4957142857142857 0.5247619047619048 0.02142857142857143 0.017142857142857144
1 0.5007142857142857 0.5123809523809524 0.023571428571428573 0.025714285714285714
1 0.5092857142857142 0.5057142857142857 0.024285714285714285 0.022857142857142857
1 0.5157142857142857 0.4942857142857143 0.02214285714285714 0.02095238095238095
1 0.5228571428571429 0.4866666666666667 0.022857142857142857 0.02666666666666667
0 0.4592857142857143 0.4 0.01 0.01619047619047619
0 0.46714285714285714 0.40095238095238095 0.007142857142857143 0.013333333333333334
1 0.505 0.3514285714285714 0.013571428571428571 0.01904761904761905
0 0.5321428571428571 0.3780952380952381 0.0064285714285714285 0.021904761904761906
1 0.5471428571428572 0.37714285714285717 0.03 0.04476190476190476
0 0.5242857142857142 0.29714285714285715 0.007857142857142858 0.01904761904761905
1 0.5492857142857143 0.29428571428571426 0.014285714285714285 0.018095238095238095
0 0.5514285714285714 0.2885714285714286 0.007142857142857143 0.01904761904761905
1 0.6142857142857143 0.24761904761904763 0.04071428571428572 0.029523809523809525
1 0.6535714285714286 0.20761904761904762 0.039285714285714285 0.029523809523809525
1 0.6678571428571428 0.3333333333333333 0.04642857142857143 0.03428571428571429
1 0.7364285714285714 0.2542857142857143 0.04 0.0380952380952381
1 0.615 0.6752380952380952 0.05785714285714286 0.20761904761904762
1 0.8121428571428572 0.6961904761904761 0.04928571428571429 0.08285714285714285
1 0.7292857142857143 0.5647619047619048 0.13142857142857142 0.2180952380952381
1 0.8271428571428572 0.40095238095238095 0.03428571428571429 0.04476190476190476
1 0.8814285714285715 0.2819047619047619 0.07285714285714286 0.11714285714285715
1 0.77 0.319047619047619 0.013571428571428571 0.02095238095238095
0 0.7721428571428571 0.31333333333333335 0.009285714285714286 0.02
0 0.8285714285714286 0.23904761904761904 0.008571428571428572 0.01619047619047619
1 0.8285714285714286 0.24285714285714285 0.012857142857142857 0.01904761904761905
1 0.8935714285714286 0.14857142857142858 0.011428571428571429 0.018095238095238095
0 0.895 0.14095238095238094 0.009285714285714286 0.014285714285714285
1 0.7985714285714286 0.22 0.07285714285714286 0.10285714285714286
1 0.8457142857142858 0.15523809523809523 0.05785714285714286 0.08476190476190476
1 0.9485714285714286 0.1761904761904762 0.025714285714285714 0.02666666666666667
1 0.975 0.10476190476190476 0.05 0.09619047619047619
1 0.8914285714285715 0.09523809523809523 0.022857142857142857 0.025714285714285714
1 0.9242857142857143 0.05238095238095238 0.035 0.049523809523809526
1 0.9471428571428572 0.022857142857142857 0.04 0.04666666666666667
1 0.7628571428571429 0.11142857142857143 0.020714285714285713 0.022857142857142857
1 0.7592857142857142 0.1 0.032857142857142856 0.025714285714285714
1 0.7371428571428571 0.09142857142857143 0.012142857142857143 0.01619047619047619
1 0.7885714285714286 0.07809523809523809 0.04928571428571429 0.04
1 0.8078571428571428 0.04 0.03142857142857143 0.02
1 0.8242857142857143 0.024761904761904763 0.015714285714285715 0.012380952380952381
1 0.8192857142857143 0.021904761904761906 0.014285714285714285 0.012380952380952381
0 0.3442857142857143 0.8304761904761905 0.008571428571428572 0.014285714285714285
0 0.35428571428571426 0.8295238095238096 0.010714285714285714 0.023809523809523808
1 0.37357142857142855 0.780952380952381 0.025714285714285714 0.03142857142857143
0 0.37285714285714283 0.7790476190476191 0.018571428571428572 0.02761904761904762
1 0.5885714285714285 0.9057142857142857 0.025 0.045714285714285714
0 0.5914285714285714 0.9038095238095238 0.02 0.03333333333333333
