1 0.375 0.8781725888324873 0.04642857142857143 0.03934010152284264
1 0.38571428571428573 0.8401015228426396 0.041428571428571426 0.03807106598984772
1 0.3914285714285714 0.799492385786802 0.04357142857142857 0.04187817258883249
1 0.39285714285714285 0.7576142131979695 0.04642857142857143 0.046954314720812185
1 0.4064285714285714 0.7296954314720813 0.04 0.03934010152284264
1 0.4642857142857143 0.5812182741116751 0.016428571428571428 0.044416243654822336
1 0.46785714285714286 0.5215736040609137 0.015 0.03934010152284264
1 0.4957142857142857 0.4873096446700508 0.014285714285714285 0.044416243654822336
1 0.47785714285714287 0.4530456852791878 0.015 0.031725888324873094
1 0.555 0.616751269035533 0.016428571428571428 0.04314720812182741
1 0.5464285714285714 0.7144670050761421 0.02 0.05456852791878172
1 0.5621428571428572 0.7715736040609137 0.019285714285714285 0.05583756345177665
1 0.5635714285714286 0.565989847715736 0.014285714285714285 0.046954314720812185
1 0.5671428571428572 0.4606598984771574 0.013571428571428571 0.03553299492385787
1 0.55 0.4403553299492386 0.012857142857142857 0.03299492385786802
1 0.5642857142857143 0.4149746192893401 0.012857142857142857 0.027918781725888325
1 0.565 0.38071065989847713 0.012857142857142857 0.027918781725888325
1 0.5428571428571428 0.37182741116751267 0.016428571428571428 0.027918781725888325
1 0.5714285714285714 0.29949238578680204 0.02214285714285714 0.02284263959390863
1 0.5485714285714286 0.2563451776649746 0.01 0.030456852791878174
1 0.5507142857142857 0.19289340101522842 0.01 0.027918781725888325
1 0.5314285714285715 0.22715736040609136 0.012857142857142857 0.025380710659898477
1 0.5164285714285715 0.22588832487309646 0.010714285714285714 0.027918781725888325
1 0.57 0.13578680203045684 0.01 0.017766497461928935
1 0.5664285714285714 0.06472081218274112 0.008571428571428572 0.017766497461928935
1 0.6064285714285714 0.2436548223350254 0.011428571428571429 0.025380710659898477
1 0.5771428571428572 0.6687817258883249 0.017142857142857144 0.050761421319796954
1 0.6328571428571429 0.7652284263959391 0.037142857142857144 0.05583756345177665
1 0.6592857142857143 0.800761421319797 0.03 0.05456852791878172
1 0.6857142857142857 0.815989847715736 0.02857142857142857 0.05710659898477157
1 0.7171428571428572 0.8286802030456852 0.03571428571428571 0.06091370558375635
1 0.6064285714285714 0.7106598984771574 0.03785714285714286 0.03553299492385787
1 0.7042857142857143 0.5609137055837563 0.020714285714285713 0.044416243654822336
1 0.8142857142857143 0.866751269035533 0.03357142857142857 0.050761421319796954
1 0.6628571428571428 0.26903553299492383 0.009285714285714286 0.030456852791878174
1 0.5014285714285714 0.2880710659898477 0.011428571428571429 0.027918781725888325
1 0.5107142857142857 0.2639593908629442 0.011428571428571429 0.025380710659898477
1 0.5228571428571429 0.1446700507614213 0.01 0.01903553299492386
1 0.49714285714285716 0.19543147208121828 0.02 0.01649746192893401
1 0.5328571428571428 0.007614213197969543 0.016428571428571428 0.011421319796954314
1 0.6107142857142858 0.16116751269035534 0.01 0.02284263959390863
1 0.6128571428571429 0.1383248730964467 0.008571428571428572 0.017766497461928935
1 0.6085714285714285 0.12309644670050761 0.018571428571428572 0.012690355329949238
1 0.6085714285714285 0.1116751269035533 0.018571428571428572 0.008883248730964468
1 0.6085714285714285 0.11040609137055837 0.017142857142857144 0.013959390862944163
1 0.6064285714285714 0.28553299492385786 0.019285714285714285 0.021573604060913704
1 0.6135714285714285 0.2715736040609137 0.01 0.024111675126903553
1 0.6414285714285715 0.25380710659898476 0.027857142857142858 0.024111675126903553
1 0.65 0.233502538071066 0.02142857142857143 0.02030456852791878
1 0.6414285714285715 0.3413705583756345 0.02857142857142857 0.027918781725888325
1 0.6021428571428571 0.36421319796954316 0.022857142857142857 0.031725888324873094
1 0.6035714285714285 0.38578680203045684 0.024285714285714285 0.0266497461928934
1 0.645 0.48984771573604063 0.029285714285714286 0.030456852791878174
1 0.6071428571428571 0.5215736040609137 0.035 0.0266497461928934
1 0.6821428571428572 0.4302030456852792 0.03142857142857143 0.021573604060913704
1 0.6721428571428572 0.41624365482233505 0.03 0.025380710659898477
1 0.665 0.38578680203045684 0.030714285714285715 0.025380710659898477
1 0.6671428571428571 0.3730964467005076 0.030714285714285715 0.02284263959390863
1 0.6785714285714286 0.33375634517766495 0.025714285714285714 0.021573604060913704
1 0.6728571428571428 0.31091370558375636 0.02642857142857143 0.02284263959390863
1 0.6814285714285714 0.4619289340101523 0.032857142857142856 0.027918781725888325
1 0.6885714285714286 0.48350253807106597 0.03357142857142857 0.025380710659898477
1 0.6885714285714286 0.5025380710659898 0.035 0.02918781725888325
1 0.3007142857142857 0.616751269035533 0.023571428571428573 0.0532994923857868
1 0.24714285714285714 0.6015228426395939 0.03785714285714286 0.027918781725888325
1 0.2092857142857143 0.7093908629441624 0.04071428571428572 0.03680203045685279
1 0.22 0.6852791878172588 0.04428571428571428 0.03680203045685279
1 0.18214285714285713 0.7817258883248731 0.05071428571428571 0.03553299492385787
1 0.30642857142857144 0.6954314720812182 0.027142857142857142 0.0583756345177665
1 0.2857142857142857 0.7614213197969543 0.024285714285714285 0.06472081218274112
1 0.3192857142857143 0.6294416243654822 0.02214285714285714 0.0532994923857868
1 0.4107142857142857 0.6941624365482234 0.04071428571428572 0.03299492385786802
1 0.4164285714285714 0.6637055837563451 0.04 0.031725888324873094
1 0.4235714285714286 0.6395939086294417 0.04 0.025380710659898477
0 0.4835714285714286 0.3350253807106599 0.005714285714285714 0.01649746192893401
0 0.4592857142857143 0.38071065989847713 0.0064285714285714285 0.01649746192893401
0 0.4521428571428571 0.4200507614213198 0.0035714285714285713 0.01649746192893401
0 0.45 0.4289340101522843 0.004285714285714286 0.02030456852791878
0 0.5314285714285715 0.4010152284263959 0.005 0.017766497461928935
0 0.5928571428571429 0.4619289340101523 0.005714285714285714 0.02030456852791878
0 0.5664285714285714 0.4263959390862944 0.005 0.01903553299492386
0 0.585 0.5431472081218274 0.005714285714285714 0.02284263959390863
0 0.3942857142857143 0.3946700507614213 0.005 0.017766497461928935
0 0.3992857142857143 0.4086294416243655 0.005714285714285714 0.017766497461928935
0 0.3414285714285714 0.39086294416243655 0.0064285714285714285 0.021573604060913704
0 0.4278571428571429 0.5279187817258884 0.005714285714285714 0.02030456852791878
0 0.4307142857142857 0.5203045685279187 0.005 0.02030456852791878
0 0.4514285714285714 0.38071065989847713 0.005714285714285714 0.01903553299492386
1 0.45 0.38451776649746194 0.005714285714285714 0.01649746192893401
0 0.5192857142857142 0.25888324873096447 0.0035714285714285713 0.017766497461928935
0 0.5792857142857143 0.2652284263959391 0.005 0.017766497461928935
0 0.5985714285714285 0.17766497461928935 0.002857142857142857 0.015228426395939087
1 0.5842857142857143 0.19543147208121828 0.013571428571428571 0.046954314720812185
0 0.5257142857142857 0.16116751269035534 0.0035714285714285713 0.01649746192893401
0 0.06357142857142857 0.35152284263959394 0.0064285714285714285 0.02030456852791878
0 0.056428571428571425 0.35152284263959394 0.007857142857142858 0.02030456852791878
0 0.05071428571428571 0.35152284263959394 0.007142857142857143 0.02030456852791878
1 0.08071428571428571 0.24873096446700507 0.022857142857142857 0.01903553299492386
1 0.09142857142857143 0.23857868020304568 0.02214285714285714 0.021573604060913704
1 0.10928571428571429 0.21573604060913706 0.02214285714285714 0.017766497461928935
1 0.12571428571428572 0.19035532994923857 0.020714285714285713 0.01649746192893401
0 0.5135714285714286 0.14974619289340102 0.002857142857142857 0.015228426395939087
0 0.5114285714285715 0.13705583756345177 0.002857142857142857 0.017766497461928935
0 0.515 0.13451776649746192 0.0035714285714285713 0.013959390862944163
1 0.5214285714285715 0.19923857868020303 0.01 0.030456852791878174
0 0.62 0.20431472081218274 0.002857142857142857 0.01649746192893401
0 0.615 0.19796954314720813 0.002857142857142857 0.013959390862944163
0 0.6921428571428572 0.24111675126903553 0.0035714285714285713 0.01649746192893401
0 0.7142857142857143 0.4302030456852792 0.004285714285714286 0.01649746192893401
0 0.6964285714285714 0.3350253807106599 0.002857142857142857 0.01903553299492386
0 0.6985714285714286 0.3362944162436548 0.002142857142857143 0.015228426395939087
0 0.6814285714285714 0.27411167512690354 0.004285714285714286 0.017766497461928935
0 0.6864285714285714 0.20812182741116753 0.002857142857142857 0.01649746192893401
0 0.6885714285714286 0.20939086294416243 0.0035714285714285713 0.013959390862944163
0 0.6757142857142857 0.19289340101522842 0.004285714285714286 0.013959390862944163
0 0.6728571428571428 0.17766497461928935 0.0035714285714285713 0.013959390862944163
0 0.6785714285714286 0.1865482233502538 0.004285714285714286 0.015228426395939087
0 0.6785714285714286 0.1802030456852792 0.004285714285714286 0.01649746192893401
0 0.68 0.14593908629441624 0.0035714285714285713 0.013959390862944163
0 0.7035714285714286 0.22588832487309646 0.004285714285714286 0.01649746192893401
0 0.6885714285714286 0.18908629441624367 0.002857142857142857 0.015228426395939087
0 0.6735714285714286 0.12563451776649745 0.002857142857142857 0.011421319796954314
0 0.6707142857142857 0.12563451776649745 0.002857142857142857 0.01015228426395939
1 0.63 0.1649746192893401 0.0035714285714285713 0.01015228426395939
1 0.7164285714285714 0.37817258883248733 0.005714285714285714 0.015228426395939087
1 0.7242857142857143 0.43908629441624364 0.005 0.021573604060913704
1 0.7207142857142858 0.44289340101522845 0.005 0.01649746192893401
1 0.74 0.4746192893401015 0.005 0.01649746192893401
0 0.6307142857142857 0.10406091370558376 0.002142857142857143 0.013959390862944163
0 0.6292857142857143 0.10406091370558376 0.002857142857142857 0.015228426395939087
0 0.6678571428571428 0.050761421319796954 0.002857142857142857 0.012690355329949238
0 0.6628571428571428 0.021573604060913704 0.0035714285714285713 0.012690355329949238
0 0.6621428571428571 0.07741116751269035 0.0035714285714285713 0.015228426395939087
0 0.6728571428571428 0.08375634517766498 0.0035714285714285713 0.015228426395939087
0 0.6707142857142857 0.08375634517766498 0.002857142857142857 0.012690355329949238
1 0.6792857142857143 0.11040609137055837 0.005714285714285714 0.013959390862944163
0 0.5964285714285714 0.027918781725888325 0.0035714285714285713 0.013959390862944163
0 0.5957142857142858 0.03680203045685279 0.002857142857142857 0.013959390862944163
0 0.5771428571428572 0.06725888324873096 0.0035714285714285713 0.01015228426395939
1 0.5771428571428572 0.06852791878172589 0.002142857142857143 0.011421319796954314
0 0.6707142857142857 0.01015228426395939 0.002142857142857143 0.011421319796954314
0 0.6685714285714286 0.006345177664974619 0.002857142857142857 0.011421319796954314
0 0.6657142857142857 0.005076142131979695 0.002142857142857143 0.011421319796954314
0 0.6635714285714286 0.007614213197969543 0.002857142857142857 0.01015228426395939
0 0.6607142857142857 0.007614213197969543 0.002857142857142857 0.008883248730964468
0 0.6585714285714286 0.008883248730964468 0.002857142857142857 0.011421319796954314
0 0.6557142857142857 0.0532994923857868 0.0035714285714285713 0.015228426395939087
1 0.6071428571428571 0.03680203045685279 0.017142857142857144 0.012690355329949238
1 0.6164285714285714 0.017766497461928935 0.015 0.011421319796954314
1 0.6171428571428571 0.013959390862944163 0.014285714285714285 0.01015228426395939
1 0.6164285714285714 0.008883248730964468 0.014285714285714285 0.01015228426395939
1 0.6071428571428571 0.02030456852791878 0.014285714285714285 0.01015228426395939
1 0.6064285714285714 0.0266497461928934 0.014285714285714285 0.01015228426395939
1 0.6064285714285714 0.031725888324873094 0.014285714285714285 0.01015228426395939
1 0.6528571428571428 0.21446700507614214 0.02142857142857143 0.017766497461928935
1 0.6542857142857142 0.2017766497461929 0.02142857142857143 0.01649746192893401
1 0.655 0.18527918781725888 0.02142857142857143 0.017766497461928935
1 0.6557142857142857 0.17639593908629442 0.02142857142857143 0.01649746192893401
1 0.6514285714285715 0.1649746192893401 0.027857142857142858 0.02030456852791878
1 0.6557142857142857 0.15101522842639595 0.020714285714285713 0.013959390862944163
1 0.6542857142857142 0.13959390862944163 0.017142857142857144 0.012690355329949238
1 0.6492857142857142 0.12436548223350254 0.02 0.01649746192893401
1 0.6442857142857142 0.10279187817258884 0.017142857142857144 0.017766497461928935
1 0.6507142857142857 0.08248730964467005 0.017857142857142856 0.015228426395939087
1 0.6457142857142857 0.07614213197969544 0.016428571428571428 0.015228426395939087
1 0.6464285714285715 0.06472081218274112 0.019285714285714285 0.012690355329949238
1 0.6457142857142857 0.0583756345177665 0.016428571428571428 0.012690355329949238
1 0.6414285714285715 0.05456852791878172 0.016428571428571428 0.013959390862944163
1 0.6414285714285715 0.044416243654822336 0.017142857142857144 0.012690355329949238
1 0.6435714285714286 0.03934010152284264 0.016428571428571428 0.012690355329949238
1 0.6357142857142857 0.025380710659898477 0.017857142857142856 0.011421319796954314
1 0.6428571428571429 0.024111675126903553 0.017142857142857144 0.012690355329949238
1 0.6421428571428571 0.013959390862944163 0.015714285714285715 0.011421319796954314
1 0.6278571428571429 0.06218274111675127 0.007857142857142858 0.01903553299492386
0 0.655 0.046954314720812185 0.0035714285714285713 0.01649746192893401
0 0.6707142857142857 0.11421319796954314 0.002142857142857143 0.013959390862944163
1 0.67 0.14593908629441624 0.0035714285714285713 0.011421319796954314
1 0.6614285714285715 0.11294416243654823 0.0064285714285714285 0.007614213197969543
1 0.6678571428571428 0.13071065989847716 0.004285714285714286 0.013959390862944163
1 0.6778571428571428 0.09390862944162437 0.0035714285714285713 0.011421319796954314
0 0.6892857142857143 0.16624365482233502 0.005714285714285714 0.013959390862944163
1 0.6135714285714285 0.631979695431472 0.016428571428571428 0.04949238578680203
0 0.6378571428571429 0.6408629441624365 0.005714285714285714 0.025380710659898477
0 0.7328571428571429 0.6878172588832487 0.005714285714285714 0.02284263959390863
0 0.7385714285714285 0.6878172588832487 0.005714285714285714 0.021573604060913704
0 0.6928571428571428 0.6967005076142132 0.007142857142857143 0.024111675126903553
0 0.6878571428571428 0.6928934010152284 0.005714285714285714 0.02284263959390863
0 0.7378571428571429 0.7728426395939086 0.007142857142857143 0.027918781725888325
1 0.705 0.6586294416243654 0.007142857142857143 0.021573604060913704
1 0.7464285714285714 0.8439086294416244 0.039285714285714285 0.05583756345177665
1 0.8907142857142857 0.8857868020304569 0.04 0.05456852791878172
1 0.9414285714285714 0.8946700507614214 0.03214285714285714 0.06345177664974619
1 0.8221428571428572 0.9213197969543148 0.055714285714285716 0.05710659898477157
1 0.775 0.866751269035533 0.037142857142857144 0.0583756345177665
1 0.845 0.8730964467005076 0.04 0.05964467005076142
1 0.6914285714285714 0.9365482233502538 0.052142857142857144 0.04568527918781726
1 0.6007142857142858 0.9149746192893401 0.05142857142857143 0.050761421319796954
1 0.5964285714285714 0.9530456852791879 0.05 0.05203045685279188
0 0.5642857142857143 0.9467005076142132 0.0064285714285714285 0.02918781725888325
0 0.5578571428571428 0.9593908629441624 0.007142857142857143 0.0266497461928934
1 0.6028571428571429 0.9860406091370558 0.05285714285714286 0.025380710659898477
0 0.7564285714285715 0.9911167512690355 0.007142857142857143 0.015228426395939087
0 0.8135714285714286 0.9581218274111675 0.009285714285714286 0.025380710659898477
0 0.8114285714285714 0.949238578680203 0.009285714285714286 0.0266497461928934
0 0.8528571428571429 0.916243654822335 0.008571428571428572 0.021573604060913704
0 0.8507142857142858 0.9048223350253807 0.009285714285714286 0.021573604060913704
0 0.8478571428571429 0.9048223350253807 0.0064285714285714285 0.021573604060913704
0 0.8685714285714285 0.8730964467005076 0.009285714285714286 0.02918781725888325
0 0.9392857142857143 0.934010152284264 0.01 0.0266497461928934
0 0.9414285714285714 0.8362944162436549 0.010714285714285714 0.0266497461928934
0 0.9571428571428572 0.8477157360406091 0.010714285714285714 0.025380710659898477
0 0.9107142857142857 0.8401015228426396 0.007142857142857143 0.024111675126903553
0 0.8985714285714286 0.8096446700507615 0.007142857142857143 0.024111675126903553
0 0.91 0.8096446700507615 0.010714285714285714 0.021573604060913704
1 0.9771428571428571 0.899746192893401 0.03857142857142857 0.07233502538071065
1 0.855 0.9873096446700508 0.023571428571428573 0.02284263959390863
1 0.9071428571428571 0.9847715736040609 0.02857142857142857 0.027918781725888325
1 0.8842857142857142 0.9847715736040609 0.025714285714285714 0.027918781725888325
0 0.6685714285714286 0.116751269035533 0.002857142857142857 0.011421319796954314
1 0.2357142857142857 0.9276649746192893 0.052142857142857144 0.048223350253807105
1 0.22142857142857142 0.9758883248730964 0.05785714285714286 0.04060913705583756
1 0.15642857142857142 0.8895939086294417 0.06642857142857143 0.06218274111675127
