1 0.46085594989561585 0.8033395176252319 0.029749478079331943 0.08719851576994433
1 0.5109603340292276 0.5148423005565863 0.016701461377870562 0.045454545454545456
1 0.5 0.3534322820037106 0.014613778705636743 0.03153988868274583
1 0.5271398747390397 0.3432282003710575 0.012004175365344467 0.027829313543599257
1 0.5563674321503131 0.3302411873840445 0.013048016701461378 0.03339517625231911
1 0.5615866388308977 0.2690166975881262 0.012004175365344467 0.023191094619666047
1 0.8851774530271399 0.9304267161410018 0.0652400835073069 0.05473098330241188
1 0.15709812108559498 0.4035250463821892 0.022964509394572025 0.02411873840445269
1 0.1278705636743215 0.3979591836734694 0.02661795407098121 0.021335807050092765
1 0.08402922755741127 0.39332096474953615 0.030271398747390398 0.025974025974025976
1 0.017745302713987474 0.38868274582560297 0.033402922755741124 0.026901669758812616
1 0.18580375782881003 0.32560296846011133 0.029749478079331943 0.02040816326530612
1 0.3178496868475992 0.35528756957328383 0.016701461377870562 0.030612244897959183
1 0.5245302713987474 0.13636363636363635 0.007828810020876827 0.01948051948051948
1 0.5845511482254697 0.3320964749536178 0.017745302713987474 0.07050092764378478
1 0.5631524008350731 0.18831168831168832 0.008872651356993737 0.015769944341372914
1 0.55741127348643 0.11131725417439703 0.007306889352818371 0.012059369202226345
1 0.5594989561586639 0.09276437847866419 0.006263048016701462 0.011131725417439703
1 0.5636743215031316 0.07421150278293136 0.006263048016701462 0.012059369202226345
1 0.5067849686847599 0.1038961038961039 0.010960334029227558 0.03153988868274583
1 0.5323590814196242 0.03710575139146568 0.005741127348643006 0.011131725417439703
1 0.5563674321503131 0.04452690166975881 0.005219206680584551 0.01020408163265306
1 0.5631524008350731 0.02504638218923933 0.005219206680584551 0.00927643784786642
1 0.6257828810020877 0.3562152133580705 0.02139874739039666 0.025974025974025976
1 0.6910229645093946 0.3784786641929499 0.028183716075156576 0.023191094619666047
1 0.6659707724425887 0.44063079777365494 0.016701461377870562 0.03339517625231911
1 0.6884133611691023 0.3608534322820037 0.030271398747390398 0.023191094619666047
1 0.6784968684759917 0.3358070500927644 0.029227557411273485 0.01948051948051948
1 0.680062630480167 0.3079777365491651 0.027661795407098122 0.02040816326530612
1 0.68580375782881 0.3163265306122449 0.02244258872651357 0.02411873840445269
1 0.6816283924843424 0.3469387755102041 0.024008350730688934 0.02040816326530612
1 0.7776617954070981 0.6901669758812616 0.042275574112734866 0.041743970315398886
1 0.7860125260960334 0.7560296846011132 0.05219206680584551 0.041743970315398886
1 0.7792275574112735 0.787569573283859 0.008350730688935281 0.030612244897959183
1 0.7907098121085595 0.7903525046382189 0.006263048016701462 0.032467532467532464
1 0.7708768267223383 0.47031539888682744 0.009916492693110648 0.014842300556586271
1 0.7134655532359081 0.2949907235621521 0.009916492693110648 0.01020408163265306
1 0.7176409185803758 0.3144712430426716 0.012004175365344467 0.014842300556586271
1 0.8053235908141962 0.5853432282003711 0.013048016701461378 0.02040816326530612
1 0.7526096033402923 0.5862708719851577 0.04697286012526096 0.04359925788497217
1 0.7306889352818372 0.525974025974026 0.03392484342379958 0.036178107606679034
1 0.7254697286012526 0.4935064935064935 0.037056367432150315 0.030612244897959183
1 0.6435281837160751 0.2847866419294991 0.011482254697286013 0.01855287569573284
0 0.6508350730688935 0.29313543599257885 0.0026096033402922755 0.016697588126159554
0 0.656054279749478 0.2922077922077922 0.0026096033402922755 0.016697588126159554
0 0.6236951983298539 0.22727272727272727 0.003131524008350731 0.01020408163265306
1 0.6231732776617954 0.23283858998144713 0.0041753653444676405 0.008348794063079777
1 0.6638830897703549 0.2569573283858998 0.021920668058455117 0.01855287569573284
1 0.662839248434238 0.24860853432282004 0.021920668058455117 0.014842300556586271
1 0.680062630480167 0.22820037105751392 0.021920668058455117 0.01855287569573284
1 0.6544885177453027 0.22634508348794063 0.02139874739039666 0.015769944341372914
1 0.6518789144050104 0.19109461966604824 0.006784968684759917 0.008348794063079777
1 0.6200417536534447 0.16975881261595546 0.008872651356993737 0.017625231910946195
1 0.6351774530271399 0.16048237476808905 0.016701461377870562 0.016697588126159554
1 0.6069937369519833 0.07977736549165121 0.006263048016701462 0.012059369202226345
1 0.5292275574112735 0.026901669758812616 0.005741127348643006 0.011131725417439703
1 0.6043841336116911 0.07050092764378478 0.005741127348643006 0.012059369202226345
1 0.6022964509394572 0.06586270871985157 0.006263048016701462 0.00927643784786642
1 0.5996868475991649 0.05102040816326531 0.005741127348643006 0.00927643784786642
1 0.5981210855949896 0.04638218923933209 0.007828810020876827 0.0074211502782931356
1 0.5975991649269311 0.04081632653061224 0.004697286012526096 0.00927643784786642
1 0.558455114822547 0.016697588126159554 0.005741127348643006 0.0074211502782931356
1 0.5594989561586639 0.008348794063079777 0.0041753653444676405 0.0074211502782931356
0 0.5876826722338204 0.1456400742115028 0.0020876826722338203 0.00927643784786642
1 0.587160751565762 0.15120593692022263 0.0026096033402922755 0.008348794063079777
0 0.4681628392484342 0.20037105751391465 0.0036534446764091857 0.008348794063079777
1 0.46764091858037576 0.20686456400742115 0.0036534446764091857 0.008348794063079777
1 0.4222338204592902 0.46289424860853434 0.006263048016701462 0.014842300556586271
0 0.4102296450939457 0.4601113172541744 0.005219206680584551 0.012059369202226345
0 0.42171189979123175 0.45269016697588127 0.005219206680584551 0.013914656771799629
1 0.4102296450939457 0.4675324675324675 0.0041753653444676405 0.012059369202226345
