1 0.31285714285714283 0.01649746192893401 0.01 0.021573604060913704
1 0.34214285714285714 0.07233502538071065 0.024285714285714285 0.021573604060913704
1 0.4757142857142857 0.1319796954314721 0.025 0.021573604060913704
1 0.4328571428571429 0.09137055837563451 0.025714285714285714 0.027918781725888325
1 0.38785714285714284 0.05964467005076142 0.03857142857142857 0.031725888324873094
1 0.5114285714285715 0.16243654822335024 0.025 0.02284263959390863
1 0.325 0.22461928934010153 0.011428571428571429 0.03299492385786802
1 0.315 0.3083756345177665 0.017857142857142856 0.05964467005076142
1 0.38785714285714284 0.40482233502538073 0.01 0.050761421319796954
1 0.37 0.8286802030456852 0.014285714285714285 0.06345177664974619
0 0.49785714285714283 0.8870558375634517 0.004285714285714286 0.012690355329949238
0 0.5057142857142857 0.6573604060913706 0.002857142857142857 0.011421319796954314
1 0.43642857142857144 0.7284263959390863 0.008571428571428572 0.03426395939086294
1 0.5892857142857143 0.12690355329949238 0.022857142857142857 0.024111675126903553
1 0.7635714285714286 0.19923857868020303 0.030714285714285715 0.025380710659898477
0 0.5135714285714286 0.6763959390862944 0.0035714285714285713 0.006345177664974619
0 0.5064285714285715 0.7829949238578681 0.002857142857142857 0.011421319796954314
