1 0.1525 0.9713333333333334 0.0385 0.05266666666666667
1 0.183 0.9053333333333333 0.0385 0.06333333333333334
1 0.212 0.8306666666666667 0.031 0.048666666666666664
1 0.235 0.7666666666666667 0.029 0.056
1 0.2535 0.722 0.0265 0.04133333333333333
0 0.2605 0.74 0.005 0.008
0 0.2615 0.732 0.0045 0.014
0 0.29 0.6953333333333334 0.0055 0.022
0 0.272 0.748 0.007 0.016
0 0.274 0.744 0.005 0.014666666666666666
1 0.274 0.7513333333333333 0.01 0.018
1 0.267 0.678 0.0195 0.038
1 0.283 0.6426666666666667 0.021 0.037333333333333336
1 0.3005 0.624 0.0065 0.017333333333333333
0 0.296 0.6566666666666666 0.005 0.019333333333333334
0 0.292 0.6133333333333333 0.006 0.016666666666666666
1 0.3055 0.59 0.0165 0.02266666666666667
1 0.3135 0.562 0.0185 0.029333333333333333
1 0.3245 0.5373333333333333 0.0175 0.025333333333333333
1 0.341 0.49866666666666665 0.0165 0.022
1 0.352 0.518 0.0035 0.009333333333333334
0 0.3515 0.514 0.0045 0.009333333333333334
1 0.365 0.4246666666666667 0.0035 0.006
0 0.3645 0.422 0.0035 0.008
1 0.369 0.4673333333333333 0.0095 0.008
0 0.368 0.4633333333333333 0.004 0.01
0 0.3695 0.46 0.0025 0.011333333333333334
1 0.37 0.4646666666666667 0.0105 0.006666666666666667
1 0.389 0.46066666666666667 0.0185 0.029333333333333333
1 0.4025 0.48733333333333334 0.0135 0.020666666666666667
1 0.4155 0.44466666666666665 0.0115 0.016666666666666666
1 0.425 0.4033333333333333 0.0115 0.016
1 0.4085 0.4053333333333333 0.013 0.018666666666666668
1 0.433 0.376 0.0105 0.014
1 0.437 0.35533333333333333 0.008 0.012
1 0.4235 0.362 0.0095 0.012666666666666666
1 0.4495 0.35533333333333333 0.009 0.012666666666666666
1 0.4425 0.3373333333333333 0.009 0.012666666666666666
1 0.435 0.322 0.0085 0.014
1 0.447 0.32133333333333336 0.0075 0.011333333333333334
1 0.4475 0.2813333333333333 0.0065 0.009333333333333334
1 0.461 0.268 0.006 0.01
1 0.4695 0.266 0.006 0.008666666666666666
1 0.466 0.24866666666666667 0.005 0.007333333333333333
1 0.4755 0.24733333333333332 0.0055 0.008
1 0.472 0.232 0.005 0.007333333333333333
1 0.473 0.222 0.0055 0.006666666666666667
1 0.4695 0.17066666666666666 0.004 0.004666666666666667
1 0.242 0.9673333333333334 0.038 0.06
1 0.3755 0.89 0.0275 0.05533333333333333
1 0.3455 0.7033333333333334 0.023 0.037333333333333336
1 0.3765 0.654 0.022 0.035333333333333335
1 0.3835 0.5573333333333333 0.0155 0.02666666666666667
1 0.4335 0.7253333333333334 0.021 0.042
1 0.524 0.968 0.029 0.062
1 0.516 0.8706666666666667 0.0275 0.051333333333333335
1 0.581 0.85 0.014 0.022
1 0.583 0.822 0.0195 0.018
1 0.48 0.74 0.0065 0.02266666666666667
0 0.48 0.7366666666666667 0.007 0.014666666666666666
0 0.4885 0.7273333333333334 0.0065 0.017333333333333333
1 0.4895 0.734 0.006 0.019333333333333334
1 0.5 0.708 0.0075 0.019333333333333334
0 0.5005 0.704 0.007 0.018666666666666668
1 0.522 0.7073333333333334 0.0315 0.030666666666666665
0 0.549 0.6866666666666666 0.0055 0.018
1 0.49 0.6673333333333333 0.012 0.03133333333333333
1 0.521 0.6553333333333333 0.016 0.030666666666666665
1 0.568 0.6446666666666667 0.0125 0.011333333333333334
1 0.5675 0.6053333333333333 0.006 0.016666666666666666
1 0.521 0.6 0.0145 0.024666666666666667
1 0.5205 0.5746666666666667 0.015 0.024
1 0.5215 0.548 0.013 0.020666666666666667
1 0.4905 0.6346666666666667 0.0055 0.014
0 0.4905 0.63 0.005 0.015333333333333332
0 0.498 0.616 0.0055 0.011333333333333334
1 0.4985 0.622 0.005 0.012666666666666666
1 0.5205 0.526 0.015 0.020666666666666667
1 0.508 0.5246666666666666 0.0055 0.011333333333333334
0 0.508 0.5213333333333333 0.005 0.010666666666666666
0 0.5445 0.5326666666666666 0.0035 0.013333333333333334
0 0.5485 0.5266666666666666 0.0035 0.013333333333333334
1 0.5305 0.4806666666666667 0.0175 0.018
1 0.5075 0.4766666666666667 0.0035 0.009333333333333334
0 0.5075 0.47333333333333333 0.0045 0.01
1 0.515 0.4633333333333333 0.004 0.009333333333333334
0 0.5145 0.46 0.0045 0.009333333333333334
1 0.517 0.448 0.0035 0.007333333333333333
0 0.517 0.44466666666666665 0.0045 0.009333333333333334
1 0.513 0.43466666666666665 0.004 0.006666666666666667
0 0.5125 0.43066666666666664 0.004 0.008666666666666666
1 0.501 0.44333333333333336 0.004 0.008666666666666666
0 0.501 0.44 0.004 0.008
1 0.517 0.418 0.003 0.007333333333333333
0 0.5165 0.41533333333333333 0.0035 0.009333333333333334
1 0.552 0.4126666666666667 0.0085 0.007333333333333333
0 0.551 0.41133333333333333 0.003 0.01
0 0.56 0.414 0.004 0.012666666666666666
0 0.541 0.396 0.002 0.010666666666666666
0 0.568 0.378 0.003 0.009333333333333334
1 0.52 0.382 0.009 0.010666666666666666
1 0.5205 0.37266666666666665 0.0075 0.01
1 0.5195 0.364 0.009 0.010666666666666666
1 0.52 0.35533333333333333 0.008 0.01
1 0.5205 0.3453333333333333 0.0085 0.01
1 0.521 0.338 0.0085 0.007333333333333333
1 0.521 0.33066666666666666 0.0085 0.01
1 0.5205 0.32266666666666666 0.007 0.008
1 0.5205 0.31 0.007 0.008
1 0.5205 0.30333333333333334 0.007 0.006666666666666667
1 0.5215 0.29733333333333334 0.006 0.006666666666666667
1 0.519 0.2833333333333333 0.0065 0.008666666666666666
1 0.536 0.278 0.005 0.008
1 0.5085 0.334 0.0025 0.006
0 0.508 0.3313333333333333 0.0025 0.006666666666666667
0 0.513 0.29533333333333334 0.0025 0.005333333333333333
1 0.512 0.30866666666666664 0.002 0.006666666666666667
0 0.5115 0.30666666666666664 0.0025 0.006666666666666667
1 0.513 0.298 0.0025 0.005333333333333333
1 0.5105 0.29133333333333333 0.002 0.004666666666666667
0 0.5105 0.28933333333333333 0.003 0.006
1 0.384 0.38866666666666666 0.01 0.012666666666666666
1 0.388 0.37866666666666665 0.009 0.012
1 0.392 0.36933333333333335 0.01 0.012
1 0.396 0.36 0.01 0.012
1 0.4035 0.3406666666666667 0.011 0.011333333333333334
1 0.4095 0.324 0.009 0.012
1 0.413 0.31533333333333335 0.009 0.01
1 0.418 0.30466666666666664 0.0085 0.010666666666666666
1 0.4205 0.296 0.0075 0.008666666666666666
1 0.423 0.29 0.0075 0.012
1 0.429 0.278 0.0075 0.009333333333333334
0 0.3845 0.35933333333333334 0.0025 0.008666666666666666
0 0.4355 0.27466666666666667 0.002 0.007333333333333333
0 0.438 0.27466666666666667 0.0025 0.007333333333333333
1 0.4175 0.32266666666666666 0.0025 0.006
0 0.4175 0.32 0.003 0.007333333333333333
1 0.442 0.27066666666666667 0.002 0.006
0 0.442 0.2673333333333333 0.002 0.006
1 0.495 0.23666666666666666 0.0045 0.006666666666666667
1 0.491 0.22066666666666668 0.0045 0.006666666666666667
1 0.5015 0.20133333333333334 0.004 0.007333333333333333
1 0.493 0.21 0.0045 0.006
1 0.494 0.20466666666666666 0.004 0.006
1 0.495 0.19933333333333333 0.0045 0.006
1 0.5025 0.18266666666666667 0.0045 0.005333333333333333
1 0.502 0.18733333333333332 0.004 0.004666666666666667
1 0.509 0.18466666666666667 0.0055 0.011333333333333334
1 0.5025 0.194 0.0045 0.006
1 0.4975 0.192 0.0045 0.004666666666666667
1 0.4965 0.19466666666666665 0.0045 0.004666666666666667
1 0.4925 0.19 0.006 0.006
1 0.489 0.188 0.004 0.006
1 0.7425 0.5146666666666667 0.015 0.027333333333333334
1 0.758 0.5133333333333333 0.018 0.024666666666666667
1 0.775 0.5173333333333333 0.0165 0.023333333333333334
1 0.82 0.5186666666666667 0.0195 0.024666666666666667
1 0.844 0.5186666666666667 0.0235 0.026
1 0.921 0.5353333333333333 0.036 0.020666666666666667
1 0.982 0.5633333333333334 0.027 0.025333333333333333
1 0.9925 0.5566666666666666 0.015 0.022
