1 0.5235714285714286 0.748730964467005 0.017857142857142856 0.048223350253807105
1 0.6157142857142858 0.7195431472081218 0.017857142857142856 0.05710659898477157
1 0.6178571428571429 0.37817258883248733 0.009285714285714286 0.02030456852791878
1 0.5742857142857143 0.4302030456852792 0.01 0.021573604060913704
1 0.5921428571428572 0.44923857868020306 0.009285714285714286 0.02284263959390863
1 0.5421428571428571 0.5329949238578681 0.011428571428571429 0.021573604060913704
1 0.5278571428571428 0.3362944162436548 0.007142857142857143 0.011421319796954314
1 0.5328571428571428 0.3032994923857868 0.007857142857142858 0.015228426395939087
1 0.5614285714285714 0.3020304568527919 0.007142857142857143 0.01649746192893401
1 0.5785714285714286 0.22842639593908629 0.005714285714285714 0.01015228426395939
1 0.5378571428571428 0.26649746192893403 0.005714285714285714 0.011421319796954314
1 0.5628571428571428 0.1484771573604061 0.0035714285714285713 0.008883248730964468
1 0.5785714285714286 0.1446700507614213 0.0035714285714285713 0.006345177664974619
1 0.5578571428571428 0.09263959390862944 0.0035714285714285713 0.005076142131979695
1 0.5485714285714286 0.20939086294416243 0.0035714285714285713 0.007614213197969543
1 0.5771428571428572 0.2563451776649746 0.005714285714285714 0.013959390862944163
1 0.5528571428571428 0.3819796954314721 0.008571428571428572 0.017766497461928935
1 0.5214285714285715 0.3604060913705584 0.008571428571428572 0.017766497461928935
1 0.49642857142857144 0.5126903553299492 0.012142857142857143 0.024111675126903553
1 0.5392857142857143 0.618020304568528 0.013571428571428571 0.03553299492385787
1 0.5642857142857143 0.22588832487309646 0.005 0.01015228426395939
1 0.5657142857142857 0.20431472081218274 0.005 0.011421319796954314
1 0.56 0.18527918781725888 0.007142857142857143 0.02284263959390863
1 0.515 0.41624365482233505 0.014285714285714285 0.06218274111675127
1 0.4685714285714286 0.7322335025380711 0.04 0.1484771573604061
1 0.44142857142857145 0.9581218274111675 0.027142857142857142 0.07233502538071065
1 0.5864285714285714 0.5368020304568528 0.012142857142857143 0.025380710659898477
1 0.6178571428571429 0.550761421319797 0.012857142857142857 0.030456852791878174
1 0.5278571428571428 0.49746192893401014 0.012857142857142857 0.025380710659898477
1 0.5421428571428571 0.20431472081218274 0.004285714285714286 0.011421319796954314
1 0.5385714285714286 0.22715736040609136 0.009285714285714286 0.02918781725888325
1 0.5257142857142857 0.2753807106598985 0.010714285714285714 0.02918781725888325
0 0.5064285714285715 0.3236040609137056 0.002142857142857143 0.007614213197969543
0 0.5057142857142857 0.315989847715736 0.002142857142857143 0.007614213197969543
0 0.51 0.30710659898477155 0.002857142857142857 0.01015228426395939
0 0.5164285714285715 0.2753807106598985 0.002857142857142857 0.008883248730964468
0 0.5142857142857142 0.27411167512690354 0.002142857142857143 0.008883248730964468
0 0.5121428571428571 0.28553299492385786 0.002142857142857143 0.008883248730964468
0 0.5207142857142857 0.25 0.002142857142857143 0.005076142131979695
1 0.555 0.1649746192893401 0.002857142857142857 0.008883248730964468
0 0.5157142857142857 0.3401015228426396 0.002142857142857143 0.01015228426395939
1 0.5164285714285715 0.34390862944162437 0.002857142857142857 0.007614213197969543
0 0.5185714285714286 0.2550761421319797 0.002857142857142857 0.007614213197969543
