1 0.4328571428571429 0.8350253807106599 0.025714285714285714 0.07106598984771574
1 0.45714285714285713 0.6154822335025381 0.017142857142857144 0.04568527918781726
1 0.2864285714285714 0.4631979695431472 0.029285714285714286 0.046954314720812185
1 0.3992857142857143 0.4987309644670051 0.037142857142857144 0.04187817258883249
1 0.39571428571428574 0.4847715736040609 0.03571428571428571 0.03426395939086294
1 0.3871428571428571 0.46954314720812185 0.03428571428571429 0.030456852791878174
1 0.40785714285714286 0.5380710659898477 0.03428571428571429 0.024111675126903553
1 0.405 0.5609137055837563 0.037142857142857144 0.03553299492385787
1 0.3792857142857143 0.4416243654822335 0.05 0.06218274111675127
1 0.36357142857142855 0.4213197969543147 0.03214285714285714 0.04060913705583756
1 0.35714285714285715 0.4098984771573604 0.025 0.025380710659898477
1 0.195 0.631979695431472 0.03642857142857143 0.05456852791878172
1 0.30428571428571427 0.5241116751269036 0.035 0.031725888324873094
1 0.2692857142857143 0.700507614213198 0.04214285714285714 0.04314720812182741
1 0.2807142857142857 0.6751269035532995 0.037142857142857144 0.03680203045685279
1 0.4807142857142857 0.19796954314720813 0.012857142857142857 0.02284263959390863
1 0.48428571428571426 0.13324873096446702 0.010714285714285714 0.017766497461928935
1 0.48428571428571426 0.04949238578680203 0.01 0.015228426395939087
