1 0.5751565762004175 0.16975881261595546 0.10594989561586639 0.20037105751391465
1 0.6534446764091858 0.06679035250463822 0.04279749478079332 0.06493506493506493
1 0.6816283924843424 0.015769944341372914 0.03496868475991649 0.032467532467532464
1 0.9488517745302714 0.07050092764378478 0.031837160751565764 0.04081632653061224
1 0.8768267223382046 0.1725417439703154 0.04488517745302714 0.04081632653061224
1 0.8862212943632568 0.1567717996289425 0.03496868475991649 0.032467532467532464
1 0.8987473903966597 0.15398886827458255 0.03966597077244259 0.036178107606679034
1 0.7849686847599165 0.08070500927643785 0.010438413361169102 0.027829313543599257
1 0.8366388308977035 0.29313543599257885 0.055323590814196244 0.07328385899814471
1 0.7907098121085595 0.3293135435992579 0.019832985386221295 0.032467532467532464
0 0.9744258872651357 0.19573283858998144 0.012526096033402923 0.041743970315398886
1 0.947286012526096 0.3868274582560297 0.02661795407098121 0.07142857142857142
1 0.7980167014613778 0.6706864564007421 0.04645093945720251 0.11038961038961038
0 0.784446764091858 0.6623376623376623 0.009916492693110648 0.0287569573283859
1 0.4451983298538622 0.5686456400742115 0.060542797494780795 0.11038961038961038
1 0.5375782881002088 0.6929499072356216 0.05219206680584551 0.12523191094619665
1 0.5991649269311065 0.5602968460111317 0.07359081419624217 0.10667903525046382
1 0.6649269311064718 0.634508348794063 0.024530271398747392 0.04081632653061224
1 0.7061586638830898 0.5584415584415584 0.02661795407098121 0.036178107606679034
1 0.6325678496868476 0.4897959183673469 0.06367432150313153 0.08348794063079777
1 0.6847599164926931 0.4072356215213358 0.054801670146137786 0.08812615955473098
1 0.6362212943632568 0.3747680890538033 0.0255741127348643 0.0287569573283859
0 0.5401878914405011 0.935064935064935 0.005741127348643006 0.0287569573283859
1 0.24947807933194155 0.7282003710575139 0.03444676409185804 0.06029684601113173
1 0.29227557411273486 0.6558441558441559 0.02348643006263048 0.02411873840445269
1 0.23225469728601253 0.6790352504638218 0.02870563674321503 0.04081632653061224
1 0.37265135699373697 0.5306122448979592 0.061064718162839246 0.10946196660482375
0 0.29123173277661796 0.44990723562152135 0.009916492693110648 0.017625231910946195
1 0.4525052192066806 0.41280148423005564 0.049582463465553235 0.0862708719851577
0 0.015657620041753653 0.31910946196660483 0.010960334029227558 0.023191094619666047
1 0.0918580375782881 0.8682745825602969 0.030271398747390398 0.04359925788497217
