1 0.6628571428571428 0.9670050761421319 0.11357142857142857 0.06345177664974619
1 0.6128571428571429 0.8946700507614214 0.04214285714285714 0.05203045685279188
1 0.7307142857142858 0.9631979695431472 0.041428571428571426 0.048223350253807105
1 0.8328571428571429 0.8705583756345178 0.04214285714285714 0.0532994923857868
1 0.75 0.7766497461928934 0.03357142857142857 0.05583756345177665
1 0.5485714285714286 0.5748730964467005 0.018571428571428572 0.0583756345177665
1 0.5678571428571428 0.6027918781725888 0.018571428571428572 0.06852791878172589
1 0.5942857142857143 0.5596446700507615 0.03357142857142857 0.17258883248730963
1 0.6207142857142857 0.5596446700507615 0.035 0.17385786802030456
1 0.5742857142857143 0.5177664974619289 0.018571428571428572 0.06472081218274112
1 0.5535714285714286 0.5050761421319797 0.007857142857142858 0.02918781725888325
0 0.5542857142857143 0.5025380710659898 0.007142857142857143 0.02030456852791878
0 0.47214285714285714 0.41878172588832485 0.0064285714285714285 0.012690355329949238
1 0.47285714285714286 0.4200507614213198 0.007142857142857143 0.024111675126903553
1 0.5607142857142857 0.41243654822335024 0.019285714285714285 0.06979695431472081
1 0.5835714285714285 0.4251269035532995 0.017857142857142856 0.06345177664974619
1 0.6292857142857143 0.41624365482233505 0.020714285714285713 0.07487309644670051
1 0.6135714285714285 0.350253807106599 0.02142857142857143 0.07233502538071065
1 0.5357142857142857 0.06345177664974619 0.017857142857142856 0.05456852791878172
1 0.305 0.6700507614213198 0.04 0.04060913705583756
1 0.31214285714285717 0.6294416243654822 0.03857142857142857 0.04060913705583756
1 0.26 0.649746192893401 0.039285714285714285 0.04187817258883249
1 0.26285714285714284 0.6053299492385786 0.039285714285714285 0.04568527918781726
1 0.19857142857142857 0.5723350253807107 0.030714285714285715 0.03680203045685279
