0 0.42 0.7333333333333333 0.023 0.058666666666666666
0 0.393 0.732 0.021 0.05533333333333333
1 0.7915 0.8386666666666667 0.1065 0.2673333333333333
0 0.649 0.6 0.022 0.054
0 0.592 0.5426666666666666 0.026 0.05533333333333333
0 0.346 0.622 0.0285 0.052
0 0.316 0.6066666666666667 0.0245 0.056666666666666664
0 0.3955 0.4693333333333333 0.0175 0.048666666666666664
1 0.416 0.5793333333333334 0.017 0.058
0 0.4155 0.564 0.0175 0.05
1 0.251 0.6073333333333333 0.0945 0.17533333333333334
1 0.2315 0.43266666666666664 0.108 0.10266666666666667
1 0.219 0.334 0.086 0.068
1 0.084 0.35333333333333333 0.1005 0.05533333333333333
1 0.1935 0.256 0.0845 0.04933333333333333
1 0.3945 0.244 0.0115 0.030666666666666665
0 0.395 0.23666666666666666 0.0105 0.034666666666666665
1 0.8455 0.24533333333333332 0.0835 0.048666666666666664
1 0.4225 0.154 0.027 0.04666666666666667
1 0.3805 0.148 0.028 0.04133333333333333
0 0.468 0.10333333333333333 0.0105 0.028666666666666667
1 0.445 0.08733333333333333 0.007 0.018
0 0.4445 0.08066666666666666 0.0055 0.02266666666666667
0 0.401 0.12733333333333333 0.007 0.03
0 0.397 0.13066666666666665 0.0075 0.022
1 0.442 0.04 0.0185 0.024
0 0.4295 0.03933333333333333 0.0065 0.024666666666666667
1 0.4285 0.008666666666666666 0.0165 0.017333333333333333
