0 0.30323590814196244 0.8089053803339518 0.0255741127348643 0.061224489795918366
1 0.28757828810020875 0.8126159554730983 0.08350730688935282 0.10575139146567718
0 0.2886221294363257 0.7068645640074211 0.008872651356993737 0.05009276437847866
0 0.2985386221294363 0.7142857142857143 0.012004175365344467 0.05473098330241188
1 0.33924843423799583 0.6586270871985158 0.04384133611691023 0.04081632653061224
1 0.4034446764091858 0.7096474953617811 0.050626304801670144 0.05844155844155844
0 0.41179540709812107 0.7077922077922078 0.013569937369519834 0.03896103896103896
1 0.3893528183716075 0.6781076066790352 0.014613778705636743 0.027829313543599257
1 0.37108559498956156 0.6790352504638218 0.020876826722338204 0.05844155844155844
1 0.3068893528183716 0.6892393320964749 0.033402922755741124 0.05658627087198516
0 0.4024008350730689 0.608534322820037 0.005219206680584551 0.021335807050092765
1 0.39822546972860123 0.6048237476808905 0.01722338204592902 0.029684601113172542
0 0.4164926931106472 0.601113172541744 0.005219206680584551 0.017625231910946195
1 0.4175365344467641 0.6057513914656771 0.006784968684759917 0.01948051948051948
1 0.4211899791231733 0.614100185528757 0.019311064718162838 0.027829313543599257
0 0.5532359081419624 0.7198515769944341 0.012004175365344467 0.04452690166975881
1 0.5511482254697286 0.7300556586270872 0.029749478079331943 0.041743970315398886
0 0.6216075156576201 0.7328385899814471 0.01722338204592902 0.05658627087198516
1 0.6242171189979123 0.735621521335807 0.031315240083507306 0.05009276437847866
1 0.6330897703549061 0.7087198515769945 0.028183716075156576 0.032467532467532464
0 0.6325678496868476 0.6966604823747681 0.014091858037578288 0.038033395176252316
0 0.9937369519832986 0.6966604823747681 0.011482254697286013 0.04638218923933209
0 0.9932150313152401 0.6883116883116883 0.010960334029227558 0.032467532467532464
0 0.9806889352818372 0.7272727272727273 0.015657620041753653 0.05287569573283859
1 0.9796450939457203 0.7402597402597403 0.0360125260960334 0.05009276437847866
1 0.7129436325678496 0.6623376623376623 0.038100208768267224 0.04823747680890538
1 0.6811064718162839 0.6641929499072357 0.03914405010438413 0.04916512059369202
1 0.5615866388308977 0.6827458256029685 0.0407098121085595 0.03432282003710575
1 0.5579331941544885 0.6614100185528757 0.04018789144050104 0.03896103896103896
0 0.5156576200417536 0.6567717996289425 0.008872651356993737 0.03525046382189239
0 0.5120041753653445 0.6493506493506493 0.005219206680584551 0.03153988868274583
0 0.5031315240083507 0.6558441558441559 0.006784968684759917 0.017625231910946195
0 0.5036534446764092 0.6465677179962894 0.005219206680584551 0.015769944341372914
0 0.4989561586638831 0.6539888682745826 0.006263048016701462 0.01855287569573284
1 0.5026096033402923 0.6614100185528757 0.016701461377870562 0.03339517625231911
1 0.5125260960334029 0.6187384044526901 0.015135699373695199 0.025974025974025976
1 0.534446764091858 0.6020408163265306 0.015135699373695199 0.025974025974025976
0 0.6137787056367432 0.608534322820037 0.004697286012526096 0.022263450834879406
0 0.5480167014613778 0.6057513914656771 0.0041753653444676405 0.01948051948051948
0 0.552713987473904 0.6001855287569573 0.003131524008350731 0.013914656771799629
0 0.5407098121085595 0.6076066790352505 0.005219206680584551 0.017625231910946195
1 0.5370563674321504 0.6094619666048238 0.008350730688935281 0.014842300556586271
1 0.5297494780793319 0.6094619666048238 0.011482254697286013 0.012987012987012988
1 0.5448851774530271 0.6122448979591837 0.008350730688935281 0.015769944341372914
0 0.5521920668058455 0.6094619666048238 0.004697286012526096 0.01948051948051948
1 0.5521920668058455 0.614100185528757 0.006263048016701462 0.01948051948051948
0 0.5005219206680585 0.6150278293135436 0.005741127348643006 0.016697588126159554
0 0.5005219206680585 0.6122448979591837 0.004697286012526096 0.017625231910946195
1 0.5010438413361169 0.6159554730983302 0.006263048016701462 0.01948051948051948
1 0.48643006263048016 0.614100185528757 0.018789144050104383 0.029684601113172542
1 0.4718162839248434 0.6076066790352505 0.013569937369519834 0.0287569573283859
1 0.4822546972860125 0.6020408163265306 0.016179540709812108 0.026901669758812616
1 0.4953027139874739 0.5992578849721707 0.019832985386221295 0.025974025974025976
1 0.5187891440501043 0.5788497217068646 0.009394572025052192 0.016697588126159554
0 0.5167014613778705 0.5705009276437848 0.003131524008350731 0.00927643784786642
1 0.4754697286012526 0.5723562152133581 0.006784968684759917 0.016697588126159554
0 0.4681628392484342 0.575139146567718 0.0036534446764091857 0.011131725417439703
0 0.46764091858037576 0.5742115027829313 0.004697286012526096 0.00927643784786642
1 0.46764091858037576 0.5760667903525046 0.004697286012526096 0.012987012987012988
1 0.4394572025052192 0.5667903525046383 0.010438413361169102 0.016697588126159554
0 0.45407098121085593 0.5686456400742115 0.0026096033402922755 0.00927643784786642
1 0.4545929018789144 0.5695732838589982 0.0041753653444676405 0.012987012987012988
0 0.44467640918580376 0.5640074211502782 0.0036534446764091857 0.01020408163265306
1 0.4451983298538622 0.5658627087198516 0.006263048016701462 0.00927643784786642
1 0.4488517745302714 0.5575139146567718 0.010438413361169102 0.01020408163265306
1 0.4154488517745303 0.5732838589981447 0.016701461377870562 0.012059369202226345
1 0.45772442588726514 0.5528756957328386 0.013048016701461378 0.01020408163265306
0 0.4509394572025052 0.5510204081632653 0.003131524008350731 0.01020408163265306
1 0.4451983298538622 0.549165120593692 0.007306889352818371 0.00927643784786642
0 0.4879958246346555 0.5686456400742115 0.003131524008350731 0.011131725417439703
1 0.4879958246346555 0.5705009276437848 0.0041753653444676405 0.0074211502782931356
1 0.5062630480167014 0.5714285714285714 0.0041753653444676405 0.00463821892393321
1 0.5083507306889353 0.5714285714285714 0.005219206680584551 0.006493506493506494
1 0.5203549060542797 0.5575139146567718 0.014091858037578288 0.013914656771799629
0 0.47286012526096033 0.5482374768089053 0.0026096033402922755 0.0074211502782931356
1 0.4733820459290188 0.5500927643784786 0.0041753653444676405 0.0074211502782931356
1 0.482776617954071 0.5417439703153989 0.0041753653444676405 0.006493506493506494
1 0.4535490605427975 0.5333951762523191 0.0036534446764091857 0.006493506493506494
