1 0.338 0.22866666666666666 0.005 0.005333333333333333
0 0.3355 0.228 0.001 0.004666666666666667
0 0.3595 0.24866666666666667 0.0025 0.01
0 0.3625 0.252 0.003 0.012
1 0.355 0.254 0.007 0.010666666666666666
1 0.36 0.25866666666666666 0.0095 0.011333333333333334
1 0.362 0.26266666666666666 0.0115 0.012666666666666666
1 0.372 0.274 0.013 0.014
1 0.329 0.30333333333333334 0.0165 0.018666666666666668
1 0.14 0.35333333333333333 0.061 0.025333333333333333
1 0.2035 0.33 0.0545 0.025333333333333333
1 0.2275 0.346 0.0515 0.034666666666666665
1 0.2425 0.36466666666666664 0.056 0.046
1 0.265 0.39266666666666666 0.035 0.056666666666666664
1 0.229 0.468 0.05 0.08733333333333333
1 0.194 0.636 0.0985 0.15466666666666667
1 0.6655 0.5433333333333333 0.119 0.09866666666666667
1 0.522 0.4146666666666667 0.038 0.05733333333333333
1 0.345 0.29533333333333334 0.0095 0.016
1 0.3875 0.30266666666666664 0.007 0.012666666666666666
1 0.389 0.7813333333333333 0.0335 0.07133333333333333
0 0.7945 0.8826666666666667 0.032 0.050666666666666665
0 0.882 0.9666666666666667 0.048 0.066
0 0.8325 0.9366666666666666 0.038 0.1
0 0.713 0.658 0.0255 0.09266666666666666
0 0.702 0.6193333333333333 0.019 0.05466666666666667
0 0.7565 0.858 0.0645 0.092
0 0.4885 0.798 0.0275 0.102
0 0.4555 0.8 0.029 0.11066666666666666
0 0.4205 0.7853333333333333 0.035 0.102
0 0.387 0.7373333333333333 0.0395 0.07866666666666666
0 0.4785 0.38266666666666665 0.007 0.03266666666666666
0 0.453 0.388 0.0125 0.037333333333333336
0 0.429 0.37466666666666665 0.0115 0.03133333333333333
0 0.32 0.478 0.016 0.05
0 0.2675 0.49333333333333335 0.0225 0.02666666666666667
0 0.268 0.482 0.0205 0.032
0 0.332 0.368 0.0115 0.034666666666666665
0 0.3875 0.2986666666666667 0.006 0.016666666666666666
0 0.4225 0.30466666666666664 0.003 0.011333333333333334
0 0.4185 0.3 0.0045 0.019333333333333334
0 0.3475 0.2946666666666667 0.0045 0.021333333333333333
0 0.226 0.3893333333333333 0.0095 0.036
0 0.2355 0.39266666666666666 0.01 0.036
0 0.238 0.384 0.0125 0.037333333333333336
1 0.4515 0.318 0.05 0.02266666666666667
1 0.07 0.354 0.0405 0.03
1 0.0305 0.354 0.046 0.03666666666666667
1 0.3475 0.242 0.006 0.007333333333333333
