1 0.30214285714285716 0.9285714285714286 0.05714285714285714 0.1419047619047619
1 0.32785714285714285 0.7476190476190476 0.052142857142857144 0.13523809523809524
1 0.27071428571428574 0.5104761904761905 0.08642857142857142 0.06285714285714286
1 0.5171428571428571 0.34095238095238095 0.039285714285714285 0.11047619047619048
1 0.4592857142857143 0.3142857142857143 0.039285714285714285 0.10857142857142857
1 0.4164285714285714 0.15047619047619049 0.03857142857142857 0.1
1 0.38357142857142856 0.1219047619047619 0.037142857142857144 0.09333333333333334
0 0.1 0.26571428571428574 0.027857142857142858 0.037142857142857144
0 0.08285714285714285 0.31523809523809526 0.03142857142857143 0.03619047619047619
0 0.08428571428571428 0.36952380952380953 0.017857142857142856 0.024761904761904763
0 0.33071428571428574 0.05714285714285714 0.013571428571428571 0.03142857142857143
1 0.2507142857142857 0.31047619047619046 0.03357142857142857 0.022857142857142857
1 0.255 0.25333333333333335 0.03428571428571429 0.030476190476190476
1 0.25857142857142856 0.21904761904761905 0.020714285714285713 0.039047619047619046
1 0.7514285714285714 0.94 0.04642857142857143 0.11904761904761904
1 0.6964285714285714 0.8047619047619048 0.012857142857142857 0.05047619047619047
0 0.6971428571428572 0.8057142857142857 0.014285714285714285 0.025714285714285714
1 0.7807142857142857 0.6857142857142857 0.024285714285714285 0.06761904761904762
1 0.7292857142857143 0.599047619047619 0.04642857142857143 0.12380952380952381
1 0.7285714285714285 0.43333333333333335 0.04 0.10857142857142857
1 0.7235714285714285 0.30095238095238097 0.03571428571428571 0.09142857142857143
1 0.72 0.17904761904761904 0.03785714285714286 0.10095238095238095
1 0.7171428571428572 0.06666666666666667 0.03571428571428571 0.08666666666666667
1 0.6242857142857143 0.030476190476190476 0.03142857142857143 0.06190476190476191
0 0.8221428571428572 0.5038095238095238 0.020714285714285713 0.02857142857142857
0 0.805 0.4847619047619048 0.019285714285714285 0.03142857142857143
0 0.7892857142857143 0.5190476190476191 0.02 0.022857142857142857
1 0.7785714285714286 0.5161904761904762 0.030714285714285715 0.030476190476190476
1 0.39357142857142857 0.02857142857142857 0.03357142857142857 0.05714285714285714
1 0.35714285714285715 0.03142857142857143 0.03142857142857143 0.06380952380952382
1 0.18214285714285713 0.7495238095238095 0.02857142857142857 0.04285714285714286
