0 0.34285714285714286 0.8961904761904762 0.014285714285714285 0.0419047619047619
0 0.23214285714285715 0.8019047619047619 0.016428571428571428 0.0380952380952381
0 0.44 0.6647619047619048 0.010714285714285714 0.03238095238095238
0 0.43142857142857144 0.6685714285714286 0.011428571428571429 0.03142857142857143
0 0.415 0.6561904761904762 0.009285714285714286 0.03238095238095238
0 0.4114285714285714 0.6457142857142857 0.007142857142857143 0.025714285714285714
1 0.31 0.5695238095238095 0.065 0.040952380952380955
1 0.32571428571428573 0.5285714285714286 0.05142857142857143 0.03619047619047619
0 0.45 0.540952380952381 0.008571428571428572 0.02666666666666667
0 0.44285714285714284 0.5380952380952381 0.01 0.02857142857142857
0 0.4114285714285714 0.5190476190476191 0.007142857142857143 0.014285714285714285
0 0.41214285714285714 0.5152380952380953 0.0064285714285714285 0.012380952380952381
0 0.41285714285714287 0.5123809523809524 0.005714285714285714 0.015238095238095238
1 0.41285714285714287 0.5228571428571429 0.012142857142857143 0.02857142857142857
1 0.37 0.43714285714285717 0.04214285714285714 0.03142857142857143
1 0.37857142857142856 0.41619047619047617 0.045714285714285714 0.03142857142857143
1 0.3921428571428571 0.3961904761904762 0.05142857142857143 0.02857142857142857
0 0.5328571428571428 0.35523809523809524 0.0064285714285714285 0.022857142857142857
0 0.5164285714285715 0.31238095238095237 0.005714285714285714 0.01904761904761905
0 0.5214285714285715 0.31333333333333335 0.004285714285714286 0.02095238095238095
0 0.47928571428571426 0.31523809523809526 0.005 0.021904761904761906
0 0.4828571428571429 0.31523809523809526 0.005 0.018095238095238095
0 0.45785714285714285 0.31238095238095237 0.005714285714285714 0.02095238095238095
0 0.4514285714285714 0.31333333333333335 0.005 0.02095238095238095
1 0.44571428571428573 0.28095238095238095 0.037142857142857144 0.021904761904761906
1 0.45714285714285713 0.2561904761904762 0.03 0.024761904761904763
1 0.46714285714285714 0.24 0.025714285714285714 0.023809523809523808
1 0.47714285714285715 0.22857142857142856 0.027142857142857142 0.018095238095238095
1 0.47928571428571426 0.2180952380952381 0.025 0.017142857142857144
1 0.48142857142857143 0.20952380952380953 0.023571428571428573 0.018095238095238095
1 0.495 0.18476190476190477 0.027857142857142858 0.018095238095238095
0 0.48714285714285716 0.18857142857142858 0.0064285714285714285 0.013333333333333334
0 0.5121428571428571 0.2876190476190476 0.005 0.02
0 0.5192857142857142 0.2876190476190476 0.005714285714285714 0.02095238095238095
0 0.5171428571428571 0.28 0.0064285714285714285 0.02
0 0.5464285714285714 0.24666666666666667 0.005 0.018095238095238095
0 0.5564285714285714 0.24571428571428572 0.005 0.01904761904761905
0 0.5164285714285715 0.19714285714285715 0.005 0.015238095238095238
0 0.5221428571428571 0.19714285714285715 0.004285714285714286 0.01619047619047619
0 0.5214285714285715 0.19142857142857142 0.004285714285714286 0.013333333333333334
0 0.5185714285714286 0.19238095238095237 0.004285714285714286 0.013333333333333334
0 0.54 0.19714285714285715 0.004285714285714286 0.015238095238095238
0 0.5364285714285715 0.19523809523809524 0.004285714285714286 0.015238095238095238
0 0.5307142857142857 0.19428571428571428 0.002857142857142857 0.018095238095238095
0 0.5328571428571428 0.19428571428571428 0.004285714285714286 0.01619047619047619
0 0.5271428571428571 0.19238095238095237 0.004285714285714286 0.01619047619047619
0 0.5278571428571428 0.17809523809523808 0.0035714285714285713 0.015238095238095238
0 0.53 0.17714285714285713 0.0035714285714285713 0.014285714285714285
0 0.6578571428571428 0.1676190476190476 0.005 0.014285714285714285
0 0.5621428571428572 0.16857142857142857 0.0035714285714285713 0.015238095238095238
0 0.5578571428571428 0.16476190476190475 0.002857142857142857 0.013333333333333334
0 0.5592857142857143 0.1657142857142857 0.0035714285714285713 0.01619047619047619
0 0.5214285714285715 0.16476190476190475 0.0035714285714285713 0.01619047619047619
0 0.5157142857142857 0.17809523809523808 0.004285714285714286 0.017142857142857144
1 0.5071428571428571 0.16380952380952382 0.02214285714285714 0.015238095238095238
1 0.5142857142857142 0.15047619047619049 0.018571428571428572 0.014285714285714285
0 0.5264285714285715 0.15619047619047619 0.005 0.013333333333333334
1 0.5178571428571429 0.1419047619047619 0.015 0.010476190476190476
1 0.5221428571428571 0.13714285714285715 0.012857142857142857 0.011428571428571429
1 0.5257142857142857 0.13142857142857142 0.014285714285714285 0.011428571428571429
1 0.5285714285714286 0.12666666666666668 0.014285714285714285 0.012380952380952381
1 0.5364285714285715 0.10285714285714286 0.013571428571428571 0.011428571428571429
0 0.5764285714285714 0.1676190476190476 0.004285714285714286 0.015238095238095238
0 0.5785714285714286 0.1676190476190476 0.0035714285714285713 0.015238095238095238
0 0.5828571428571429 0.1619047619047619 0.002857142857142857 0.014285714285714285
0 0.5807142857142857 0.16095238095238096 0.004285714285714286 0.014285714285714285
0 0.5885714285714285 0.16095238095238096 0.004285714285714286 0.013333333333333334
0 0.5935714285714285 0.1619047619047619 0.0035714285714285713 0.014285714285714285
0 0.5992857142857143 0.16857142857142857 0.005714285714285714 0.015238095238095238
0 0.605 0.1619047619047619 0.004285714285714286 0.015238095238095238
0 0.5835714285714285 0.10761904761904761 0.002857142857142857 0.011428571428571429
0 0.5864285714285714 0.10761904761904761 0.002857142857142857 0.013333333333333334
0 0.5985714285714285 0.11047619047619048 0.004285714285714286 0.011428571428571429
0 0.6014285714285714 0.11142857142857143 0.002857142857142857 0.012380952380952381
0 0.5992857142857143 0.10380952380952381 0.002857142857142857 0.010476190476190476
0 0.6014285714285714 0.10571428571428572 0.002857142857142857 0.012380952380952381
0 0.6085714285714285 0.0980952380952381 0.0035714285714285713 0.011428571428571429
0 0.6042857142857143 0.09714285714285714 0.002857142857142857 0.011428571428571429
0 0.6064285714285714 0.09714285714285714 0.004285714285714286 0.014285714285714285
0 0.6221428571428571 0.09428571428571429 0.0035714285714285713 0.010476190476190476
0 0.6264285714285714 0.09904761904761905 0.004285714285714286 0.012380952380952381
0 0.6307142857142857 0.1 0.004285714285714286 0.013333333333333334
0 0.6264285714285714 0.09619047619047619 0.0035714285714285713 0.013333333333333334
0 0.635 0.09428571428571429 0.004285714285714286 0.011428571428571429
0 0.6385714285714286 0.09047619047619047 0.002857142857142857 0.011428571428571429
0 0.6407142857142857 0.09142857142857143 0.0035714285714285713 0.011428571428571429
0 0.645 0.08476190476190476 0.0035714285714285713 0.013333333333333334
0 0.6514285714285715 0.0838095238095238 0.0035714285714285713 0.009523809523809525
1 0.9157142857142857 0.1219047619047619 0.015714285714285715 0.015238095238095238
1 0.8607142857142858 0.018095238095238095 0.011428571428571429 0.010476190476190476
1 0.8692857142857143 0.02 0.007857142857142858 0.008571428571428572
