1 0.4791231732776618 0.46382189239332094 0.043319415448851775 0.07235621521335807
1 0.5208768267223383 0.42764378478664195 0.033402922755741124 0.045454545454545456
1 0.5657620041753654 0.38589981447124305 0.032359081419624215 0.039888682745825604
0 0.4754697286012526 0.34879406307977734 0.006784968684759917 0.023191094619666047
1 0.6701461377870563 0.2857142857142857 0.025052192066805846 0.036178107606679034
1 0.7338204592901879 0.30241187384044527 0.024530271398747392 0.03153988868274583
1 0.6988517745302714 0.2625231910946197 0.022964509394572025 0.03339517625231911
1 0.7134655532359081 0.24675324675324675 0.02035490605427975 0.03432282003710575
1 0.8021920668058455 0.2189239332096475 0.019311064718162838 0.027829313543599257
1 0.8303757828810021 0.18552875695732837 0.028183716075156576 0.038033395176252316
1 0.8079331941544885 0.14749536178107606 0.016179540709812108 0.021335807050092765
1 0.8345511482254697 0.11688311688311688 0.01722338204592902 0.01855287569573284
1 0.8825678496868476 0.05473098330241188 0.016179540709812108 0.013914656771799629
0 0.2301670146137787 0.42115027829313545 0.007828810020876827 0.012059369202226345
0 0.3267223382045929 0.4452690166975881 0.004697286012526096 0.023191094619666047
0 0.1988517745302714 0.3079777365491651 0.005741127348643006 0.016697588126159554
0 0.1732776617954071 0.2699443413729128 0.005219206680584551 0.01855287569573284
1 0.06889352818371608 0.46938775510204084 0.05010438413361169 0.04638218923933209
1 0.027661795407098122 0.45640074211502785 0.050626304801670144 0.041743970315398886
0 0.605427974947808 0.7022263450834879 0.009394572025052192 0.02504638218923933
1 0.6043841336116911 0.7115027829313544 0.017745302713987474 0.0287569573283859
