0 0.26571428571428574 0.1457142857142857 0.011428571428571429 0.018095238095238095
0 0.3314285714285714 0.1619047619047619 0.01 0.01619047619047619
0 0.33785714285714286 0.19142857142857142 0.005714285714285714 0.018095238095238095
0 0.34785714285714286 0.19333333333333333 0.005714285714285714 0.012380952380952381
0 0.3578571428571429 0.18 0.007142857142857143 0.014285714285714285
0 0.36142857142857143 0.2 0.007142857142857143 0.011428571428571429
0 0.38 0.20476190476190476 0.005714285714285714 0.014285714285714285
1 0.3578571428571429 0.18095238095238095 0.019285714285714285 0.010476190476190476
1 0.35285714285714287 0.22095238095238096 0.03142857142857143 0.022857142857142857
0 0.36 0.26761904761904765 0.005714285714285714 0.015238095238095238
1 0.37857142857142856 0.08285714285714285 0.03571428571428571 0.04380952380952381
1 0.36214285714285716 0.10666666666666667 0.039285714285714285 0.02761904761904762
0 0.35714285714285715 0.13714285714285715 0.011428571428571429 0.018095238095238095
1 0.38642857142857145 0.14761904761904762 0.010714285714285714 0.0380952380952381
1 0.48714285714285716 0.021904761904761906 0.04214285714285714 0.03333333333333333
1 0.485 0.05142857142857143 0.045 0.03238095238095238
1 0.4857142857142857 0.08095238095238096 0.04857142857142857 0.03428571428571429
1 0.4692857142857143 0.14761904761904762 0.045714285714285714 0.03619047619047619
1 0.4742857142857143 0.11523809523809524 0.04857142857142857 0.03619047619047619
1 0.47 0.17809523809523808 0.04071428571428572 0.03428571428571429
1 0.5128571428571429 0.2180952380952381 0.04642857142857143 0.039047619047619046
1 0.45571428571428574 0.20761904761904762 0.04642857142857143 0.037142857142857144
1 0.8028571428571428 0.04857142857142857 0.020714285714285713 0.06285714285714286
1 0.85 0.023809523809523808 0.03642857142857143 0.047619047619047616
0 0.7907142857142857 0.16 0.01 0.015238095238095238
0 0.6585714285714286 0.3171428571428571 0.009285714285714286 0.015238095238095238
1 0.7578571428571429 0.2819047619047619 0.07214285714285715 0.05047619047619047
1 0.7228571428571429 0.3495238095238095 0.04428571428571428 0.035238095238095235
1 0.6935714285714286 0.2733333333333333 0.045 0.035238095238095235
1 0.6392857142857142 0.2571428571428571 0.04642857142857143 0.035238095238095235
1 0.6092857142857143 0.3219047619047619 0.04428571428571428 0.03619047619047619
1 0.5807142857142857 0.2742857142857143 0.047857142857142855 0.03428571428571429
1 0.55 0.3076190476190476 0.05285714285714286 0.0380952380952381
1 0.48857142857142855 0.3 0.04857142857142857 0.03238095238095238
1 0.4607142857142857 0.37238095238095237 0.05 0.03428571428571429
1 0.45357142857142857 0.44857142857142857 0.05357142857142857 0.03428571428571429
1 0.4514285714285714 0.5133333333333333 0.04428571428571428 0.03333333333333333
1 0.44357142857142856 0.5438095238095239 0.045 0.029523809523809525
1 0.805 0.5828571428571429 0.01 0.023809523809523808
0 0.805 0.5828571428571429 0.01 0.012380952380952381
1 0.9507142857142857 0.9028571428571428 0.03 0.07904761904761905
1 0.38785714285714284 0.9809523809523809 0.05714285714285714 0.0380952380952381
1 0.40785714285714286 0.9152380952380952 0.05785714285714286 0.05238095238095238
1 0.34214285714285714 0.9666666666666667 0.032857142857142856 0.06666666666666667
1 0.25785714285714284 0.9847619047619047 0.017142857142857144 0.021904761904761906
1 0.255 0.9619047619047619 0.024285714285714285 0.022857142857142857
1 0.2757142857142857 0.8342857142857143 0.020714285714285713 0.018095238095238095
1 0.29428571428571426 0.9076190476190477 0.029285714285714286 0.06666666666666667
1 0.4157142857142857 0.8638095238095238 0.06357142857142857 0.039047619047619046
1 0.4107142857142857 0.8152380952380952 0.055714285714285716 0.040952380952380955
1 0.42 0.7647619047619048 0.05785714285714286 0.039047619047619046
1 0.42214285714285715 0.72 0.054285714285714284 0.037142857142857144
0 0.36857142857142855 0.8352380952380952 0.008571428571428572 0.014285714285714285
1 0.41928571428571426 0.6714285714285714 0.04642857142857143 0.030476190476190476
1 0.42642857142857143 0.6295238095238095 0.05857142857142857 0.037142857142857144
1 0.4257142857142857 0.5876190476190476 0.05142857142857143 0.035238095238095235
0 0.3657142857142857 0.6647619047619048 0.009285714285714286 0.013333333333333334
1 0.3157142857142857 0.6 0.02142857142857143 0.054285714285714284
0 0.31857142857142856 0.5866666666666667 0.01 0.007619047619047619
1 0.3057142857142857 0.5342857142857143 0.022857142857142857 0.010476190476190476
1 0.32785714285714285 0.5076190476190476 0.055714285714285716 0.035238095238095235
1 0.32785714285714285 0.3980952380952381 0.009285714285714286 0.023809523809523808
1 0.3271428571428571 0.4276190476190476 0.013571428571428571 0.02095238095238095
0 0.4142857142857143 0.4819047619047619 0.008571428571428572 0.009523809523809525
0 0.42142857142857143 0.4542857142857143 0.005714285714285714 0.008571428571428572
0 0.4042857142857143 0.4704761904761905 0.005 0.010476190476190476
0 0.39285714285714285 0.3638095238095238 0.008571428571428572 0.01619047619047619
0 0.4007142857142857 0.3438095238095238 0.007857142857142858 0.013333333333333334
0 0.44285714285714284 0.29333333333333333 0.005714285714285714 0.017142857142857144
0 0.38642857142857145 0.3514285714285714 0.005714285714285714 0.015238095238095238
0 0.3585714285714286 0.33714285714285713 0.007857142857142858 0.013333333333333334
1 0.4164285714285714 0.4219047619047619 0.017142857142857144 0.04
0 0.41285714285714287 0.559047619047619 0.007857142857142858 0.009523809523809525
