1 0.44717261904761907 0.8082010582010583 0.015625 0.013227513227513227
1 0.8177083333333334 0.873015873015873 0.047619047619047616 0.03439153439153439
0 0.19270833333333334 0.958994708994709 0.003720238095238095 0.013227513227513227
0 0.2113095238095238 0.9616402116402116 0.004464285714285714 0.015873015873015872
0 0.21577380952380953 0.958994708994709 0.004464285714285714 0.01455026455026455
0 0.26413690476190477 0.7433862433862434 0.002232142857142857 0.009259259259259259
1 0.2619047619047619 0.7407407407407407 0.011160714285714286 0.010582010582010581
1 0.3020833333333333 0.7420634920634921 0.00744047619047619 0.013227513227513227
1 0.4322916666666667 0.7804232804232805 0.014136904761904762 0.010582010582010581
0 0.4494047619047619 0.7751322751322751 0.002232142857142857 0.009259259259259259
0 0.7552083333333334 0.9034391534391535 0.003720238095238095 0.013227513227513227
0 0.7738095238095238 0.9074074074074074 0.002232142857142857 0.01455026455026455
1 0.4382440476190476 0.8386243386243386 0.008928571428571428 0.009259259259259259
1 0.7648809523809523 0.8465608465608465 0.00744047619047619 0.005291005291005291
0 0.7648809523809523 0.8425925925925926 0.002976190476190476 0.009259259259259259
0 0.7626488095238095 0.8412698412698413 0.002232142857142857 0.011904761904761904
