1 0.4835714285714286 0.8457142857142858 0.07357142857142857 0.12571428571428572
1 0.4092857142857143 0.8123809523809524 0.05857142857142857 0.11523809523809524
1 0.25785714285714284 0.7542857142857143 0.055 0.0980952380952381
1 0.19 0.7161904761904762 0.07142857142857142 0.08571428571428572
1 0.05785714285714286 0.6323809523809524 0.07357142857142857 0.05238095238095238
1 0.1492857142857143 0.56 0.05928571428571429 0.045714285714285714
1 0.6978571428571428 0.9266666666666666 0.16857142857142857 0.13714285714285715
1 0.8 0.76 0.12857142857142856 0.08666666666666667
1 0.017857142857142856 0.599047619047619 0.03642857142857143 0.05904761904761905
1 0.47714285714285715 0.518095238095238 0.04642857142857143 0.04285714285714286
1 0.5414285714285715 0.5314285714285715 0.014285714285714285 0.039047619047619046
1 0.5664285714285714 0.54 0.023571428571428573 0.039047619047619046
1 0.5842857142857143 0.5447619047619048 0.02214285714285714 0.037142857142857144
1 0.5442857142857143 0.47523809523809524 0.029285714285714286 0.02666666666666667
1 0.6121428571428571 0.5447619047619048 0.010714285714285714 0.02761904761904762
1 0.6457142857142857 0.5419047619047619 0.013571428571428571 0.03142857142857143
0 0.5907142857142857 0.5133333333333333 0.008571428571428572 0.03428571428571429
0 0.575 0.49714285714285716 0.008571428571428572 0.029523809523809525
0 0.5857142857142857 0.4838095238095238 0.008571428571428572 0.029523809523809525
0 0.5957142857142858 0.48857142857142855 0.008571428571428572 0.029523809523809525
0 0.5828571428571429 0.5028571428571429 0.007857142857142858 0.030476190476190476
1 0.96 0.8714285714285714 0.07928571428571428 0.12476190476190477
