1 0.495 0.1434010152284264 0.030714285714285715 0.02284263959390863
1 0.5471428571428572 0.1434010152284264 0.03 0.021573604060913704
1 0.6014285714285714 0.1383248730964467 0.04214285714285714 0.024111675126903553
1 0.6514285714285715 0.1434010152284264 0.03142857142857143 0.02030456852791878
1 0.7007142857142857 0.13959390862944163 0.04428571428571428 0.030456852791878174
0 0.5792857142857143 0.13705583756345177 0.002142857142857143 0.011421319796954314
0 0.5642857142857143 0.13451776649746192 0.002142857142857143 0.011421319796954314
0 0.5664285714285714 0.1446700507614213 0.002857142857142857 0.012690355329949238
0 0.6271428571428571 0.13578680203045684 0.002857142857142857 0.013959390862944163
1 0.7478571428571429 0.18274111675126903 0.011428571428571429 0.024111675126903553
1 0.735 0.1865482233502538 0.008571428571428572 0.015228426395939087
1 0.7235714285714285 0.24619289340101522 0.011428571428571429 0.021573604060913704
1 0.6421428571428571 0.18908629441624367 0.012857142857142857 0.01015228426395939
1 0.6007142857142858 0.18908629441624367 0.014285714285714285 0.012690355329949238
1 0.5714285714285714 0.21446700507614214 0.007142857142857143 0.01015228426395939
1 0.5485714285714286 0.22715736040609136 0.0035714285714285713 0.011421319796954314
0 0.5671428571428572 0.22208121827411167 0.002857142857142857 0.012690355329949238
0 0.6035714285714285 0.20939086294416243 0.0035714285714285713 0.01015228426395939
0 0.5871428571428572 0.20558375634517767 0.002142857142857143 0.011421319796954314
0 0.5828571428571429 0.20812182741116753 0.002857142857142857 0.011421319796954314
0 0.595 0.20558375634517767 0.002142857142857143 0.011421319796954314
0 0.6171428571428571 0.217005076142132 0.002857142857142857 0.012690355329949238
0 0.5157142857142857 0.25761421319796957 0.002857142857142857 0.013959390862944163
0 0.5171428571428571 0.26015228426395937 0.0035714285714285713 0.012690355329949238
0 0.6592857142857143 0.25888324873096447 0.002142857142857143 0.015228426395939087
0 0.645 0.2880710659898477 0.002857142857142857 0.015228426395939087
0 0.6485714285714286 0.28553299492385786 0.002857142857142857 0.015228426395939087
0 0.6428571428571429 0.27918781725888325 0.002857142857142857 0.013959390862944163
0 0.645 0.2779187817258883 0.002857142857142857 0.013959390862944163
0 0.6371428571428571 0.3083756345177665 0.002857142857142857 0.015228426395939087
0 0.6314285714285715 0.31091370558375636 0.002857142857142857 0.01649746192893401
0 0.6214285714285714 0.33375634517766495 0.0035714285714285713 0.013959390862944163
0 0.6171428571428571 0.33883248730964466 0.005 0.01649746192893401
0 0.6085714285714285 0.34517766497461927 0.004285714285714286 0.01649746192893401
0 0.6128571428571429 0.34517766497461927 0.0035714285714285713 0.017766497461928935
0 0.6292857142857143 0.49746192893401014 0.005714285714285714 0.025380710659898477
0 0.6307142857142857 0.5088832487309645 0.005 0.027918781725888325
0 0.6871428571428572 0.6230964467005076 0.01 0.03299492385786802
0 0.68 0.616751269035533 0.0064285714285714285 0.025380710659898477
0 0.6307142857142857 0.5964467005076142 0.007142857142857143 0.031725888324873094
0 0.6342857142857142 0.6383248730964467 0.0064285714285714285 0.031725888324873094
0 0.26 0.6802030456852792 0.0064285714285714285 0.03553299492385787
0 0.34785714285714286 0.47715736040609136 0.005714285714285714 0.025380710659898477
0 0.35214285714285715 0.47715736040609136 0.005 0.021573604060913704
0 0.44285714285714284 0.3083756345177665 0.005 0.017766497461928935
0 0.4342857142857143 0.32614213197969544 0.004285714285714286 0.017766497461928935
0 0.4042857142857143 0.36548223350253806 0.004285714285714286 0.02284263959390863
0 0.4092857142857143 0.36421319796954316 0.005 0.02284263959390863
0 0.38142857142857145 0.4263959390862944 0.005 0.0266497461928934
1 0.41214285714285714 0.41624365482233505 0.029285714285714286 0.05964467005076142
1 0.42928571428571427 0.38071065989847713 0.027142857142857142 0.044416243654822336
1 0.4357142857142857 0.366751269035533 0.022857142857142857 0.027918781725888325
1 0.4607142857142857 0.3147208121827411 0.016428571428571428 0.021573604060913704
1 0.4764285714285714 0.29949238578680204 0.018571428571428572 0.024111675126903553
1 0.49714285714285716 0.2893401015228426 0.013571428571428571 0.017766497461928935
1 0.5121428571428571 0.28045685279187815 0.014285714285714285 0.01649746192893401
1 0.45571428571428574 0.33121827411167515 0.024285714285714285 0.017766497461928935
