1 0.1045 0.8853333333333333 0.05 0.09133333333333334
1 0.106 0.8133333333333334 0.0645 0.07533333333333334
1 0.0445 0.93 0.037 0.021333333333333333
1 0.03 0.8653333333333333 0.031 0.02666666666666667
1 0.162 0.7593333333333333 0.014 0.03
1 0.174 0.7466666666666667 0.0135 0.027333333333333334
0 0.1885 0.7986666666666666 0.0125 0.012666666666666666
0 0.1955 0.786 0.013 0.014
0 0.1945 0.7766666666666666 0.0105 0.01
0 0.179 0.792 0.009 0.011333333333333334
0 0.185 0.7793333333333333 0.009 0.011333333333333334
0 0.07 0.668 0.019 0.018
0 0.094 0.6786666666666666 0.015 0.012666666666666666
1 0.0965 0.6773333333333333 0.0195 0.012666666666666666
0 0.102 0.654 0.0135 0.022
0 0.1135 0.652 0.0085 0.014666666666666666
1 0.107 0.658 0.0275 0.016666666666666666
0 0.1235 0.6246666666666667 0.012 0.014666666666666666
0 0.115 0.598 0.0135 0.022
0 0.111 0.6366666666666667 0.019 0.018666666666666668
0 0.101 0.632 0.013 0.018
0 0.094 0.6293333333333333 0.012 0.017333333333333333
0 0.072 0.64 0.015 0.023333333333333334
0 0.065 0.6433333333333333 0.0145 0.024
0 0.072 0.632 0.011 0.024
0 0.143 0.5786666666666667 0.017 0.018666666666666668
0 0.197 0.5873333333333334 0.012 0.019333333333333334
1 0.202 0.59 0.0265 0.024
0 0.1715 0.564 0.011 0.012
0 0.202 0.558 0.0125 0.017333333333333333
0 0.201 0.548 0.007 0.018
0 0.192 0.5473333333333333 0.0115 0.018666666666666668
0 0.2315 0.5473333333333333 0.011 0.019333333333333334
0 0.2425 0.5513333333333333 0.01 0.018
0 0.2485 0.5466666666666666 0.006 0.014
1 0.245 0.556 0.018 0.019333333333333334
1 0.2185 0.484 0.0205 0.015333333333333332
1 0.2445 0.472 0.01 0.021333333333333333
1 0.2605 0.5 0.051 0.05466666666666667
0 0.2685 0.5426666666666666 0.012 0.016666666666666666
0 0.275 0.55 0.0105 0.014
1 0.2755 0.5513333333333333 0.016 0.018
0 0.286 0.5546666666666666 0.0105 0.016
0 0.303 0.5213333333333333 0.0105 0.019333333333333334
1 0.3075 0.5266666666666666 0.0165 0.02
1 0.283 0.44666666666666666 0.008 0.019333333333333334
1 0.289 0.44533333333333336 0.0095 0.018666666666666668
1 0.3105 0.454 0.0435 0.046
0 0.3395 0.48333333333333334 0.01 0.022
0 0.3435 0.44 0.009 0.022
0 0.3395 0.41 0.01 0.018666666666666668
0 0.356 0.4226666666666667 0.0085 0.018
0 0.3505 0.418 0.007 0.018
0 0.382 0.39466666666666667 0.0065 0.018666666666666668
0 0.3915 0.3873333333333333 0.0065 0.018666666666666668
0 0.3645 0.38133333333333336 0.0085 0.019333333333333334
1 0.3315 0.2733333333333333 0.024 0.035333333333333335
1 0.3375 0.21466666666666667 0.026 0.02266666666666667
1 0.3265 0.19733333333333333 0.0265 0.03266666666666666
1 0.302 0.17733333333333334 0.0365 0.024
1 0.2775 0.15066666666666667 0.024 0.030666666666666665
1 0.2975 0.154 0.0185 0.022
0 0.2605 0.16866666666666666 0.006 0.012
1 0.262 0.17533333333333334 0.008 0.013333333333333334
1 0.244 0.09933333333333333 0.016 0.022
0 0.223 0.09866666666666667 0.01 0.016666666666666666
1 0.215 0.072 0.0205 0.023333333333333334
1 0.317 0.030666666666666665 0.028 0.023333333333333334
1 0.353 0.035333333333333335 0.031 0.022
0 0.5055 0.206 0.006 0.018666666666666668
0 0.5085 0.25866666666666666 0.0065 0.016
1 0.509 0.2613333333333333 0.0115 0.014666666666666666
1 0.487 0.9353333333333333 0.012 0.035333333333333335
1 0.4555 0.936 0.0505 0.11666666666666667
1 0.4365 0.888 0.043 0.10466666666666667
1 0.541 0.8513333333333334 0.0395 0.09533333333333334
1 0.4855 0.6746666666666666 0.033 0.07333333333333333
1 0.5525 0.5893333333333334 0.026 0.06533333333333333
1 0.502 0.6033333333333334 0.023 0.054
1 0.574 0.6546666666666666 0.028 0.07066666666666667
1 0.592 0.5693333333333334 0.0315 0.056
1 0.519 0.5393333333333333 0.03 0.05733333333333333
0 0.508 0.5026666666666667 0.0085 0.02
0 0.5095 0.5 0.0045 0.01
0 0.523 0.4513333333333333 0.006 0.017333333333333333
1 0.534 0.44133333333333336 0.011 0.014
1 0.53 0.41333333333333333 0.013 0.020666666666666667
1 0.548 0.45866666666666667 0.026 0.05533333333333333
1 0.607 0.44466666666666665 0.0245 0.04933333333333333
1 0.5525 0.374 0.038 0.03933333333333333
1 0.612 0.386 0.026 0.04733333333333333
1 0.5665 0.328 0.023 0.042666666666666665
1 0.619 0.344 0.0215 0.036
0 0.5495 0.3446666666666667 0.006 0.017333333333333333
0 0.5655 0.2673333333333333 0.006 0.016666666666666666
0 0.599 0.27666666666666667 0.006 0.016
0 0.5675 0.278 0.006 0.016666666666666666
0 0.574 0.2826666666666667 0.0065 0.018
0 0.5785 0.27666666666666667 0.0055 0.014666666666666666
1 0.555 0.15 0.0195 0.029333333333333333
1 0.5975 0.2806666666666667 0.016 0.015333333333333332
0 0.6145 0.236 0.0075 0.013333333333333334
1 0.614 0.24 0.008 0.014
1 0.581 0.25133333333333335 0.0295 0.030666666666666665
1 0.5875 0.23333333333333334 0.029 0.030666666666666665
1 0.5995 0.20866666666666667 0.019 0.036
1 0.6045 0.17733333333333334 0.0185 0.027333333333333334
1 0.627 0.16133333333333333 0.015 0.03
0 0.6365 0.238 0.0065 0.017333333333333333
0 0.644 0.22466666666666665 0.0055 0.014
0 0.646 0.21533333333333332 0.009 0.018666666666666668
0 0.645 0.21133333333333335 0.0055 0.016
0 0.664 0.20066666666666666 0.0045 0.017333333333333333
1 0.654 0.204 0.018 0.046
1 0.657 0.16133333333333333 0.0155 0.03666666666666667
1 0.606 0.156 0.0075 0.015333333333333332
0 0.603 0.13733333333333334 0.0065 0.017333333333333333
0 0.656 0.06666666666666667 0.0655 0.134
1 0.717 0.04066666666666666 0.0135 0.025333333333333333
1 0.612 0.021333333333333333 0.019 0.042666666666666665
1 0.7085 0.6573333333333333 0.035 0.046
