1 0.605 0.8756345177664975 0.027857142857142858 0.09137055837563451
1 0.45571428571428574 0.766497461928934 0.027857142857142858 0.13451776649746192
1 0.5878571428571429 0.6395939086294417 0.02857142857142857 0.11928934010152284
1 0.485 0.5177664974619289 0.037142857142857144 0.03807106598984772
1 0.48714285714285716 0.4949238578680203 0.03214285714285714 0.027918781725888325
1 0.47928571428571426 0.45050761421319796 0.03428571428571429 0.04060913705583756
1 0.4764285714285714 0.43147208121827413 0.032857142857142856 0.02918781725888325
1 0.46785714285714286 0.4149746192893401 0.03357142857142857 0.03426395939086294
1 0.46285714285714286 0.38451776649746194 0.05142857142857143 0.06472081218274112
1 0.4471428571428571 0.3604060913705584 0.032857142857142856 0.04314720812182741
1 0.4407142857142857 0.350253807106599 0.02642857142857143 0.030456852791878174
1 0.3407142857142857 0.6446700507614214 0.04214285714285714 0.05456852791878172
1 0.35285714285714287 0.618020304568528 0.037142857142857144 0.046954314720812185
1 0.36357142857142855 0.5964467005076142 0.035 0.044416243654822336
1 0.3821428571428571 0.46446700507614214 0.03571428571428571 0.03807106598984772
1 0.3657142857142857 0.3934010152284264 0.03 0.04568527918781726
1 0.4092857142857143 0.3210659898477157 0.023571428571428573 0.03807106598984772
1 0.6121428571428571 0.08756345177664974 0.012142857142857143 0.02284263959390863
