1 0.5192857142857142 0.383248730964467 0.02 0.050761421319796954
0 0.42928571428571427 0.4289340101522843 0.007857142857142858 0.031725888324873094
0 0.37214285714285716 0.9479695431472082 0.011428571428571429 0.03934010152284264
1 0.047142857142857146 0.5038071065989848 0.06428571428571428 0.050761421319796954
1 0.17857142857142858 0.41116751269035534 0.07785714285714286 0.07106598984771574
1 0.3 0.34390862944162437 0.05142857142857143 0.044416243654822336
0 0.35285714285714287 0.3210659898477157 0.008571428571428572 0.031725888324873094
0 0.37142857142857144 0.32614213197969544 0.007142857142857143 0.030456852791878174
0 0.435 0.2017766497461929 0.007142857142857143 0.02284263959390863
0 0.4685714285714286 0.19796954314720813 0.007142857142857143 0.024111675126903553
0 0.5157142857142857 0.1814720812182741 0.005 0.024111675126903553
0 0.5292857142857142 0.16116751269035534 0.0064285714285714285 0.030456852791878174
0 0.5257142857142857 0.1814720812182741 0.008571428571428572 0.02284263959390863
0 0.5442857142857143 0.16370558375634517 0.0064285714285714285 0.025380710659898477
1 0.45785714285714285 0.06345177664974619 0.019285714285714285 0.027918781725888325
