1 0.6385714285714286 0.5812182741116751 0.04 0.09263959390862944
1 0.5742857142857143 0.7246192893401016 0.03 0.10025380710659898
1 0.77 0.8388324873096447 0.041428571428571426 0.10532994923857868
1 0.93 0.49746192893401014 0.047142857142857146 0.0799492385786802
1 0.8492857142857143 0.32741116751269034 0.035 0.07360406091370558
1 0.8185714285714286 0.25888324873096447 0.03357142857142857 0.0583756345177665
1 0.7285714285714285 0.06345177664974619 0.025 0.048223350253807105
1 0.8521428571428571 0.1383248730964467 0.027857142857142858 0.04568527918781726
1 0.5242857142857142 0.8477157360406091 0.05357142857142857 0.06598984771573604
1 0.5057142857142857 0.3883248730964467 0.020714285714285713 0.05710659898477157
1 0.46214285714285713 0.28045685279187815 0.019285714285714285 0.04949238578680203
1 0.7107142857142857 0.11040609137055837 0.02142857142857143 0.03299492385786802
1 0.9242857142857143 0.14720812182741116 0.027142857142857142 0.03553299492385787
1 0.45071428571428573 0.16751269035532995 0.027142857142857142 0.044416243654822336
1 0.44571428571428573 0.11294416243654823 0.02642857142857143 0.03426395939086294
1 0.44285714285714284 0.09771573604060914 0.025 0.03299492385786802
1 0.43857142857142856 0.04949238578680203 0.022857142857142857 0.03553299492385787
1 0.4342857142857143 0.03299492385786802 0.02214285714285714 0.031725888324873094
1 0.4521428571428571 0.011421319796954314 0.02142857142857143 0.02284263959390863
1 0.047857142857142855 0.4860406091370558 0.04 0.07868020304568528
1 0.13428571428571429 0.4416243654822335 0.03 0.06979695431472081
1 0.105 0.3743654822335025 0.02857142857142857 0.05456852791878172
1 0.14857142857142858 0.22461928934010153 0.027857142857142858 0.0532994923857868
1 0.255 0.048223350253807105 0.017857142857142856 0.044416243654822336
1 0.19214285714285714 0.08883248730964467 0.022857142857142857 0.044416243654822336
1 0.1707142857142857 0.046954314720812185 0.02214285714285714 0.0532994923857868
1 0.10857142857142857 0.1446700507614213 0.056428571428571425 0.1484771573604061
1 0.6392857142857142 0.45558375634517767 0.03142857142857143 0.1116751269035533
1 0.89 0.08629441624365482 0.052142857142857144 0.11040609137055837
1 0.8492857142857143 0.03934010152284264 0.05 0.07868020304568528
1 0.96 0.18527918781725888 0.05071428571428571 0.07106598984771574
1 0.85 0.23730964467005075 0.009285714285714286 0.024111675126903553
1 0.8885714285714286 0.23730964467005075 0.009285714285714286 0.02030456852791878
1 0.8614285714285714 0.2969543147208122 0.007142857142857143 0.02030456852791878
1 0.9485714285714286 0.3477157360406091 0.010714285714285714 0.024111675126903553
0 0.8507142857142858 0.23223350253807107 0.007142857142857143 0.024111675126903553
0 0.8892857142857142 0.2296954314720812 0.007142857142857143 0.01015228426395939
0 0.95 0.34517766497461927 0.007857142857142858 0.021573604060913704
0 0.8614285714285714 0.2880710659898477 0.0064285714285714285 0.02284263959390863
0 0.875 0.29314720812182743 0.008571428571428572 0.0266497461928934
