1 0.5621428571428572 0.48 0.07642857142857143 0.05333333333333334
1 0.3435714285714286 0.4342857142857143 0.05785714285714286 0.05523809523809524
1 0.3107142857142857 0.3580952380952381 0.05285714285714286 0.05619047619047619
1 0.255 0.36952380952380953 0.04285714285714286 0.045714285714285714
1 0.18857142857142858 0.3476190476190476 0.04 0.04857142857142857
1 0.15071428571428572 0.36095238095238097 0.037142857142857144 0.045714285714285714
1 0.15928571428571428 0.3076190476190476 0.037142857142857144 0.04476190476190476
1 0.13071428571428573 0.32095238095238093 0.03571428571428571 0.04666666666666667
1 0.1707142857142857 0.2580952380952381 0.035 0.04
1 0.1392857142857143 0.26857142857142857 0.035 0.04
1 0.11 0.2276190476190476 0.027857142857142858 0.03142857142857143
1 0.10571428571428572 0.28095238095238095 0.03571428571428571 0.05047619047619047
1 0.08571428571428572 0.25047619047619046 0.025 0.039047619047619046
1 0.07357142857142857 0.22666666666666666 0.027142857142857142 0.030476190476190476
1 0.08 0.18 0.027857142857142858 0.037142857142857144
1 0.023571428571428573 0.1380952380952381 0.03 0.04476190476190476
1 0.88 0.43523809523809526 0.07857142857142857 0.0380952380952381
1 0.8442857142857143 0.3961904761904762 0.07642857142857143 0.03619047619047619
1 0.9321428571428572 0.3942857142857143 0.07785714285714286 0.03238095238095238
1 0.06285714285714286 0.37047619047619046 0.015 0.018095238095238095
1 0.06642857142857143 0.4095238095238095 0.015 0.024761904761904763
1 0.04357142857142857 0.4542857142857143 0.015714285714285715 0.025714285714285714
1 0.3792857142857143 0.5771428571428572 0.03 0.025714285714285714
1 0.2835714285714286 0.800952380952381 0.041428571428571426 0.02857142857142857
0 0.2764285714285714 0.7980952380952381 0.023571428571428573 0.030476190476190476
0 0.3757142857142857 0.5704761904761905 0.011428571428571429 0.025714285714285714
0 0.34214285714285714 0.5838095238095238 0.015714285714285715 0.022857142857142857
0 0.14357142857142857 0.4561904761904762 0.012857142857142857 0.02095238095238095
0 0.04 0.44571428571428573 0.016428571428571428 0.02095238095238095
0 0.062142857142857146 0.40190476190476193 0.012142857142857143 0.02
0 0.06142857142857143 0.3647619047619048 0.011428571428571429 0.018095238095238095
0 0.10142857142857142 0.3638095238095238 0.012142857142857143 0.02095238095238095
1 0.10285714285714286 0.36857142857142855 0.016428571428571428 0.023809523809523808
1 0.14642857142857144 0.46285714285714286 0.019285714285714285 0.02095238095238095
1 0.3442857142857143 0.5895238095238096 0.027142857142857142 0.025714285714285714
1 0.5464285714285714 0.6485714285714286 0.035 0.02095238095238095
0 0.5442857142857143 0.64 0.015714285714285715 0.03238095238095238
0 0.6735714285714286 0.3438095238095238 0.011428571428571429 0.029523809523809525
1 0.6742857142857143 0.3495238095238095 0.027142857142857142 0.017142857142857144
1 0.8307142857142857 0.5552380952380952 0.22142857142857142 0.11904761904761904
