1 0.4807142857142857 0.8718274111675127 0.02214285714285714 0.06725888324873096
1 0.6764285714285714 0.36548223350253806 0.013571428571428571 0.030456852791878174
1 0.6542857142857142 0.25 0.008571428571428572 0.024111675126903553
1 0.6092857142857143 0.07233502538071065 0.008571428571428572 0.01649746192893401
1 0.465 0.5482233502538071 0.02857142857142857 0.03426395939086294
1 0.4685714285714286 0.5317258883248731 0.022857142857142857 0.03299492385786802
1 0.4585714285714286 0.5799492385786802 0.022857142857142857 0.03680203045685279
1 0.5557142857142857 0.1281725888324873 0.005 0.011421319796954314
1 0.5628571428571428 0.06852791878172589 0.004285714285714286 0.011421319796954314
1 0.6421428571428571 0.10406091370558376 0.015 0.011421319796954314
1 0.6514285714285715 0.09898477157360407 0.01 0.013959390862944163
1 0.6714285714285714 0.10152284263959391 0.015 0.012690355329949238
1 0.6314285714285715 0.07614213197969544 0.0064285714285714285 0.015228426395939087
1 0.6292857142857143 0.06472081218274112 0.005 0.012690355329949238
1 0.6292857142857143 0.0532994923857868 0.005714285714285714 0.013959390862944163
1 0.6278571428571429 0.04568527918781726 0.007142857142857143 0.013959390862944163
1 0.6285714285714286 0.03934010152284264 0.005714285714285714 0.011421319796954314
1 0.5728571428571428 0.07614213197969544 0.005 0.01015228426395939
1 0.5742857142857143 0.04314720812182741 0.004285714285714286 0.008883248730964468
1 0.5657142857142857 0.12944162436548223 0.007857142857142858 0.012690355329949238
1 0.5642857142857143 0.08629441624365482 0.008571428571428572 0.011421319796954314
1 0.5557142857142857 0.1383248730964467 0.0064285714285714285 0.012690355329949238
1 0.7478571428571429 0.09517766497461928 0.015 0.011421319796954314
1 0.7064285714285714 0.09898477157360407 0.02214285714285714 0.013959390862944163
1 0.45357142857142857 0.600253807106599 0.027142857142857142 0.04949238578680203
1 0.46214285714285713 0.4847715736040609 0.027857142857142858 0.03934010152284264
1 0.6307142857142857 0.5786802030456852 0.016428571428571428 0.05583756345177665
1 0.73 0.766497461928934 0.022857142857142857 0.07360406091370558
1 0.5478571428571428 0.19543147208121828 0.011428571428571429 0.02918781725888325
1 0.5642857142857143 0.05203045685279188 0.0064285714285714285 0.017766497461928935
1 0.8214285714285714 0.09137055837563451 0.015714285714285715 0.015228426395939087
1 0.7714285714285715 0.06979695431472081 0.008571428571428572 0.01649746192893401
1 0.7778571428571428 0.09644670050761421 0.014285714285714285 0.013959390862944163
1 0.7635714285714286 0.05964467005076142 0.005714285714285714 0.017766497461928935
1 0.5292857142857142 0.3934010152284264 0.020714285714285713 0.07233502538071065
0 0.48642857142857143 0.5621827411167513 0.005 0.02030456852791878
0 0.4742857142857143 0.6637055837563451 0.005 0.02284263959390863
0 0.4664285714285714 0.6624365482233503 0.004285714285714286 0.021573604060913704
0 0.445 0.5241116751269036 0.004285714285714286 0.01903553299492386
0 0.4642857142857143 0.4517766497461929 0.004285714285714286 0.01649746192893401
0 0.48 0.4302030456852792 0.002142857142857143 0.01649746192893401
0 0.4857142857142857 0.43147208121827413 0.0035714285714285713 0.015228426395939087
0 0.485 0.4530456852791878 0.004285714285714286 0.01649746192893401
0 0.48214285714285715 0.4543147208121827 0.004285714285714286 0.01903553299492386
0 0.44785714285714284 0.5647208121827412 0.005 0.021573604060913704
0 0.47 0.6535532994923858 0.005 0.01903553299492386
1 0.365 0.4251269035532995 0.03142857142857143 0.0266497461928934
