1 0.10857142857142857 0.7409523809523809 0.04928571428571429 0.03619047619047619
1 0.4035714285714286 0.6695238095238095 0.13785714285714284 0.15142857142857144
1 0.225 0.6428571428571429 0.10571428571428572 0.1676190476190476
1 0.29 0.5952380952380952 0.09285714285714286 0.15047619047619049
1 0.3457142857142857 0.5514285714285714 0.08928571428571429 0.13047619047619047
1 0.40214285714285714 0.5085714285714286 0.08428571428571428 0.12761904761904763
1 0.5507142857142857 0.3933333333333333 0.09 0.11333333333333333
1 0.5078571428571429 0.15619047619047619 0.07071428571428572 0.08095238095238096
1 0.4585714285714286 0.47333333333333333 0.08 0.11428571428571428
1 0.6292857142857143 0.32857142857142857 0.08928571428571429 0.1019047619047619
1 0.675 0.3019047619047619 0.08571428571428572 0.09619047619047619
1 0.7614285714285715 0.3619047619047619 0.08428571428571428 0.09047619047619047
1 0.8421428571428572 0.29333333333333333 0.08428571428571428 0.08571428571428572
1 0.9171428571428571 0.2257142857142857 0.08 0.08190476190476191
1 0.5792857142857143 0.10952380952380952 0.06571428571428571 0.0838095238095238
1 0.6057142857142858 0.09142857142857143 0.06857142857142857 0.07333333333333333
1 0.8471428571428572 0.18 0.07785714285714286 0.08
1 0.8757142857142857 0.15523809523809523 0.07357142857142857 0.0761904761904762
1 0.9021428571428571 0.13333333333333333 0.06785714285714285 0.06952380952380953
1 0.9714285714285714 0.08285714285714285 0.05714285714285714 0.06571428571428571
1 0.24428571428571427 0.29523809523809524 0.07642857142857143 0.11714285714285715
1 0.19785714285714287 0.3419047619047619 0.07857142857142857 0.11428571428571428
1 0.135 0.3628571428571429 0.075 0.11428571428571428
1 0.075 0.3914285714285714 0.08428571428571428 0.14095238095238094
1 0.45571428571428574 0.15047619047619049 0.02 0.0419047619047619
1 0.41928571428571426 0.1761904761904762 0.035 0.04285714285714286
1 0.395 0.22 0.06714285714285714 0.09333333333333334
0 0.8385714285714285 0.6485714285714286 0.027857142857142858 0.03238095238095238
1 0.8385714285714285 0.6533333333333333 0.03214285714285714 0.049523809523809526
1 0.08571428571428572 0.9104761904761904 0.1707142857142857 0.17809523809523808
1 0.023571428571428573 0.43047619047619046 0.047142857142857146 0.13142857142857142
1 0.9614285714285714 0.7323809523809524 0.07714285714285714 0.1180952380952381
