1 0.1457142857142857 0.26857142857142857 0.2885714285714286 0.16380952380952382
1 0.2807142857142857 0.2342857142857143 0.13785714285714284 0.1019047619047619
1 0.49142857142857144 0.27904761904761904 0.07071428571428572 0.04380952380952381
0 0.5064285714285715 0.2876190476190476 0.013571428571428571 0.049523809523809526
0 0.4957142857142857 0.26285714285714284 0.014285714285714285 0.04285714285714286
0 0.5214285714285715 0.26857142857142857 0.019285714285714285 0.04666666666666667
1 0.6471428571428571 0.29619047619047617 0.10928571428571429 0.07238095238095238
1 0.5792857142857143 0.3323809523809524 0.04214285714285714 0.04285714285714286
0 0.5807142857142857 0.32761904761904764 0.016428571428571428 0.037142857142857144
0 0.59 0.32761904761904764 0.017142857142857144 0.03333333333333333
0 0.44357142857142856 0.44857142857142857 0.015714285714285715 0.05047619047619047
0 0.46214285714285713 0.4561904761904762 0.017142857142857144 0.05523809523809524
0 0.4714285714285714 0.44285714285714284 0.015714285714285715 0.05142857142857143
0 0.4942857142857143 0.44952380952380955 0.013571428571428571 0.04666666666666667
0 0.575 0.4714285714285714 0.011428571428571429 0.049523809523809526
0 0.6071428571428571 0.47619047619047616 0.015714285714285715 0.05047619047619047
1 0.6078571428571429 0.5657142857142857 0.14857142857142858 0.09333333333333334
1 0.275 0.5904761904761905 0.135 0.10476190476190476
0 0.32785714285714285 0.6971428571428572 0.03142857142857143 0.06666666666666667
0 0.3914285714285714 0.7409523809523809 0.023571428571428573 0.05333333333333334
0 0.325 0.7771428571428571 0.035 0.054285714285714284
1 0.33071428571428574 0.780952380952381 0.05071428571428571 0.05904761904761905
1 0.23642857142857143 0.8333333333333334 0.08071428571428571 0.10285714285714286
1 0.11785714285714285 0.8171428571428572 0.17857142857142858 0.1219047619047619
1 0.015 0.8161904761904762 0.03 0.07714285714285714
0 0.04357142857142857 0.7314285714285714 0.04214285714285714 0.04476190476190476
0 0.15142857142857144 0.8923809523809524 0.029285714285714286 0.047619047619047616
1 0.08071428571428571 0.9571428571428572 0.16 0.08285714285714285
1 0.3142857142857143 0.96 0.045 0.07809523809523809
1 0.9378571428571428 0.9038095238095238 0.07428571428571429 0.04476190476190476
0 0.8771428571428571 0.9419047619047619 0.04928571428571429 0.039047619047619046
0 0.9807142857142858 0.9180952380952381 0.03785714285714286 0.05904761904761905
0 0.8171428571428572 0.32476190476190475 0.017857142857142856 0.04476190476190476
1 0.8557142857142858 0.31333333333333335 0.10928571428571429 0.06285714285714286
