0 0.061064718162839246 0.11038961038961038 0.009916492693110648 0.02411873840445269
1 0.06210855949895616 0.012987012987012988 0.027661795407098122 0.023191094619666047
1 0.18423799582463465 0.5009276437847866 0.020876826722338204 0.01948051948051948
0 0.18162839248434237 0.4972170686456401 0.005219206680584551 0.01855287569573284
1 0.16022964509394572 0.6196660482374768 0.06784968684759916 0.04730983302411874
1 0.24373695198329853 0.7829313543599258 0.07724425887265135 0.061224489795918366
1 0.22964509394572025 0.8617810760667903 0.06367432150313153 0.06307977736549165
1 0.3731732776617954 0.5964749536178108 0.1315240083507307 0.08348794063079777
1 0.6409185803757829 0.47031539888682744 0.0511482254697286 0.04359925788497217
1 0.6393528183716075 0.6048237476808905 0.027139874739039668 0.023191094619666047
1 0.6017745302713987 0.6985157699443414 0.05167014613778706 0.05009276437847866
1 0.7536534446764092 0.45454545454545453 0.06889352818371608 0.05844155844155844
1 0.8006263048016702 0.4897959183673469 0.025052192066805846 0.01855287569573284
0 0.8011482254697286 0.48330241187384043 0.008350730688935281 0.02040816326530612
1 0.7515657620041754 0.5241187384044527 0.019832985386221295 0.01855287569573284
0 0.7541753653444676 0.5204081632653061 0.007828810020876827 0.02040816326530612
1 0.7818371607515657 0.6038961038961039 0.04801670146137787 0.04267161410018553
1 0.7583507306889353 0.6892393320964749 0.05688935281837161 0.04823747680890538
1 0.8455114822546973 0.6038961038961039 0.027139874739039668 0.01948051948051948
1 0.9634655532359081 0.6038961038961039 0.05897703549060543 0.05194805194805195
0 0.9467640918580376 0.44434137291280146 0.013048016701461378 0.02504638218923933
1 0.9624217118997912 0.3274582560296846 0.024008350730688934 0.039888682745825604
0 0.9671189979123174 0.3293135435992579 0.012004175365344467 0.017625231910946195
0 0.9509394572025052 0.09647495361781076 0.004697286012526096 0.01020408163265306
1 0.5349686847599165 0.33116883116883117 0.03444676409185804 0.027829313543599257
1 0.615866388308977 0.274582560296846 0.006784968684759917 0.02040816326530612
