1 0.2864285714285714 0.12055837563451777 0.022857142857142857 0.04314720812182741
1 0.3142857142857143 0.2563451776649746 0.02642857142857143 0.05456852791878172
1 0.3914285714285714 0.35279187817258884 0.03142857142857143 0.05203045685279188
1 0.3892857142857143 0.07360406091370558 0.041428571428571426 0.044416243654822336
1 0.41928571428571426 0.11928934010152284 0.04071428571428572 0.04568527918781726
1 0.4278571428571429 0.14213197969543148 0.04071428571428572 0.04060913705583756
1 0.4407142857142857 0.16751269035532995 0.04214285714285714 0.048223350253807105
1 0.5407142857142857 0.49746192893401014 0.047857142857142855 0.046954314720812185
1 0.33285714285714285 0.5482233502538071 0.045 0.09263959390862944
1 0.37642857142857145 0.5203045685279187 0.025714285714285714 0.116751269035533
1 0.6292857142857143 0.4352791878172589 0.04357142857142857 0.0583756345177665
1 0.8257142857142857 0.2626903553299492 0.03357142857142857 0.048223350253807105
0 0.92 0.03934010152284264 0.008571428571428572 0.017766497461928935
0 0.8357142857142857 0.10025380710659898 0.0064285714285714285 0.017766497461928935
0 0.8285714285714286 0.1319796954314721 0.007857142857142858 0.021573604060913704
0 0.7078571428571429 0.22715736040609136 0.007142857142857143 0.01903553299492386
0 0.6871428571428572 0.25253807106598986 0.0064285714285714285 0.01903553299492386
0 0.7142857142857143 0.26015228426395937 0.007142857142857143 0.02284263959390863
1 0.8885714285714286 0.4517766497461929 0.10285714285714286 0.14593908629441624
1 0.7985714285714286 0.7144670050761421 0.10642857142857143 0.12690355329949238
1 0.8442857142857143 0.6941624365482234 0.09928571428571428 0.10406091370558376
1 0.8442857142857143 0.6370558375634517 0.09428571428571429 0.09771573604060914
1 0.8835714285714286 0.616751269035533 0.09357142857142857 0.09644670050761421
1 0.9385714285714286 0.8743654822335025 0.12285714285714286 0.2017766497461929
