1 0.7357142857142858 0.08476190476190476 0.04 0.058095238095238096
1 0.8614285714285714 0.4819047619047619 0.06785714285714285 0.10571428571428572
1 0.9678571428571429 0.47904761904761906 0.06357142857142857 0.1
1 0.48428571428571426 0.36095238095238097 0.039285714285714285 0.11238095238095239
1 0.11285714285714285 0.6761904761904762 0.10928571428571429 0.06761904761904762
1 0.12714285714285714 0.6038095238095238 0.10214285714285715 0.06571428571428571
1 0.15 0.5295238095238095 0.10857142857142857 0.07428571428571429
1 0.20642857142857143 0.8047619047619048 0.055714285714285716 0.12095238095238095
1 0.2664285714285714 0.7447619047619047 0.04928571428571429 0.16095238095238096
1 0.5378571428571428 0.2123809523809524 0.012857142857142857 0.02857142857142857
0 0.5378571428571428 0.20095238095238097 0.009285714285714286 0.02095238095238095
0 0.5192857142857142 0.3961904761904762 0.01 0.030476190476190476
1 0.47 0.22380952380952382 0.04928571428571429 0.12380952380952381
1 0.3385714285714286 0.1838095238095238 0.08071428571428571 0.04476190476190476
1 0.34285714285714286 0.3057142857142857 0.09357142857142857 0.035238095238095235
1 0.3364285714285714 0.26857142857142857 0.07571428571428572 0.045714285714285714
1 0.3414285714285714 0.35333333333333333 0.09142857142857143 0.04380952380952381
0 0.19714285714285715 0.15142857142857144 0.011428571428571429 0.0380952380952381
1 0.205 0.259047619047619 0.032857142857142856 0.01619047619047619
1 0.2 0.2857142857142857 0.027857142857142858 0.024761904761904763
0 0.985 0.33904761904761904 0.02142857142857143 0.03333333333333333
