1 0.3457142857142857 0.9066666666666666 0.14857142857142858 0.11047619047619048
1 0.3314285714285714 0.7780952380952381 0.14 0.09904761904761905
1 0.305 0.5019047619047619 0.13 0.08857142857142856
1 0.3007142857142857 0.41904761904761906 0.12785714285714286 0.08857142857142856
1 0.4142857142857143 0.11619047619047619 0.08571428571428572 0.11047619047619048
1 0.29 0.1761904761904762 0.11928571428571429 0.09238095238095238
1 0.5685714285714286 0.07428571428571429 0.11428571428571428 0.0838095238095238
1 0.59 0.2057142857142857 0.12071428571428572 0.09142857142857143
1 0.6328571428571429 0.4438095238095238 0.13214285714285715 0.09428571428571429
1 0.715 0.8171428571428572 0.1457142857142857 0.10761904761904761
0 0.23785714285714285 0.76 0.032857142857142856 0.02857142857142857
1 0.22714285714285715 0.7695238095238095 0.03571428571428571 0.10095238095238095
0 0.012142857142857143 0.19904761904761906 0.025 0.03142857142857143
