1 0.5014285714285714 0.7695238095238095 0.04214285714285714 0.22095238095238096
1 0.4835714285714286 0.47904761904761906 0.023571428571428573 0.07333333333333333
1 0.4735714285714286 0.3819047619047619 0.019285714285714285 0.06571428571428571
1 0.49142857142857144 0.5761904761904761 0.016428571428571428 0.03238095238095238
1 0.4564285714285714 0.31142857142857144 0.008571428571428572 0.011428571428571429
1 0.41214285714285714 0.23238095238095238 0.005 0.008571428571428572
1 0.3892857142857143 0.36095238095238097 0.011428571428571429 0.02095238095238095
1 0.42642857142857143 0.21333333333333335 0.007142857142857143 0.010476190476190476
1 0.44285714285714284 0.26857142857142857 0.014285714285714285 0.03333333333333333
1 0.3264285714285714 0.5295238095238095 0.0035714285714285713 0.015238095238095238
1 0.34785714285714286 0.46095238095238095 0.002857142857142857 0.01619047619047619
1 0.5114285714285715 0.5095238095238095 0.005714285714285714 0.015238095238095238
1 0.5928571428571429 0.31142857142857144 0.02857142857142857 0.04285714285714286
1 0.5985714285714285 0.2742857142857143 0.013571428571428571 0.009523809523809525
1 0.59 0.24952380952380954 0.005714285714285714 0.007619047619047619
1 0.67 0.3780952380952381 0.02 0.013333333333333334
1 0.6614285714285715 0.37047619047619046 0.016428571428571428 0.011428571428571429
1 0.6564285714285715 0.3647619047619048 0.014285714285714285 0.010476190476190476
1 0.6535714285714286 0.35714285714285715 0.013571428571428571 0.010476190476190476
1 0.6471428571428571 0.3485714285714286 0.017857142857142856 0.012380952380952381
1 0.6457142857142857 0.3419047619047619 0.016428571428571428 0.010476190476190476
1 0.6407142857142857 0.33904761904761904 0.017857142857142856 0.011428571428571429
1 0.64 0.3323809523809524 0.017142857142857144 0.011428571428571429
1 0.6342857142857142 0.32761904761904764 0.014285714285714285 0.010476190476190476
1 0.63 0.32095238095238093 0.017857142857142856 0.011428571428571429
1 0.6271428571428571 0.3161904761904762 0.014285714285714285 0.009523809523809525
1 0.6214285714285714 0.3028571428571429 0.015714285714285715 0.009523809523809525
1 0.6078571428571429 0.2838095238095238 0.013571428571428571 0.010476190476190476
1 0.595 0.259047619047619 0.01 0.006666666666666667
1 0.5985714285714285 0.26666666666666666 0.011428571428571429 0.007619047619047619
0 0.7071428571428572 0.3838095238095238 0.002857142857142857 0.011428571428571429
1 0.05785714285714286 0.5095238095238095 0.025 0.013333333333333334
1 0.06571428571428571 0.49523809523809526 0.024285714285714285 0.018095238095238095
1 0.07428571428571429 0.4866666666666667 0.022857142857142857 0.012380952380952381
1 0.08142857142857143 0.4695238095238095 0.03 0.017142857142857144
1 0.095 0.44476190476190475 0.03 0.015238095238095238
1 0.10571428571428572 0.43333333333333335 0.022857142857142857 0.012380952380952381
1 0.11571428571428571 0.4247619047619048 0.018571428571428572 0.009523809523809525
1 0.1792857142857143 0.4257142857142857 0.027142857142857142 0.017142857142857144
1 0.19071428571428573 0.4076190476190476 0.027142857142857142 0.015238095238095238
1 0.12285714285714286 0.4104761904761905 0.020714285714285713 0.011428571428571429
1 0.20214285714285715 0.3961904761904762 0.020714285714285713 0.015238095238095238
1 0.18357142857142858 0.4142857142857143 0.02642857142857143 0.011428571428571429
1 0.12285714285714286 0.35428571428571426 0.027142857142857142 0.010476190476190476
1 0.9271428571428572 0.8533333333333334 0.05714285714285714 0.03428571428571429
1 0.9078571428571428 0.819047619047619 0.05714285714285714 0.03142857142857143
1 0.8928571428571429 0.78 0.04928571428571429 0.022857142857142857
1 0.855 0.7304761904761905 0.05 0.024761904761904763
1 0.8714285714285714 0.7476190476190476 0.05857142857142857 0.035238095238095235
1 0.3171428571428571 0.29714285714285715 0.015 0.013333333333333334
1 0.35 0.2895238095238095 0.015 0.013333333333333334
1 0.3192857142857143 0.24761904761904763 0.0064285714285714285 0.008571428571428572
1 0.31 0.24857142857142858 0.0064285714285714285 0.006666666666666667
1 0.29714285714285715 0.1761904761904762 0.008571428571428572 0.0038095238095238095
1 0.2985714285714286 0.17904761904761904 0.009285714285714286 0.005714285714285714
1 0.3007142857142857 0.1819047619047619 0.009285714285714286 0.005714285714285714
1 0.3807142857142857 0.16666666666666666 0.007142857142857143 0.009523809523809525
1 0.3028571428571429 0.1180952380952381 0.0035714285714285713 0.005714285714285714
1 0.11357142857142857 0.24666666666666667 0.06857142857142857 0.025714285714285714
