1 0.7964285714285714 0.9752380952380952 0.025 0.049523809523809526
1 0.7992857142857143 0.9304761904761905 0.03428571428571429 0.04
1 0.7942857142857143 0.8933333333333333 0.03571428571428571 0.03619047619047619
1 0.8007142857142857 0.8238095238095238 0.04071428571428572 0.03333333333333333
1 0.7285714285714285 0.840952380952381 0.023571428571428573 0.04857142857142857
1 0.7114285714285714 0.8438095238095238 0.025 0.047619047619047616
1 0.6442857142857142 0.9438095238095238 0.02642857142857143 0.054285714285714284
1 0.6592857142857143 0.9152380952380952 0.009285714285714286 0.024761904761904763
0 0.66 0.9152380952380952 0.005 0.013333333333333334
1 0.61 0.9828571428571429 0.02 0.03333333333333333
1 0.675 0.8123809523809524 0.03571428571428571 0.029523809523809525
1 0.5871428571428572 0.8476190476190476 0.012857142857142857 0.023809523809523808
1 0.7707142857142857 0.7514285714285714 0.0064285714285714285 0.02
1 0.6764285714285714 0.72 0.019285714285714285 0.037142857142857144
1 0.695 0.7114285714285714 0.02214285714285714 0.04857142857142857
1 0.7357142857142858 0.6504761904761904 0.032857142857142856 0.018095238095238095
1 0.6671428571428571 0.6723809523809524 0.022857142857142857 0.04476190476190476
1 0.6685714285714286 0.6123809523809524 0.023571428571428573 0.045714285714285714
1 0.5707142857142857 0.6628571428571428 0.022857142857142857 0.049523809523809526
1 0.5435714285714286 0.6647619047619048 0.02214285714285714 0.049523809523809526
1 0.5807142857142857 0.6104761904761905 0.01 0.02095238095238095
0 0.58 0.6114285714285714 0.007142857142857143 0.011428571428571429
0 0.6407142857142857 0.4819047619047619 0.007142857142857143 0.008571428571428572
1 0.585 0.4819047619047619 0.03357142857142857 0.025714285714285714
1 0.6314285714285715 0.5257142857142857 0.022857142857142857 0.05047619047619047
1 0.6007142857142858 0.3923809523809524 0.019285714285714285 0.0419047619047619
1 0.5778571428571428 0.1761904761904762 0.032857142857142856 0.024761904761904763
0 0.585 0.19238095238095237 0.0064285714285714285 0.011428571428571429
1 0.5435714285714286 0.13142857142857142 0.023571428571428573 0.029523809523809525
1 0.545 0.1019047619047619 0.025 0.030476190476190476
1 0.515 0.11238095238095239 0.023571428571428573 0.040952380952380955
1 0.5 0.13428571428571429 0.011428571428571429 0.012380952380952381
0 0.5 0.13238095238095238 0.005714285714285714 0.008571428571428572
0 0.5607142857142857 0.014285714285714285 0.0064285714285714285 0.014285714285714285
0 0.5307142857142857 0.021904761904761906 0.02 0.04380952380952381
1 0.48714285714285716 0.08666666666666667 0.015 0.01619047619047619
0 0.4785714285714286 0.10571428571428572 0.005 0.015238095238095238
1 0.4735714285714286 0.12571428571428572 0.007142857142857143 0.01619047619047619
0 0.47285714285714286 0.12476190476190477 0.004285714285714286 0.010476190476190476
1 0.4878571428571429 0.17238095238095238 0.012857142857142857 0.017142857142857144
0 0.4878571428571429 0.17142857142857143 0.007857142857142858 0.011428571428571429
1 0.4685714285714286 0.2038095238095238 0.020714285714285713 0.040952380952380955
1 0.4857142857142857 0.27714285714285714 0.023571428571428573 0.04857142857142857
1 0.5092857142857142 0.3028571428571429 0.007142857142857143 0.018095238095238095
0 0.5092857142857142 0.3 0.005714285714285714 0.009523809523809525
1 0.4785714285714286 0.42095238095238097 0.012857142857142857 0.029523809523809525
1 0.4592857142857143 0.6009523809523809 0.035 0.03238095238095238
1 0.4657142857142857 0.6247619047619047 0.03428571428571429 0.030476190476190476
1 0.45571428571428574 0.68 0.023571428571428573 0.05142857142857143
1 0.47 0.7457142857142857 0.017142857142857144 0.04
1 0.47928571428571426 0.7866666666666666 0.02 0.04285714285714286
1 0.4928571428571429 0.8380952380952381 0.02214285714285714 0.047619047619047616
1 0.5071428571428571 0.9019047619047619 0.02142857142857143 0.05047619047619047
1 0.5264285714285715 0.9695238095238096 0.02142857142857143 0.049523809523809526
0 0.48142857142857143 0.9057142857142857 0.0064285714285714285 0.009523809523809525
0 0.4742857142857143 0.9628571428571429 0.007142857142857143 0.009523809523809525
1 0.4421428571428571 0.8095238095238095 0.0064285714285714285 0.017142857142857144
0 0.4421428571428571 0.8095238095238095 0.005 0.008571428571428572
0 0.4107142857142857 0.7352380952380952 0.004285714285714286 0.008571428571428572
0 0.36357142857142855 0.6666666666666666 0.0064285714285714285 0.007619047619047619
1 0.42 0.5104761904761905 0.010714285714285714 0.01619047619047619
1 0.40214285714285714 0.4704761904761905 0.005714285714285714 0.018095238095238095
1 0.41214285714285714 0.4780952380952381 0.017142857142857144 0.039047619047619046
1 0.4014285714285714 0.43238095238095237 0.019285714285714285 0.04380952380952381
1 0.37714285714285717 0.3361904761904762 0.02214285714285714 0.04380952380952381
1 0.3485714285714286 0.4095238095238095 0.007857142857142858 0.015238095238095238
1 0.32142857142857145 0.3923809523809524 0.015 0.007619047619047619
1 0.32571428571428573 0.38476190476190475 0.015714285714285715 0.011428571428571429
1 0.3271428571428571 0.3761904761904762 0.017142857142857144 0.009523809523809525
0 0.32285714285714284 0.3914285714285714 0.008571428571428572 0.006666666666666667
0 0.3271428571428571 0.38476190476190475 0.0064285714285714285 0.009523809523809525
0 0.3264285714285714 0.3761904761904762 0.0064285714285714285 0.007619047619047619
0 0.3264285714285714 0.35333333333333333 0.005714285714285714 0.008571428571428572
1 0.2735714285714286 0.3323809523809524 0.014285714285714285 0.01619047619047619
1 0.2757142857142857 0.32285714285714284 0.012142857142857143 0.014285714285714285
1 0.2814285714285714 0.3171428571428571 0.014285714285714285 0.011428571428571429
1 0.2835714285714286 0.30952380952380953 0.012142857142857143 0.011428571428571429
1 0.2892857142857143 0.29619047619047617 0.009285714285714286 0.009523809523809525
1 0.33285714285714285 0.20476190476190476 0.015 0.024761904761904763
1 0.3485714285714286 0.18571428571428572 0.015714285714285715 0.022857142857142857
0 0.4014285714285714 0.14476190476190476 0.005714285714285714 0.010476190476190476
1 0.3657142857142857 0.12476190476190477 0.012857142857142857 0.01619047619047619
0 0.36428571428571427 0.12285714285714286 0.0064285714285714285 0.008571428571428572
1 0.4085714285714286 0.11904761904761904 0.010714285714285714 0.022857142857142857
0 0.40714285714285714 0.11714285714285715 0.005 0.012380952380952381
1 0.425 0.02761904761904762 0.020714285714285713 0.05523809523809524
0 0.30142857142857143 0.006666666666666667 0.004285714285714286 0.011428571428571429
1 0.1992857142857143 0.5619047619047619 0.02857142857142857 0.047619047619047616
1 0.04 0.8828571428571429 0.02642857142857143 0.0419047619047619
1 0.01 0.9276190476190476 0.020714285714285713 0.04380952380952381
1 0.09714285714285714 0.7571428571428571 0.022857142857142857 0.03238095238095238
1 0.1757142857142857 0.5142857142857142 0.017142857142857144 0.02666666666666667
