1 0.265 0.379047619047619 0.21785714285714286 0.1742857142857143
1 0.5 0.04 0.029285714285714286 0.08095238095238096
0 0.05928571428571429 0.049523809523809526 0.011428571428571429 0.030476190476190476
0 0.07214285714285715 0.07904761904761905 0.020714285714285713 0.03428571428571429
0 0.10357142857142858 0.06476190476190476 0.016428571428571428 0.04
0 0.255 0.1295238095238095 0.016428571428571428 0.025714285714285714
0 0.1757142857142857 0.6295238095238095 0.013571428571428571 0.02857142857142857
0 0.165 0.6304761904761905 0.014285714285714285 0.039047619047619046
0 0.19071428571428573 0.6866666666666666 0.022857142857142857 0.0380952380952381
0 0.28 0.6952380952380952 0.015714285714285715 0.022857142857142857
0 0.2671428571428571 0.6980952380952381 0.02214285714285714 0.03238095238095238
0 0.9207142857142857 0.22 0.027142857142857142 0.0380952380952381
1 0.1657142857142857 0.6304761904761905 0.047857142857142855 0.035238095238095235
1 0.26857142857142857 0.6952380952380952 0.04928571428571429 0.02666666666666667
1 0.1957142857142857 0.6847619047619048 0.04928571428571429 0.025714285714285714
1 0.34214285714285714 0.5819047619047619 0.11214285714285714 0.0761904761904762
1 0.38357142857142856 0.6685714285714286 0.10571428571428572 0.07238095238095238
1 0.55 0.6828571428571428 0.09285714285714286 0.06666666666666667
1 0.6671428571428571 0.2923809523809524 0.019285714285714285 0.06
1 0.66 0.2019047619047619 0.037142857142857144 0.02761904761904762
1 0.7914285714285715 0.3638095238095238 0.11214285714285714 0.06857142857142857
1 0.975 0.38857142857142857 0.04928571428571429 0.06
