1 0.8815240083507306 0.4582560296846011 0.049060542797494784 0.05380333951762523
0 0.7667014613778705 0.37291280148423006 0.006784968684759917 0.016697588126159554
1 0.15292275574112735 0.852504638218924 0.054279749478079335 0.11224489795918367
1 0.3079331941544885 0.5612244897959183 0.033402922755741124 0.08998144712430427
1 0.29018789144050106 0.47309833024118736 0.03288100208768267 0.08070500927643785
1 0.19989561586638832 0.5046382189239332 0.059498956158663886 0.05844155844155844
1 0.2651356993736952 0.32838589981447125 0.030793319415448852 0.075139146567718
0 0.2244258872651357 0.3385899814471243 0.010960334029227558 0.025974025974025976
0 0.21033402922755742 0.15213358070500926 0.024530271398747392 0.06029684601113173
