1 0.2915 0.576 0.0055 0.007333333333333333
1 0.297 0.5653333333333334 0.014 0.012
1 0.313 0.5646666666666667 0.0135 0.010666666666666666
1 0.324 0.5666666666666667 0.007 0.004
1 0.111 0.5986666666666667 0.0165 0.008666666666666666
1 0.0925 0.5986666666666667 0.0145 0.006666666666666667
1 0.104 0.598 0.015 0.006
0 0.0655 0.6166666666666667 0.003 0.009333333333333334
0 0.0265 0.646 0.004 0.009333333333333334
0 0.046 0.634 0.004 0.01
0 0.128 0.618 0.002 0.008666666666666666
0 0.13 0.6173333333333333 0.002 0.008666666666666666
0 0.288 0.6573333333333333 0.0035 0.013333333333333334
0 0.2415 0.634 0.0025 0.01
0 0.2435 0.654 0.0035 0.006666666666666667
0 0.2545 0.6533333333333333 0.004 0.006
0 0.345 0.6926666666666667 0.0055 0.012666666666666666
0 0.3435 0.706 0.0085 0.018
0 0.32 0.6926666666666667 0.0045 0.016666666666666666
0 0.3155 0.6906666666666667 0.0035 0.012666666666666666
1 0.315 0.698 0.0075 0.014666666666666666
0 0.2885 0.7113333333333334 0.0045 0.017333333333333333
0 0.28 0.7066666666666667 0.006 0.016
0 0.262 0.7093333333333334 0.0045 0.017333333333333333
0 0.2625 0.7153333333333334 0.007 0.02
0 0.293 0.698 0.0045 0.017333333333333333
1 0.282 0.6393333333333333 0.0045 0.01
0 0.283 0.6446666666666667 0.0025 0.008666666666666666
1 0.352 0.6393333333333333 0.003 0.008666666666666666
1 0.358 0.6446666666666667 0.0105 0.012666666666666666
1 0.372 0.6366666666666667 0.01 0.011333333333333334
1 0.395 0.6446666666666667 0.011 0.014
1 0.3995 0.6513333333333333 0.0115 0.014
1 0.404 0.658 0.0125 0.012666666666666666
1 0.4055 0.6666666666666666 0.0115 0.016
1 0.4145 0.674 0.0145 0.02266666666666667
1 0.4205 0.69 0.0165 0.016
1 0.427 0.702 0.018 0.020666666666666667
1 0.448 0.7 0.0145 0.018666666666666668
1 0.457 0.7433333333333333 0.025 0.028666666666666667
1 0.3655 0.6766666666666666 0.013 0.018
1 0.3685 0.688 0.0145 0.019333333333333334
1 0.3725 0.7033333333333334 0.017 0.024
1 0.379 0.7166666666666667 0.026 0.020666666666666667
1 0.3835 0.7333333333333333 0.0175 0.029333333333333333
1 0.386 0.748 0.019 0.03266666666666666
1 0.391 0.7693333333333333 0.0205 0.036
1 0.4015 0.8026666666666666 0.0285 0.04
1 0.41 0.8406666666666667 0.0285 0.04666666666666667
0 0.4395 0.8053333333333333 0.0075 0.028
0 0.447 0.7846666666666666 0.003 0.012
0 0.451 0.7813333333333333 0.005 0.024
1 0.478 0.7986666666666666 0.029 0.03266666666666666
1 0.501 0.8353333333333334 0.036 0.04
1 0.525 0.884 0.0425 0.052
1 0.4235 0.89 0.033 0.058666666666666666
1 0.442 0.952 0.0435 0.06533333333333333
1 0.56 0.9366666666666666 0.0505 0.072
1 0.598 0.974 0.0485 0.051333333333333335
1 0.6875 0.8586666666666667 0.072 0.042
1 0.7215 0.674 0.0325 0.014666666666666666
1 0.7035 0.6666666666666666 0.028 0.018666666666666668
0 0.623 0.7 0.006 0.014
0 0.6705 0.6833333333333333 0.0045 0.017333333333333333
0 0.607 0.6393333333333333 0.002 0.008666666666666666
0 0.6095 0.6366666666666667 0.001 0.007333333333333333
0 0.6105 0.6353333333333333 0.002 0.010666666666666666
1 0.5605 0.6173333333333333 0.013 0.01
0 0.566 0.636 0.0025 0.008666666666666666
0 0.571 0.6506666666666666 0.0025 0.01
0 0.567 0.648 0.002 0.008
0 0.584 0.6526666666666666 0.005 0.008666666666666666
1 0.6215 0.6453333333333333 0.008 0.007333333333333333
0 0.6215 0.6413333333333333 0.0055 0.011333333333333334
0 0.663 0.6513333333333333 0.0025 0.012666666666666666
0 0.6465 0.6506666666666666 0.002 0.011333333333333334
0 0.6495 0.6506666666666666 0.004 0.012666666666666666
0 0.772 0.744 0.006 0.021333333333333333
0 0.7735 0.7393333333333333 0.0025 0.011333333333333334
0 0.7765 0.744 0.005 0.020666666666666667
0 0.756 0.6713333333333333 0.004 0.007333333333333333
0 0.729 0.6826666666666666 0.0045 0.015333333333333332
0 0.723 0.6626666666666666 0.0035 0.013333333333333334
0 0.7175 0.6566666666666666 0.0025 0.008666666666666666
0 0.714 0.6546666666666666 0.003 0.014
0 0.385 0.7026666666666667 0.005 0.019333333333333334
1 0.3545 0.6246666666666667 0.0095 0.014
1 0.366 0.6193333333333333 0.01 0.010666666666666666
1 0.351 0.614 0.0115 0.014
1 0.385 0.6246666666666667 0.016 0.01
1 0.389 0.6326666666666667 0.012 0.008666666666666666
1 0.3795 0.616 0.0075 0.011333333333333334
1 0.3725 0.6033333333333334 0.011 0.012666666666666666
1 0.3505 0.5673333333333334 0.0075 0.006
1 0.3605 0.5766666666666667 0.005 0.008666666666666666
1 0.3705 0.598 0.0075 0.008
1 0.3455 0.592 0.0075 0.008
1 0.368 0.5946666666666667 0.007 0.007333333333333333
1 0.368 0.5926666666666667 0.007 0.008
1 0.365 0.5893333333333334 0.006 0.007333333333333333
1 0.341 0.5873333333333334 0.0125 0.009333333333333334
1 0.34 0.5786666666666667 0.0055 0.006666666666666667
1 0.3385 0.574 0.007 0.007333333333333333
1 0.3525 0.5826666666666667 0.0055 0.007333333333333333
1 0.3545 0.5586666666666666 0.0085 0.004
1 0.3785 0.5706666666666667 0.01 0.006666666666666667
1 0.366 0.566 0.0075 0.004666666666666667
1 0.3725 0.5566666666666666 0.006 0.006
0 0.054 0.6946666666666667 0.004 0.014666666666666666
0 0.059 0.6926666666666667 0.004 0.015333333333333332
0 0.0495 0.6913333333333334 0.0045 0.018
0 0.0525 0.6893333333333334 0.005 0.023333333333333334
1 0.098 0.61 0.0195 0.010666666666666666
1 0.0935 0.608 0.019 0.009333333333333334
1 0.0745 0.6153333333333333 0.011 0.01
1 0.057 0.6166666666666667 0.011 0.013333333333333334
1 0.0855 0.604 0.0175 0.007333333333333333
1 0.0795 0.606 0.0165 0.009333333333333334
1 0.075 0.602 0.0195 0.009333333333333334
1 0.0635 0.604 0.02 0.008666666666666666
1 0.056 0.6013333333333334 0.0245 0.011333333333333334
1 0.049 0.6 0.0205 0.009333333333333334
1 0.0405 0.6 0.014 0.012666666666666666
1 0.7775 0.668 0.0135 0.012
1 0.7825 0.6713333333333333 0.016 0.009333333333333334
0 0.74 0.632 0.004 0.009333333333333334
0 0.743 0.6353333333333333 0.003 0.006666666666666667
0 0.7465 0.6313333333333333 0.003 0.010666666666666666
0 0.7355 0.6333333333333333 0.004 0.010666666666666666
0 0.7385 0.6266666666666667 0.0045 0.014666666666666666
1 0.561 0.5846666666666667 0.011 0.010666666666666666
1 0.5835 0.6246666666666667 0.007 0.008666666666666666
